%YAML 1.1
%TAG !u! tag:unity3d.com,2011:
--- !u!114 &11400000
MonoBehaviour:
  m_ObjectHideFlags: 0
  m_CorrespondingSourceObject: {fileID: 0}
  m_PrefabInstance: {fileID: 0}
  m_PrefabAsset: {fileID: 0}
  m_GameObject: {fileID: 0}
  m_Enabled: 1
  m_EditorHideFlags: 0
  m_Script: {fileID: 11500000, guid: 05c50b8a24558c04fb29c890553074fd, type: 3}
  m_Name: HandDryer
  m_EditorClassIdentifier: 
  presetName: HandDryer
  classes:
  - {fileID: 11400000, guid: 193929b4f21af6a41846faf32c2180b2, type: 2}
  prefab: {fileID: 3764478336281453760, guid: c28ff0710b164034ea31129fb7f98834, type: 3}
  allowStaticBatching: 0
  spawnRange: 2
  integratedInteractables:
  - preset: {fileID: 11400000, guid: 673ce6e33ed76a641bcd555d2c7d03d4, type: 2}
    pairToController: 0
    belongsTo: 0
  universalDesignStyle: 1
  designStyles: []
  inheritColouringFromDecor: 1
  shareColours: 0
  inheritGrubFromDecor: 1
  variations:
  - name: 
    main: 13
    colour1: 15
    colour2: 15
    colour3: 15
  furnitureGroup: 0
  groupID: 0
  concrete: 0
  plaster: 0
  wood: 0
  carpet: 0
  tile: 0
  metal: 1
  glass: 0
  fabric: 0
  minimumRoomSize: 4
  allowedInOpenPlan: 0
  onlyAllowInFollowing: 0
  allowedInAddressesOfType: []
  banInFollowing: 1
  bannedInAddressesOfType:
  - {fileID: 11400000, guid: 6397ff021e7132540b7b2201177cf763, type: 2}
  - {fileID: 11400000, guid: 97a2fd96e033f634690cb4475c9f7684, type: 2}
  OnlyAllowInBuildings: 0
  allowedInBuildings: []
  banFromBuildings: 0
  notAllowedInBuildings: []
  OnlyAllowInDistricts: 0
  allowedInDistricts: []
  banFromDistricts: 0
  notAllowedInDistricts: []
  requiresGenderedInhabitants: 0
  enableIfGenderPresent: 
  allowedRoomFilters:
  - {fileID: 11400000, guid: 0bc35275a2540e34b9436ed8d1ffc704, type: 2}
  - {fileID: 11400000, guid: b03b1754c3f762b42ad91c6b782be469, type: 2}
  minimumWealth: 0
  usePersonalityWeighting: 0
  modernity: 1
  cleanness: 10
  loudness: 3
  emotive: 3
  subObjects:
  - preset: {fileID: 11400000, guid: 58d35ae0305e7d541af98472310ee11c, type: 2}
    parent: 
    localPos: {x: -0.542, y: 0, z: -0.542}
    localRot: {x: -0, y: 0, z: 0}
    belongsTo: 0
    security: 0
  - preset: {fileID: 11400000, guid: 58d35ae0305e7d541af98472310ee11c, type: 2}
    parent: 
    localPos: {x: 0.505, y: 0, z: -0.542}
    localRot: {x: -0, y: 339.43814, z: 0}
    belongsTo: 0
    security: 0
  - preset: {fileID: 11400000, guid: 94ecd56f625166b449047f5eee385c68, type: 2}
    parent: 
    localPos: {x: -0.18, y: 0, z: -0.604}
    localRot: {x: -0, y: 5.107897, z: -0}
    belongsTo: 0
    security: 0
  testForModifiers: 0
  forcePublicIllegal: 0
  hidingEnterTransition: {fileID: 0}
  hidingExitTransition: {fileID: 0}
  hidingEnterTransition2: {fileID: 0}
  hidingExitTransition2: {fileID: 0}
  map: {fileID: 0}
  drawUnderWalls: 0
  ignoreDirection: 0
  fingerprintsEnabled: 1
  printsSource: 6
  fingerprintDensity: 1
  alterAreaLighting: 0
  possibleColours: []
  lightOperation: 0
  lightAmount: 0.12
  brightnessModifier: 10
  purchasable: 1
  cost: 80
  decorClass: 3
  staticImage: {fileID: 21300000, guid: c3e56213da251294ea8db691b115df5d, type: 3}
  imagePos: {x: 0, y: 0, z: 0}
  imageRot: {x: 0, y: 0, z: 0}
  imageScale: 1
  imagePrefabOverride: {fileID: 0}
  isJobBoard: 0
  isWorkPosition: 0
  isPlant: 0
  isArt: 0
  isSecurityCamera: 0
  artOrientation: 2
  createSelfEmployed: {fileID: 0}
  workPositionID: 0
  spawnObjectOnChance: 1
  spawnObjectsOnPlacement: []
