%YAML 1.1
%TAG !u! tag:unity3d.com,2011:
--- !u!114 &11400000
MonoBehaviour:
  m_ObjectHideFlags: 0
  m_CorrespondingSourceObject: {fileID: 0}
  m_PrefabInstance: {fileID: 0}
  m_PrefabAsset: {fileID: 0}
  m_GameObject: {fileID: 0}
  m_Enabled: 1
  m_EditorHideFlags: 0
  m_Script: {fileID: 11500000, guid: 05c50b8a24558c04fb29c890553074fd, type: 3}
  m_Name: VintageBath
  m_EditorClassIdentifier: 
  presetName: VintageBath
  classes:
  - {fileID: 11400000, guid: e0abe5b54a48b4c45bb196ab472f124d, type: 2}
  prefab: {fileID: 4525762185534883759, guid: 9230bfb60486f4345914583fd33cd29c, type: 3}
  allowStaticBatching: 0
  spawnRange: 3
  integratedInteractables:
  - preset: {fileID: 11400000, guid: a48d223c243580646aa267657c722359, type: 2}
    pairToController: 0
    belongsTo: 0
  universalDesignStyle: 0
  designStyles:
  - {fileID: 11400000, guid: e02dfc783e1042e48b87ceb703c8dc23, type: 2}
  - {fileID: 11400000, guid: fb5884c44b9167f4982a3fe7b4a798b4, type: 2}
  - {fileID: 11400000, guid: f7900e58d7b990840b8413d0629275ee, type: 2}
  - {fileID: 11400000, guid: e72ea046ed0da1e4fa8dc37cf23d4962, type: 2}
  inheritColouringFromDecor: 1
  shareColours: 0
  inheritGrubFromDecor: 1
  variations:
  - name: Neutral
    main: 13
    colour1: 15
    colour2: 15
    colour3: 15
  furnitureGroup: 0
  groupID: 0
  concrete: 0
  plaster: 0
  wood: 0
  carpet: 0
  tile: 1
  metal: 0
  glass: 0
  fabric: 0
  minimumRoomSize: 4
  allowedInOpenPlan: 1
  onlyAllowInFollowing: 0
  allowedInAddressesOfType: []
  banInFollowing: 0
  bannedInAddressesOfType: []
  OnlyAllowInBuildings: 0
  allowedInBuildings: []
  banFromBuildings: 0
  notAllowedInBuildings: []
  OnlyAllowInDistricts: 0
  allowedInDistricts: []
  banFromDistricts: 0
  notAllowedInDistricts: []
  requiresGenderedInhabitants: 0
  enableIfGenderPresent: 
  allowedRoomFilters:
  - {fileID: 11400000, guid: b03b1754c3f762b42ad91c6b782be469, type: 2}
  minimumWealth: 0
  usePersonalityWeighting: 1
  modernity: 2
  cleanness: 9
  loudness: 2
  emotive: 8
  subObjects:
  - preset: {fileID: 11400000, guid: ca30b01ca545abf4983e60b0ddddea56, type: 2}
    parent: 
    localPos: {x: -1.233, y: 0.703, z: -0.4}
    localRot: {x: -0, y: 0, z: 0}
    belongsTo: 0
    security: 0
  - preset: {fileID: 11400000, guid: ca30b01ca545abf4983e60b0ddddea56, type: 2}
    parent: 
    localPos: {x: -0.325, y: 0.703, z: -0.4}
    localRot: {x: -0, y: 0, z: 0}
    belongsTo: 0
    security: 0
  - preset: {fileID: 11400000, guid: ca30b01ca545abf4983e60b0ddddea56, type: 2}
    parent: 
    localPos: {x: -1.499, y: 0, z: 0.287}
    localRot: {x: -0, y: 331.4646, z: 0}
    belongsTo: 0
    security: 0
  testForModifiers: 2
  forcePublicIllegal: 0
  hidingEnterTransition: {fileID: 11400000, guid: 44c2cd00021f2e44e8b72f6bbe36bc9e,
    type: 2}
  hidingExitTransition: {fileID: 11400000, guid: 4a43039a027241e40967c7788ca87f8d,
    type: 2}
  hidingEnterTransition2: {fileID: 0}
  hidingExitTransition2: {fileID: 0}
  map: {fileID: 2800000, guid: 47a0c53c2cb8de04388fd74b2a851623, type: 3}
  drawUnderWalls: 0
  ignoreDirection: 0
  fingerprintsEnabled: 1
  printsSource: 1
  fingerprintDensity: 1
  alterAreaLighting: 0
  possibleColours: []
  lightOperation: 0
  lightAmount: 0.12
  brightnessModifier: 10
  purchasable: 1
  cost: 125
  decorClass: 6
  staticImage: {fileID: 21300000, guid: fa9455ad75ce7874b9f1e579acb60de6, type: 3}
  imagePos: {x: 0.78, y: 0, z: 0}
  imageRot: {x: -0, y: 0, z: 0}
  imageScale: 1
  imagePrefabOverride: {fileID: 0}
  isJobBoard: 0
  isWorkPosition: 0
  isPlant: 0
  isArt: 0
  isSecurityCamera: 0
  artOrientation: 0
  createSelfEmployed: {fileID: 0}
  workPositionID: 0
  spawnObjectOnChance: 1
  spawnObjectsOnPlacement: []
