%YAML 1.1
%TAG !u! tag:unity3d.com,2011:
--- !u!114 &11400000
MonoBehaviour:
  m_ObjectHideFlags: 0
  m_CorrespondingSourceObject: {fileID: 0}
  m_PrefabInstance: {fileID: 0}
  m_PrefabAsset: {fileID: 0}
  m_GameObject: {fileID: 0}
  m_Enabled: 1
  m_EditorHideFlags: 0
  m_Script: {fileID: 11500000, guid: 05c50b8a24558c04fb29c890553074fd, type: 3}
  m_Name: BrownArmchair
  m_EditorClassIdentifier: 
  presetName: BrownArmchair
  classes:
  - {fileID: 11400000, guid: c09ee3e0969fbca4997435d718e65be7, type: 2}
  - {fileID: 11400000, guid: 7a517de314d49bc4286b04bafd855f8c, type: 2}
  - {fileID: 11400000, guid: 5080a381627402d43a13d1ceb27776d9, type: 2}
  prefab: {fileID: 3830432257273990877, guid: f2fc5f0e44844e140a4b74be48c72de5, type: 3}
  allowStaticBatching: 0
  spawnRange: 5
  integratedInteractables:
  - preset: {fileID: 11400000, guid: 084cdca22eb46bb4d9f640098921565d, type: 2}
    pairToController: 0
    belongsTo: 0
  universalDesignStyle: 0
  designStyles:
  - {fileID: 11400000, guid: f7900e58d7b990840b8413d0629275ee, type: 2}
  - {fileID: 11400000, guid: 874a29f205e656345b6bf7e398fd3d8d, type: 2}
  inheritColouringFromDecor: 0
  shareColours: 0
  inheritGrubFromDecor: 1
  variations: []
  furnitureGroup: 1
  groupID: 2
  concrete: 0
  plaster: 0
  wood: 0
  carpet: 0
  tile: 0
  metal: 0
  glass: 0
  fabric: 1
  minimumRoomSize: 4
  allowedInOpenPlan: 0
  onlyAllowInFollowing: 0
  allowedInAddressesOfType: []
  banInFollowing: 0
  bannedInAddressesOfType: []
  OnlyAllowInBuildings: 0
  allowedInBuildings: []
  banFromBuildings: 0
  notAllowedInBuildings: []
  OnlyAllowInDistricts: 0
  allowedInDistricts: []
  banFromDistricts: 0
  notAllowedInDistricts: []
  requiresGenderedInhabitants: 0
  enableIfGenderPresent: 
  allowedRoomFilters:
  - {fileID: 11400000, guid: f37d2edb5f16b2e4fb13c4a52ac4b0d4, type: 2}
  - {fileID: 11400000, guid: 850bbb143e1524447971d3f22b5108ca, type: 2}
  - {fileID: 11400000, guid: 1ae06a672d6e9d243841cbf18341df81, type: 2}
  - {fileID: 11400000, guid: 17f17d6f2e3a36948b48301445bdc473, type: 2}
  - {fileID: 11400000, guid: 770ee5c75af9aa1498dff6688591ec50, type: 2}
  minimumWealth: 0
  usePersonalityWeighting: 1
  modernity: 1
  cleanness: 2
  loudness: 3
  emotive: 7
  subObjects:
  - preset: {fileID: 11400000, guid: f9ded81ffd363b242aa197b623e8228e, type: 2}
    parent: 
    localPos: {x: 0.002, y: 0.611, z: -0.078}
    localRot: {x: 343.96463, y: 0, z: 0}
    belongsTo: 0
    security: 0
  - preset: {fileID: 11400000, guid: 94ecd56f625166b449047f5eee385c68, type: 2}
    parent: 
    localPos: {x: -0.55, y: 0.745, z: 0.379}
    localRot: {x: -0, y: 356.6042, z: 0}
    belongsTo: 0
    security: 0
  - preset: {fileID: 11400000, guid: 94ecd56f625166b449047f5eee385c68, type: 2}
    parent: 
    localPos: {x: 0.571, y: 0.745, z: 0.379}
    localRot: {x: -0, y: 21.285261, z: -0}
    belongsTo: 0
    security: 0
  - preset: {fileID: 11400000, guid: 94ecd56f625166b449047f5eee385c68, type: 2}
    parent: 
    localPos: {x: 0.644, y: 0, z: 0.646}
    localRot: {x: -0, y: 32.19442, z: -0}
    belongsTo: 0
    security: 0
  - preset: {fileID: 11400000, guid: 94ecd56f625166b449047f5eee385c68, type: 2}
    parent: 
    localPos: {x: -0.696, y: 0, z: 0.648}
    localRot: {x: -0, y: 345.3539, z: 0}
    belongsTo: 0
    security: 0
  testForModifiers: 0
  forcePublicIllegal: 0
  hidingEnterTransition: {fileID: 0}
  hidingExitTransition: {fileID: 0}
  hidingEnterTransition2: {fileID: 0}
  hidingExitTransition2: {fileID: 0}
  map: {fileID: 2800000, guid: 59eb673415f3b6b4c8c11b00bc8d6644, type: 3}
  drawUnderWalls: 0
  ignoreDirection: 0
  fingerprintsEnabled: 1
  printsSource: 1
  fingerprintDensity: 1
  alterAreaLighting: 0
  possibleColours: []
  lightOperation: 0
  lightAmount: 0.12
  brightnessModifier: 10
  purchasable: 1
  cost: 200
  decorClass: 0
  staticImage: {fileID: 21300000, guid: dc86be497fa15774eb4df1c656c97ede, type: 3}
  imagePos: {x: 0, y: 0, z: 0}
  imageRot: {x: 0, y: 0, z: 0}
  imageScale: 1
  imagePrefabOverride: {fileID: 0}
  isJobBoard: 0
  isWorkPosition: 0
  isPlant: 0
  isArt: 0
  isSecurityCamera: 0
  artOrientation: 0
  createSelfEmployed: {fileID: 0}
  workPositionID: 0
  spawnObjectOnChance: 1
  spawnObjectsOnPlacement: []
