%YAML 1.1
%TAG !u! tag:unity3d.com,2011:
--- !u!114 &11400000
MonoBehaviour:
  m_ObjectHideFlags: 0
  m_CorrespondingSourceObject: {fileID: 0}
  m_PrefabInstance: {fileID: 0}
  m_PrefabAsset: {fileID: 0}
  m_GameObject: {fileID: 0}
  m_Enabled: 1
  m_EditorHideFlags: 0
  m_Script: {fileID: 11500000, guid: 05c50b8a24558c04fb29c890553074fd, type: 3}
  m_Name: CubistSofa
  m_EditorClassIdentifier: 
  presetName: CubistSofa
  classes:
  - {fileID: 11400000, guid: 0fcbecaf0609a314b8d05df3ac44d9d7, type: 2}
  - {fileID: 11400000, guid: c75fb4ae93baa9f488daee4e6d47b191, type: 2}
  prefab: {fileID: 8061406838085554239, guid: d7ff3b70e84d17640961527540fb1cf0, type: 3}
  allowStaticBatching: 0
  spawnRange: 5
  integratedInteractables:
  - preset: {fileID: 11400000, guid: 084cdca22eb46bb4d9f640098921565d, type: 2}
    pairToController: 0
    belongsTo: 0
  - preset: {fileID: 11400000, guid: 084cdca22eb46bb4d9f640098921565d, type: 2}
    pairToController: 1
    belongsTo: 0
  universalDesignStyle: 0
  designStyles:
  - {fileID: 11400000, guid: e72ea046ed0da1e4fa8dc37cf23d4962, type: 2}
  inheritColouringFromDecor: 1
  shareColours: 1
  inheritGrubFromDecor: 1
  variations:
  - name: 
    main: 15
    colour1: 16
    colour2: 15
    colour3: 15
  furnitureGroup: 1
  groupID: 5
  concrete: 0
  plaster: 0
  wood: 0
  carpet: 0
  tile: 0
  metal: 0
  glass: 0
  fabric: 1
  minimumRoomSize: 4
  allowedInOpenPlan: 0
  onlyAllowInFollowing: 0
  allowedInAddressesOfType: []
  banInFollowing: 0
  bannedInAddressesOfType: []
  OnlyAllowInBuildings: 0
  allowedInBuildings: []
  banFromBuildings: 0
  notAllowedInBuildings: []
  OnlyAllowInDistricts: 0
  allowedInDistricts: []
  banFromDistricts: 0
  notAllowedInDistricts: []
  requiresGenderedInhabitants: 0
  enableIfGenderPresent: 
  allowedRoomFilters:
  - {fileID: 11400000, guid: 480874ff50736bf4b8f7af0e7a1ce5f1, type: 2}
  - {fileID: 11400000, guid: 785fce3774cdb2f419c1f33450437410, type: 2}
  - {fileID: 11400000, guid: 850bbb143e1524447971d3f22b5108ca, type: 2}
  - {fileID: 11400000, guid: 2b658dceab15cb5409a5f04ea7340fa3, type: 2}
  - {fileID: 11400000, guid: 1ae06a672d6e9d243841cbf18341df81, type: 2}
  - {fileID: 11400000, guid: ff557ac56418edd48b07775301891788, type: 2}
  - {fileID: 11400000, guid: 17f17d6f2e3a36948b48301445bdc473, type: 2}
  - {fileID: 11400000, guid: 770ee5c75af9aa1498dff6688591ec50, type: 2}
  minimumWealth: 0.65
  usePersonalityWeighting: 1
  modernity: 10
  cleanness: 5
  loudness: 7
  emotive: 7
  subObjects:
  - preset: {fileID: 11400000, guid: 94ecd56f625166b449047f5eee385c68, type: 2}
    parent: 
    localPos: {x: 0.411, y: 0.03, z: 0.727}
    localRot: {x: -0, y: 0, z: 0}
    belongsTo: 0
    security: 0
  - preset: {fileID: 11400000, guid: 94ecd56f625166b449047f5eee385c68, type: 2}
    parent: 
    localPos: {x: -0.21299961, y: 0.03, z: 0.7030009}
    localRot: {x: -0, y: 351.36935, z: 0}
    belongsTo: 0
    security: 0
  - preset: {fileID: 11400000, guid: 94ecd56f625166b449047f5eee385c68, type: 2}
    parent: 
    localPos: {x: -1.6499996, y: 0.03, z: 0.7350009}
    localRot: {x: -0, y: 19.746851, z: 0}
    belongsTo: 0
    security: 0
  - preset: {fileID: 11400000, guid: 94ecd56f625166b449047f5eee385c68, type: 2}
    parent: 
    localPos: {x: -2.318, y: 0.03, z: 0.59}
    localRot: {x: -0, y: 335.2525, z: 0}
    belongsTo: 0
    security: 0
  - preset: {fileID: 11400000, guid: f9ded81ffd363b242aa197b623e8228e, type: 2}
    parent: 
    localPos: {x: -1.764, y: 0.58599997, z: -0.113995604}
    localRot: {x: 348.64447, y: 0, z: 0}
    belongsTo: 0
    security: 0
  - preset: {fileID: 11400000, guid: f9ded81ffd363b242aa197b623e8228e, type: 2}
    parent: 
    localPos: {x: 0.018, y: 0.596, z: -0.09}
    localRot: {x: 348.64447, y: 0, z: 0}
    belongsTo: 0
    security: 0
  - preset: {fileID: 11400000, guid: 94ecd56f625166b449047f5eee385c68, type: 2}
    parent: 
    localPos: {x: -2.234, y: 0.6, z: 0.116}
    localRot: {x: -0, y: 56.390755, z: 0}
    belongsTo: 0
    security: 0
  - preset: {fileID: 11400000, guid: 94ecd56f625166b449047f5eee385c68, type: 2}
    parent: 
    localPos: {x: -0.81, y: 0.615, z: 0.016}
    localRot: {x: -0, y: 340.09137, z: 0}
    belongsTo: 0
    security: 0
  testForModifiers: 0
  forcePublicIllegal: 0
  hidingEnterTransition: {fileID: 0}
  hidingExitTransition: {fileID: 0}
  hidingEnterTransition2: {fileID: 0}
  hidingExitTransition2: {fileID: 0}
  map: {fileID: 2800000, guid: 47a0c53c2cb8de04388fd74b2a851623, type: 3}
  drawUnderWalls: 0
  ignoreDirection: 0
  fingerprintsEnabled: 1
  printsSource: 1
  fingerprintDensity: 1
  alterAreaLighting: 0
  possibleColours: []
  lightOperation: 0
  lightAmount: 0.12
  brightnessModifier: 10
  purchasable: 1
  cost: 1050
  decorClass: 0
  staticImage: {fileID: 21300000, guid: 0d92feca262e14c4489a2bb48c7c1cdc, type: 3}
  imagePos: {x: 0, y: 0, z: 0}
  imageRot: {x: 0, y: 0, z: 0}
  imageScale: 1
  imagePrefabOverride: {fileID: 0}
  isJobBoard: 0
  isWorkPosition: 0
  isPlant: 0
  isArt: 0
  isSecurityCamera: 0
  artOrientation: 0
  createSelfEmployed: {fileID: 0}
  workPositionID: 0
  spawnObjectOnChance: 1
  spawnObjectsOnPlacement: []
