%YAML 1.1
%TAG !u! tag:unity3d.com,2011:
--- !u!114 &11400000
MonoBehaviour:
  m_ObjectHideFlags: 0
  m_CorrespondingSourceObject: {fileID: 0}
  m_PrefabInstance: {fileID: 0}
  m_PrefabAsset: {fileID: 0}
  m_GameObject: {fileID: 0}
  m_Enabled: 1
  m_EditorHideFlags: 0
  m_Script: {fileID: 11500000, guid: 05c50b8a24558c04fb29c890553074fd, type: 3}
  m_Name: MoldedWaitingSeats
  m_EditorClassIdentifier: 
  presetName: MoldedWaitingSeats
  classes:
  - {fileID: 11400000, guid: e5511741f623e554c88545e87243ce7e, type: 2}
  prefab: {fileID: 9021486192911932794, guid: 19dca9c3fced2bf49a04b97004e5af04, type: 3}
  allowStaticBatching: 1
  spawnRange: 3
  integratedInteractables:
  - preset: {fileID: 11400000, guid: 084cdca22eb46bb4d9f640098921565d, type: 2}
    pairToController: 1
    belongsTo: 0
  - preset: {fileID: 11400000, guid: 084cdca22eb46bb4d9f640098921565d, type: 2}
    pairToController: 2
    belongsTo: 0
  universalDesignStyle: 0
  designStyles:
  - {fileID: 11400000, guid: f7900e58d7b990840b8413d0629275ee, type: 2}
  - {fileID: 11400000, guid: e72ea046ed0da1e4fa8dc37cf23d4962, type: 2}
  inheritColouringFromDecor: 1
  shareColours: 1
  inheritGrubFromDecor: 1
  variations:
  - name: Primary Secondary Wood
    main: 15
    colour1: 16
    colour2: 16
    colour3: 14
  - name: Primary Neutral Wood
    main: 15
    colour1: 0
    colour2: 13
    colour3: 14
  - name: Monotone 1 Wood
    main: 15
    colour1: 9
    colour2: 9
    colour3: 14
  - name: Monotone 2 Wood
    main: 15
    colour1: 10
    colour2: 10
    colour3: 14
  furnitureGroup: 1
  groupID: 4
  concrete: 0
  plaster: 0
  wood: 0
  carpet: 0
  tile: 0
  metal: 0
  glass: 0
  fabric: 1
  minimumRoomSize: 4
  allowedInOpenPlan: 0
  onlyAllowInFollowing: 0
  allowedInAddressesOfType: []
  banInFollowing: 0
  bannedInAddressesOfType: []
  OnlyAllowInBuildings: 0
  allowedInBuildings: []
  banFromBuildings: 0
  notAllowedInBuildings: []
  OnlyAllowInDistricts: 0
  allowedInDistricts: []
  banFromDistricts: 0
  notAllowedInDistricts: []
  requiresGenderedInhabitants: 0
  enableIfGenderPresent: 
  allowedRoomFilters:
  - {fileID: 11400000, guid: 04c0006d18451a142a4c19ea06132f44, type: 2}
  - {fileID: 11400000, guid: 45c369b1e10394445862f7a9d1e022e0, type: 2}
  minimumWealth: 0
  usePersonalityWeighting: 0
  modernity: 5
  cleanness: 3
  loudness: 7
  emotive: 7
  subObjects: []
  testForModifiers: 0
  forcePublicIllegal: 0
  hidingEnterTransition: {fileID: 0}
  hidingExitTransition: {fileID: 0}
  hidingEnterTransition2: {fileID: 0}
  hidingExitTransition2: {fileID: 0}
  map: {fileID: 0}
  drawUnderWalls: 0
  ignoreDirection: 0
  fingerprintsEnabled: 1
  printsSource: 1
  fingerprintDensity: 1
  alterAreaLighting: 0
  possibleColours: []
  lightOperation: 0
  lightAmount: 0.12
  brightnessModifier: 10
  purchasable: 0
  cost: 500
  decorClass: 0
  staticImage: {fileID: 0}
  imagePos: {x: 0, y: 0, z: 0}
  imageRot: {x: 0, y: 0, z: 0}
  imageScale: 1
  imagePrefabOverride: {fileID: 0}
  isJobBoard: 0
  isWorkPosition: 0
  isPlant: 0
  isArt: 0
  isSecurityCamera: 0
  artOrientation: 0
  createSelfEmployed: {fileID: 0}
  workPositionID: 0
  spawnObjectOnChance: 1
  spawnObjectsOnPlacement: []
