%YAML 1.1
%TAG !u! tag:unity3d.com,2011:
--- !u!114 &11400000
MonoBehaviour:
  m_ObjectHideFlags: 0
  m_CorrespondingSourceObject: {fileID: 0}
  m_PrefabInstance: {fileID: 0}
  m_PrefabAsset: {fileID: 0}
  m_GameObject: {fileID: 0}
  m_Enabled: 1
  m_EditorHideFlags: 0
  m_Script: {fileID: 11500000, guid: 2f9aa3071a9ecdc47aa541d25c29a3cc, type: 3}
  m_Name: citizen
  m_EditorClassIdentifier: 
  presetName: citizen
  colour: {r: 0.7830189, g: 0.67554575, b: 0, a: 1}
  isGlobal: 0
  specialCase: 0
  containedScopes:
  - name: job
    type: {fileID: 11400000, guid: 4e15d8c1c791d4048954b87bc0f9883c, type: 2}
  - name: home
    type: {fileID: 11400000, guid: 2b193f041fb7f6a4492b57955cd94317, type: 2}
  - name: receiver
    type: {fileID: 11400000}
  - name: a
    type: {fileID: 11400000}
  - name: b
    type: {fileID: 11400000}
  - name: c
    type: {fileID: 11400000}
  - name: d
    type: {fileID: 11400000}
  - name: partner
    type: {fileID: 11400000}
  - name: paramour
    type: {fileID: 11400000}
  - name: doctor
    type: {fileID: 11400000}
  - name: friend
    type: {fileID: 11400000}
  - name: enemy
    type: {fileID: 11400000}
  - name: neighbour
    type: {fileID: 11400000}
  - name: landlord
    type: {fileID: 11400000}
  - name: faveatery
    type: {fileID: 11400000, guid: 2b193f041fb7f6a4492b57955cd94317, type: 2}
  - name: favrecreation
    type: {fileID: 11400000, guid: 2b193f041fb7f6a4492b57955cd94317, type: 2}
  - name: group1
    type: {fileID: 11400000, guid: 972b1845f90a66a42963b5fb968377fa, type: 2}
  - name: group2
    type: {fileID: 11400000, guid: 972b1845f90a66a42963b5fb968377fa, type: 2}
  - name: murder
    type: {fileID: 11400000, guid: 1109b2896dd067045837edd829a37579, type: 2}
  - name: sidejob
    type: {fileID: 11400000, guid: fc1f6da3bd91ddc41b9109d6319c643b, type: 2}
  - name: sightinglocation
    type: {fileID: 11400000, guid: 2b193f041fb7f6a4492b57955cd94317, type: 2}
  - name: sightingtime
    type: {fileID: 11400000, guid: 919af3f633e6574449a44d3a0fa3696e, type: 2}
  - name: sightingclosest
    type: {fileID: 11400000, guid: 2b193f041fb7f6a4492b57955cd94317, type: 2}
  - name: location
    type: {fileID: 11400000, guid: 2b193f041fb7f6a4492b57955cd94317, type: 2}
  containedValues:
  - name
  - fullname
  - firstname
  - surname
  - casualname
  - formalname
  - initial
  - initials
  - gender
  - build
  - haircolour
  - hairtype
  - eyecolour
  - age
  - agegroup
  - height
  - passcode
  - passcode1
  - passcode2
  - passcode3
  - passcode4
  - relnoun
  - noungeneral
  - nounlover
  - curse
  - heshe
  - himher
  - hishers
  - birthgender
  - dateofbirth
  - birthweight
  - favitem1
  - favitem2
  - acquaintance
  - namecipher
  - killernamecipher
  - investigateroom
  - investigateobject
  - tamperedobject
  - heightcm
  - weightkg
  - shoesize
  - shoetype
  - bloodtype
  - interest
  - affliction
  - signature
  - sightingdirection
  - hotelroombuilding
  - hotelroomnumber
  - hotelroomcost
  - hotelbill
