%YAML 1.1
%TAG !u! tag:unity3d.com,2011:
--- !u!114 &11400000
MonoBehaviour:
  m_ObjectHideFlags: 0
  m_CorrespondingSourceObject: {fileID: 0}
  m_PrefabInstance: {fileID: 0}
  m_PrefabAsset: {fileID: 0}
  m_GameObject: {fileID: 0}
  m_Enabled: 1
  m_EditorHideFlags: 0
  m_Script: {fileID: 11500000, guid: 2f9aa3071a9ecdc47aa541d25c29a3cc, type: 3}
  m_Name: controls
  m_EditorClassIdentifier: 
  presetName: controls
  colour: {r: 0.7264151, g: 0.7264151, b: 0.7264151, a: 1}
  isGlobal: 1
  specialCase: 0
  containedScopes: []
  containedValues:
  - movehorizontal
  - movevertical
  - lookhorizontal
  - lookvertical
  - sprint
  - crouch
  - jump
  - leanleft
  - leanright
  - caseboard
  - primary
  - secondary
  - alternative
  - scrollaxisup
  - scrollaxisdown
  - map
  - flashlight
  - nearestinteractable
  - notebook
  - navigateup
  - navigatedown
  - navigateleft
  - navigateright
  - selectleft
  - selectright
  - select
  - back
  - weaponselect
  - caseboardzoomaxis
  - moveevidenceaxisx
  - moveevidenceaxisy
  - contentmoveaxisx
  - contentmoveaxisy
  - menu
  - movehorizontal_icon
  - movevertical_icon
  - lookhorizontal_icon
  - lookvertical_icon
  - sprint_icon
  - crouch_icon
  - jump_icon
  - leanleft_icon
  - leanright_icon
  - caseboard_icon
  - primary_icon
  - secondary_icon
  - alternative_icon
  - scrollaxisup_icon
  - scrollaxisdown_icon
  - map_icon
  - flashlight_icon
  - nearestinteractable_icon
  - notebook_icon
  - navigateup_icon
  - navigatedown_icon
  - navigateleft_icon
  - navigateright_icon
  - selectleft_icon
  - selectright_icon
  - select_icon
  - back_icon
  - weaponselect_icon
  - caseboardzoomaxis_icon
  - moveevidenceaxisx_icon
  - moveevidenceaxisy_icon
  - contentmoveaxisx_icon
  - contentmoveaxisy_icon
  - menu_icon
