%YAML 1.1
%TAG !u! tag:unity3d.com,2011:
--- !u!114 &11400000
MonoBehaviour:
  m_ObjectHideFlags: 0
  m_CorrespondingSourceObject: {fileID: 0}
  m_PrefabInstance: {fileID: 0}
  m_PrefabAsset: {fileID: 0}
  m_GameObject: {fileID: 0}
  m_Enabled: 1
  m_EditorHideFlags: 0
  m_Script: {fileID: 11500000, guid: 2f9aa3071a9ecdc47aa541d25c29a3cc, type: 3}
  m_Name: evidence
  m_EditorClassIdentifier: 
  presetName: evidence
  colour: {r: 0.6380325, g: 1, b: 0.3897059, a: 1}
  isGlobal: 0
  specialCase: 0
  containedScopes:
  - name: object
    type: {fileID: 11400000, guid: a75cda32066624441bddd16e504e2e5e, type: 2}
  - name: timefrom
    type: {fileID: 11400000, guid: 919af3f633e6574449a44d3a0fa3696e, type: 2}
  - name: timeto
    type: {fileID: 11400000, guid: 919af3f633e6574449a44d3a0fa3696e, type: 2}
  - name: writer
    type: {fileID: 11400000, guid: 046f67c72e5bd9046b27f8ef0a405e65, type: 2}
  - name: receiver
    type: {fileID: 11400000, guid: 046f67c72e5bd9046b27f8ef0a405e65, type: 2}
  - name: belongsto
    type: {fileID: 11400000, guid: 046f67c72e5bd9046b27f8ef0a405e65, type: 2}
  - name: telephonefrom
    type: {fileID: 11400000, guid: a75cda32066624441bddd16e504e2e5e, type: 2}
  - name: telephoneto
    type: {fileID: 11400000, guid: a75cda32066624441bddd16e504e2e5e, type: 2}
  containedValues:
  - name
  - note
  - date
  - duration
