%YAML 1.1
%TAG !u! tag:unity3d.com,2011:
--- !u!114 &11400000
MonoBehaviour:
  m_ObjectHideFlags: 0
  m_CorrespondingSourceObject: {fileID: 0}
  m_PrefabInstance: {fileID: 0}
  m_PrefabAsset: {fileID: 0}
  m_GameObject: {fileID: 0}
  m_Enabled: 1
  m_EditorHideFlags: 0
  m_Script: {fileID: 11500000, guid: 2f9aa3071a9ecdc47aa541d25c29a3cc, type: 3}
  m_Name: syncdisk
  m_EditorClassIdentifier: 
  presetName: syncdisk
  colour: {r: 0.9254902, g: 0.7771471, b: 0.46666667, a: 1}
  isGlobal: 0
  specialCase: 0
  containedScopes: []
  containedValues:
  - value
  - upgradevale
  - value%
  - upgradevale%
  - uninstallcost
