%YAML 1.1
%TAG !u! tag:unity3d.com,2011:
--- !u!114 &11400000
MonoBehaviour:
  m_ObjectHideFlags: 0
  m_CorrespondingSourceObject: {fileID: 0}
  m_PrefabInstance: {fileID: 0}
  m_PrefabAsset: {fileID: 0}
  m_GameObject: {fileID: 0}
  m_Enabled: 1
  m_EditorHideFlags: 0
  m_Script: {fileID: 11500000, guid: 2f9aa3071a9ecdc47aa541d25c29a3cc, type: 3}
  m_Name: time
  m_EditorClassIdentifier: 
  presetName: time
  colour: {r: 0.5615562, g: 0.46662515, b: 0.9245283, a: 1}
  isGlobal: 0
  specialCase: 0
  containedScopes: []
  containedValues:
  - timeofday
  - time
  - time24
  - time12
  - day
  - date
  - datelong
  - year
  - time12rounded15
