%YAML 1.1
%TAG !u! tag:unity3d.com,2011:
--- !u!114 &11400000
MonoBehaviour:
  m_ObjectHideFlags: 0
  m_CorrespondingSourceObject: {fileID: 0}
  m_PrefabInstance: {fileID: 0}
  m_PrefabAsset: {fileID: 0}
  m_GameObject: {fileID: 0}
  m_Enabled: 1
  m_EditorHideFlags: 0
  m_Script: {fileID: 11500000, guid: e512325a7823fa2428f27f48fedbb6af, type: 3}
  m_Name: MaleOverweightBushyBeard
  m_EditorClassIdentifier: 
  presetName: MaleOverweightBushyBeard
  covers: 1400000002000000
  outfitCategories: 06000000
  suitableForGenders: 000000000200000001000000
  suitableForBuilds: 02000000
  tags: 
  enableFacialFeatureSetup: 0
  suitableForHairstyle: 
  isHead: 1
  pupilsOffset: {x: 0, y: 0.15, z: 0.1205}
  eyebrowsOffset: {x: 0, y: 0.1719, z: 0.133}
  mouthOffset: {x: 0, y: 0.045, z: 0.151}
  hatRenderCompatible: 0
  excludeHats: []
  hairRenderMode: 0
  setFootwear: 0
  footwear: 3
  priority: 2
  onlyChooseIfAllModelPartsAreAvailable: 0
  incompatibility: []
  useWealthValues: 0
  minimumWealth: 0.5
  maximumWealth: 1
  baseColourSource: 0
  colourBase: []
  colour1Source: 2
  colour1: []
  colour2Source: 4
  colour2: []
  colour3Source: 0
  colour3: []
  includeInPersonalityMatching: 1
  baseChance: 0
  useHEXACO: 0
  hexaco:
    outputMin: 1
    outputMax: 10
    enableFeminineMasculine: 0
    feminineMasculine: 0
    enableHumility: 0
    humility: 0
    enableEmotionality: 0
    emotionality: 0
    enableExtraversion: 0
    extraversion: 0
    enableAgreeableness: 0
    agreeableness: 0
    enableConscientiousness: 0
    conscientiousness: 0
    enableCreativity: 0
    creativity: 0
  useTraits: 1
  characterTraits:
  - rule: 0
    traitList:
    - {fileID: 11400000, guid: 1ffbccf0e86dc3d41b284c83c8992b85, type: 2}
    mustPassForApplication: 1
    addChance: 1
  models:
  - prefab: {fileID: 9137114100414833475, guid: ba3bbf1c3e0504843808dffe70aba32a,
      type: 3}
    anchor: 2
    offsetPosition: {x: 0, y: 0, z: 0.137}
    offsetEuler: {x: -0, y: -0, z: -0}
    exclusiveAnchorModel: 0
  - prefab: {fileID: 3938377690184609751, guid: 446abccd7248fca498caeda50d3dcc66,
      type: 3}
    anchor: 2
    offsetPosition: {x: 0, y: 0, z: 0}
    offsetEuler: {x: -0, y: -0, z: -0}
    exclusiveAnchorModel: 1
