%YAML 1.1
%TAG !u! tag:unity3d.com,2011:
--- !u!114 &11400000
MonoBehaviour:
  m_ObjectHideFlags: 0
  m_CorrespondingSourceObject: {fileID: 0}
  m_PrefabInstance: {fileID: 0}
  m_PrefabAsset: {fileID: 0}
  m_GameObject: {fileID: 0}
  m_Enabled: 1
  m_EditorHideFlags: 0
  m_Script: {fileID: 11500000, guid: df34c098fe792944a8bdb8310fc6f3c5, type: 3}
  m_Name: BloodInTheGutter
  m_EditorClassIdentifier: 
  presetName: BloodInTheGutter
  bookName: BloodInTheGutter
  author: Madagan Fitch
  genre: 00000000
  isSeries: 1
  seriesTag: 1
  seriesNumber: 5
  common: 0.75
  baseChance: 0.1
  pickRules:
  - rule: 0
    traitList:
    - {fileID: 11400000, guid: c4a1ea6c4f67c7048a533afba7bce0ea, type: 2}
    mustPassForApplication: 0
    baseChance: 0.789
    reasonChance: 0
  - rule: 0
    traitList:
    - {fileID: 11400000, guid: d03cdf0e1164cde49862e355cd74398d, type: 2}
    - {fileID: 11400000, guid: 4f6f756129419e14186a64eb64748c5f, type: 2}
    - {fileID: 11400000, guid: fc9f82b822d38354ab006975b2264ff2, type: 2}
    mustPassForApplication: 0
    baseChance: 0.229
    reasonChance: 0
  - rule: 0
    traitList:
    - {fileID: 11400000, guid: 083cc78edcdb88f4496f507ec9741bd8, type: 2}
    mustPassForApplication: 0
    baseChance: 0.3
    reasonChance: 0
  spawnRule: 0
  bookMesh: {fileID: -8686041546616721347, guid: f6b0e2e2991ed874da8be8c1fcc8647b,
    type: 3}
  bookMaterial: {fileID: 2100000, guid: afbc26ca09dcd784a82dfce38c7c0d06, type: 2}
  ddsMessage: e6121c73-9b4c-4bc4-9f43-4e1d9d8d447f
