%YAML 1.1
%TAG !u! tag:unity3d.com,2011:
--- !u!114 &11400000
MonoBehaviour:
  m_ObjectHideFlags: 0
  m_CorrespondingSourceObject: {fileID: 0}
  m_PrefabInstance: {fileID: 0}
  m_PrefabAsset: {fileID: 0}
  m_GameObject: {fileID: 0}
  m_Enabled: 1
  m_EditorHideFlags: 0
  m_Script: {fileID: 11500000, guid: 070402d0f52d680418a8e0ef2563a1f4, type: 3}
  m_Name: Give
  m_EditorClassIdentifier: 
  presetName: Give
  msgID: cb900896-5345-4ad3-a5f7-48e274314e57
  defaultOption: 1
  telephoneCallOption: 0
  hospitalDecisionOption: 0
  tiedToKey: 1
  ranking: 3
  removeAfterSaying: 0
  dailyReplenish: 0
  isJobDetails: 0
  ignoreActiveJobRequirement: 0
  specialCase: 0
  cost: 0
  usePercentageCost: 0
  useAllWealthIfNotEnough: 0
  displayIfPasswordUnknown: 0
  inputBox: 0
  displayAsIllegal: 0
  preceedingSyntax: 
  followingSyntax: 
  useSuccessTest: 1
  requiresPassword: 0
  baseChance: 0
  affectChanceIfRestrained: 0
  modifySuccessChanceTraits:
  - rule: 0
    traitList:
    - {fileID: 11400000, guid: e596f1222e5c51447ac79310ad90dd7c, type: 2}
    - {fileID: 11400000, guid: 91469e8527d8a584ca0a39d5a88a8bcb, type: 2}
    mustPassForApplication: 0
    baseChance: 0.7
    reasonChance: 0
  - rule: 0
    traitList:
    - {fileID: 11400000, guid: ddf836a9aa21de94dbeff87441c6e593, type: 2}
    mustPassForApplication: 0
    baseChance: 0.4
    reasonChance: 0
  - rule: 0
    traitList:
    - {fileID: 11400000, guid: a280ee6378a3163488772b4247e73b02, type: 2}
    - {fileID: 11400000, guid: c57c7d6985e21dc4a993c80bb272f797, type: 2}
    mustPassForApplication: 0
    baseChance: 0.3
    reasonChance: 0
  responses: []
  followUpDialogSuccess: []
  followUpDialogFail: []
  removeDialog: []
  removeDialogOnSuccess: []
  removeDialogOnFail: []
