%YAML 1.1
%TAG !u! tag:unity3d.com,2011:
--- !u!114 &11400000
MonoBehaviour:
  m_ObjectHideFlags: 0
  m_CorrespondingSourceObject: {fileID: 0}
  m_PrefabInstance: {fileID: 0}
  m_PrefabAsset: {fileID: 0}
  m_GameObject: {fileID: 0}
  m_Enabled: 1
  m_EditorHideFlags: 0
  m_Script: {fileID: 11500000, guid: 070402d0f52d680418a8e0ef2563a1f4, type: 3}
  m_Name: IntroduceBribe2
  m_EditorClassIdentifier: 
  presetName: IntroduceBribe2
  msgID: 4f98dbb8-20c0-49b2-8c18-058a7e24f5a2
  defaultOption: 0
  telephoneCallOption: 0
  hospitalDecisionOption: 0
  tiedToKey: 4
  ranking: 10
  removeAfterSaying: 1
  dailyReplenish: 0
  isJobDetails: 0
  ignoreActiveJobRequirement: 0
  specialCase: 0
  cost: 100
  usePercentageCost: 0
  useAllWealthIfNotEnough: 0
  displayIfPasswordUnknown: 0
  inputBox: 0
  displayAsIllegal: 0
  preceedingSyntax: 
  followingSyntax: 
  useSuccessTest: 1
  requiresPassword: 0
  baseChance: 0.75
  affectChanceIfRestrained: -0.1
  modifySuccessChanceTraits:
  - rule: 0
    traitList:
    - {fileID: 11400000, guid: a280ee6378a3163488772b4247e73b02, type: 2}
    - {fileID: 11400000, guid: 91469e8527d8a584ca0a39d5a88a8bcb, type: 2}
    - {fileID: 11400000, guid: 8223d05f2b3212040931c43d749a69f5, type: 2}
    mustPassForApplication: 0
    baseChance: 0.5
    reasonChance: 0
  - rule: 0
    traitList:
    - {fileID: 11400000, guid: bc70a5abdae07ee419d4bc64e4bc153a, type: 2}
    - {fileID: 11400000, guid: 6f81dbe55a54fce42bb5e363daa024aa, type: 2}
    - {fileID: 11400000, guid: f190c8774a7c4084a888588b2adf1946, type: 2}
    - {fileID: 11400000, guid: 351ba7bc606a18645bd2910ad92edc32, type: 2}
    - {fileID: 11400000, guid: cdd8c1f26aba14d408cac0912a7c623f, type: 2}
    - {fileID: 11400000, guid: 903c70e51419b264898bb7454a1a8924, type: 2}
    mustPassForApplication: 0
    baseChance: -0.4
    reasonChance: 0
  - rule: 0
    traitList:
    - {fileID: 11400000, guid: ddf836a9aa21de94dbeff87441c6e593, type: 2}
    - {fileID: 11400000, guid: 52caffa6c047bdf4a807fba6f0171703, type: 2}
    - {fileID: 11400000, guid: b2e0cf0d658041041bcde978050d6d98, type: 2}
    mustPassForApplication: 0
    baseChance: 0.6
    reasonChance: 0
  responses:
  - dictionaryString: Introduce Success
    ddsMessageID: bf61be50-6cc7-498e-b810-f516a412b7e7
    isSuccessful: 1
    chance: 1
    useParsing: 1
    shout: 0
    interupt: 0
    onlyIfEnfocerOnDuty: 0
    onlyIfNotEnforcerOnDuty: 0
    mustFeatureTrait: []
    cantFeatureTrait: []
    tieKeys: 0400000000000000
    applyDiscovery: 
    endsDialog: 0
    jobHandIn: 0
  - dictionaryString: Introduce Fail
    ddsMessageID: f897a39e-975b-464a-ad9d-0674d57f4bf8
    isSuccessful: 0
    chance: 1
    useParsing: 1
    shout: 0
    interupt: 0
    onlyIfEnfocerOnDuty: 0
    onlyIfNotEnforcerOnDuty: 0
    mustFeatureTrait: []
    cantFeatureTrait: []
    tieKeys: 
    applyDiscovery: 
    endsDialog: 0
    jobHandIn: 0
  followUpDialogSuccess: []
  followUpDialogFail:
  - {fileID: 11400000, guid: 8e04f588b1844dd4e8f201559c5376f0, type: 2}
  removeDialog: []
  removeDialogOnSuccess: []
  removeDialogOnFail: []
