%YAML 1.1
%TAG !u! tag:unity3d.com,2011:
--- !u!114 &11400000
MonoBehaviour:
  m_ObjectHideFlags: 0
  m_CorrespondingSourceObject: {fileID: 0}
  m_PrefabInstance: {fileID: 0}
  m_PrefabAsset: {fileID: 0}
  m_GameObject: {fileID: 0}
  m_Enabled: 1
  m_EditorHideFlags: 0
  m_Script: {fileID: 11500000, guid: 070402d0f52d680418a8e0ef2563a1f4, type: 3}
  m_Name: OpeningHours
  m_EditorClassIdentifier: 
  presetName: OpeningHours
  msgID: 39b5d41c-cec7-4696-95c1-b1153b90b40b
  defaultOption: 1
  telephoneCallOption: 0
  hospitalDecisionOption: 0
  tiedToKey: 1
  ranking: 5
  removeAfterSaying: 0
  dailyReplenish: 0
  isJobDetails: 0
  ignoreActiveJobRequirement: 0
  specialCase: 2
  cost: 0
  usePercentageCost: 0
  useAllWealthIfNotEnough: 0
  displayIfPasswordUnknown: 0
  inputBox: 0
  displayAsIllegal: 0
  preceedingSyntax: 
  followingSyntax: 
  useSuccessTest: 1
  requiresPassword: 1
  baseChance: 1
  affectChanceIfRestrained: 0
  modifySuccessChanceTraits: []
  responses:
  - dictionaryString: Opening Hours
    ddsMessageID: f3a1a76d-b5c9-4612-b000-2fa3e6db21b7
    isSuccessful: 1
    chance: 1
    useParsing: 1
    shout: 0
    interupt: 0
    onlyIfEnfocerOnDuty: 0
    onlyIfNotEnforcerOnDuty: 0
    mustFeatureTrait: []
    cantFeatureTrait: []
    tieKeys: 
    applyDiscovery: 
    endsDialog: 0
    jobHandIn: 0
  - dictionaryString: Need password
    ddsMessageID: 279cee3f-6799-4e7a-a93a-3e1c638e808c
    isSuccessful: 0
    chance: 1
    useParsing: 1
    shout: 0
    interupt: 0
    onlyIfEnfocerOnDuty: 0
    onlyIfNotEnforcerOnDuty: 0
    mustFeatureTrait: []
    cantFeatureTrait: []
    tieKeys: 
    applyDiscovery: 
    endsDialog: 0
    jobHandIn: 0
  followUpDialogSuccess: []
  followUpDialogFail: []
  removeDialog: []
  removeDialogOnSuccess: []
  removeDialogOnFail: []
