%YAML 1.1
%TAG !u! tag:unity3d.com,2011:
--- !u!114 &11400000
MonoBehaviour:
  m_ObjectHideFlags: 0
  m_CorrespondingSourceObject: {fileID: 0}
  m_PrefabInstance: {fileID: 0}
  m_PrefabAsset: {fileID: 0}
  m_GameObject: {fileID: 0}
  m_Enabled: 1
  m_EditorHideFlags: 0
  m_Script: {fileID: 11500000, guid: 0da14b35f8d566c4fb57d76d13c3a1da, type: 3}
  m_Name: Telephone
  m_EditorClassIdentifier: 
  presetName: Telephone
  subClass: Witness
  windowStyle: {fileID: 11400000, guid: acfe94302b2172a42ae32b8aad1f16bd, type: 2}
  useDataKeys: 0
  validKeys: []
  passiveTies: []
  notifyOfTies: 0
  useBelongsToInName: 0
  isSingleton: 0
  disableHistory: 1
  allowCustomNames: 0
  markAsDiscoveredOnAnyInteraction: 1
  forceWorldInteraction: 0
  useWindowFocusMode: 0
  iconSpriteLarge: {fileID: 21300000, guid: e76e5802964a0064186b883040f1e9bb, type: 3}
  defaultNullImage: {fileID: 2800000, guid: cd27e3ecf95414646aee61c2cc3cdc6f, type: 3}
  useInGamePhoto: 0
  useWriter: 0
  relativeCamPhotoPos: {x: 0, y: 0, z: 0}
  relativeCamPhotoEuler: {x: 0, y: 0, z: 0}
  captureRules: 0
  changeTimeOfDay: 0
  captureTimeOfDay: 12
  useCaptureLight: 1
  useSurveillanceCapture: 0
  itemOwner: 0
  itemWriter: 0
  itemReceiver: 0
  factSetup: []
  addFactLinks: []
  discoverOnCreate: 0
  keyMergeOnDiscovery: []
  discoveryTriggers: 
  applicationOnDiscover: []
  ddsDocumentID: d219b646-175f-4aaa-9531-5caf371d3985
  isMatchParent: 0
  matchTypes: []
  enableSummary: 1
  enableFacts: 0
  pinnedStyle: 0
  pinnedBackgroundColour: {r: 1, g: 1, b: 1, a: 1}
