"Game Reference Key","Notes","Displayed Text","Alternate Text","Frequency","Requires Suffix","Misc."
"[The key used by the game to find strings]","[Not loaded into the game, for explanation only]","[The displayed string in-game]","[Alternate displayed string, eg. Nickname]","[For lists]","[Does this require a suffix for naming?]","[Miscellaneous]"
"— ","— ","— ","— ","— ","— ","— "
"suites","","Suites","",3,"","11:49 05/09/2022"
"heights","","Heights","",1,"","11:49 05/09/2022"
"grange","","Grove","",2,"","11:49 05/09/2022"
"center","","Center","",1,"","11:49 05/09/2022"
"parks","","Parks","",1,"","11:49 05/09/2022"
"view","","View","",2,"","11:49 05/09/2022"
"cascade","","Cascades","",1,"","11:49 05/09/2022"
"deluxe","","Deluxe","",1,"","11:49 05/09/2022"
