"Game Reference Key","Notes","Displayed Text","Alternate Text","Frequency","Requires Suffix","Misc."
"[The key used by the game to find strings]","[Not loaded into the game, for explanation only]","[The displayed string in-game]","[Alternate displayed string, eg. Nickname]","[For lists]","[Does this require a suffix for naming?]","[Miscellaneous]"
"— ","— ","— ","— ","— ","— ","— "
"philadelphia","","Philadelphia","",1,"","11:49 05/09/2022"
"newark","","Newark","",1,"","11:49 05/09/2022"
"madison","","Madison","",1,"","11:49 05/09/2022"
"boston","","Boston","",1,"","11:49 05/09/2022"
"vermont","","Vermont","",1,"","11:49 05/09/2022"
"hampshire","","Hampshire","",1,"","11:49 05/09/2022"
"columbus","","Columbus","",1,"","11:49 05/09/2022"
"indiana","","Indiana","",1,"","11:49 05/09/2022"
"kentucky","","Kentucky","",1,"","11:49 05/09/2022"
"nashville","","Nashville","",1,"","11:49 05/09/2022"
"charleston","","Charleston","",1,"","11:49 05/09/2022"
"myers","","Myers","",1,"","11:49 05/09/2022"
"charlotte","","Charlotte","",1,"","11:49 05/09/2022"
"pheonix","","Pheonix","",1,"","11:49 05/09/2022"
"angeles","","Angeles","",1,"","11:49 05/09/2022"
"manhattanville","","Manhattanville","",1,"","11:49 05/09/2022"
"lincoln","","Lincoln","",1,"","11:49 05/09/2022"
"witchita","","Witchita","",1,"","11:49 05/09/2022"
"pine","","Pine","",1,"","11:49 05/09/2022"
"memphis","","Memphis","",1,"","11:49 05/09/2022"
"little america","","Little America","",1,"","11:49 05/09/2022"
"bowling","","Bowling","",1,"","11:49 05/09/2022"
"lexington","","Lexington","",1,"","11:49 05/09/2022"
"lynchburg","","Lynchburg","",1,"","11:49 05/09/2022"
"cherryville","","Cherryville","",1,"","11:49 05/09/2022"
"richmond","","Richmond","",1,"","11:49 05/09/2022"
"washington","","Washington","",1,"","11:49 05/09/2022"
"lancaster","","Lancaster","",1,"","11:49 05/09/2022"
"hershey","","Hershey","",1,"","11:49 05/09/2022"
"little","","Little","",1,"","11:49 05/09/2022"
"springfield","","Springfield","",1,"","11:49 05/09/2022"
"maine","","Maine","",1,"","11:49 05/09/2022"
"st john","","St John","",1,"","11:49 05/09/2022"
"caribou","","Caribou","",1,"","11:49 05/09/2022"
"victoria","","Victoria","",1,"","11:49 05/09/2022"
"sherbrooke","","Sherbrooke","",1,"","11:49 05/09/2022"
"kitchener","","Kitchener","",1,"","11:49 05/09/2022"
"fairchild","","Fairchild","",1,"","11:49 05/09/2022"
"chicago","","Chicago","",1,"","11:49 05/09/2022"
"appleton","","Appleton","",1,"","11:49 05/09/2022"
"la crosse","","La Crosse","",1,"","11:49 05/09/2022"
"davenport","","Davenport","",1,"","11:49 05/09/2022"
"new austin","","New Austin","",1,"","11:49 05/09/2022"
"grand forks","","Grand Forks","",1,"","11:49 05/09/2022"
"salem","","Salem","",1,"","11:49 05/09/2022"
"bakersville","","Bakersville","",1,"","11:49 05/09/2022"
"fairview","","Fairview","",1,"","11:49 05/09/2022"
"wolf","","Wolf","",1,"","11:49 05/09/2022"
"laurel","","Laurel","",1,"","11:49 05/09/2022"
"dillon","","Dillon","",1,"","11:49 05/09/2022"
"olympia","","Olympia","",1,"","11:49 05/09/2022"
"everett","","Everett","",1,"","11:49 05/09/2022"
"albany","","Albany","",1,"","11:49 05/09/2022"
"redding","","Redding","",1,"","11:49 05/09/2022"
"reno","","Reno","",1,"","11:49 05/09/2022"
"henderson","","Henderson","",1,"","11:49 05/09/2022"
"lawrenceville","","Lawrenceville","",1,"","11:49 05/09/2022"
"vermillion","","Vermillion","",1,"","11:49 05/09/2022"
"rochester","","Rochester","",1,"","11:49 05/09/2022"
"jackson","","Jackson","",1,"","11:49 05/09/2022"
"franklyn","","Franklyn","",1,"","11:49 05/09/2022"
"knoxville","","Knoxville","",1,"","11:49 05/09/2022"
"baltimore","","Baltimore","",1,"","11:49 05/09/2022"
"barclay","","Barclay","",1,"","11:49 05/09/2022"
"clinton","","Clinton","",1,"","11:49 05/09/2022"
"bowery","","Bowery","",1,"","11:49 05/09/2022"
"glendale","","Glendale","",1,"","11:49 05/09/2022"
"hamilton","","Hamilton","",1,"","11:49 05/09/2022"
"hudson","","Hudson","",1,"","11:49 05/09/2022"
"lafayette","","Lafayette","",1,"","11:49 05/09/2022"
"roosevelt","","Roosevelt","",1,"","11:49 05/09/2022"
"colorado","","Colorado","",1,"","11:49 05/09/2022"
"pennsylvania","","Pennsylvania","",1,"","11:49 05/09/2022"
"theodore","","Theodore","",1,"","11:49 05/09/2022"
"quincy","","Quincy","",1,"","11:49 05/09/2022"
"winchester","","Winchester","",1,"","11:49 05/09/2022"
"ivylands","","Ivylands","",1,"","11:49 05/09/2022"
"lagos","","Lagos","",1,"","11:49 05/09/2022"
"tripoli","","Tripoli","",1,"","11:49 05/09/2022"
"alexandria","","Alexandria","",1,"","11:49 05/09/2022"
"cairo","","Cairo","",1,"","11:49 05/09/2022"
"kinshasa","","Kinshasa","",1,"","11:49 05/09/2022"
"johannesburg","","Johannesburg","",1,"","11:49 05/09/2022"
"casablanca","","Casablanca","",1,"","11:49 05/09/2022"
"pretoria","","Pretoria","",1,"","11:49 05/09/2022"
"elizabeth","","Elizabeth","",1,"","11:49 05/09/2022"
"pointe-noire","","Pointe-Noire","",1,"","11:49 05/09/2022"
"lithuania","","Lithuania","",1,"","11:49 05/09/2022"
"vilnius","","Vilnius","",1,"","11:49 05/09/2022"
"riga","","Riga","",1,"","11:49 05/09/2022"
"tallinn","","Tallinn","",1,"","11:49 05/09/2022"
"warsaw","","Warsaw","",1,"","11:49 05/09/2022"
"district","","District","",1,"","11:49 05/09/2022"
"moldova","","Moldova","",1,"","11:49 05/09/2022"
"sevastopol","","Sevastopol","",1,"","11:49 05/09/2022"
"petersburg","","Petersburg","",1,"","11:49 05/09/2022"
"bucharest","","Bucharest","",1,"","11:49 05/09/2022"
"baltic","","Baltic","",1,"","11:49 05/09/2022"
"chennai","","Chennai","",1,"","11:49 05/09/2022"
"colombo","","Colombo","",1,"","11:49 05/09/2022"
"delhi","","Delhi","",1,"","11:49 05/09/2022"
"karachi","","Karachi","",1,"","11:49 05/09/2022"
"odisha","","Odisha","",1,"","11:49 05/09/2022"
"bengal","","Bengal","",1,"","11:49 05/09/2022"
"lucknow","","Lucknow","",1,"","11:49 05/09/2022"
"jaipur","","Jaipur","",1,"","11:49 05/09/2022"
"kerala","","Kerala","",1,"","11:49 05/09/2022"
"indore","","Indore","",1,"","11:49 05/09/2022"
"guinea","","Guinea","",1,"","11:49 05/09/2022"
"solomon","","Solomon","",1,"","11:49 05/09/2022"
"caledonia","","Caledonia","",1,"","11:49 05/09/2022"
"tonga","","Tonga","",1,"","11:49 05/09/2022"
"polynesia","","Polynesia","",1,"","11:49 05/09/2022"
"hanfa roa","","Hanfa Roa","",1,"","11:49 05/09/2022"
"isabela","","Isabela","",1,"","11:49 05/09/2022"
"isla","","Isla","",1,"","11:49 05/09/2022"
"honolulu","","Honolulu","",1,"","11:49 05/09/2022"
"marseille","","Marseille","",1,"","11:49 05/09/2022"
"saint-malo","","Saint-Malo","",1,"","11:49 05/09/2022"
"caen","","Caen","",1,"","11:49 05/09/2022"
"andros","","Andros","",1,"","11:49 05/09/2022"
"sparti","","Sparti","",1,"","11:49 05/09/2022"
"petra","","Petra","",1,"","11:49 05/09/2022"
"salamina","","Salamina","",1,"","11:49 05/09/2022"
"catan","","Catan","",1,"","11:49 05/09/2022"
"palermo","","Palermo","",1,"","11:49 05/09/2022"
"florence","","Florence","",1,"","11:49 05/09/2022"
"turin","","Turin","",1,"","11:49 05/09/2022"
"genoa","","Genoa","",1,"","11:49 05/09/2022"
"venice","","Venice","",1,"","11:49 05/09/2022"
"jordan","","Jordan","",1,"","11:49 05/09/2022"
"beirut","","Beirut","",1,"","11:49 05/09/2022"
"antalya","","Antalya","",1,"","11:49 05/09/2022"
"istanbul","","Istanbul","",1,"","11:49 05/09/2022"
"oman","","Oman","",1,"","11:49 05/09/2022"
"vietnam","","Vietnam","",1,"","11:49 05/09/2022"
"hanoi","","Hanoi","",1,"","11:49 05/09/2022"
"vientiane","","Vientiane","",1,"","11:49 05/09/2022"
"syracuse","","Syracuse","",1,"","11:49 05/09/2022"
"buffalo","","Buffalo","",1,"","11:49 05/09/2022"
"cedar","","Cedar","",1,"","11:49 05/09/2022"
"wyoming","","Wyoming","",1,"","11:49 05/09/2022"
"stockholm","","Stockholm","",1,"","11:49 05/09/2022"
"bergen","","Bergen","",1,"","11:49 05/09/2022"
"sirkka","","Sirkka","",1,"","11:49 05/09/2022"
"gotland","","Gotland","",1,"","11:49 05/09/2022"
"karlskrona","","Karlskrona","",1,"","11:49 05/09/2022"
"copenhagen","","Copenhagen","",1,"","11:49 05/09/2022"
"lund","","Lund","",1,"","11:49 05/09/2022"
"halmstad","","Halmstad","",1,"","11:49 05/09/2022"
"holstebro","","Holstebro","",1,"","11:49 05/09/2022"
"randers","","Randers","",1,"","11:49 05/09/2022"
"silkborg","","Silkborg","",1,"","11:49 05/09/2022"
"trollhattan","","Trollhattan","",1,"","11:49 05/09/2022"
"spydeberg","","Spydeberg","",1,"","11:49 05/09/2022"
"lillestrom","","Lillestrom","",1,"","11:49 05/09/2022"
"grimstad","","Grimstad","",1,"","11:49 05/09/2022"
"kristiansand","","Kristiansand","",1,"","11:49 05/09/2022"
"haugesund","","Haugesund","",1,"","11:49 05/09/2022"
"santiago","","Santiago","",1,"","11:49 05/09/2022"
"guiana","","Guiana","",1,"","11:49 05/09/2022"
"london","","London","",1,"","11:49 05/09/2022"
"bristol","","Bristol","",1,"","11:49 05/09/2022"
"cambridge","","Cambridge","",1,"","11:49 05/09/2022"
"leicester","","Leicester","",1,"","11:49 05/09/2022"
"manchester","","Manchester","",1,"","11:49 05/09/2022"
"newcastle","","Newcastle","",1,"","11:49 05/09/2022"
"rotterdam","","Rotterdam","",1,"","11:49 05/09/2022"
"trier","","Trier","",1,"","11:49 05/09/2022"
"stuttgart","","Stuttgart","",1,"","11:49 05/09/2022"
"montpellier","","Montpellier","",1,"","11:49 05/09/2022"
"clermont","","Clermont","",1,"","11:49 05/09/2022"
"la rochelle","","La Rochelle","",1,"","11:49 05/09/2022"
"nantes","","Nantes","",1,"","11:49 05/09/2022"
"amsterdam","","Amsterdam","",1,"","11:49 05/09/2022"
"dresden","","Dresden","",1,"","11:49 05/09/2022"
"gothenburg","","Gothenburg","",1,"","11:49 05/09/2022"
"rouen","","Rouen","",1,"","11:49 05/09/2022"
"versailles","","Versailles","",1,"","11:49 05/09/2022"
"saint-michel","","Saint-Michel","",1,"","11:49 05/09/2022"
"canterbury","","Canterbury","",1,"","11:49 05/09/2022"
"lilly-crofte","","Lilly-Crofte","",1,"","11:49 05/09/2022"
"bourbon","","Bourbon","",1,"","11:49 05/09/2022"
"oxford","","Oxford","",1,"","11:49 05/09/2022"
"tyne","","Tyne","",1,"","11:49 05/09/2022"
"kensington","","Kensington","",1,"","11:49 05/09/2022"
"wales","","Wales","",1,"","11:49 05/09/2022"
"melbourne","","Melbourne","",1,"","11:49 05/09/2022"
"adelaide","","Adelaide","",1,"","11:49 05/09/2022"
"sydney","","Sydney","",1,"","11:49 05/09/2022"
"brisbane","","Brisbane","",1,"","11:49 05/09/2022"
"perth","","Perth","",1,"","11:49 05/09/2022"
"queensland","","Queensland","",1,"","11:49 05/09/2022"
"darwin","","Darwin","",1,"","11:49 05/09/2022"
"coral","","Coral","",1,"","11:49 05/09/2022"
"brunswick","","Brunswick","",1,"","11:49 05/09/2022"
"rockhampton","","Rockhampton","",1,"","11:49 05/09/2022"
"cairns","","Cairns","",1,"","11:49 05/09/2022"
"douglas","","Douglas","",1,"","11:49 05/09/2022"
"katherine","","Katherine","",1,"","11:49 05/09/2022"
"thursday","","Thursday","",1,"","11:49 05/09/2022"
"alice spring","","Alice Spring","",1,"","11:49 05/09/2022"
"warburton","","Warburton","",1,"","11:49 05/09/2022"
"marble bar","","Marble Bar","",1,"","11:49 05/09/2022"
"halls","","Halls","",1,"","11:49 05/09/2022"
"broome","","Broome","",1,"","11:49 05/09/2022"
"macquarie","","Macquarie","",1,"","11:49 05/09/2022"
"porto","","Porto","",1,"","11:49 05/09/2022"
"lisbon","","Lisbon","",1,"","11:49 05/09/2022"
"gibraltar","","Gibraltar","",1,"","11:49 05/09/2022"
"murcia","","Murcia","",1,"","11:49 05/09/2022"
"valencia","","Valencia","",1,"","11:49 05/09/2022"
"madrid","","Madrid","",1,"","11:49 05/09/2022"
"bilboa","","Bilboa","",1,"","11:49 05/09/2022"
"andorra","","Andorra","",1,"","11:49 05/09/2022"
"latin","","Latin","",1,"","11:49 05/09/2022"
"mexico","","Mexico","",1,"","11:49 05/09/2022"
"monterrey","","Monterrey","",1,"","11:49 05/09/2022"
"leon","","Leon","",1,"","11:49 05/09/2022"
"panama","","Panama","",1,"","11:49 05/09/2022"
"havana","","Havana","",1,"","11:49 05/09/2022"
"cuba","","Cuba","",1,"","11:49 05/09/2022"
