"Game Reference Key","Notes","Displayed Text","Alternate Text","Frequency","Requires Suffix","Misc."
"[The key used by the game to find strings]","[Not loaded into the game, for explanation only]","[The displayed string in-game]","[Alternate displayed string, eg. Nickname]","[For lists]","[Does this require a suffix for naming?]","[Miscellaneous]"
"— ","— ","— ","— ","— ","— ","— "
"tower","","Tower","",1,"","11:49 05/09/2022"
"terrace","","Terrace","",1,"","11:49 05/09/2022"
"heights","","Heights","",1,"","11:49 05/09/2022"
"grange","","Grange","",1,"","11:49 05/09/2022"
"projects","","Projects","",3,"","11:49 05/09/2022"
