%YAML 1.1
%TAG !u! tag:unity3d.com,2011:
--- !u!114 &11400000
MonoBehaviour:
  m_ObjectHideFlags: 0
  m_CorrespondingSourceObject: {fileID: 0}
  m_PrefabInstance: {fileID: 0}
  m_PrefabAsset: {fileID: 0}
  m_GameObject: {fileID: 0}
  m_Enabled: 1
  m_EditorHideFlags: 0
  m_Script: {fileID: 11500000, guid: 45095b82c45f08d4dbffbf9695e57dcf, type: 3}
  m_Name: Alley
  m_EditorClassIdentifier: 
  presetName: Alley
  roomType: {fileID: 11400000, guid: 555eb58a6523e0d43a7cb1f44c048a6e, type: 2}
  roomClass: {fileID: 11400000, guid: f65ac58067a728942a1835d03df5fec3, type: 2}
  canBeOpenPlan: 0
  openPlanRoom: {fileID: 0}
  securityDoors: 0
  limitSecurityCameras: 0
  securityCameraLimit: 1
  useMainLights: 0
  useLightSwitches: 0
  lightsOnAtStart: 1
  wellLit: 0
  autoDisableLightsOutOfVicinity: 1
  onlyAutoDisableInNonStairwell: 0
  useAdditionalAreaLights: 0
  useDistrictSettingsAsBase: 0
  minimumLightZoneSizeForAreaLights: 4
  areaLightOffset: {x: 0, y: 0, z: 0}
  areaLightBrightness: 1000
  areaLightColor: {r: 1, g: 1, b: 1, a: 1}
  areaLightRange: 10
  areaLightCoverageMultiplier: 1
  boostCeilingEmission: 0
  ceilingEmissionBoost: {r: 0, g: 0, b: 0, a: 1}
  chanceOfCeilingFans: 0
  baseLightingShadowTint: 1
  baseLightingShadowTintIntensity: 0.075
  areaLightingShadowTint: 1
  areaLightingShadowTintIntensity: 0.35
  overrideAreaLightShadowTint: 0
  areaLightShadowTintOverride: {r: 0, g: 0, b: 0, a: 0}
  areaLightShadowDimmer: 1
  lightingBehaviour: []
  cleanness: 5
  forceColourSchemes: []
  minimumGrubiness: 0
  maximumGrubiness: 1
  decorSetting: 0
  excludeFromOthersCopyingDecorStyle: 0
  chanceOfOverrideMatIfGroundFloor: 0
  chanceOfOverrideMatIfBasement: 0
  chanceOfOverrideMatIfStairwell: 0
  floorOverrides: []
  wallOverrides: []
  ceilingOverrides: []
  decorationPriority: 0
  useOwnership: 0
  assignBelongsToOwners: 0
  preferCouples: 0
  belongsToJob: []
  exteriorDoor: {fileID: 0}
  addressDoor: {fileID: 0}
  internalDoor: {fileID: 11400000, guid: 6c1630a6463934d41a8a32b9848d63dc, type: 2}
  passwordPriority: 1
  preferredPassword: 1
  placeKey: 
  keyOwnershipPlacement: 2
  steps: {fileID: 2177168105624748219, guid: d23ba5d9adf6c6f4d9f6ddb40c5bdef1, type: 3}
  replaceWindows: {fileID: 0}
  replaceWalls: {fileID: 0}
  replaceEntrance: {fileID: 0}
  replaceInsideAlso: 0
  replaceOnlyIfOtherIs: 0
  onlyReplaceIf: []
  forceStreetLightLayer: 0
  drawBuildingModel: 0
  wallFrontage: []
  oneFrontagePerNode: 0
  maximumVents: 1
  chanceOfRoofVent: 0
  chanceOfWallVentUpper: 0
  chanceOfWallVentLower: 0
  allowUpperWallLevelDucts: 0
  onlyAllowUpperIfFloorLevelIsZero: 1
  limitUpperLevelDucts: 99
  allowLowerWallLevelDucts: 0
  overrideAddressEnvironment: 0
  sceneClean: 1
  sceneDirty: 2
  baseRoomAtmosphere: 0.5
  forceOutside: 1
  ambientZone: {fileID: 11400000, guid: 5fac8aec156665c46ada0b1b714cc3c2, type: 2}
  fingerprintsEnabled: 0
  footprintsEnabled: 1
  printsSource: 1
  fingerprintWallDensity: 1
  allowCoving: 0
  allowBugs: 0
  bugAmountMultiplier: 0.75
  forbidden: 0
  allowedIfGivenCorrectPassword: 1
  AIknowPassword: 1
  escalationLevelNormal: 0
  escalationLevelAfterHours: 0
  securityLevel: 0
  allowPersonalAffects: 1
  overrideMaxFurnitureClusters: 1
  overridenMaxFurniture: 42
  overrideAttemptsPerNodeMultiplier: 0
  overridenAttemptsPerNode: 1.75
  shadinessValue: 6
  allowMuggings: 1
  muggingAwakenRoom: 0
  debugRoom: {fileID: 0}
