%YAML 1.1
%TAG !u! tag:unity3d.com,2011:
--- !u!114 &11400000
MonoBehaviour:
  m_ObjectHideFlags: 0
  m_CorrespondingSourceObject: {fileID: 0}
  m_PrefabInstance: {fileID: 0}
  m_PrefabAsset: {fileID: 0}
  m_GameObject: {fileID: 0}
  m_Enabled: 1
  m_EditorHideFlags: 0
  m_Script: {fileID: 11500000, guid: 45095b82c45f08d4dbffbf9695e57dcf, type: 3}
  m_Name: AsianDiningRoom
  m_EditorClassIdentifier: 
  presetName: AsianDiningRoom
  roomType: {fileID: 11400000, guid: 4f6ce0378601dbf4fbb96d1b3b813379, type: 2}
  roomClass: {fileID: 11400000, guid: 5f67f1d7a391f4f49852bcab476a993a, type: 2}
  canBeOpenPlan: 0
  openPlanRoom: {fileID: 0}
  securityDoors: 2
  limitSecurityCameras: 0
  securityCameraLimit: 1
  useMainLights: 1
  useLightSwitches: 1
  lightsOnAtStart: 0
  wellLit: 0
  autoDisableLightsOutOfVicinity: 1
  onlyAutoDisableInNonStairwell: 0
  useAdditionalAreaLights: 0
  useDistrictSettingsAsBase: 0
  minimumLightZoneSizeForAreaLights: 4
  areaLightOffset: {x: 0, y: 0, z: 0}
  areaLightBrightness: 500
  areaLightColor: {r: 1, g: 1, b: 1, a: 1}
  areaLightRange: 10
  areaLightCoverageMultiplier: 1
  boostCeilingEmission: 0
  ceilingEmissionBoost: {r: 0, g: 0, b: 0, a: 1}
  chanceOfCeilingFans: 0.8
  baseLightingShadowTint: 1
  baseLightingShadowTintIntensity: 0.075
  areaLightingShadowTint: 1
  areaLightingShadowTintIntensity: 0.35
  overrideAreaLightShadowTint: 0
  areaLightShadowTintOverride: {r: 0, g: 0, b: 0, a: 0}
  areaLightShadowDimmer: 1
  lightingBehaviour:
  - dayRule: 0
    passthroughBehaviour: 8
    destinationBehaviour: 8
    exitRoomBehaviour: 7
    exitGameLocationBehaviour: 4
  cleanness: 8
  forceColourSchemes:
  - {fileID: 11400000, guid: 261cf519b86fcf24e80420aabca6a129, type: 2}
  - {fileID: 11400000, guid: 62971559d9f794d4b93ce59e6e3488de, type: 2}
  - {fileID: 11400000, guid: 19852fec7111599478fdede3c8792dc0, type: 2}
  - {fileID: 11400000, guid: cd0ea63a1b6526847ba8b767d64c68e2, type: 2}
  - {fileID: 11400000, guid: ecf2e7917b37bd54ea4d1d78b76998f6, type: 2}
  - {fileID: 11400000, guid: ac9577047e525174bb3e0ea44a5c8d5f, type: 2}
  - {fileID: 11400000, guid: 6db569a4ffb09f943a0550cd4bf14d13, type: 2}
  - {fileID: 11400000, guid: 84c8c75986965e148bf7d3f72c9854af, type: 2}
  - {fileID: 11400000, guid: 78d34eeaced6b23408b1eae2d2884b7f, type: 2}
  - {fileID: 11400000, guid: 8ab0af8bfa963bc42885e2a6fb80859b, type: 2}
  - {fileID: 11400000, guid: 8df03a299e8ef844a8a7a1d651d961c9, type: 2}
  - {fileID: 11400000, guid: 85a0639cec3707d42b1537d6a1dfaa72, type: 2}
  minimumGrubiness: 0
  maximumGrubiness: 1
  decorSetting: 0
  excludeFromOthersCopyingDecorStyle: 0
  chanceOfOverrideMatIfGroundFloor: 0
  chanceOfOverrideMatIfBasement: 0
  chanceOfOverrideMatIfStairwell: 0
  floorOverrides: []
  wallOverrides: []
  ceilingOverrides: []
  decorationPriority: 5
  useOwnership: 0
  assignBelongsToOwners: 0
  preferCouples: 0
  belongsToJob: []
  exteriorDoor: {fileID: 11400000, guid: 859ce4237245e114b97df04864b1a1f7, type: 2}
  addressDoor: {fileID: 11400000, guid: cd77f80210c04354a82e7391fbbd4052, type: 2}
  internalDoor: {fileID: 11400000, guid: 0657c86beacc2c849abb081e4d64ba04, type: 2}
  passwordPriority: 5
  preferredPassword: 1
  placeKey: 0000000002000000
  keyOwnershipPlacement: 2
  steps: {fileID: 2177168105624748219, guid: d23ba5d9adf6c6f4d9f6ddb40c5bdef1, type: 3}
  replaceWindows: {fileID: 11400000, guid: fce6cfc7832fe1c4b9e157dab8064ec9, type: 2}
  replaceWalls: {fileID: 11400000, guid: fce6cfc7832fe1c4b9e157dab8064ec9, type: 2}
  replaceEntrance: {fileID: 0}
  replaceInsideAlso: 0
  replaceOnlyIfOtherIs: 0
  onlyReplaceIf: []
  forceStreetLightLayer: 0
  drawBuildingModel: 0
  wallFrontage:
  - name: Exterior Entance
    wallPreset: {fileID: 11400000, guid: ddd7bdbd66808bb4c91d839f457379cf, type: 2}
    insideFrontage: []
    outsideFrontage:
    - {fileID: 11400000, guid: b39d0b4c4a83922469eaeb24de769d40, type: 2}
    onlyIfBorderingOutside: 1
    localOffset: {x: 0, y: 0, z: 0}
    limitToBuildingTypes: 0
    limitedToBuildings: []
  - name: Exterior Entance
    wallPreset: {fileID: 11400000, guid: 7579f8450f1f00f439e867b0bc79e5dc, type: 2}
    insideFrontage: []
    outsideFrontage:
    - {fileID: 11400000, guid: b39d0b4c4a83922469eaeb24de769d40, type: 2}
    onlyIfBorderingOutside: 1
    localOffset: {x: 0, y: 0, z: 0}
    limitToBuildingTypes: 0
    limitedToBuildings: []
  - name: Window
    wallPreset: {fileID: 11400000, guid: fce6cfc7832fe1c4b9e157dab8064ec9, type: 2}
    insideFrontage: []
    outsideFrontage:
    - {fileID: 11400000, guid: 6721158e88fb4f44f8f0882db8882c42, type: 2}
    onlyIfBorderingOutside: 1
    localOffset: {x: 0, y: 0, z: 0}
    limitToBuildingTypes: 0
    limitedToBuildings: []
  oneFrontagePerNode: 0
  maximumVents: 2
  chanceOfRoofVent: 1
  chanceOfWallVentUpper: 0
  chanceOfWallVentLower: 0
  allowUpperWallLevelDucts: 1
  onlyAllowUpperIfFloorLevelIsZero: 1
  limitUpperLevelDucts: 99
  allowLowerWallLevelDucts: 0
  overrideAddressEnvironment: 1
  sceneClean: 9
  sceneDirty: 2
  baseRoomAtmosphere: 1
  forceOutside: 0
  ambientZone: {fileID: 11400000, guid: 49949d91154b8c74281ff318057e7021, type: 2}
  fingerprintsEnabled: 1
  footprintsEnabled: 1
  printsSource: 3
  fingerprintWallDensity: 1
  allowCoving: 1
  allowBugs: 1
  bugAmountMultiplier: 0.2
  forbidden: 2
  allowedIfGivenCorrectPassword: 1
  AIknowPassword: 1
  escalationLevelNormal: 0
  escalationLevelAfterHours: 1
  securityLevel: 0
  allowPersonalAffects: 1
  overrideMaxFurnitureClusters: 1
  overridenMaxFurniture: 50
  overrideAttemptsPerNodeMultiplier: 0
  overridenAttemptsPerNode: 1.75
  shadinessValue: 0
  allowMuggings: 0
  muggingAwakenRoom: 0
  debugRoom: {fileID: 0}
