%YAML 1.1
%TAG !u! tag:unity3d.com,2011:
--- !u!114 &11400000
MonoBehaviour:
  m_ObjectHideFlags: 0
  m_CorrespondingSourceObject: {fileID: 0}
  m_PrefabInstance: {fileID: 0}
  m_PrefabAsset: {fileID: 0}
  m_GameObject: {fileID: 0}
  m_Enabled: 1
  m_EditorHideFlags: 0
  m_Script: {fileID: 11500000, guid: 45095b82c45f08d4dbffbf9695e57dcf, type: 3}
  m_Name: BasementLobby
  m_EditorClassIdentifier: 
  presetName: BasementLobby
  roomType: {fileID: 11400000, guid: 1ae294aa17322c0489d89eeb360873e0, type: 2}
  roomClass: {fileID: 11400000, guid: 8de2a9e301069bf47b4732e74b5b04e3, type: 2}
  canBeOpenPlan: 0
  openPlanRoom: {fileID: 0}
  securityDoors: 3
  limitSecurityCameras: 0
  securityCameraLimit: 1
  useMainLights: 1
  useLightSwitches: 1
  lightsOnAtStart: 1
  wellLit: 0
  autoDisableLightsOutOfVicinity: 1
  onlyAutoDisableInNonStairwell: 1
  useAdditionalAreaLights: 0
  useDistrictSettingsAsBase: 0
  minimumLightZoneSizeForAreaLights: 4
  areaLightOffset: {x: 0, y: 0, z: 0}
  areaLightBrightness: 1000
  areaLightColor: {r: 1, g: 1, b: 1, a: 1}
  areaLightRange: 10
  areaLightCoverageMultiplier: 1
  boostCeilingEmission: 0
  ceilingEmissionBoost: {r: 0, g: 0, b: 0, a: 1}
  chanceOfCeilingFans: 0
  baseLightingShadowTint: 1
  baseLightingShadowTintIntensity: 0.075
  areaLightingShadowTint: 1
  areaLightingShadowTintIntensity: 0.35
  overrideAreaLightShadowTint: 0
  areaLightShadowTintOverride: {r: 0, g: 0, b: 0, a: 0}
  areaLightShadowDimmer: 1
  lightingBehaviour:
  - dayRule: 0
    passthroughBehaviour: 8
    destinationBehaviour: 8
    exitRoomBehaviour: 7
    exitGameLocationBehaviour: 7
  cleanness: 0
  forceColourSchemes: []
  minimumGrubiness: 0.35
  maximumGrubiness: 1
  decorSetting: 2
  excludeFromOthersCopyingDecorStyle: 0
  chanceOfOverrideMatIfGroundFloor: 0
  chanceOfOverrideMatIfBasement: 1
  chanceOfOverrideMatIfStairwell: 0
  floorOverrides:
  - {fileID: 11400000, guid: 80c2e9e5fd172784eb917ff463da830a, type: 2}
  wallOverrides:
  - {fileID: 11400000, guid: 22b30aba5a8926549970e5020ad91232, type: 2}
  - {fileID: 11400000, guid: cab38168efe591b4ba3cefea532d64db, type: 2}
  - {fileID: 11400000, guid: 480586c1c4902184a86b84039bdfbacb, type: 2}
  ceilingOverrides:
  - {fileID: 11400000, guid: f8b652c8c5b42e148adc26e5a59ef6c4, type: 2}
  decorationPriority: 5
  useOwnership: 0
  assignBelongsToOwners: 0
  preferCouples: 0
  belongsToJob: []
  exteriorDoor: {fileID: 11400000, guid: 6c1630a6463934d41a8a32b9848d63dc, type: 2}
  addressDoor: {fileID: 11400000, guid: b519060d06b7064488ebc451664df2e0, type: 2}
  internalDoor: {fileID: 11400000, guid: 6c1630a6463934d41a8a32b9848d63dc, type: 2}
  passwordPriority: 2
  preferredPassword: 1
  placeKey: 
  keyOwnershipPlacement: 2
  steps: {fileID: 2177168105624748219, guid: d23ba5d9adf6c6f4d9f6ddb40c5bdef1, type: 3}
  replaceWindows: {fileID: 0}
  replaceWalls: {fileID: 0}
  replaceEntrance: {fileID: 0}
  replaceInsideAlso: 0
  replaceOnlyIfOtherIs: 0
  onlyReplaceIf: []
  forceStreetLightLayer: 0
  drawBuildingModel: 0
  wallFrontage: []
  oneFrontagePerNode: 0
  maximumVents: 3
  chanceOfRoofVent: 2
  chanceOfWallVentUpper: 4
  chanceOfWallVentLower: 3
  allowUpperWallLevelDucts: 1
  onlyAllowUpperIfFloorLevelIsZero: 1
  limitUpperLevelDucts: 99
  allowLowerWallLevelDucts: 0
  overrideAddressEnvironment: 0
  sceneClean: 1
  sceneDirty: 2
  baseRoomAtmosphere: 1
  forceOutside: 0
  ambientZone: {fileID: 11400000, guid: 805af762cc0dac54e8582e51c9ed57cc, type: 2}
  fingerprintsEnabled: 0
  footprintsEnabled: 1
  printsSource: 2
  fingerprintWallDensity: 1
  allowCoving: 0
  allowBugs: 1
  bugAmountMultiplier: 0.25
  forbidden: 0
  allowedIfGivenCorrectPassword: 1
  AIknowPassword: 1
  escalationLevelNormal: 0
  escalationLevelAfterHours: 0
  securityLevel: 0
  allowPersonalAffects: 1
  overrideMaxFurnitureClusters: 0
  overridenMaxFurniture: 42
  overrideAttemptsPerNodeMultiplier: 0
  overridenAttemptsPerNode: 1.75
  shadinessValue: 7
  allowMuggings: 1
  muggingAwakenRoom: 0
  debugRoom: {fileID: 0}
