%YAML 1.1
%TAG !u! tag:unity3d.com,2011:
--- !u!114 &11400000
MonoBehaviour:
  m_ObjectHideFlags: 0
  m_CorrespondingSourceObject: {fileID: 0}
  m_PrefabInstance: {fileID: 0}
  m_PrefabAsset: {fileID: 0}
  m_GameObject: {fileID: 0}
  m_Enabled: 1
  m_EditorHideFlags: 0
  m_Script: {fileID: 11500000, guid: 45095b82c45f08d4dbffbf9695e57dcf, type: 3}
  m_Name: BasementGenericBathroom
  m_EditorClassIdentifier: 
  presetName: BasementGenericBathroom
  roomType: {fileID: 11400000, guid: aa8a0f7d6d4262345a07562915ec9317, type: 2}
  roomClass: {fileID: 11400000, guid: 0604d96b927962446af8baae1cde322a, type: 2}
  canBeOpenPlan: 0
  openPlanRoom: {fileID: 0}
  securityDoors: 0
  limitSecurityCameras: 1
  securityCameraLimit: 1
  useMainLights: 1
  useLightSwitches: 1
  lightsOnAtStart: 0
  wellLit: 0
  autoDisableLightsOutOfVicinity: 1
  onlyAutoDisableInNonStairwell: 0
  useAdditionalAreaLights: 0
  useDistrictSettingsAsBase: 0
  minimumLightZoneSizeForAreaLights: 4
  areaLightOffset: {x: 0, y: 0, z: 0}
  areaLightBrightness: 1000
  areaLightColor: {r: 0.8509804, g: 1, b: 0.94509804, a: 1}
  areaLightRange: 10
  areaLightCoverageMultiplier: 1
  boostCeilingEmission: 0
  ceilingEmissionBoost: {r: 0.12941177, g: 0.12941177, b: 0.12941177, a: 1}
  chanceOfCeilingFans: 0
  baseLightingShadowTint: 1
  baseLightingShadowTintIntensity: 0.075
  areaLightingShadowTint: 1
  areaLightingShadowTintIntensity: 0.35
  overrideAreaLightShadowTint: 0
  areaLightShadowTintOverride: {r: 0, g: 0, b: 0, a: 0}
  areaLightShadowDimmer: 1
  lightingBehaviour:
  - dayRule: 0
    passthroughBehaviour: 8
    destinationBehaviour: 8
    exitRoomBehaviour: 7
    exitGameLocationBehaviour: 4
  cleanness: 7
  forceColourSchemes: []
  minimumGrubiness: 0.6
  maximumGrubiness: 1
  decorSetting: 0
  excludeFromOthersCopyingDecorStyle: 0
  chanceOfOverrideMatIfGroundFloor: 0
  chanceOfOverrideMatIfBasement: 0
  chanceOfOverrideMatIfStairwell: 0
  floorOverrides: []
  wallOverrides: []
  ceilingOverrides: []
  decorationPriority: 5
  useOwnership: 0
  assignBelongsToOwners: 1
  preferCouples: 0
  belongsToJob:
  - {fileID: 11400000, guid: 97698be5c81265445a1c2ee43f0c23a6, type: 2}
  exteriorDoor: {fileID: 11400000, guid: 859ce4237245e114b97df04864b1a1f7, type: 2}
  addressDoor: {fileID: 11400000, guid: d41d627df0d5d3a4ab3d81bacf7a5126, type: 2}
  internalDoor: {fileID: 11400000, guid: 0657c86beacc2c849abb081e4d64ba04, type: 2}
  passwordPriority: 5
  preferredPassword: 1
  placeKey: 0000000002000000
  keyOwnershipPlacement: 2
  steps: {fileID: 2177168105624748219, guid: d23ba5d9adf6c6f4d9f6ddb40c5bdef1, type: 3}
  replaceWindows: {fileID: 0}
  replaceWalls: {fileID: 0}
  replaceEntrance: {fileID: 0}
  replaceInsideAlso: 0
  replaceOnlyIfOtherIs: 0
  onlyReplaceIf: []
  forceStreetLightLayer: 0
  drawBuildingModel: 0
  wallFrontage: []
  oneFrontagePerNode: 0
  maximumVents: 2
  chanceOfRoofVent: 1
  chanceOfWallVentUpper: 0
  chanceOfWallVentLower: 0
  allowUpperWallLevelDucts: 0
  onlyAllowUpperIfFloorLevelIsZero: 1
  limitUpperLevelDucts: 99
  allowLowerWallLevelDucts: 0
  overrideAddressEnvironment: 0
  sceneClean: 1
  sceneDirty: 2
  baseRoomAtmosphere: 1
  forceOutside: 0
  ambientZone: {fileID: 11400000, guid: 805af762cc0dac54e8582e51c9ed57cc, type: 2}
  fingerprintsEnabled: 0
  footprintsEnabled: 1
  printsSource: 1
  fingerprintWallDensity: 1
  allowCoving: 0
  allowBugs: 1
  bugAmountMultiplier: 1
  forbidden: 0
  allowedIfGivenCorrectPassword: 1
  AIknowPassword: 1
  escalationLevelNormal: 0
  escalationLevelAfterHours: 0
  securityLevel: 0
  allowPersonalAffects: 0
  overrideMaxFurnitureClusters: 0
  overridenMaxFurniture: 42
  overrideAttemptsPerNodeMultiplier: 0
  overridenAttemptsPerNode: 1.75
  shadinessValue: 5
  allowMuggings: 0
  muggingAwakenRoom: 1
  debugRoom: {fileID: 0}
