%YAML 1.1
%TAG !u! tag:unity3d.com,2011:
--- !u!114 &11400000
MonoBehaviour:
  m_ObjectHideFlags: 0
  m_CorrespondingSourceObject: {fileID: 0}
  m_PrefabInstance: {fileID: 0}
  m_PrefabAsset: {fileID: 0}
  m_GameObject: {fileID: 0}
  m_Enabled: 1
  m_EditorHideFlags: 0
  m_Script: {fileID: 11500000, guid: 45095b82c45f08d4dbffbf9695e57dcf, type: 3}
  m_Name: BathroomMale
  m_EditorClassIdentifier: 
  presetName: BathroomMale
  roomType: {fileID: 11400000, guid: aa8a0f7d6d4262345a07562915ec9317, type: 2}
  roomClass: {fileID: 11400000, guid: 0eb1a6d2e207abb45aeaefcf5c8fa41b, type: 2}
  canBeOpenPlan: 0
  openPlanRoom: {fileID: 0}
  securityDoors: 0
  limitSecurityCameras: 0
  securityCameraLimit: 1
  useMainLights: 1
  useLightSwitches: 1
  lightsOnAtStart: 1
  wellLit: 0
  autoDisableLightsOutOfVicinity: 1
  onlyAutoDisableInNonStairwell: 0
  useAdditionalAreaLights: 1
  useDistrictSettingsAsBase: 0
  minimumLightZoneSizeForAreaLights: 4
  areaLightOffset: {x: 0, y: 0, z: 0}
  areaLightBrightness: 200
  areaLightColor: {r: 1, g: 1, b: 1, a: 1}
  areaLightRange: 10
  areaLightCoverageMultiplier: 1
  boostCeilingEmission: 1
  ceilingEmissionBoost: {r: 0.12941177, g: 0.12941177, b: 0.12941177, a: 1}
  chanceOfCeilingFans: 0
  baseLightingShadowTint: 1
  baseLightingShadowTintIntensity: 0.075
  areaLightingShadowTint: 1
  areaLightingShadowTintIntensity: 0.35
  overrideAreaLightShadowTint: 0
  areaLightShadowTintOverride: {r: 0, g: 0, b: 0, a: 0}
  areaLightShadowDimmer: 1
  lightingBehaviour:
  - dayRule: 0
    passthroughBehaviour: 7
    destinationBehaviour: 8
    exitRoomBehaviour: 7
    exitGameLocationBehaviour: 7
  cleanness: 10
  forceColourSchemes: []
  minimumGrubiness: 0
  maximumGrubiness: 1
  decorSetting: 2
  excludeFromOthersCopyingDecorStyle: 1
  chanceOfOverrideMatIfGroundFloor: 0
  chanceOfOverrideMatIfBasement: 0
  chanceOfOverrideMatIfStairwell: 0
  floorOverrides: []
  wallOverrides: []
  ceilingOverrides: []
  decorationPriority: 5
  useOwnership: 0
  assignBelongsToOwners: 0
  preferCouples: 0
  belongsToJob: []
  exteriorDoor: {fileID: 0}
  addressDoor: {fileID: 0}
  internalDoor: {fileID: 11400000, guid: 0657c86beacc2c849abb081e4d64ba04, type: 2}
  passwordPriority: 10
  preferredPassword: 1
  placeKey: 00000000
  keyOwnershipPlacement: 2
  steps: {fileID: 2177168105624748219, guid: d23ba5d9adf6c6f4d9f6ddb40c5bdef1, type: 3}
  replaceWindows: {fileID: 11400000, guid: 6dc09f63fa5d11846be2cb6a22eec693, type: 2}
  replaceWalls: {fileID: 0}
  replaceEntrance: {fileID: 0}
  replaceInsideAlso: 0
  replaceOnlyIfOtherIs: 0
  onlyReplaceIf: []
  forceStreetLightLayer: 0
  drawBuildingModel: 0
  wallFrontage:
  - name: Diner Exterior
    wallPreset: {fileID: 11400000, guid: 6dc09f63fa5d11846be2cb6a22eec693, type: 2}
    insideFrontage: []
    outsideFrontage:
    - {fileID: 11400000, guid: 2c39fb7eb9a07fa4fa1be3bfeef7a5d7, type: 2}
    onlyIfBorderingOutside: 1
    localOffset: {x: 0, y: 0, z: 0}
    limitToBuildingTypes: 1
    limitedToBuildings:
    - {fileID: 11400000, guid: 482200ed03ddb8149bcc2977b0787169, type: 2}
  - name: Window
    wallPreset: {fileID: 11400000, guid: fce6cfc7832fe1c4b9e157dab8064ec9, type: 2}
    insideFrontage:
    - {fileID: 11400000, guid: a74927d276fda3b45bd00380d0086435, type: 2}
    outsideFrontage: []
    onlyIfBorderingOutside: 1
    localOffset: {x: 0, y: 0, z: 0}
    limitToBuildingTypes: 0
    limitedToBuildings: []
  - name: Window
    wallPreset: {fileID: 11400000, guid: 7797b7f133fd02d489d244fde2efbeac, type: 2}
    insideFrontage:
    - {fileID: 11400000, guid: a74927d276fda3b45bd00380d0086435, type: 2}
    outsideFrontage: []
    onlyIfBorderingOutside: 1
    localOffset: {x: 0, y: 0, z: 0}
    limitToBuildingTypes: 0
    limitedToBuildings: []
  - name: Window
    wallPreset: {fileID: 11400000, guid: ad2ff035f6d84fb4caca5ad14cd9867c, type: 2}
    insideFrontage:
    - {fileID: 11400000, guid: a74927d276fda3b45bd00380d0086435, type: 2}
    outsideFrontage: []
    onlyIfBorderingOutside: 1
    localOffset: {x: 0, y: 0, z: 0}
    limitToBuildingTypes: 0
    limitedToBuildings: []
  oneFrontagePerNode: 0
  maximumVents: 2
  chanceOfRoofVent: 6
  chanceOfWallVentUpper: 7
  chanceOfWallVentLower: 2
  allowUpperWallLevelDucts: 1
  onlyAllowUpperIfFloorLevelIsZero: 1
  limitUpperLevelDucts: 2
  allowLowerWallLevelDucts: 0
  overrideAddressEnvironment: 1
  sceneClean: 3
  sceneDirty: 2
  baseRoomAtmosphere: 0.5
  forceOutside: 0
  ambientZone: {fileID: 11400000, guid: 759dfb4f023395a419aedb45f2f5518f, type: 2}
  fingerprintsEnabled: 1
  footprintsEnabled: 1
  printsSource: 4
  fingerprintWallDensity: 1
  allowCoving: 0
  allowBugs: 1
  bugAmountMultiplier: 0.75
  forbidden: 2
  allowedIfGivenCorrectPassword: 1
  AIknowPassword: 1
  escalationLevelNormal: 0
  escalationLevelAfterHours: 1
  securityLevel: 0
  allowPersonalAffects: 0
  overrideMaxFurnitureClusters: 0
  overridenMaxFurniture: 42
  overrideAttemptsPerNodeMultiplier: 0
  overridenAttemptsPerNode: 1.75
  shadinessValue: 7
  allowMuggings: 0
  muggingAwakenRoom: 0
  debugRoom: {fileID: 0}
