%YAML 1.1
%TAG !u! tag:unity3d.com,2011:
--- !u!114 &11400000
MonoBehaviour:
  m_ObjectHideFlags: 0
  m_CorrespondingSourceObject: {fileID: 0}
  m_PrefabInstance: {fileID: 0}
  m_PrefabAsset: {fileID: 0}
  m_GameObject: {fileID: 0}
  m_Enabled: 1
  m_EditorHideFlags: 0
  m_Script: {fileID: 11500000, guid: 45095b82c45f08d4dbffbf9695e57dcf, type: 3}
  m_Name: IndustrialLobby
  m_EditorClassIdentifier: 
  presetName: IndustrialLobby
  roomType: {fileID: 11400000, guid: 388ed3b896e23d146ba27eda9f1a1500, type: 2}
  roomClass: {fileID: 11400000, guid: 14898fa403f9c99429304c5ef617a14b, type: 2}
  canBeOpenPlan: 0
  openPlanRoom: {fileID: 0}
  securityDoors: 3
  limitSecurityCameras: 0
  securityCameraLimit: 1
  useMainLights: 1
  useLightSwitches: 1
  lightsOnAtStart: 1
  wellLit: 0
  autoDisableLightsOutOfVicinity: 1
  onlyAutoDisableInNonStairwell: 1
  useAdditionalAreaLights: 0
  useDistrictSettingsAsBase: 0
  minimumLightZoneSizeForAreaLights: 4
  areaLightOffset: {x: 0, y: 0, z: 0}
  areaLightBrightness: 1000
  areaLightColor: {r: 1, g: 1, b: 1, a: 1}
  areaLightRange: 10
  areaLightCoverageMultiplier: 1
  boostCeilingEmission: 0
  ceilingEmissionBoost: {r: 0, g: 0, b: 0, a: 1}
  chanceOfCeilingFans: 0
  baseLightingShadowTint: 1
  baseLightingShadowTintIntensity: 0.075
  areaLightingShadowTint: 1
  areaLightingShadowTintIntensity: 0.35
  overrideAreaLightShadowTint: 0
  areaLightShadowTintOverride: {r: 0, g: 0, b: 0, a: 0}
  areaLightShadowDimmer: 1
  lightingBehaviour:
  - dayRule: 0
    passthroughBehaviour: 8
    destinationBehaviour: 8
    exitRoomBehaviour: 7
    exitGameLocationBehaviour: 7
  cleanness: 1
  forceColourSchemes: []
  minimumGrubiness: 0
  maximumGrubiness: 1
  decorSetting: 2
  excludeFromOthersCopyingDecorStyle: 0
  chanceOfOverrideMatIfGroundFloor: 0.66
  chanceOfOverrideMatIfBasement: 0
  chanceOfOverrideMatIfStairwell: 1
  floorOverrides:
  - {fileID: 11400000, guid: f43075b909556e245aaac2867d42b317, type: 2}
  wallOverrides:
  - {fileID: 11400000, guid: 5aeea50fa34a14c4384e767a15493a8f, type: 2}
  ceilingOverrides: []
  decorationPriority: 5
  useOwnership: 0
  assignBelongsToOwners: 0
  preferCouples: 0
  belongsToJob: []
  exteriorDoor: {fileID: 11400000, guid: 3f53711e3d5b21742b17cf4b945c138a, type: 2}
  addressDoor: {fileID: 11400000, guid: 7ba726a3ee03f73419237f15ac5ead11, type: 2}
  internalDoor: {fileID: 11400000, guid: 3f53711e3d5b21742b17cf4b945c138a, type: 2}
  passwordPriority: 2
  preferredPassword: 2
  placeKey: 
  keyOwnershipPlacement: 2
  steps: {fileID: 2177168105624748219, guid: d23ba5d9adf6c6f4d9f6ddb40c5bdef1, type: 3}
  replaceWindows: {fileID: 0}
  replaceWalls: {fileID: 0}
  replaceEntrance: {fileID: 0}
  replaceInsideAlso: 0
  replaceOnlyIfOtherIs: 0
  onlyReplaceIf: []
  forceStreetLightLayer: 0
  drawBuildingModel: 0
  wallFrontage:
  - name: 
    wallPreset: {fileID: 11400000, guid: fce6cfc7832fe1c4b9e157dab8064ec9, type: 2}
    insideFrontage:
    - {fileID: 11400000, guid: 87f80f31721f49543a6559ea2363ced1, type: 2}
    outsideFrontage: []
    onlyIfBorderingOutside: 0
    localOffset: {x: 0, y: 0, z: 0}
    limitToBuildingTypes: 0
    limitedToBuildings: []
  - name: 
    wallPreset: {fileID: 11400000, guid: 7797b7f133fd02d489d244fde2efbeac, type: 2}
    insideFrontage:
    - {fileID: 11400000, guid: 87f80f31721f49543a6559ea2363ced1, type: 2}
    outsideFrontage: []
    onlyIfBorderingOutside: 0
    localOffset: {x: 0, y: 0, z: 0}
    limitToBuildingTypes: 0
    limitedToBuildings: []
  - name: 
    wallPreset: {fileID: 11400000, guid: ad2ff035f6d84fb4caca5ad14cd9867c, type: 2}
    insideFrontage:
    - {fileID: 11400000, guid: 87f80f31721f49543a6559ea2363ced1, type: 2}
    outsideFrontage: []
    onlyIfBorderingOutside: 0
    localOffset: {x: 0, y: 0, z: 0}
    limitToBuildingTypes: 0
    limitedToBuildings: []
  oneFrontagePerNode: 0
  maximumVents: 1
  chanceOfRoofVent: 2
  chanceOfWallVentUpper: 4
  chanceOfWallVentLower: 3
  allowUpperWallLevelDucts: 1
  onlyAllowUpperIfFloorLevelIsZero: 1
  limitUpperLevelDucts: 99
  allowLowerWallLevelDucts: 0
  overrideAddressEnvironment: 0
  sceneClean: 1
  sceneDirty: 2
  baseRoomAtmosphere: 0.4
  forceOutside: 0
  ambientZone: {fileID: 11400000, guid: 04e77b58113f85841810f414ba9c250c, type: 2}
  fingerprintsEnabled: 1
  footprintsEnabled: 1
  printsSource: 2
  fingerprintWallDensity: 1
  allowCoving: 1
  allowBugs: 1
  bugAmountMultiplier: 0.1
  forbidden: 1
  allowedIfGivenCorrectPassword: 1
  AIknowPassword: 1
  escalationLevelNormal: 1
  escalationLevelAfterHours: 1
  securityLevel: 0
  allowPersonalAffects: 1
  overrideMaxFurnitureClusters: 0
  overridenMaxFurniture: 42
  overrideAttemptsPerNodeMultiplier: 0
  overridenAttemptsPerNode: 1.75
  shadinessValue: 0
  allowMuggings: 0
  muggingAwakenRoom: 0
  debugRoom: {fileID: 0}
