%YAML 1.1
%TAG !u! tag:unity3d.com,2011:
--- !u!114 &11400000
MonoBehaviour:
  m_ObjectHideFlags: 0
  m_CorrespondingSourceObject: {fileID: 0}
  m_PrefabInstance: {fileID: 0}
  m_PrefabAsset: {fileID: 0}
  m_GameObject: {fileID: 0}
  m_Enabled: 1
  m_EditorHideFlags: 0
  m_Script: {fileID: 11500000, guid: 45095b82c45f08d4dbffbf9695e57dcf, type: 3}
  m_Name: Joiner
  m_EditorClassIdentifier: 
  presetName: Joiner
  roomType: {fileID: 11400000, guid: ab109c860aa04c24e8e4f00e0a19969e, type: 2}
  roomClass: {fileID: 11400000, guid: 212eb25205d7cff41b2edaac3a4e03d6, type: 2}
  canBeOpenPlan: 0
  openPlanRoom: {fileID: 11400000, guid: 3bc0a8c484baaf74ca1ca56b977bb300, type: 2}
  securityDoors: 0
  limitSecurityCameras: 0
  securityCameraLimit: 1
  useMainLights: 0
  useLightSwitches: 0
  lightsOnAtStart: 0
  wellLit: 0
  autoDisableLightsOutOfVicinity: 1
  onlyAutoDisableInNonStairwell: 0
  useAdditionalAreaLights: 0
  useDistrictSettingsAsBase: 0
  minimumLightZoneSizeForAreaLights: 4
  areaLightOffset: {x: 0, y: 0, z: 0}
  areaLightBrightness: 1000
  areaLightColor: {r: 1, g: 1, b: 1, a: 1}
  areaLightRange: 10
  areaLightCoverageMultiplier: 1
  boostCeilingEmission: 0
  ceilingEmissionBoost: {r: 0, g: 0, b: 0, a: 1}
  chanceOfCeilingFans: 0
  baseLightingShadowTint: 1
  baseLightingShadowTintIntensity: 0.075
  areaLightingShadowTint: 1
  areaLightingShadowTintIntensity: 0.35
  overrideAreaLightShadowTint: 0
  areaLightShadowTintOverride: {r: 0, g: 0, b: 0, a: 0}
  areaLightShadowDimmer: 1
  lightingBehaviour: []
  cleanness: 6
  forceColourSchemes: []
  minimumGrubiness: 0
  maximumGrubiness: 1
  decorSetting: 1
  excludeFromOthersCopyingDecorStyle: 0
  chanceOfOverrideMatIfGroundFloor: 0
  chanceOfOverrideMatIfBasement: 0
  chanceOfOverrideMatIfStairwell: 0
  floorOverrides: []
  wallOverrides: []
  ceilingOverrides: []
  decorationPriority: 5
  useOwnership: 0
  assignBelongsToOwners: 0
  preferCouples: 0
  belongsToJob: []
  exteriorDoor: {fileID: 0}
  addressDoor: {fileID: 0}
  internalDoor: {fileID: 11400000, guid: 859ce4237245e114b97df04864b1a1f7, type: 2}
  passwordPriority: 5
  preferredPassword: 1
  placeKey: 00000000
  keyOwnershipPlacement: 2
  steps: {fileID: 2177168105624748219, guid: d23ba5d9adf6c6f4d9f6ddb40c5bdef1, type: 3}
  replaceWindows: {fileID: 0}
  replaceWalls: {fileID: 0}
  replaceEntrance: {fileID: 0}
  replaceInsideAlso: 0
  replaceOnlyIfOtherIs: 0
  onlyReplaceIf: []
  forceStreetLightLayer: 0
  drawBuildingModel: 0
  wallFrontage: []
  oneFrontagePerNode: 0
  maximumVents: 1
  chanceOfRoofVent: 1
  chanceOfWallVentUpper: 5
  chanceOfWallVentLower: 3
  allowUpperWallLevelDucts: 1
  onlyAllowUpperIfFloorLevelIsZero: 1
  limitUpperLevelDucts: 99
  allowLowerWallLevelDucts: 1
  overrideAddressEnvironment: 0
  sceneClean: 1
  sceneDirty: 2
  baseRoomAtmosphere: 0.5
  forceOutside: 0
  ambientZone: {fileID: 0}
  fingerprintsEnabled: 1
  footprintsEnabled: 1
  printsSource: 1
  fingerprintWallDensity: 1
  allowCoving: 0
  allowBugs: 1
  bugAmountMultiplier: 0.75
  forbidden: 1
  allowedIfGivenCorrectPassword: 1
  AIknowPassword: 1
  escalationLevelNormal: 0
  escalationLevelAfterHours: 1
  securityLevel: 0
  allowPersonalAffects: 1
  overrideMaxFurnitureClusters: 0
  overridenMaxFurniture: 42
  overrideAttemptsPerNodeMultiplier: 0
  overridenAttemptsPerNode: 1.75
  shadinessValue: 0
  allowMuggings: 0
  muggingAwakenRoom: 0
  debugRoom: {fileID: 0}
