%YAML 1.1
%TAG !u! tag:unity3d.com,2011:
--- !u!114 &11400000
MonoBehaviour:
  m_ObjectHideFlags: 0
  m_CorrespondingSourceObject: {fileID: 0}
  m_PrefabInstance: {fileID: 0}
  m_PrefabAsset: {fileID: 0}
  m_GameObject: {fileID: 0}
  m_Enabled: 1
  m_EditorHideFlags: 0
  m_Script: {fileID: 11500000, guid: 45095b82c45f08d4dbffbf9695e57dcf, type: 3}
  m_Name: PawnShop
  m_EditorClassIdentifier: 
  presetName: PawnShop
  roomType: {fileID: 11400000, guid: b1bd13fe3ade5c349b22f8726ef91a8d, type: 2}
  roomClass: {fileID: 11400000, guid: 54862c6ef0315264b903848b9d7d629c, type: 2}
  canBeOpenPlan: 0
  openPlanRoom: {fileID: 0}
  securityDoors: 2
  limitSecurityCameras: 0
  securityCameraLimit: 1
  useMainLights: 1
  useLightSwitches: 1
  lightsOnAtStart: 1
  wellLit: 0
  autoDisableLightsOutOfVicinity: 1
  onlyAutoDisableInNonStairwell: 0
  useAdditionalAreaLights: 1
  useDistrictSettingsAsBase: 0
  minimumLightZoneSizeForAreaLights: 4
  areaLightOffset: {x: 0, y: 0, z: 0}
  areaLightBrightness: 1500
  areaLightColor: {r: 1, g: 0.86997545, b: 0.5896226, a: 1}
  areaLightRange: 10
  areaLightCoverageMultiplier: 1
  boostCeilingEmission: 0
  ceilingEmissionBoost: {r: 0.12941177, g: 0.12941177, b: 0.12941177, a: 1}
  chanceOfCeilingFans: 0.8
  baseLightingShadowTint: 1
  baseLightingShadowTintIntensity: 0.075
  areaLightingShadowTint: 1
  areaLightingShadowTintIntensity: 0.35
  overrideAreaLightShadowTint: 0
  areaLightShadowTintOverride: {r: 0, g: 0, b: 0, a: 0}
  areaLightShadowDimmer: 1
  lightingBehaviour:
  - dayRule: 0
    passthroughBehaviour: 8
    destinationBehaviour: 8
    exitRoomBehaviour: 7
    exitGameLocationBehaviour: 4
  cleanness: 0
  forceColourSchemes: []
  minimumGrubiness: 0.393
  maximumGrubiness: 1
  decorSetting: 0
  excludeFromOthersCopyingDecorStyle: 0
  chanceOfOverrideMatIfGroundFloor: 0
  chanceOfOverrideMatIfBasement: 0
  chanceOfOverrideMatIfStairwell: 0
  floorOverrides: []
  wallOverrides: []
  ceilingOverrides: []
  decorationPriority: 5
  useOwnership: 0
  assignBelongsToOwners: 0
  preferCouples: 0
  belongsToJob: []
  exteriorDoor: {fileID: 11400000, guid: b519060d06b7064488ebc451664df2e0, type: 2}
  addressDoor: {fileID: 11400000, guid: 859ce4237245e114b97df04864b1a1f7, type: 2}
  internalDoor: {fileID: 11400000, guid: 6c1630a6463934d41a8a32b9848d63dc, type: 2}
  passwordPriority: 5
  preferredPassword: 1
  placeKey: 0000000002000000
  keyOwnershipPlacement: 2
  steps: {fileID: 2177168105624748219, guid: d23ba5d9adf6c6f4d9f6ddb40c5bdef1, type: 3}
  replaceWindows: {fileID: 11400000, guid: fce6cfc7832fe1c4b9e157dab8064ec9, type: 2}
  replaceWalls: {fileID: 0}
  replaceEntrance: {fileID: 0}
  replaceInsideAlso: 0
  replaceOnlyIfOtherIs: 0
  onlyReplaceIf: []
  forceStreetLightLayer: 0
  drawBuildingModel: 0
  wallFrontage:
  - name: Exterior Entance
    wallPreset: {fileID: 11400000, guid: ddd7bdbd66808bb4c91d839f457379cf, type: 2}
    insideFrontage: []
    outsideFrontage:
    - {fileID: 11400000, guid: b39d0b4c4a83922469eaeb24de769d40, type: 2}
    onlyIfBorderingOutside: 1
    localOffset: {x: 0, y: 0, z: 0}
    limitToBuildingTypes: 0
    limitedToBuildings: []
  - name: Exterior Entance
    wallPreset: {fileID: 11400000, guid: 7579f8450f1f00f439e867b0bc79e5dc, type: 2}
    insideFrontage: []
    outsideFrontage:
    - {fileID: 11400000, guid: b39d0b4c4a83922469eaeb24de769d40, type: 2}
    onlyIfBorderingOutside: 1
    localOffset: {x: 0, y: 0, z: 0}
    limitToBuildingTypes: 0
    limitedToBuildings: []
  - name: Window
    wallPreset: {fileID: 11400000, guid: fce6cfc7832fe1c4b9e157dab8064ec9, type: 2}
    insideFrontage: []
    outsideFrontage:
    - {fileID: 11400000, guid: f514907bb729b164ebe29a0b04ed0cfb, type: 2}
    onlyIfBorderingOutside: 1
    localOffset: {x: 0, y: 0, z: 0}
    limitToBuildingTypes: 0
    limitedToBuildings: []
  oneFrontagePerNode: 0
  maximumVents: 2
  chanceOfRoofVent: 1
  chanceOfWallVentUpper: 1
  chanceOfWallVentLower: 1
  allowUpperWallLevelDucts: 1
  onlyAllowUpperIfFloorLevelIsZero: 1
  limitUpperLevelDucts: 12
  allowLowerWallLevelDucts: 0
  overrideAddressEnvironment: 0
  sceneClean: 1
  sceneDirty: 2
  baseRoomAtmosphere: 1
  forceOutside: 0
  ambientZone: {fileID: 11400000, guid: 04e77b58113f85841810f414ba9c250c, type: 2}
  fingerprintsEnabled: 1
  footprintsEnabled: 1
  printsSource: 3
  fingerprintWallDensity: 1
  allowCoving: 1
  allowBugs: 1
  bugAmountMultiplier: 0.5
  forbidden: 2
  allowedIfGivenCorrectPassword: 1
  AIknowPassword: 1
  escalationLevelNormal: 0
  escalationLevelAfterHours: 1
  securityLevel: 0
  allowPersonalAffects: 1
  overrideMaxFurnitureClusters: 0
  overridenMaxFurniture: 42
  overrideAttemptsPerNodeMultiplier: 0
  overridenAttemptsPerNode: 1.75
  shadinessValue: 0
  allowMuggings: 0
  muggingAwakenRoom: 0
  debugRoom: {fileID: 0}
