%YAML 1.1
%TAG !u! tag:unity3d.com,2011:
--- !u!114 &11400000
MonoBehaviour:
  m_ObjectHideFlags: 0
  m_CorrespondingSourceObject: {fileID: 0}
  m_PrefabInstance: {fileID: 0}
  m_PrefabAsset: {fileID: 0}
  m_GameObject: {fileID: 0}
  m_Enabled: 1
  m_EditorHideFlags: 0
  m_Script: {fileID: 11500000, guid: f31d90eac9ffe67449ac9e1da4317538, type: 3}
  m_Name: Desktop
  m_EditorClassIdentifier: 
  presetName: Desktop
  loadBackground: {fileID: 2100000, guid: 8a3233c026eaf3e4190336674fddf2da, type: 2}
  loadedBackground: {fileID: 2100000, guid: 141fa3a83603fa140b9b996fe32f0136, type: 2}
  useCursor: 1
  cursorSprite: {fileID: 21300000, guid: 681c87c988ecd0348ace43323376a86d, type: 3}
  useTimer: 0
  timerLength: 3
  loadTime: 1.75
  loadDemand: 0.33
  alwaysLoad: 0
  alwaysLoadDemand: 0.33
  desktopIcon: {fileID: 0}
  screenLightColourOnLoad: {r: 0.33490568, g: 0.7986794, b: 1, a: 1}
  screenLightColourOnFinishLoad: {r: 0.33490568, g: 0.7986794, b: 1, a: 1}
  alwaysInstalled: 1
  onlyIfCorporateSabotageSkill: 0
  companyOnly: 0
  salesRecordsOnly: 0
  onlyIfOwner: 0
  installationConditions: []
  onlyInAddresses: []
  onlyIfResidential: 0
  appContent:
  - {fileID: 8796801372458742822, guid: bd6b17ac35f7fc74eab178e8f7320f09, type: 3}
  onStartSound: {fileID: 0}
  onExitSound: {fileID: 0}
  onFinishedLoadingSound: {fileID: 0}
  openOnEnd: {fileID: 0}
