%YAML 1.1
%TAG !u! tag:unity3d.com,2011:
--- !u!114 &11400000
MonoBehaviour:
  m_ObjectHideFlags: 0
  m_CorrespondingSourceObject: {fileID: 0}
  m_PrefabInstance: {fileID: 0}
  m_PrefabAsset: {fileID: 0}
  m_GameObject: {fileID: 0}
  m_Enabled: 1
  m_EditorHideFlags: 0
  m_Script: {fileID: 11500000, guid: 05c50b8a24558c04fb29c890553074fd, type: 3}
  m_Name: GasReleaseSystem
  m_EditorClassIdentifier: 
  presetName: GasReleaseSystem
  classes:
  - {fileID: 11400000, guid: 4fd4a6848799a0947a140d2afa582d97, type: 2}
  prefab: {fileID: 7929288360200364652, guid: 155abe049e2fa5041856b97e88857e66, type: 3}
  allowStaticBatching: 0
  spawnRange: 3
  integratedInteractables:
  - preset: {fileID: 11400000, guid: 855e6c7aed0f45745918f4b8e2552e7a, type: 2}
    pairToController: 0
    belongsTo: 0
  universalDesignStyle: 1
  designStyles: []
  inheritColouringFromDecor: 0
  shareColours: 0
  inheritGrubFromDecor: 1
  variations: []
  furnitureGroup: 0
  groupID: 0
  concrete: 0
  plaster: 0
  wood: 0
  carpet: 0
  tile: 0
  metal: 1
  glass: 0
  fabric: 0
  minimumRoomSize: 0
  allowedInOpenPlan: 0
  onlyAllowInFollowing: 0
  allowedInAddressesOfType: []
  banInFollowing: 0
  bannedInAddressesOfType: []
  OnlyAllowInBuildings: 0
  allowedInBuildings: []
  banFromBuildings: 1
  notAllowedInBuildings:
  - {fileID: 11400000, guid: 8fd38d32e224bd44a843f648add15307, type: 2}
  OnlyAllowInDistricts: 0
  allowedInDistricts: []
  banFromDistricts: 0
  notAllowedInDistricts: []
  requiresGenderedInhabitants: 0
  enableIfGenderPresent: 
  allowedRoomFilters:
  - {fileID: 11400000, guid: 4c93faa19051f25409dcf49ed0916834, type: 2}
  minimumWealth: 0
  usePersonalityWeighting: 0
  modernity: 0
  cleanness: 0
  loudness: 0
  emotive: 0
  subObjects: []
  testForModifiers: 0
  forcePublicIllegal: 0
  hidingEnterTransition: {fileID: 0}
  hidingExitTransition: {fileID: 0}
  hidingEnterTransition2: {fileID: 0}
  hidingExitTransition2: {fileID: 0}
  map: {fileID: 2800000, guid: 09bae014a05035948a772149cacb1ab6, type: 3}
  drawUnderWalls: 0
  ignoreDirection: 1
  fingerprintsEnabled: 0
  printsSource: 1
  fingerprintDensity: 1
  alterAreaLighting: 0
  possibleColours: []
  lightOperation: 0
  lightAmount: 0.12
  brightnessModifier: 10
  purchasable: 0
  cost: 100
  decorClass: 5
  staticImage: {fileID: 0}
  imagePos: {x: 0, y: 0, z: 0}
  imageRot: {x: 0, y: 0, z: 0}
  imageScale: 1
  imagePrefabOverride: {fileID: 0}
  isJobBoard: 0
  isWorkPosition: 0
  isPlant: 0
  isArt: 0
  isSecurityCamera: 0
  artOrientation: 0
  createSelfEmployed: {fileID: 0}
  workPositionID: 0
  spawnObjectOnChance: 1
  spawnObjectsOnPlacement: []
