%YAML 1.1
%TAG !u! tag:unity3d.com,2011:
--- !u!114 &11400000
MonoBehaviour:
  m_ObjectHideFlags: 0
  m_CorrespondingSourceObject: {fileID: 0}
  m_PrefabInstance: {fileID: 0}
  m_PrefabAsset: {fileID: 0}
  m_GameObject: {fileID: 0}
  m_Enabled: 1
  m_EditorHideFlags: 0
  m_Script: {fileID: 11500000, guid: 05c50b8a24558c04fb29c890553074fd, type: 3}
  m_Name: BarShelf
  m_EditorClassIdentifier: 
  presetName: BarShelf
  classes:
  - {fileID: 11400000, guid: b5470130ad852974cbf7e652c283e325, type: 2}
  prefab: {fileID: 6085548231085968646, guid: d8c9073fb74cb9c44930340931e00d85, type: 3}
  allowStaticBatching: 1
  spawnRange: 3
  integratedInteractables: []
  universalDesignStyle: 1
  designStyles: []
  inheritColouringFromDecor: 1
  shareColours: 3
  inheritGrubFromDecor: 1
  variations:
  - name: Inherit
    main: 15
    colour1: 14
    colour2: 8
    colour3: 8
  furnitureGroup: 0
  groupID: 0
  concrete: 0
  plaster: 0
  wood: 1
  carpet: 0
  tile: 0
  metal: 0
  glass: 0
  fabric: 0
  minimumRoomSize: 4
  allowedInOpenPlan: 0
  onlyAllowInFollowing: 0
  allowedInAddressesOfType: []
  banInFollowing: 0
  bannedInAddressesOfType: []
  OnlyAllowInBuildings: 0
  allowedInBuildings: []
  banFromBuildings: 0
  notAllowedInBuildings: []
  OnlyAllowInDistricts: 0
  allowedInDistricts: []
  banFromDistricts: 0
  notAllowedInDistricts: []
  requiresGenderedInhabitants: 0
  enableIfGenderPresent: 
  allowedRoomFilters:
  - {fileID: 11400000, guid: 2eb9e2085292f1f4db31bd9c88a92785, type: 2}
  - {fileID: 11400000, guid: ff557ac56418edd48b07775301891788, type: 2}
  - {fileID: 11400000, guid: 2b658dceab15cb5409a5f04ea7340fa3, type: 2}
  - {fileID: 11400000, guid: d1af3a4cd7823ff41bdecce632450fa2, type: 2}
  minimumWealth: 0
  usePersonalityWeighting: 0
  modernity: 5
  cleanness: 5
  loudness: 5
  emotive: 5
  subObjects:
  - preset: {fileID: 11400000, guid: 94ecd56f625166b449047f5eee385c68, type: 2}
    parent: 
    localPos: {x: 0.7, y: 1, z: -0.626}
    localRot: {x: -0, y: 0, z: 0}
    belongsTo: 0
    security: 0
  - preset: {fileID: 11400000, guid: 94ecd56f625166b449047f5eee385c68, type: 2}
    parent: 
    localPos: {x: -0.573, y: 0.15, z: -0.626}
    localRot: {x: -0, y: 0, z: 0}
    belongsTo: 0
    security: 0
  - preset: {fileID: 11400000, guid: bd2fb56d5263c7046aea4164e42e3182, type: 2}
    parent: 
    localPos: {x: 0.456, y: 1, z: -0.6}
    localRot: {x: -0, y: 349.8306, z: 0}
    belongsTo: 0
    security: 0
  - preset: {fileID: 11400000, guid: bd2fb56d5263c7046aea4164e42e3182, type: 2}
    parent: 
    localPos: {x: 0.26, y: 1, z: -0.598}
    localRot: {x: -0, y: 12.354114, z: 0}
    belongsTo: 0
    security: 0
  - preset: {fileID: 11400000, guid: bd2fb56d5263c7046aea4164e42e3182, type: 2}
    parent: 
    localPos: {x: 0.021, y: 1, z: -0.626}
    localRot: {x: -0, y: 352.55862, z: 0}
    belongsTo: 0
    security: 0
  - preset: {fileID: 11400000, guid: bd2fb56d5263c7046aea4164e42e3182, type: 2}
    parent: 
    localPos: {x: -0.235, y: 1, z: -0.602}
    localRot: {x: -0, y: 10.03544, z: 0}
    belongsTo: 0
    security: 0
  - preset: {fileID: 11400000, guid: bd2fb56d5263c7046aea4164e42e3182, type: 2}
    parent: 
    localPos: {x: -0.634, y: 1.549, z: -0.586}
    localRot: {x: -0, y: 3.8500316, z: 0}
    belongsTo: 0
    security: 0
  - preset: {fileID: 11400000, guid: bd2fb56d5263c7046aea4164e42e3182, type: 2}
    parent: 
    localPos: {x: -0.333, y: 1.549, z: -0.612}
    localRot: {x: -0, y: 2.1702929, z: 0}
    belongsTo: 0
    security: 0
  - preset: {fileID: 11400000, guid: bd2fb56d5263c7046aea4164e42e3182, type: 2}
    parent: 
    localPos: {x: -0.002, y: 1.549, z: -0.57}
    localRot: {x: -0, y: 2.4403703, z: 0}
    belongsTo: 0
    security: 0
  - preset: {fileID: 11400000, guid: bd2fb56d5263c7046aea4164e42e3182, type: 2}
    parent: 
    localPos: {x: 0.273, y: 1.549, z: -0.614}
    localRot: {x: -0, y: 0, z: 0}
    belongsTo: 0
    security: 0
  - preset: {fileID: 11400000, guid: bd2fb56d5263c7046aea4164e42e3182, type: 2}
    parent: 
    localPos: {x: 0.535, y: 1.549, z: -0.571}
    localRot: {x: -0, y: 0, z: 0}
    belongsTo: 0
    security: 0
  - preset: {fileID: 11400000, guid: bd2fb56d5263c7046aea4164e42e3182, type: 2}
    parent: 
    localPos: {x: 0.751, y: 1.549, z: -0.599}
    localRot: {x: -0, y: 338.59546, z: 0}
    belongsTo: 0
    security: 0
  - preset: {fileID: 11400000, guid: 94ecd56f625166b449047f5eee385c68, type: 2}
    parent: 
    localPos: {x: 0.583, y: 0.15, z: -0.626}
    localRot: {x: -0, y: 321.6739, z: 0}
    belongsTo: 0
    security: 0
  - preset: {fileID: 11400000, guid: fb8d91b586acaed428693b964b542ea7, type: 2}
    parent: 
    localPos: {x: -0.615, y: 0.998, z: -0.617}
    localRot: {x: -0, y: 2.4598258, z: -0}
    belongsTo: 0
    security: 0
  - preset: {fileID: 11400000, guid: f340d62cd9711584ebe230cab1e27cd8, type: 2}
    parent: 
    localPos: {x: -0.293, y: 0.15, z: -0.604}
    localRot: {x: -0, y: 21.05441, z: -0}
    belongsTo: 0
    security: 0
  testForModifiers: 0
  forcePublicIllegal: 1
  hidingEnterTransition: {fileID: 0}
  hidingExitTransition: {fileID: 0}
  hidingEnterTransition2: {fileID: 0}
  hidingExitTransition2: {fileID: 0}
  map: {fileID: 0}
  drawUnderWalls: 1
  ignoreDirection: 0
  fingerprintsEnabled: 1
  printsSource: 1
  fingerprintDensity: 1
  alterAreaLighting: 0
  possibleColours: []
  lightOperation: 0
  lightAmount: 0.12
  brightnessModifier: 10
  purchasable: 1
  cost: 550
  decorClass: 2
  staticImage: {fileID: 21300000, guid: 9afbf08a84d3f724ab4a587325895b1c, type: 3}
  imagePos: {x: 0, y: 0, z: 0}
  imageRot: {x: -0, y: 0, z: 0}
  imageScale: 0.655
  imagePrefabOverride: {fileID: 0}
  isJobBoard: 0
  isWorkPosition: 0
  isPlant: 0
  isArt: 0
  isSecurityCamera: 0
  artOrientation: 0
  createSelfEmployed: {fileID: 0}
  workPositionID: 0
  spawnObjectOnChance: 1
  spawnObjectsOnPlacement: []
