%YAML 1.1
%TAG !u! tag:unity3d.com,2011:
--- !u!114 &11400000
MonoBehaviour:
  m_ObjectHideFlags: 0
  m_CorrespondingSourceObject: {fileID: 0}
  m_PrefabInstance: {fileID: 0}
  m_PrefabAsset: {fileID: 0}
  m_GameObject: {fileID: 0}
  m_Enabled: 1
  m_EditorHideFlags: 0
  m_Script: {fileID: 11500000, guid: ec63d7078285f40489947b14e7143a21, type: 3}
  m_Name: GetCaffeine
  m_EditorClassIdentifier: 
  presetName: GetCaffeine
  startingGoal: 1
  appliesTo: 1
  appliedToTheseJobs: []
  onlyIfFeaturesItemsAtHome: []
  disableSave: 0
  category: 0
  basePriority: 0
  randomVariance: 0
  minMaxPriority: {x: 1, y: 7}
  multiplyUsingTrashCarried: 0
  useLateDebtPriority: 0
  onlyImportantBetweenHours: 0
  validBetweenHours: {x: 9, y: 20.5}
  dontUpdateGoalPriorityWhileActive: 0
  forcePriorityUpdateOnCreation: 0
  rainFactor: 0
  useMusic: 0
  affectPriorityOverTime: 0
  multiplierModifierOverOneHour: -0.1
  goalModifiers:
  - rule: 0
    traitList:
    - {fileID: 11400000, guid: 04b5aa0ae4df3f841bcc90d53566a362, type: 2}
    - {fileID: 11400000, guid: 16d773d9f506c8f41937c50b0b57eab8, type: 2}
    mustPassForApplication: 0
    priorityMultiplier: 0.2
  ifGoalsPresent: []
  otherGoalPriorityModifier: 0
  useTiming: 0
  timingImportance: 0
  earlyTimingWindow: 0.5
  cancelIfLate: 0
  cancelIfThisLate: 1
  cancelAfterTime: 0
  cancelAfter: 1
  runIfLate: 0
  nourishmentImportance: 0
  hydrationImportance: 0
  alertnessImportance: 9
  energyImportance: 0
  excitementImportance: 0
  choresImportance: 0
  hygieneImportance: 0
  bladderImportance: 0
  heatImportance: 0
  drunkImportance: 0
  breathImportance: 0
  poisonImportance: 0
  blindedImportance: 0
  completable: 0
  loopingActions: 0
  interuptable: 1
  unteruptableByFollowingCategories: 1
  uninteruptableByCategories: 00000000
  useInteruptionThreshold: 1
  interuptionThreshold: 1
  repeatDelayOnBusy: 0.1
  repeatDelayOnInterupt: 0.1
  repeatDelayOnFinishActions: 0.5
  allowEnforcersEverywhere: 0
  locationOption: 6
  desireCategory: 2
  roomOption: 0
  furnitureOption: 0
  actionFoundRoomBecomesPassedRoom: 0
  actionSource: 0
  actionsSetup:
  - actions:
    - {fileID: 11400000, guid: 6a6801d2acdc0794ebe34d17c67820c3, type: 2}
    condition: 2
    chance: 1
    traitModifiers: []
    statusModifiers: []
  - actions:
    - {fileID: 11400000, guid: c639cf2ce6106af4c8cc7d424c5e9c93, type: 2}
    condition: 1
    chance: 1
    traitModifiers: []
    statusModifiers: []
  - actions:
    - {fileID: 11400000, guid: e795ce3627791924baeb74837af20e6f, type: 2}
    condition: 1
    chance: 1
    traitModifiers: []
    statusModifiers: []
  - actions:
    - {fileID: 11400000, guid: 074cb83e79e4cc246b6e00a5c302bb50, type: 2}
    condition: 1
    chance: 1
    traitModifiers: []
    statusModifiers: []
  - actions:
    - {fileID: 11400000, guid: 0cfa8267503d30d4d9bfe2fe9007ad5b, type: 2}
    condition: 0
    chance: 1
    traitModifiers: []
    statusModifiers: []
  raiseAlarm: 0
  allowTrespass: 0
  disableActionInsertions: 0
  trashConsumablesOnActivate: 1
  disableThrowing: 0
  diabledMugging: 0
  allowPottering: 0
  potterSource: 0
  potterFrequency: {x: 0.5, y: 1}
  potterActions: []
  overrideLightingBehaviour: 0
  onlyOverrideIfAtGamelocation: 1
  lightingBehaviour: []
  doorRule: 0
  chanceOfOnTrigger: 0.5
  onTriggerBark: 
