%YAML 1.1
%TAG !u! tag:unity3d.com,2011:
--- !u!114 &11400000
MonoBehaviour:
  m_ObjectHideFlags: 0
  m_CorrespondingSourceObject: {fileID: 0}
  m_PrefabInstance: {fileID: 0}
  m_PrefabAsset: {fileID: 0}
  m_GameObject: {fileID: 0}
  m_Enabled: 1
  m_EditorHideFlags: 0
  m_Script: {fileID: 11500000, guid: ec63d7078285f40489947b14e7143a21, type: 3}
  m_Name: GetSnack
  m_EditorClassIdentifier: 
  presetName: GetSnack
  startingGoal: 1
  appliesTo: 0
  appliedToTheseJobs: []
  onlyIfFeaturesItemsAtHome: []
  disableSave: 0
  category: 0
  basePriority: 0
  randomVariance: 0
  minMaxPriority: {x: 1, y: 7.5}
  multiplyUsingTrashCarried: 0
  useLateDebtPriority: 0
  onlyImportantBetweenHours: 0
  validBetweenHours: {x: 9, y: 20.5}
  dontUpdateGoalPriorityWhileActive: 0
  forcePriorityUpdateOnCreation: 0
  rainFactor: 0
  useMusic: 0
  affectPriorityOverTime: 0
  multiplierModifierOverOneHour: -0.1
  goalModifiers:
  - rule: 0
    traitList:
    - {fileID: 11400000, guid: 127ba7370be43e9498270e6091ebe7e8, type: 2}
    mustPassForApplication: 0
    priorityMultiplier: -0.1
  - rule: 0
    traitList:
    - {fileID: 11400000, guid: 47bcb877461f2b746916de7a3be245e0, type: 2}
    mustPassForApplication: 0
    priorityMultiplier: 0.5
  - rule: 0
    traitList:
    - {fileID: 11400000, guid: ddf836a9aa21de94dbeff87441c6e593, type: 2}
    mustPassForApplication: 0
    priorityMultiplier: -0.5
  - rule: 0
    traitList:
    - {fileID: 11400000, guid: 61875a555fc48de4bacde62939a18ab5, type: 2}
    mustPassForApplication: 0
    priorityMultiplier: 0.1
  - rule: 0
    traitList:
    - {fileID: 11400000, guid: 946c441b0557f5e49b671cecdd2a7035, type: 2}
    mustPassForApplication: 0
    priorityMultiplier: -0.3
  ifGoalsPresent: []
  otherGoalPriorityModifier: 0
  useTiming: 0
  timingImportance: 0
  earlyTimingWindow: 0.5
  cancelIfLate: 0
  cancelIfThisLate: 1
  cancelAfterTime: 0
  cancelAfter: 1
  runIfLate: 0
  nourishmentImportance: 5
  hydrationImportance: 5
  alertnessImportance: 0
  energyImportance: 0
  excitementImportance: 4
  choresImportance: 0
  hygieneImportance: 0
  bladderImportance: 0
  heatImportance: 0
  drunkImportance: 0
  breathImportance: 0
  poisonImportance: 0
  blindedImportance: 0
  completable: 0
  loopingActions: 0
  interuptable: 1
  unteruptableByFollowingCategories: 1
  uninteruptableByCategories: 00000000
  useInteruptionThreshold: 1
  interuptionThreshold: 1
  repeatDelayOnBusy: 0.1
  repeatDelayOnInterupt: 0.1
  repeatDelayOnFinishActions: 1
  allowEnforcersEverywhere: 0
  locationOption: 6
  desireCategory: 1
  roomOption: 0
  furnitureOption: 0
  actionFoundRoomBecomesPassedRoom: 0
  actionSource: 0
  actionsSetup:
  - actions:
    - {fileID: 11400000, guid: 6a6801d2acdc0794ebe34d17c67820c3, type: 2}
    condition: 0
    chance: 1
    traitModifiers: []
    statusModifiers: []
  - actions:
    - {fileID: 11400000, guid: 0cfa8267503d30d4d9bfe2fe9007ad5b, type: 2}
    condition: 0
    chance: 1
    traitModifiers: []
    statusModifiers: []
  raiseAlarm: 0
  allowTrespass: 0
  disableActionInsertions: 0
  trashConsumablesOnActivate: 0
  disableThrowing: 0
  diabledMugging: 0
  allowPottering: 0
  potterSource: 0
  potterFrequency: {x: 0.5, y: 1}
  potterActions: []
  overrideLightingBehaviour: 0
  onlyOverrideIfAtGamelocation: 1
  lightingBehaviour: []
  doorRule: 0
  chanceOfOnTrigger: 0.5
  onTriggerBark: 
