%YAML 1.1
%TAG !u! tag:unity3d.com,2011:
--- !u!114 &11400000
MonoBehaviour:
  m_ObjectHideFlags: 0
  m_CorrespondingSourceObject: {fileID: 0}
  m_PrefabInstance: {fileID: 0}
  m_PrefabAsset: {fileID: 0}
  m_GameObject: {fileID: 0}
  m_Enabled: 1
  m_EditorHideFlags: 0
  m_Script: {fileID: 11500000, guid: ec63d7078285f40489947b14e7143a21, type: 3}
  m_Name: GoToWalk
  m_EditorClassIdentifier: 
  presetName: GoToWalk
  startingGoal: 0
  appliesTo: 0
  appliedToTheseJobs: []
  onlyIfFeaturesItemsAtHome: []
  disableSave: 0
  category: 1
  basePriority: 10
  randomVariance: 0
  minMaxPriority: {x: 10, y: 10}
  multiplyUsingTrashCarried: 0
  useLateDebtPriority: 0
  onlyImportantBetweenHours: 0
  validBetweenHours: {x: 9, y: 20.5}
  dontUpdateGoalPriorityWhileActive: 1
  forcePriorityUpdateOnCreation: 1
  rainFactor: 0
  useMusic: 0
  affectPriorityOverTime: 0
  multiplierModifierOverOneHour: -0.1
  goalModifiers: []
  ifGoalsPresent: []
  otherGoalPriorityModifier: 0
  useTiming: 0
  timingImportance: 9
  earlyTimingWindow: 0.5
  cancelIfLate: 0
  cancelIfThisLate: 1
  cancelAfterTime: 0
  cancelAfter: 1
  runIfLate: 0
  nourishmentImportance: 0
  hydrationImportance: 0
  alertnessImportance: 0
  energyImportance: 0
  excitementImportance: 0
  choresImportance: 0
  hygieneImportance: 0
  bladderImportance: 0
  heatImportance: 0
  drunkImportance: 0
  breathImportance: 0
  poisonImportance: 0
  blindedImportance: 0
  completable: 1
  loopingActions: 0
  interuptable: 0
  unteruptableByFollowingCategories: 0
  uninteruptableByCategories: 
  useInteruptionThreshold: 1
  interuptionThreshold: 0
  repeatDelayOnBusy: 0
  repeatDelayOnInterupt: 0
  repeatDelayOnFinishActions: 0
  allowEnforcersEverywhere: 0
  locationOption: 9
  desireCategory: 15
  roomOption: 0
  furnitureOption: 0
  actionFoundRoomBecomesPassedRoom: 0
  actionSource: 0
  actionsSetup:
  - actions:
    - {fileID: 11400000, guid: 01ea203c839d63046b38db2c5c1b4f62, type: 2}
    condition: 0
    chance: 1
    traitModifiers: []
    statusModifiers: []
  raiseAlarm: 0
  allowTrespass: 0
  disableActionInsertions: 0
  trashConsumablesOnActivate: 0
  disableThrowing: 0
  diabledMugging: 1
  allowPottering: 0
  potterSource: 1
  potterFrequency: {x: 0.5, y: 1}
  potterActions: []
  overrideLightingBehaviour: 0
  onlyOverrideIfAtGamelocation: 1
  lightingBehaviour: []
  doorRule: 0
  chanceOfOnTrigger: 0.5
  onTriggerBark: 
