%YAML 1.1
%TAG !u! tag:unity3d.com,2011:
--- !u!114 &11400000
MonoBehaviour:
  m_ObjectHideFlags: 0
  m_CorrespondingSourceObject: {fileID: 0}
  m_PrefabInstance: {fileID: 0}
  m_PrefabAsset: {fileID: 0}
  m_GameObject: {fileID: 0}
  m_Enabled: 1
  m_EditorHideFlags: 0
  m_Script: {fileID: 11500000, guid: ec63d7078285f40489947b14e7143a21, type: 3}
  m_Name: Shower
  m_EditorClassIdentifier: 
  presetName: Shower
  startingGoal: 1
  appliesTo: 1
  appliedToTheseJobs: []
  onlyIfFeaturesItemsAtHome:
  - {fileID: 11400000, guid: fb127d0245fdc224ba9f191eff523bcd, type: 2}
  disableSave: 0
  category: 0
  basePriority: 0
  randomVariance: 1
  minMaxPriority: {x: 1, y: 7}
  multiplyUsingTrashCarried: 0
  useLateDebtPriority: 0
  onlyImportantBetweenHours: 0
  validBetweenHours: {x: 0, y: 24}
  dontUpdateGoalPriorityWhileActive: 1
  forcePriorityUpdateOnCreation: 0
  rainFactor: 0
  useMusic: 0
  affectPriorityOverTime: 0
  multiplierModifierOverOneHour: -0.1
  goalModifiers:
  - rule: 0
    traitList:
    - {fileID: 11400000, guid: cf32dfaa753f46243b8d615ab3e09dc1, type: 2}
    mustPassForApplication: 0
    priorityMultiplier: -0.4
  ifGoalsPresent: []
  otherGoalPriorityModifier: 0
  useTiming: 0
  timingImportance: 0
  earlyTimingWindow: 0.5
  cancelIfLate: 0
  cancelIfThisLate: 1
  cancelAfterTime: 0
  cancelAfter: 1
  runIfLate: 0
  nourishmentImportance: 0
  hydrationImportance: 0
  alertnessImportance: 0
  energyImportance: 0
  excitementImportance: 0
  choresImportance: 0
  hygieneImportance: 8
  bladderImportance: 0
  heatImportance: 0
  drunkImportance: 0
  breathImportance: 0
  poisonImportance: 0
  blindedImportance: 0
  completable: 0
  loopingActions: 0
  interuptable: 1
  unteruptableByFollowingCategories: 1
  uninteruptableByCategories: 00000000
  useInteruptionThreshold: 1
  interuptionThreshold: 2
  repeatDelayOnBusy: 0.1
  repeatDelayOnInterupt: 0.1
  repeatDelayOnFinishActions: 1
  allowEnforcersEverywhere: 0
  locationOption: 1
  desireCategory: 4
  roomOption: 0
  furnitureOption: 0
  actionFoundRoomBecomesPassedRoom: 1
  actionSource: 0
  actionsSetup:
  - actions:
    - {fileID: 11400000, guid: 7daebf6218f10da4e9d9c962d28b8fb0, type: 2}
    condition: 0
    chance: 1
    traitModifiers: []
    statusModifiers: []
  - actions:
    - {fileID: 11400000, guid: df63d569f821fdf47982c4751bed0850, type: 2}
    condition: 0
    chance: 1
    traitModifiers: []
    statusModifiers: []
  - actions:
    - {fileID: 11400000, guid: 999756660a92833408a03d6c119f58c2, type: 2}
    condition: 0
    chance: 1
    traitModifiers: []
    statusModifiers: []
  raiseAlarm: 0
  allowTrespass: 0
  disableActionInsertions: 0
  trashConsumablesOnActivate: 1
  disableThrowing: 0
  diabledMugging: 1
  allowPottering: 0
  potterSource: 0
  potterFrequency: {x: 0.5, y: 1}
  potterActions: []
  overrideLightingBehaviour: 0
  onlyOverrideIfAtGamelocation: 1
  lightingBehaviour: []
  doorRule: 0
  chanceOfOnTrigger: 0.5
  onTriggerBark: 
