%YAML 1.1
%TAG !u! tag:unity3d.com,2011:
--- !u!114 &11400000
MonoBehaviour:
  m_ObjectHideFlags: 0
  m_CorrespondingSourceObject: {fileID: 0}
  m_PrefabInstance: {fileID: 0}
  m_PrefabAsset: {fileID: 0}
  m_GameObject: {fileID: 0}
  m_Enabled: 1
  m_EditorHideFlags: 0
  m_Script: {fileID: 11500000, guid: c49abb6a975e5d34ba8182048f7dcf4f, type: 3}
  m_Name: CityHall
  m_EditorClassIdentifier: 
  presetName: CityHall
  companyStructure:
    occupation: {fileID: 11400000, guid: 41c44d0cf3c4dd044993255f99cf9c56, type: 2}
    positionsMinimum: 4
    positionsMaximum: 4
    payGrade: 1
    subordinates: []
