%YAML 1.1
%TAG !u! tag:unity3d.com,2011:
--- !u!114 &11400000
MonoBehaviour:
  m_ObjectHideFlags: 0
  m_CorrespondingSourceObject: {fileID: 0}
  m_PrefabInstance: {fileID: 0}
  m_PrefabAsset: {fileID: 0}
  m_GameObject: {fileID: 0}
  m_Enabled: 1
  m_EditorHideFlags: 0
  m_Script: {fileID: 11500000, guid: c49abb6a975e5d34ba8182048f7dcf4f, type: 3}
  m_Name: IndustrialOffice
  m_EditorClassIdentifier: 
  presetName: IndustrialOffice
  companyStructure:
    occupation: {fileID: 11400000, guid: edc7fa80b0e301d46b171567d3edfdc9, type: 2}
    positionsMinimum: 1
    positionsMaximum: 1
    payGrade: 1
    subordinates:
    - occupation: {fileID: 11400000, guid: 34973f505b0e9a245994782a7a9922fd, type: 2}
      positionsMinimum: 1
      positionsMaximum: 1
      payGrade: 0.517
      subordinates: []
    - occupation: {fileID: 11400000, guid: 6e746e36f2043054cb5daa834c52849d, type: 2}
      positionsMinimum: 1
      positionsMaximum: 1
      payGrade: 0.715
      subordinates: []
    - occupation: {fileID: 11400000, guid: b88481d20f63f284dafb0c1eeca7af4b, type: 2}
      positionsMinimum: 1
      positionsMaximum: 1
      payGrade: 0.59
      subordinates: []
