%YAML 1.1
%TAG !u! tag:unity3d.com,2011:
--- !u!114 &11400000
MonoBehaviour:
  m_ObjectHideFlags: 0
  m_CorrespondingSourceObject: {fileID: 0}
  m_PrefabInstance: {fileID: 0}
  m_PrefabAsset: {fileID: 0}
  m_GameObject: {fileID: 0}
  m_Enabled: 1
  m_EditorHideFlags: 0
  m_Script: {fileID: 11500000, guid: c49abb6a975e5d34ba8182048f7dcf4f, type: 3}
  m_Name: Shop
  m_EditorClassIdentifier: 
  presetName: Shop
  companyStructure:
    occupation: {fileID: 11400000, guid: 8fc47bac112ce1f4d8ce89a655351da3, type: 2}
    positionsMinimum: 1
    positionsMaximum: 1
    payGrade: 1
    subordinates:
    - occupation: {fileID: 11400000, guid: 2f168cb9d311eca469d39054f400291c, type: 2}
      positionsMinimum: 4
      positionsMaximum: 5
      payGrade: 0.423
      subordinates:
      - occupation: {fileID: 11400000, guid: 6e307d51490886c4faa8c3d25bc8a048, type: 2}
        positionsMinimum: 0
        positionsMaximum: 2
        payGrade: 0.052
        subordinates: []
