%YAML 1.1
%TAG !u! tag:unity3d.com,2011:
--- !u!114 &11400000
MonoBehaviour:
  m_ObjectHideFlags: 0
  m_CorrespondingSourceObject: {fileID: 0}
  m_PrefabInstance: {fileID: 0}
  m_PrefabAsset: {fileID: 0}
  m_GameObject: {fileID: 0}
  m_Enabled: 1
  m_EditorHideFlags: 0
  m_Script: {fileID: 11500000, guid: a1b802f0c26fd6d4ebdb6e7b4caa116f, type: 3}
  m_Name: CyborgSister
  m_EditorClassIdentifier: 
  presetName: CyborgSister
  characterList:
  - character: a
    prefab: {fileID: 6845100028867577548, guid: 71a07dcbdd33dc142808b07e4a4090e4,
      type: 3}
  - character: b
    prefab: {fileID: 4638589494992946307, guid: 12ad53776432a8345813593b6b6f7dee,
      type: 3}
  - character: c
    prefab: {fileID: 3470119115067639645, guid: cd29801e276faaa4e9faa67b81284352,
      type: 3}
  - character: d
    prefab: {fileID: 4200569283705990193, guid: 396f65e6629b9de408b1e83068aee35c,
      type: 3}
  - character: e
    prefab: {fileID: 7767097312261330654, guid: ed8ed7d2d62314140b85c3dd22742cdd,
      type: 3}
  - character: f
    prefab: {fileID: 7226135314546057353, guid: 357cc71aac7726a4ab14b75eec0ce1f0,
      type: 3}
  - character: g
    prefab: {fileID: 8732405732035356308, guid: 24d15d92c790980408c239c8ee5104ea,
      type: 3}
  - character: h
    prefab: {fileID: 2656362540018436843, guid: 61412ecf67419fa419b8717ebeb98c67,
      type: 3}
  - character: i
    prefab: {fileID: 8038683088700477690, guid: 8b570b02d258b41499e6f530ceebd773,
      type: 3}
  - character: j
    prefab: {fileID: 3119776157634916483, guid: 8d3c681ea883c494f88d6e9986728093,
      type: 3}
  - character: k
    prefab: {fileID: 4107225482460893606, guid: 0d8e2aa5244db1849bfd380e702730fc,
      type: 3}
  - character: l
    prefab: {fileID: 1325660044533209120, guid: 0f11955ad6d1cf346a20e4190567d4ae,
      type: 3}
  - character: m
    prefab: {fileID: 8867331903742607244, guid: f61b68eb10e601045991161cfff50cf9,
      type: 3}
  - character: n
    prefab: {fileID: 8361873345541108307, guid: 5b893548c038b43478a09078a26d813e,
      type: 3}
  - character: o
    prefab: {fileID: 7431309419236393003, guid: 9771fbffe9c7bb2468c8fbe80f214d2e,
      type: 3}
  - character: p
    prefab: {fileID: 5536255335697227899, guid: 37e9f62b20856fa4ba5379925605cafb,
      type: 3}
  - character: q
    prefab: {fileID: 6752754180781111968, guid: b66f891171f2b8a4db059c0c41476dd1,
      type: 3}
  - character: r
    prefab: {fileID: 1004935525722434740, guid: cf172f55809d0f245855af833c2dc43e,
      type: 3}
  - character: s
    prefab: {fileID: 8423588615600539615, guid: 1b24d2bcb8951f241baf1bff485fda11,
      type: 3}
  - character: t
    prefab: {fileID: 85464905200975036, guid: d93d8a1150577e34aa049dfab2d277b0, type: 3}
  - character: u
    prefab: {fileID: 7491004973107032717, guid: 005f4b4d3f08d164fa92a78ba6dbfd79,
      type: 3}
  - character: v
    prefab: {fileID: 6371471810815356709, guid: 69fa0b29d73002b4ba5376294e25be4f,
      type: 3}
  - character: w
    prefab: {fileID: 7632761846709673793, guid: 32f0f84bbbb0ea9499a156fd5f25ab38,
      type: 3}
  - character: x
    prefab: {fileID: 3118454546234487043, guid: bc260fdd407c1404f81ddcea261c35d0,
      type: 3}
  - character: y
    prefab: {fileID: 5487566523694643908, guid: 2c6080387f493d24f81483baaffd34a1,
      type: 3}
  - character: z
    prefab: {fileID: 5564945200054211743, guid: 5897491f0d9a6d747840c266d2baf2ac,
      type: 3}
  - character: '&'
    prefab: {fileID: 2519615536282289654, guid: c738119e7aafc954581f0ad6d89dcb1a,
      type: 3}
