%YAML 1.1
%TAG !u! tag:unity3d.com,2011:
--- !u!114 &11400000
MonoBehaviour:
  m_ObjectHideFlags: 0
  m_CorrespondingSourceObject: {fileID: 0}
  m_PrefabInstance: {fileID: 0}
  m_PrefabAsset: {fileID: 0}
  m_GameObject: {fileID: 0}
  m_Enabled: 1
  m_EditorHideFlags: 0
  m_Script: {fileID: 11500000, guid: c85c0ad7d263a0743bb9a6fd6928c95b, type: 3}
  m_Name: Theft_D4B
  m_EditorClassIdentifier: 
  presetName: Theft_D4B
  disabled: 0
  caseName: Theft
  jobPosting: {fileID: 11400000, guid: 0f5a4344ab784554783e64f97570be2e, type: 2}
  subClass: 
  allowSyncDiskRewards: 1
  allowBlackMarketSyncDiskRewards: 1
  physicalRewardLocation: 1
  generateHidingLocation: 1
  socialCreditLevelMinSpawnFrequency:
    serializedVersion: 2
    m_Curve:
    - serializedVersion: 3
      time: 0
      value: 0
      inSlope: 0
      outSlope: 0
      tangentMode: 0
      weightedMode: 0
      inWeight: 0
      outWeight: 0
    - serializedVersion: 3
      time: 3
      value: 1
      inSlope: 1.0083592
      outSlope: -0.2699252
      tangentMode: 1
      weightedMode: 0
      inWeight: 0.09521204
      outWeight: 0.06801477
    - serializedVersion: 3
      time: 10
      value: 0
      inSlope: 0
      outSlope: 0
      tangentMode: 0
      weightedMode: 0
      inWeight: 0
      outWeight: 0
    m_PreInfinity: 2
    m_PostInfinity: 2
    m_RotationOrder: 4
  activePerCitizen: 0.01
  maxJobs: 8
  immediatePostCountThreshold: 2
  difficultyTag: 6
  changePosterDialogCompliancy: 0
  changePerpDialogCompliancy: 2
  purpetratorMotives:
  - {fileID: 11400000, guid: 001b532835eb3334ea6176b9c2d4255d, type: 2}
  penaltyForPurpAndPosterSameBuilding: 0
  startingScenarios:
  - name: Work Available
    dds: 548010e3-19ac-4403-a899-46157f3dd518
    leads: []
  - name: Variation 2
    dds: 184b1730-61c7-4eac-8796-efb1eca51cf9
    leads: []
  compatibleIntros:
  - preset: {fileID: 11400000, guid: 25e194f750b45c641849870eee5af316, type: 2}
    frequency: 0
  - preset: {fileID: 11400000, guid: c26a2a0ba496ac64d9f6f7770c1a6843, type: 2}
    frequency: 0
  - preset: {fileID: 11400000, guid: 0659cbb85759a6a469e5c2b28a1774e1, type: 2}
    frequency: 1
  - preset: {fileID: 11400000, guid: 84472f86f1fe3fd4b95643de9857d92e, type: 2}
    frequency: 1
  - preset: {fileID: 11400000, guid: f949232bdfeddce4eb298bdcbf6b3413, type: 2}
    frequency: 1
  leadPoolData: 2
  createFactsOnInformationAcquisition:
  - factPreset: {fileID: 11400000, guid: e450b25695fe40d42b12aad3492b6bd2, type: 2}
    from: 13
    to: 2
    overrideFromKeys: 0
    fromKeys: 
    featureKeysFromLeadPool: 0
    overrideToKeys: 1
    toKeys: 22000000
    featureKeysFromLeadPoolTo: 1
  informationAcquisitionLeads:
  - leadEvidence: 2
    keys: 22000000
    useKeyFromLeadPool: 1
    autoPin: 1
    addDialogOptions: []
    factsReveal:
    - LivesAtBuilding
    mergeKeys: 
    discoveryApplication: 
  - leadEvidence: 11
    keys: 00000000
    useKeyFromLeadPool: 0
    autoPin: 1
    addDialogOptions: []
    factsReveal: []
    mergeKeys: 
    discoveryApplication: 
  revengeObjectives: []
  spawnItems:
  - name: Sensitive Document Work
    findExisting: 0
    compatibleWithMotives:
    - {fileID: 11400000, guid: 001b532835eb3334ea6176b9c2d4255d, type: 2}
    compatibleWithAllMotives: 1
    chance: 1
    useTraits: 0
    traitModifiers: []
    useIf: 0
    ifTag: 0
    useOrGroup: 1
    orGroup: 0
    chanceRatio: 4
    disableOnDifficulties: 
    itemTag: 0
    spawnItem: {fileID: 11400000, guid: 42a77ee65418aee4da87f0fbb949298a, type: 2}
    vmailThread: 
    vmailProgressThreshold: {x: 0, y: 0}
    where: 3
    belongsTo: 2
    writer: 0
    receiver: 0
    security: 1
    priority: 3
    ownershipRule: 3
  - name: Sensitive Document Home
    findExisting: 0
    compatibleWithMotives:
    - {fileID: 11400000, guid: 001b532835eb3334ea6176b9c2d4255d, type: 2}
    compatibleWithAllMotives: 1
    chance: 1
    useTraits: 0
    traitModifiers: []
    useIf: 0
    ifTag: 0
    useOrGroup: 1
    orGroup: 0
    chanceRatio: 4
    disableOnDifficulties: 
    itemTag: 0
    spawnItem: {fileID: 11400000, guid: 42a77ee65418aee4da87f0fbb949298a, type: 2}
    vmailThread: 
    vmailProgressThreshold: {x: 0, y: 0}
    where: 2
    belongsTo: 2
    writer: 0
    receiver: 0
    security: 1
    priority: 3
    ownershipRule: 3
  resolveQuestions:
  - name: Locate and steal the item; |stolenitem.name|
    displayObjective: 1
    displayOnlyAtPhase: 0
    displayAtPhase: 0
    objectiveDelay: 0
    onlyCompatibleWithIntros: []
    onlyCompatibleWithHandIns: []
    inputType: 4
    automaticAnswers: 
    tag: 0
    icon: 32
    rewardRange: {x: 300, y: 500}
    penaltyRange: {x: 0, y: 0}
    isOptional: 0
    useAlternateName: 0
    useName: 2
    target: 0
    location: 0
    revengeObjective: Locate and steal the item; |stolenitem.name|
    revengeObjTarget: -1
    revengeObjLoc: -1
    revengeObjPassed: 0
    completedRevenge: 0
    input: 
    inputtedEvidence: 
    correctAnswers: []
    progress: 0
    reward: 0
    penalty: 0
    isValid: 0
    isCorrect: 0
  - name: Leave the item near the |secretlocation|
    displayObjective: 1
    displayOnlyAtPhase: 0
    displayAtPhase: 0
    objectiveDelay: 0
    onlyCompatibleWithIntros: []
    onlyCompatibleWithHandIns:
    - {fileID: 11400000, guid: e9bc0a0aab51c80418e1a7389e9eeeca, type: 2}
    inputType: 4
    automaticAnswers: 
    tag: 0
    icon: 32
    rewardRange: {x: 300, y: 500}
    penaltyRange: {x: 0, y: 0}
    isOptional: 0
    useAlternateName: 0
    useName: 2
    target: 0
    location: 0
    revengeObjective: Leave the item near the |secretlocation|
    revengeObjTarget: -1
    revengeObjLoc: -1
    revengeObjPassed: 0
    completedRevenge: 0
    input: 
    inputtedEvidence: 
    correctAnswers: []
    progress: 0
    reward: 0
    penalty: 0
    isValid: 0
    isCorrect: 0
  - name: Destroy the item by throwing it into the sea
    displayObjective: 1
    displayOnlyAtPhase: 0
    displayAtPhase: 0
    objectiveDelay: 0
    onlyCompatibleWithIntros: []
    onlyCompatibleWithHandIns:
    - {fileID: 11400000, guid: 08c92a5a6a412954b83bd8053760a8de, type: 2}
    inputType: 4
    automaticAnswers: 
    tag: 0
    icon: 32
    rewardRange: {x: 300, y: 500}
    penaltyRange: {x: 0, y: 0}
    isOptional: 0
    useAlternateName: 0
    useName: 2
    target: 0
    location: 0
    revengeObjective: Destroy the item by throwing it into the sea
    revengeObjTarget: -1
    revengeObjLoc: -1
    revengeObjPassed: 0
    completedRevenge: 0
    input: 
    inputtedEvidence: 
    correctAnswers: []
    progress: 0
    reward: 0
    penalty: 0
    isValid: 0
    isCorrect: 0
  additional:
  - name: Locate and steal the item; |stolenitem.name|
    elementType: 16
    dialogReference: 
    tagReference: 0
    spawnItems: []
    enableUpdateWhileTalking: 0
    objectiveDelay: 0
    validItems: []
    validFurniture: []
    disableOnDifficulties: 
    onlyCompativleWithIntros: []
    onlyCompatibleWithHandIns: []
    triggerFailIfItemDestroyed: 00000000
  - name: Leave the item near the |secretlocation|
    elementType: 17
    dialogReference: 
    tagReference: 0
    spawnItems: []
    enableUpdateWhileTalking: 0
    objectiveDelay: 0
    validItems: []
    validFurniture: []
    disableOnDifficulties: 
    onlyCompativleWithIntros: []
    onlyCompatibleWithHandIns:
    - {fileID: 11400000, guid: e9bc0a0aab51c80418e1a7389e9eeeca, type: 2}
    triggerFailIfItemDestroyed: 00000000
  - name: Destroy the item by throwing it into the sea
    elementType: 18
    dialogReference: 
    tagReference: 0
    spawnItems: []
    enableUpdateWhileTalking: 0
    objectiveDelay: 0
    validItems: []
    validFurniture: []
    disableOnDifficulties: 
    onlyCompativleWithIntros: []
    onlyCompatibleWithHandIns:
    - {fileID: 11400000, guid: 08c92a5a6a412954b83bd8053760a8de, type: 2}
    triggerFailIfItemDestroyed: 
  compatibleHandIns:
  - preset: {fileID: 11400000, guid: 08c92a5a6a412954b83bd8053760a8de, type: 2}
    frequency: 1
  - preset: {fileID: 11400000, guid: e9bc0a0aab51c80418e1a7389e9eeeca, type: 2}
    frequency: 2
  dialogReferences:
  - name: IntroCall
    dialog: {fileID: 11400000, guid: 3b75ae9901705aa478bc488a1f5e00cb, type: 2}
  - name: IntroAskStaff
    dialog: {fileID: 11400000, guid: 97b6aca7476b01a4dac58beb6f42adba, type: 2}
  - name: IntroAskStaffPhoto
    dialog: {fileID: 11400000, guid: b0bfc90d492c8014a9cc85f39387f6c9, type: 2}
  - name: IntroGooseChase1
    dialog: {fileID: 11400000, guid: 2e0f9e7c03242e746a9aed785e7a6ccd, type: 2}
  - name: IntroGooseChase2
    dialog: {fileID: 11400000, guid: 2a0f15b754e6a454ca0cec5333dd5f24, type: 2}
  - name: IntroMeetUpSpecific1
    dialog: {fileID: 11400000, guid: 31581c018cc39904db2d4d6f38fd168f, type: 2}
  - name: IntroMeetUpSpecific2
    dialog: {fileID: 11400000, guid: d6f3a536996c79c4791994bee8a68dae, type: 2}
  - name: TelephoneHandIn
    dialog: {fileID: 11400000, guid: 61ca02536809a7748831413ebb405fb2, type: 2}
  debugCopyFrom: {fileID: 11400000, guid: 0fa5f019fbfa79d49b87b7cbb51fd39c, type: 2}
