%YAML 1.1
%TAG !u! tag:unity3d.com,2011:
--- !u!114 &-9064027064887811298
MonoBehaviour:
  m_ObjectHideFlags: 3
  m_CorrespondingSourceObject: {fileID: 0}
  m_PrefabInstance: {fileID: 0}
  m_PrefabAsset: {fileID: 0}
  m_GameObject: {fileID: 0}
  m_Enabled: 1
  m_EditorHideFlags: 0
  m_Script: {fileID: 11500000, guid: 9008a067f4d626c4d8bc4bc48f04bb89, type: 3}
  m_Name: AmbientOcclusion
  m_EditorClassIdentifier: 
  active: 1
  m_AdvancedMode: 0
  quality:
    m_OverrideState: 0
    m_Value: 3
  rayTracing:
    m_OverrideState: 0
    m_Value: 0
  intensity:
    m_OverrideState: 1
    m_Value: 4
    min: 0
    max: 4
  directLightingStrength:
    m_OverrideState: 1
    m_Value: 0.5
    min: 0
    max: 1
  radius:
    m_OverrideState: 1
    m_Value: 1.4
    min: 0.25
    max: 5
  spatialBilateralAggressiveness:
    m_OverrideState: 0
    m_Value: 0.15
    min: 0
    max: 1
  temporalAccumulation:
    m_OverrideState: 1
    m_Value: 1
  ghostingReduction:
    m_OverrideState: 1
    m_Value: 0.5
    min: 0
    max: 1
  blurSharpness:
    m_OverrideState: 0
    m_Value: 0.1
    min: 0
    max: 1
  layerMask:
    m_OverrideState: 0
    m_Value:
      serializedVersion: 2
      m_Bits: 4294967295
  m_StepCount:
    m_OverrideState: 1
    m_Value: 16
    min: 2
    max: 32
  m_FullResolution:
    m_OverrideState: 1
    m_Value: 1
  m_MaximumRadiusInPixels:
    m_OverrideState: 1
    m_Value: 80
    min: 16
    max: 256
  m_BilateralUpsample:
    m_OverrideState: 1
    m_Value: 1
  m_DirectionCount:
    m_OverrideState: 1
    m_Value: 4
    min: 1
    max: 6
  m_RayLength:
    m_OverrideState: 1
    m_Value: 20
    min: 0
  m_SampleCount:
    m_OverrideState: 1
    m_Value: 8
    min: 1
    max: 64
  m_Denoise:
    m_OverrideState: 1
    m_Value: 1
  m_DenoiserRadius:
    m_OverrideState: 1
    m_Value: 0.65
    min: 0.001
    max: 1
--- !u!114 &-3649139874887913158
MonoBehaviour:
  m_ObjectHideFlags: 3
  m_CorrespondingSourceObject: {fileID: 0}
  m_PrefabInstance: {fileID: 0}
  m_PrefabAsset: {fileID: 0}
  m_GameObject: {fileID: 0}
  m_Enabled: 1
  m_EditorHideFlags: 0
  m_Script: {fileID: 11500000, guid: 6b24b200358312b4fa1004e2431c2f1f, type: 3}
  m_Name: ShadowsMidtonesHighlights
  m_EditorClassIdentifier: 
  active: 1
  m_AdvancedMode: 0
  shadows:
    m_OverrideState: 1
    m_Value: {x: 0.9, y: 0.91, z: 1, w: -0.21052632}
  midtones:
    m_OverrideState: 1
    m_Value: {x: 0.90999997, y: 0.919, z: 1, w: 0.039473683}
  highlights:
    m_OverrideState: 1
    m_Value: {x: 1, y: 0.7546667, z: 0.68, w: 0.4868421}
  shadowsStart:
    m_OverrideState: 0
    m_Value: 0
    min: 0
  shadowsEnd:
    m_OverrideState: 0
    m_Value: 0.3
    min: 0
  highlightsStart:
    m_OverrideState: 0
    m_Value: 0.55
    min: 0
  highlightsEnd:
    m_OverrideState: 0
    m_Value: 1
    min: 0
--- !u!114 &-2318730273965410016
MonoBehaviour:
  m_ObjectHideFlags: 3
  m_CorrespondingSourceObject: {fileID: 0}
  m_PrefabInstance: {fileID: 0}
  m_PrefabAsset: {fileID: 0}
  m_GameObject: {fileID: 0}
  m_Enabled: 1
  m_EditorHideFlags: 0
  m_Script: {fileID: 11500000, guid: da5ab44aadfb1804db5fd470983ac1b8, type: 3}
  m_Name: LiftGammaGain
  m_EditorClassIdentifier: 
  active: 1
  m_AdvancedMode: 0
  lift:
    m_OverrideState: 1
    m_Value: {x: 0.90999997, y: 0.9595, z: 1, w: 0}
  gamma:
    m_OverrideState: 1
    m_Value: {x: 0.93, y: 1, z: 0.99766666, w: 0.046811}
  gain:
    m_OverrideState: 1
    m_Value: {x: 0.92, y: 0.976, z: 1, w: 0.093622}
--- !u!114 &11400000
MonoBehaviour:
  m_ObjectHideFlags: 0
  m_CorrespondingSourceObject: {fileID: 0}
  m_PrefabInstance: {fileID: 0}
  m_PrefabAsset: {fileID: 0}
  m_GameObject: {fileID: 0}
  m_Enabled: 1
  m_EditorHideFlags: 0
  m_Script: {fileID: 11500000, guid: d7fd9488000d3734a9e00ee676215985, type: 3}
  m_Name: Industrial
  m_EditorClassIdentifier: 
  components:
  - {fileID: -3649139874887913158}
  - {fileID: -2318730273965410016}
  - {fileID: -9064027064887811298}
--- !u!114 &114909705409886464
MonoBehaviour:
  m_ObjectHideFlags: 3
  m_CorrespondingSourceObject: {fileID: 0}
  m_PrefabInstance: {fileID: 0}
  m_PrefabAsset: {fileID: 0}
  m_GameObject: {fileID: 0}
  m_Enabled: 1
  m_EditorHideFlags: 0
  m_Script: {fileID: 11500000, guid: 29b00527f85bb3346a4d2cb710971587, type: 3}
  m_Name: VolumetricFog
  m_EditorClassIdentifier: 
  active: 1
  m_AdvancedMode: 0
  colorMode:
    m_OverrideState: 0
    m_Value: 1
  color:
    m_OverrideState: 0
    m_Value: {r: 0.5, g: 0.5, b: 0.5, a: 1}
    hdr: 1
    showAlpha: 0
    showEyeDropper: 1
  tint:
    m_OverrideState: 0
    m_Value: {r: 1, g: 1, b: 1, a: 1}
    hdr: 1
    showAlpha: 0
    showEyeDropper: 1
  density:
    m_OverrideState: 0
    m_Value: 1
    min: 0
    max: 1
  maxFogDistance:
    m_OverrideState: 0
    m_Value: 5000
    min: 0
  mipFogMaxMip:
    m_OverrideState: 0
    m_Value: 0.5
    min: 0
    max: 1
  mipFogNear:
    m_OverrideState: 0
    m_Value: 0
    min: 0
  mipFogFar:
    m_OverrideState: 0
    m_Value: 1000
    min: 0
  albedo:
    m_OverrideState: 0
    m_Value: {r: 1, g: 1, b: 1, a: 1}
    hdr: 0
    showAlpha: 1
    showEyeDropper: 1
  meanFreePath:
    m_OverrideState: 0
    m_Value: 1000000
    min: 1
  baseHeight:
    m_OverrideState: 0
    m_Value: 0
  maximumHeight:
    m_OverrideState: 0
    m_Value: 10
  anisotropy:
    m_OverrideState: 0
    m_Value: 0
    min: -1
    max: 1
  globalLightProbeDimmer:
    m_OverrideState: 0
    m_Value: 1
    min: 0
    max: 1
  enableDistantFog:
    m_OverrideState: 0
    m_Value: 0
