%YAML 1.1
%TAG !u! tag:unity3d.com,2011:
--- !u!114 &11400000
MonoBehaviour:
  m_ObjectHideFlags: 0
  m_CorrespondingSourceObject: {fileID: 0}
  m_PrefabInstance: {fileID: 0}
  m_PrefabAsset: {fileID: 0}
  m_GameObject: {fileID: 0}
  m_Enabled: 1
  m_EditorHideFlags: 0
  m_Script: {fileID: 11500000, guid: 05c50b8a24558c04fb29c890553074fd, type: 3}
  m_Name: TelephoneBooth
  m_EditorClassIdentifier: 
  presetName: TelephoneBooth
  classes:
  - {fileID: 11400000, guid: d1551b49f166c63478a31827aa0b8636, type: 2}
  prefab: {fileID: 6620311324768269128, guid: aa4f33abcb02a3a44a2be1a24a17c83a, type: 3}
  allowStaticBatching: 0
  spawnRange: 3
  integratedInteractables:
  - preset: {fileID: 11400000, guid: a54b39fe360e5554cb1a82c687f5bc08, type: 2}
    pairToController: 0
    belongsTo: 0
  universalDesignStyle: 1
  designStyles: []
  inheritColouringFromDecor: 0
  shareColours: 0
  inheritGrubFromDecor: 1
  variations: []
  furnitureGroup: 0
  groupID: 0
  concrete: 0
  plaster: 0
  wood: 1
  carpet: 0
  tile: 0
  metal: 0
  glass: 0
  fabric: 0
  minimumRoomSize: 2
  allowedInOpenPlan: 0
  onlyAllowInFollowing: 1
  allowedInAddressesOfType:
  - {fileID: 11400000, guid: 3b090717242a977418d146f9c5bc757d, type: 2}
  - {fileID: 11400000, guid: 692f328a8d6286c4abf6fe2779b52e64, type: 2}
  - {fileID: 11400000, guid: 5a55cbd46bba86c4b8f2c799f1fba412, type: 2}
  - {fileID: 11400000, guid: a0716014c41697746baf7951c3087c88, type: 2}
  - {fileID: 11400000, guid: 57a17dcadd189ac48a86f7190f458063, type: 2}
  - {fileID: 11400000, guid: 3e85cda28131bad49a417e1a20d54321, type: 2}
  - {fileID: 11400000, guid: 5c865f27f8b0f3442996c9ef8c63f34c, type: 2}
  banInFollowing: 0
  bannedInAddressesOfType: []
  OnlyAllowInBuildings: 0
  allowedInBuildings: []
  banFromBuildings: 0
  notAllowedInBuildings: []
  OnlyAllowInDistricts: 0
  allowedInDistricts: []
  banFromDistricts: 0
  notAllowedInDistricts: []
  requiresGenderedInhabitants: 0
  enableIfGenderPresent: 
  allowedRoomFilters:
  - {fileID: 11400000, guid: d1bfa1c547db3f54fb3b2f087a1f031f, type: 2}
  - {fileID: 11400000, guid: 2b658dceab15cb5409a5f04ea7340fa3, type: 2}
  - {fileID: 11400000, guid: ff557ac56418edd48b07775301891788, type: 2}
  - {fileID: 11400000, guid: 7a14d10fff6542d4d90a385b2e592c91, type: 2}
  minimumWealth: 0
  usePersonalityWeighting: 0
  modernity: 5
  cleanness: 2
  loudness: 5
  emotive: 5
  subObjects:
  - preset: {fileID: 11400000, guid: b51a1e6ea855a804592c40c88ad976d9, type: 2}
    parent: 
    localPos: {x: 0.097, y: 0.82000065, z: -0.472}
    localRot: {x: -0, y: 15.469465, z: 0}
    belongsTo: 0
    security: 0
  - preset: {fileID: 11400000, guid: b51a1e6ea855a804592c40c88ad976d9, type: 2}
    parent: 
    localPos: {x: 0.281, y: 0.82000065, z: -0.614}
    localRot: {x: -0, y: 354.79965, z: 0}
    belongsTo: 0
    security: 0
  - preset: {fileID: 11400000, guid: b51a1e6ea855a804592c40c88ad976d9, type: 2}
    parent: 
    localPos: {x: 0.49666214, y: 0.82000065, z: -0.5189514}
    localRot: {x: -0, y: 336.22617, z: 0}
    belongsTo: 0
    security: 0
  - preset: {fileID: 11400000, guid: b51a1e6ea855a804592c40c88ad976d9, type: 2}
    parent: 
    localPos: {x: -0.13133621, y: 0.82000065, z: -0.5189514}
    localRot: {x: -0, y: 353.61133, z: 0}
    belongsTo: 0
    security: 0
  - preset: {fileID: 11400000, guid: b51a1e6ea855a804592c40c88ad976d9, type: 2}
    parent: 
    localPos: {x: -0.343, y: 0.82000065, z: -0.52}
    localRot: {x: -0, y: 358.71945, z: 0}
    belongsTo: 0
    security: 0
  - preset: {fileID: 11400000, guid: 3726064066973df4f99a03151953dc89, type: 2}
    parent: 
    localPos: {x: 0.467, y: 1.669, z: -0.75}
    localRot: {x: -0, y: 0, z: 0.70553875}
    belongsTo: 0
    security: 0
  - preset: {fileID: 11400000, guid: 3726064066973df4f99a03151953dc89, type: 2}
    parent: 
    localPos: {x: 0.273, y: 1.657, z: -0.75}
    localRot: {x: -0, y: 0, z: 359.3193}
    belongsTo: 0
    security: 0
  - preset: {fileID: 11400000, guid: 3726064066973df4f99a03151953dc89, type: 2}
    parent: 
    localPos: {x: 0.092, y: 1.66, z: -0.75}
    localRot: {x: -0, y: 0, z: 1.0964441}
    belongsTo: 0
    security: 0
  - preset: {fileID: 11400000, guid: 3726064066973df4f99a03151953dc89, type: 2}
    parent: 
    localPos: {x: 0.106, y: 1.4089996, z: -0.75}
    localRot: {x: -0, y: 0, z: 358.4023}
    belongsTo: 0
    security: 0
  - preset: {fileID: 11400000, guid: 3726064066973df4f99a03151953dc89, type: 2}
    parent: 
    localPos: {x: 0.288, y: 1.3969995, z: -0.75}
    localRot: {x: -0, y: 0, z: 1.5885223}
    belongsTo: 0
    security: 0
  - preset: {fileID: 11400000, guid: 3726064066973df4f99a03151953dc89, type: 2}
    parent: 
    localPos: {x: 0.4532, y: 1.4089996, z: -0.75}
    localRot: {x: -0, y: 0, z: 358.53665}
    belongsTo: 0
    security: 0
  - preset: {fileID: 11400000, guid: 3726064066973df4f99a03151953dc89, type: 2}
    parent: 
    localPos: {x: 0.466, y: 1.152, z: -0.75}
    localRot: {x: -0, y: 0, z: 1.2513901}
    belongsTo: 0
    security: 0
  - preset: {fileID: 11400000, guid: 3726064066973df4f99a03151953dc89, type: 2}
    parent: 
    localPos: {x: 0.277, y: 1.148, z: -0.75}
    localRot: {x: -0, y: 0, z: 0.89817524}
    belongsTo: 0
    security: 0
  - preset: {fileID: 11400000, guid: 3726064066973df4f99a03151953dc89, type: 2}
    parent: 
    localPos: {x: 0.104, y: 1.154, z: -0.75}
    localRot: {x: -0, y: 0, z: 358.22867}
    belongsTo: 0
    security: 0
  - preset: {fileID: 11400000, guid: 5fbc771ce71898e42a17a09b817657c9, type: 2}
    parent: 
    localPos: {x: -0.36, y: 1.4, z: -0.75}
    localRot: {x: -0, y: 0, z: 0}
    belongsTo: 0
    security: 0
  - preset: {fileID: 11400000, guid: 94ecd56f625166b449047f5eee385c68, type: 2}
    parent: 
    localPos: {x: -0.561, y: 0.82000065, z: -0.424}
    localRot: {x: -0, y: 0, z: 0}
    belongsTo: 0
    security: 0
  - preset: {fileID: 11400000, guid: fbbfd2d9c824acf45bcb0e5a1b01a153, type: 2}
    parent: 
    localPos: {x: 0.429, y: 0.007, z: -0.664}
    localRot: {x: -0, y: 0, z: 0}
    belongsTo: 0
    security: 0
  - preset: {fileID: 11400000, guid: fbbfd2d9c824acf45bcb0e5a1b01a153, type: 2}
    parent: 
    localPos: {x: -0.129, y: 0.007, z: -0.663999}
    localRot: {x: -0, y: 0, z: 0}
    belongsTo: 0
    security: 0
  - preset: {fileID: 11400000, guid: fbbfd2d9c824acf45bcb0e5a1b01a153, type: 2}
    parent: 
    localPos: {x: -0.656, y: 0.007, z: -0.223}
    localRot: {x: -0, y: 90.774086, z: -0}
    belongsTo: 0
    security: 0
  testForModifiers: 0
  forcePublicIllegal: 0
  hidingEnterTransition: {fileID: 0}
  hidingExitTransition: {fileID: 0}
  hidingEnterTransition2: {fileID: 0}
  hidingExitTransition2: {fileID: 0}
  map: {fileID: 2800000, guid: 6a177bd7f8bc69a4381164dd94fbc35b, type: 3}
  drawUnderWalls: 1
  ignoreDirection: 0
  fingerprintsEnabled: 1
  printsSource: 1
  fingerprintDensity: 1
  alterAreaLighting: 0
  possibleColours: []
  lightOperation: 0
  lightAmount: 0.12
  brightnessModifier: 10
  purchasable: 0
  cost: 100
  decorClass: 5
  staticImage: {fileID: 0}
  imagePos: {x: 0, y: 0, z: 0}
  imageRot: {x: 0, y: 0, z: 0}
  imageScale: 1
  imagePrefabOverride: {fileID: 0}
  isJobBoard: 1
  isWorkPosition: 0
  isPlant: 0
  isArt: 0
  isSecurityCamera: 0
  artOrientation: 0
  createSelfEmployed: {fileID: 0}
  workPositionID: 0
  spawnObjectOnChance: 1
  spawnObjectsOnPlacement: []
