%YAML 1.1
%TAG !u! tag:unity3d.com,2011:
--- !u!114 &11400000
MonoBehaviour:
  m_ObjectHideFlags: 0
  m_CorrespondingSourceObject: {fileID: 0}
  m_PrefabInstance: {fileID: 0}
  m_PrefabAsset: {fileID: 0}
  m_GameObject: {fileID: 0}
  m_Enabled: 1
  m_EditorHideFlags: 0
  m_Script: {fileID: 11500000, guid: a403020d4671c4242808b6e1f33fdd80, type: 3}
  m_Name: OvenOpenLeft
  m_EditorClassIdentifier: 
  presetName: OvenOpenLeft
  closedRelativePos: {x: 0, y: 0, z: 0}
  openRelativePos: {x: 0, y: 0, z: 0}
  closedRelativeEuler: {x: 0, y: 0, z: 0}
  openRelativeEuler: {x: 0, y: 90, z: 0}
  closedRelativeScale: {x: 0, y: 0, z: 0}
  openRelativeScale: {x: 0, y: 0, z: 0}
  doorOpenSpeed: 1.5
  doorCloseSpeed: 1.3
  animationCurve:
    serializedVersion: 2
    m_Curve:
    - serializedVersion: 3
      time: 0
      value: 0
      inSlope: 0
      outSlope: 0
      tangentMode: 0
      weightedMode: 0
      inWeight: 0.33333334
      outWeight: 0.33333334
    - serializedVersion: 3
      time: 1
      value: 1
      inSlope: 0
      outSlope: 0
      tangentMode: 0
      weightedMode: 0
      inWeight: 0.33333334
      outWeight: 0.33333334
    m_PreInfinity: 2
    m_PostInfinity: 2
    m_RotationOrder: 4
  collisionBehaviour: 0
  behaviourAppliesWhenOpening: 1
  behaviourAppliesWhenClosing: 1
  openAction: {fileID: 11400000, guid: 444794bf8a6a55b4abae333f895d9c22, type: 2}
  closeAction: {fileID: 11400000, guid: 45cd28c70444b574cb026a0ba0c46e35, type: 2}
  openFinished: {fileID: 0}
  closeFinished: {fileID: 11400000, guid: c0d3ea37156004746961caf0f8b9dafb, type: 2}
  objectImpact: {fileID: 0}
  ignoreOcclusion: 0
  switchState1AnimationSync: 0
