%YAML 1.1
%TAG !u! tag:unity3d.com,2011:
--- !u!114 &11400000
MonoBehaviour:
  m_ObjectHideFlags: 0
  m_CorrespondingSourceObject: {fileID: 0}
  m_PrefabInstance: {fileID: 0}
  m_PrefabAsset: {fileID: 0}
  m_GameObject: {fileID: 0}
  m_Enabled: 1
  m_EditorHideFlags: 0
  m_Script: {fileID: 11500000, guid: a403020d4671c4242808b6e1f33fdd80, type: 3}
  m_Name: SecurityDoor
  m_EditorClassIdentifier: 
  presetName: SecurityDoor
  closedRelativePos: {x: 0, y: 0, z: 0}
  openRelativePos: {x: 0, y: 0, z: 0}
  closedRelativeEuler: {x: 0, y: 0, z: 0}
  openRelativeEuler: {x: 0, y: 0, z: 0}
  closedRelativeScale: {x: 0, y: 1, z: 0}
  openRelativeScale: {x: 0, y: 0.025, z: 0}
  doorOpenSpeed: 0.2
  doorCloseSpeed: 0.125
  animationCurve:
    serializedVersion: 2
    m_Curve:
    - serializedVersion: 3
      time: 0
      value: 0
      inSlope: 1
      outSlope: 1
      tangentMode: 34
      weightedMode: 0
      inWeight: 0
      outWeight: 0
    - serializedVersion: 3
      time: 1
      value: 1
      inSlope: 1
      outSlope: 1
      tangentMode: 34
      weightedMode: 0
      inWeight: 0
      outWeight: 0
    m_PreInfinity: 2
    m_PostInfinity: 2
    m_RotationOrder: 4
  collisionBehaviour: 2
  behaviourAppliesWhenOpening: 1
  behaviourAppliesWhenClosing: 1
  openAction: {fileID: 11400000, guid: 7c0aa9e1149a84f43ba7c57ee031c916, type: 2}
  closeAction: {fileID: 11400000, guid: 1ae5d6381efc270459b88d067b02e70b, type: 2}
  openFinished: {fileID: 11400000, guid: e33fd3c9bf348e349acb2f2ebe7255ce, type: 2}
  closeFinished: {fileID: 11400000, guid: c2ff9d6dae5c194488ad736dfd116f2e, type: 2}
  objectImpact: {fileID: 11400000, guid: 37b5c2cf742065a4e963e41d858c301c, type: 2}
  ignoreOcclusion: 0
  switchState1AnimationSync: 1
