%YAML 1.1
%TAG !u! tag:unity3d.com,2011:
--- !u!114 &11400000
MonoBehaviour:
  m_ObjectHideFlags: 0
  m_CorrespondingSourceObject: {fileID: 0}
  m_PrefabInstance: {fileID: 0}
  m_PrefabAsset: {fileID: 0}
  m_GameObject: {fileID: 0}
  m_Enabled: 1
  m_EditorHideFlags: 0
  m_Script: {fileID: 11500000, guid: 0f9e99412a2a9fb4187c6382083208b6, type: 3}
  m_Name: CheatersMeet
  m_EditorClassIdentifier: 
  presetName: CheatersMeet
  groupType: 2
  chance: 1
  minMembers: 2
  maxMembers: 2
  requiredTraits: []
  minimumExtraversion: 0.2
  enableMeetUps: 1
  daysPerWeek: 5
  timeRange: {x: 18, y: 24}
  meetUpLength: 1.5
  meetUpLocations:
  - {fileID: 11400000, guid: bc4de5b3b5b9cd94eb2bbbfcce3ec6da, type: 2}
  - {fileID: 11400000, guid: 214aecf4be747c24e98c63227b045294, type: 2}
  - {fileID: 11400000, guid: 6232d1a50a8c40e469e1e1d35e0b00ab, type: 2}
  meetUpGoal: {fileID: 11400000, guid: 5966558787843b840b2f60eb985d48a7, type: 2}
  reserveSeats: 1
  useDistanceMultiplierModifier: 0
  clues: []
  vmails:
  - name: Restaurant Booking
    treeID: 74da6230-45ef-4bb4-8f2e-8f6840e56927
    sender: 2
    recevier: 3
