%YAML 1.1
%TAG !u! tag:unity3d.com,2011:
--- !u!114 &11400000
MonoBehaviour:
  m_ObjectHideFlags: 0
  m_CorrespondingSourceObject: {fileID: 0}
  m_PrefabInstance: {fileID: 0}
  m_PrefabAsset: {fileID: 0}
  m_GameObject: {fileID: 0}
  m_Enabled: 1
  m_EditorHideFlags: 0
  m_Script: {fileID: 11500000, guid: c506d548390bcc74f9b6f8d6fb38d68c, type: 3}
  m_Name: LonelyHearts07
  m_EditorClassIdentifier: 
  presetName: LonelyHearts07
  disabled: 0
  ddsReference: afacc2d3-9198-4458-b886-4c40442fec42
  category: 2
  followupStories: []
  possibleImages: []
  context: 0
