%YAML 1.1
%TAG !u! tag:unity3d.com,2011:
--- !u!114 &11400000
MonoBehaviour:
  m_ObjectHideFlags: 0
  m_CorrespondingSourceObject: {fileID: 0}
  m_PrefabInstance: {fileID: 0}
  m_PrefabAsset: {fileID: 0}
  m_GameObject: {fileID: 0}
  m_Enabled: 1
  m_EditorHideFlags: 0
  m_Script: {fileID: 11500000, guid: bb9ed8324cc49a34b83a9c923c730080, type: 3}
  m_Name: Unemployed
  m_EditorClassIdentifier: 
  presetName: Unemployed
  collar: 8
  work: 13
  tags: 
  jobFillPriority: 0
  workOutfit: []
  selfEmployed: 0
  receptionist: 0
  canAskAboutJob: 1
  janitor: 0
  security: 0
  isCriminal: 0
  isPublicFacing: 0
  minimumPerCity: 0
  societalClass: 0.5
  skewPersonalityTowardsJobFit: 0
  skewHumility: 0
  humility: 0
  skewEmotionality: 0
  emotionality: 0
  skewExtraversion: 0
  extraversion: 0
  skewAgreeableness: 0
  agreeableness: 0
  skewConscientiousness: 0
  conscientiousness: 0
  skewCreativity: 0
  creativity: 0
  shiftTimeIsImportant: 0
  shiftType: 1
  countsTowardsOpenHoursCoverage: 1
  lunchBreakAllowed: 1
  jobAIPosition: 0
  bannedRooms: []
  actionSetup: []
  jobPostion: 0
  ownsWorkPosition: 0
  preferredRooms: []
  potterFrequency: {x: 0, y: 0}
  onlyPotterIfSomebodyElseWorking: 0
  potterActions: []
  namePlacard: 0
  employeePhoto: 1
  businessCards: 0
  workRota: 1
  employmentContract: 1
  jobItems: []
  inventoryItems: []
  joinGroups: []
  addDialog: []
  selectedPreset: {fileID: 0}
