%YAML 1.1
%TAG !u! tag:unity3d.com,2011:
--- !u!114 &11400000
MonoBehaviour:
  m_ObjectHideFlags: 0
  m_CorrespondingSourceObject: {fileID: 0}
  m_PrefabInstance: {fileID: 0}
  m_PrefabAsset: {fileID: 0}
  m_GameObject: {fileID: 0}
  m_Enabled: 1
  m_EditorHideFlags: 0
  m_Script: {fileID: 11500000, guid: ff1e911a8b42c1c4ab98ac82c52019b4, type: 3}
  m_Name: Affair-MeetUpSpecificLocation
  m_EditorClassIdentifier: 
  presetName: Affair-MeetUpSpecificLocation
  rewardModifier: 0
  blocks:
  - name: Call
    elementType: 0
    dialogReference: IntroMeetUpSpecific1
    tagReference: 0
    spawnItems: []
    enableUpdateWhileTalking: 1
    objectiveDelay: 0
    validItems: []
    validFurniture: []
    disableOnDifficulties: 
    onlyCompativleWithIntros: []
    onlyCompatibleWithHandIns: []
    triggerFailIfItemDestroyed: 
  - name: Setup Meet
    elementType: 9
    dialogReference: IntroMeetUpSpecific2
    tagReference: 0
    spawnItems: []
    enableUpdateWhileTalking: 0
    objectiveDelay: 6
    validItems:
    - {fileID: 11400000, guid: 084cdca22eb46bb4d9f640098921565d, type: 2}
    - {fileID: 11400000, guid: 719956b55ad285a46a86479f8aee9602, type: 2}
    - {fileID: 11400000, guid: edd2898eb0910f840afd1dbef771c266, type: 2}
    - {fileID: 11400000, guid: 2b969a0b9d980c64f8c599c5785df9fd, type: 2}
    - {fileID: 11400000, guid: 9ddde386eb3d62240b288a36cdfe408c, type: 2}
    validFurniture:
    - {fileID: 11400000, guid: abea200e0d9121a46b503ed203de99ef, type: 2}
    - {fileID: 11400000, guid: 621e899a95f90a04d8f20929364b2312, type: 2}
    - {fileID: 11400000, guid: 9c3468bc366928b4cb3d98f2acedecf4, type: 2}
    - {fileID: 11400000, guid: 0d1d407fe393495418fc17cbaabb6e2c, type: 2}
    - {fileID: 11400000, guid: 974438485dccc914daca2dc5fe5c0310, type: 2}
    - {fileID: 11400000, guid: 840c99bf08ed18f44990cf45824f51c3, type: 2}
    - {fileID: 11400000, guid: d04c004a3eedbb14494610d5873cb259, type: 2}
    disableOnDifficulties: 
    onlyCompativleWithIntros: []
    onlyCompatibleWithHandIns: []
    triggerFailIfItemDestroyed: 
  - name: Info
    elementType: 1
    dialogReference: IntroMeetUpSpecific2
    tagReference: 25
    spawnItems: []
    enableUpdateWhileTalking: 0
    objectiveDelay: 0
    validItems: []
    validFurniture: []
    disableOnDifficulties: 
    onlyCompativleWithIntros: []
    onlyCompatibleWithHandIns: []
    triggerFailIfItemDestroyed: 
