%YAML 1.1
%TAG !u! tag:unity3d.com,2011:
--- !u!114 &11400000
MonoBehaviour:
  m_ObjectHideFlags: 0
  m_CorrespondingSourceObject: {fileID: 0}
  m_PrefabInstance: {fileID: 0}
  m_PrefabAsset: {fileID: 0}
  m_GameObject: {fileID: 0}
  m_Enabled: 1
  m_EditorHideFlags: 0
  m_Script: {fileID: 11500000, guid: ff1e911a8b42c1c4ab98ac82c52019b4, type: 3}
  m_Name: Dossier-PhotoByStaff
  m_EditorClassIdentifier: 
  presetName: Dossier-PhotoByStaff
  rewardModifier: 100
  blocks:
  - name: Ask Staff
    elementType: 2
    dialogReference: IntroAskStaffPhoto
    tagReference: 0
    spawnItems: []
    enableUpdateWhileTalking: 0
    objectiveDelay: 0
    validItems: []
    validFurniture: []
    disableOnDifficulties: 
    onlyCompativleWithIntros: []
    onlyCompatibleWithHandIns: []
    triggerFailIfItemDestroyed: 
  - name: Spawn Dossier
    elementType: 3
    dialogReference: 
    tagReference: 25
    spawnItems:
    - name: Briefcase
      findExisting: 0
      compatibleWithMotives: []
      compatibleWithAllMotives: 1
      chance: 1
      useTraits: 0
      traitModifiers: []
      useIf: 0
      ifTag: 25
      useOrGroup: 0
      orGroup: 0
      chanceRatio: 0
      disableOnDifficulties: 
      itemTag: 25
      spawnItem: {fileID: 11400000, guid: c153de07f1bd86e41a94a777f50a7861, type: 2}
      vmailThread: 
      vmailProgressThreshold: {x: 0, y: 0}
      where: 6
      belongsTo: 0
      writer: 0
      receiver: 0
      security: 0
      priority: 0
      ownershipRule: 2
    enableUpdateWhileTalking: 0
    objectiveDelay: 0
    validItems: []
    validFurniture: []
    disableOnDifficulties: 
    onlyCompativleWithIntros: []
    onlyCompatibleWithHandIns: []
    triggerFailIfItemDestroyed: 
  - name: Photo
    elementType: 4
    dialogReference: 
    tagReference: 25
    spawnItems: []
    enableUpdateWhileTalking: 0
    objectiveDelay: 0
    validItems: []
    validFurniture: []
    disableOnDifficulties: 
    onlyCompativleWithIntros: []
    onlyCompatibleWithHandIns: []
    triggerFailIfItemDestroyed: 
  - name: Find Dossier
    elementType: 5
    dialogReference: 
    tagReference: 25
    spawnItems: []
    enableUpdateWhileTalking: 0
    objectiveDelay: 0
    validItems: []
    validFurniture: []
    disableOnDifficulties: 
    onlyCompativleWithIntros: []
    onlyCompatibleWithHandIns: []
    triggerFailIfItemDestroyed: 
  - name: Info
    elementType: 1
    dialogReference: IntroAskStaff
    tagReference: 0
    spawnItems: []
    enableUpdateWhileTalking: 0
    objectiveDelay: 0
    validItems: []
    validFurniture: []
    disableOnDifficulties: 
    onlyCompativleWithIntros: []
    onlyCompatibleWithHandIns: []
    triggerFailIfItemDestroyed: 
