%YAML 1.1
%TAG !u! tag:unity3d.com,2011:
--- !u!114 &11400000
MonoBehaviour:
  m_ObjectHideFlags: 0
  m_CorrespondingSourceObject: {fileID: 0}
  m_PrefabInstance: {fileID: 0}
  m_PrefabAsset: {fileID: 0}
  m_GameObject: {fileID: 0}
  m_Enabled: 1
  m_EditorHideFlags: 0
  m_Script: {fileID: 11500000, guid: c85c0ad7d263a0743bb9a6fd6928c95b, type: 3}
  m_Name: StolenItem_D1
  m_EditorClassIdentifier: 
  presetName: StolenItem_D1
  disabled: 0
  caseName: StolenItem
  jobPosting: {fileID: 11400000, guid: 0f5a4344ab784554783e64f97570be2e, type: 2}
  subClass: StolenItem
  allowSyncDiskRewards: 0
  allowBlackMarketSyncDiskRewards: 1
  physicalRewardLocation: 3
  generateHidingLocation: 0
  socialCreditLevelMinSpawnFrequency:
    serializedVersion: 2
    m_Curve:
    - serializedVersion: 3
      time: 0
      value: 0
      inSlope: 0
      outSlope: 0
      tangentMode: 0
      weightedMode: 0
      inWeight: 0
      outWeight: 0
    - serializedVersion: 3
      time: 2
      value: 1
      inSlope: 1.0083592
      outSlope: -0.11344233
      tangentMode: 1
      weightedMode: 0
      inWeight: 0.09521204
      outWeight: 0.05475217
    - serializedVersion: 3
      time: 10
      value: 0.5
      inSlope: 0
      outSlope: 0
      tangentMode: 0
      weightedMode: 0
      inWeight: 0
      outWeight: 0
    m_PreInfinity: 2
    m_PostInfinity: 2
    m_RotationOrder: 4
  activePerCitizen: 0.01
  maxJobs: 8
  immediatePostCountThreshold: 2
  difficultyTag: 1
  changePosterDialogCompliancy: 1
  changePerpDialogCompliancy: 2
  purpetratorMotives:
  - {fileID: 11400000, guid: c35a80b4555ce7b4cbf353f02f05331a, type: 2}
  - {fileID: 11400000, guid: cd10c10c73c17394c9c8a7e45bacf24b, type: 2}
  - {fileID: 11400000, guid: 1e0850d4ac44b064ca634cd3093d03fd, type: 2}
  - {fileID: 11400000, guid: 689fda0818fdbcd4c9e448feece3987c, type: 2}
  - {fileID: 11400000, guid: 1b38ae2d812a26045b8abe5fd84077a9, type: 2}
  penaltyForPurpAndPosterSameBuilding: 0
  startingScenarios:
  - name: Stolen from home
    dds: 1a7fedfc-717a-417d-a4d5-fb371dae3cf1
    leads: []
  compatibleIntros:
  - preset: {fileID: 11400000, guid: 32e820f9b68dd5c499bcc0eb03d8cbd9, type: 2}
    frequency: 1
  leadPoolData: 0
  createFactsOnInformationAcquisition: []
  informationAcquisitionLeads:
  - leadEvidence: 1
    keys: 000000000e000000
    useKeyFromLeadPool: 0
    autoPin: 1
    addDialogOptions: []
    factsReveal:
    - LivesAt
    mergeKeys: 000000000e000000
    discoveryApplication: 00000000
  - leadEvidence: 4
    keys: 000000000e000000
    useKeyFromLeadPool: 0
    autoPin: 1
    addDialogOptions: []
    factsReveal: []
    mergeKeys: 
    discoveryApplication: 
  - leadEvidence: 21
    keys: 00000000
    useKeyFromLeadPool: 0
    autoPin: 1
    addDialogOptions: []
    factsReveal: []
    mergeKeys: 
    discoveryApplication: 
  revengeObjectives:
  - {fileID: 11400000, guid: a9bcb52ad9b1ae04b992af5963d0ad93, type: 2}
  - {fileID: 11400000, guid: 9d1321751919a52469bb7f4f92d83e78, type: 2}
  - {fileID: 11400000, guid: 203f353611a02104097ba4e8f3961fa7, type: 2}
  - {fileID: 11400000, guid: 7defdd75d3181cd41aa7d6e6b9ea24f6, type: 2}
  - {fileID: 11400000, guid: a13ac4cae50353540bbf0038dfd432af, type: 2}
  - {fileID: 11400000, guid: a9626dc8173c214478ea9e046546e29a, type: 2}
  - {fileID: 11400000, guid: f2e6586d4f436f845bc1f8e2e2cf219b, type: 2}
  spawnItems:
  - name: Jade Necklace
    findExisting: 1
    compatibleWithMotives:
    - {fileID: 11400000, guid: c35a80b4555ce7b4cbf353f02f05331a, type: 2}
    compatibleWithAllMotives: 0
    chance: 1
    useTraits: 0
    traitModifiers: []
    useIf: 0
    ifTag: 0
    useOrGroup: 1
    orGroup: 0
    chanceRatio: 1
    disableOnDifficulties: 
    itemTag: 0
    spawnItem: {fileID: 11400000, guid: 9784110c66335494d93bf315fbdb71c3, type: 2}
    vmailThread: 
    vmailProgressThreshold: {x: 0, y: 0}
    where: 0
    belongsTo: 1
    writer: 0
    receiver: 0
    security: 3
    priority: 3
    ownershipRule: 3
  - name: Chateau d'Arc
    findExisting: 1
    compatibleWithMotives:
    - {fileID: 11400000, guid: c35a80b4555ce7b4cbf353f02f05331a, type: 2}
    - {fileID: 11400000, guid: 689fda0818fdbcd4c9e448feece3987c, type: 2}
    compatibleWithAllMotives: 0
    chance: 1
    useTraits: 0
    traitModifiers: []
    useIf: 0
    ifTag: 0
    useOrGroup: 1
    orGroup: 0
    chanceRatio: 1
    disableOnDifficulties: 
    itemTag: 0
    spawnItem: {fileID: 11400000, guid: 3afd4ccee15bea94391c13e6beaa66a3, type: 2}
    vmailThread: 
    vmailProgressThreshold: {x: 0, y: 0}
    where: 0
    belongsTo: 1
    writer: 0
    receiver: 0
    security: 3
    priority: 3
    ownershipRule: 3
  - name: George Scott Card
    findExisting: 1
    compatibleWithMotives:
    - {fileID: 11400000, guid: c35a80b4555ce7b4cbf353f02f05331a, type: 2}
    - {fileID: 11400000, guid: cd10c10c73c17394c9c8a7e45bacf24b, type: 2}
    compatibleWithAllMotives: 0
    chance: 1
    useTraits: 0
    traitModifiers: []
    useIf: 0
    ifTag: 0
    useOrGroup: 1
    orGroup: 0
    chanceRatio: 1
    disableOnDifficulties: 
    itemTag: 0
    spawnItem: {fileID: 11400000, guid: 5118cf35adf2bf94097e2b3668976610, type: 2}
    vmailThread: 
    vmailProgressThreshold: {x: 0, y: 0}
    where: 0
    belongsTo: 1
    writer: 0
    receiver: 0
    security: 3
    priority: 3
    ownershipRule: 3
  - name: Kolobs Space Blaster
    findExisting: 1
    compatibleWithMotives:
    - {fileID: 11400000, guid: c35a80b4555ce7b4cbf353f02f05331a, type: 2}
    - {fileID: 11400000, guid: 1b38ae2d812a26045b8abe5fd84077a9, type: 2}
    compatibleWithAllMotives: 0
    chance: 1
    useTraits: 0
    traitModifiers: []
    useIf: 0
    ifTag: 0
    useOrGroup: 1
    orGroup: 0
    chanceRatio: 1
    disableOnDifficulties: 
    itemTag: 0
    spawnItem: {fileID: 11400000, guid: 80113d371ea5c874da39a5e0d4850e6f, type: 2}
    vmailThread: 
    vmailProgressThreshold: {x: 0, y: 0}
    where: 0
    belongsTo: 1
    writer: 0
    receiver: 0
    security: 3
    priority: 3
    ownershipRule: 3
  - name: Claw of the Fathoms First Edition
    findExisting: 1
    compatibleWithMotives:
    - {fileID: 11400000, guid: c35a80b4555ce7b4cbf353f02f05331a, type: 2}
    - {fileID: 11400000, guid: 1e0850d4ac44b064ca634cd3093d03fd, type: 2}
    compatibleWithAllMotives: 0
    chance: 1
    useTraits: 0
    traitModifiers: []
    useIf: 0
    ifTag: 0
    useOrGroup: 1
    orGroup: 0
    chanceRatio: 1
    disableOnDifficulties: 
    itemTag: 0
    spawnItem: {fileID: 11400000, guid: 2197c612c53ebdf4bbd04270c1bd7d50, type: 2}
    vmailThread: 
    vmailProgressThreshold: {x: 0, y: 0}
    where: 0
    belongsTo: 1
    writer: 0
    receiver: 0
    security: 3
    priority: 3
    ownershipRule: 3
  resolveQuestions:
  - name: Recover my |stolenitem.name| and place it in my mailbox
    displayObjective: 1
    displayOnlyAtPhase: 0
    displayAtPhase: 0
    objectiveDelay: 0
    onlyCompatibleWithIntros: []
    onlyCompatibleWithHandIns: []
    inputType: 4
    automaticAnswers: 
    tag: 1
    icon: 32
    rewardRange: {x: 500, y: 600}
    penaltyRange: {x: 0, y: 0}
    isOptional: 0
    useAlternateName: 0
    useName: 2
    target: 0
    location: 0
    revengeObjective: Recover my |stolenitem.name| and place it in my mailbox
    revengeObjTarget: -1
    revengeObjLoc: -1
    revengeObjPassed: 0
    completedRevenge: 0
    input: 
    inputtedEvidence: 
    correctAnswers: []
    progress: 0
    reward: 0
    penalty: 0
    isValid: 0
    isCorrect: 0
  - name: Who stole my |stolenitem.name|?
    displayObjective: 1
    displayOnlyAtPhase: 0
    displayAtPhase: 0
    objectiveDelay: 0
    onlyCompatibleWithIntros: []
    onlyCompatibleWithHandIns: []
    inputType: 0
    automaticAnswers: 02000000
    tag: 2
    icon: 4
    rewardRange: {x: 300, y: 400}
    penaltyRange: {x: 100, y: 150}
    isOptional: 1
    useAlternateName: 0
    useName: 2
    target: 0
    location: 0
    revengeObjective: 
    revengeObjTarget: -1
    revengeObjLoc: -1
    revengeObjPassed: 0
    completedRevenge: 0
    input: 
    inputtedEvidence: 
    correctAnswers: []
    progress: 0
    reward: 0
    penalty: 0
    isValid: 0
    isCorrect: 0
  - name: revenge
    displayObjective: 1
    displayOnlyAtPhase: 0
    displayAtPhase: 0
    objectiveDelay: 0
    onlyCompatibleWithIntros: []
    onlyCompatibleWithHandIns: []
    inputType: 3
    automaticAnswers: 
    tag: 3
    icon: 26
    rewardRange: {x: 200, y: 300}
    penaltyRange: {x: 0, y: 0}
    isOptional: 1
    useAlternateName: 0
    useName: 2
    target: 2
    location: 2
    revengeObjective: 
    revengeObjTarget: -1
    revengeObjLoc: -1
    revengeObjPassed: 0
    completedRevenge: 0
    input: 
    inputtedEvidence: 
    correctAnswers: []
    progress: 0
    reward: 0
    penalty: 0
    isValid: 0
    isCorrect: 0
  additional:
  - name: Recover my |stolenitem.name| and place it in my mailbox
    elementType: 22
    dialogReference: 
    tagReference: 0
    spawnItems: []
    enableUpdateWhileTalking: 0
    objectiveDelay: 0
    validItems: []
    validFurniture: []
    disableOnDifficulties: 
    onlyCompativleWithIntros: []
    onlyCompatibleWithHandIns: []
    triggerFailIfItemDestroyed: 
  compatibleHandIns:
  - preset: {fileID: 11400000, guid: e9bc0a0aab51c80418e1a7389e9eeeca, type: 2}
    frequency: 1
  dialogReferences:
  - name: IntroCallHouseVisit
    dialog: {fileID: 11400000, guid: 4d9e513bf1756a1439e6512d1c2541fa, type: 2}
  - name: HomeMeet
    dialog: {fileID: 11400000, guid: 290aaed27c558f54f809732b2c09820d, type: 2}
  - name: TelephoneHandIn
    dialog: {fileID: 11400000, guid: 930528468c626764fb9130ee6583db36, type: 2}
  debugCopyFrom: {fileID: 11400000, guid: cfb10f08eb5e87948a95d59456f16981, type: 2}
