{
    "cityName": "Charlotte Heights",
    "build": "33.07",
    "shareCode": "Charlotte Heights.1.3307.wqG1ndOX44261Z40",
    "citySize": {
        "x": 6.0,
        "y": 5.0
    },
    "population": 326
}