%YAML 1.1
%TAG !u! tag:unity3d.com,2011:
--- !u!114 &11400000
MonoBehaviour:
  m_ObjectHideFlags: 0
  m_CorrespondingSourceObject: {fileID: 0}
  m_PrefabInstance: {fileID: 0}
  m_PrefabAsset: {fileID: 0}
  m_GameObject: {fileID: 0}
  m_Enabled: 1
  m_EditorHideFlags: 0
  m_Script: {fileID: 11500000, guid: ac360b8116a8aa14dbe0f68ab832f6fd, type: 3}
  m_Name: LDCelts
  m_EditorClassIdentifier: 
  presetName: LDCelts
  fmodGUID: 99989a8c-3062-4292-9e7e-9760c68c305a
  disabled: 0
  playOnce: 0
  interrupt: 0
  stopOnIncompatibleStateSwitch: 0
  avoidRepetition: 1
  ambientPriority: 2
  triggers:
  - onGameState: 2
    onPlayerSate: 0
    onPlayerLocation: 2
    onEvent: 0
    eventTriggerChance: 0
    triggerOnlyOnEvents: 0
    ignoreSilentTimeBetweenTracks: 0
    onlyInDistricts: 0
    compatibleDistricts: []
    excludeDistricts: 0
    excludedDistricts: []
    onlyInBuildings: 0
    compatibleBuildings: []
    excludeBuildings: 0
    excludedBuildings: []
    onlyInLocations: 0
    compatibleAddressTypes: []
    excludeLocations: 0
    excludedAddressTypes: []
    onlyDuringStatuses: 0
    compatibleStatuses: []
    excludeStatuses: 0
    excludedStatuses: []
    useDecorGrimeRange: 0
    grimeRange: {x: 0, y: 0}
    floorRanges:
    - {x: 10, y: 99}
    timeRanges: []
  - onGameState: 2
    onPlayerSate: 0
    onPlayerLocation: 2
    onEvent: 0
    eventTriggerChance: 0
    triggerOnlyOnEvents: 0
    ignoreSilentTimeBetweenTracks: 0
    onlyInDistricts: 0
    compatibleDistricts: []
    excludeDistricts: 0
    excludedDistricts: []
    onlyInBuildings: 0
    compatibleBuildings: []
    excludeBuildings: 0
    excludedBuildings: []
    onlyInLocations: 0
    compatibleAddressTypes: []
    excludeLocations: 0
    excludedAddressTypes: []
    onlyDuringStatuses: 0
    compatibleStatuses: []
    excludeStatuses: 0
    excludedStatuses: []
    useDecorGrimeRange: 1
    grimeRange: {x: 0, y: 0.33}
    floorRanges: []
    timeRanges: []
