%YAML 1.1
%TAG !u! tag:unity3d.com,2011:
--- !u!114 &11400000
MonoBehaviour:
  m_ObjectHideFlags: 0
  m_CorrespondingSourceObject: {fileID: 0}
  m_PrefabInstance: {fileID: 0}
  m_PrefabAsset: {fileID: 0}
  m_GameObject: {fileID: 0}
  m_Enabled: 1
  m_EditorHideFlags: 0
  m_Script: {fileID: 11500000, guid: ac360b8116a8aa14dbe0f68ab832f6fd, type: 3}
  m_Name: PADNewDawn
  m_EditorClassIdentifier: 
  presetName: PADNewDawn
  fmodGUID: 0be193ac-1672-486e-82a1-0fe562c52080
  disabled: 0
  playOnce: 0
  interrupt: 0
  stopOnIncompatibleStateSwitch: 0
  avoidRepetition: 1
  ambientPriority: 2
  triggers:
  - onGameState: 0
    onPlayerSate: 0
    onPlayerLocation: 2
    onEvent: 0
    eventTriggerChance: 0
    triggerOnlyOnEvents: 0
    ignoreSilentTimeBetweenTracks: 0
    onlyInDistricts: 0
    compatibleDistricts: []
    excludeDistricts: 0
    excludedDistricts: []
    onlyInBuildings: 0
    compatibleBuildings: []
    excludeBuildings: 0
    excludedBuildings: []
    onlyInLocations: 1
    compatibleAddressTypes:
    - {fileID: 11400000, guid: 4e2e7bc3d3660254da54b4c41108ac47, type: 2}
    - {fileID: 11400000, guid: 2ee2997306addac459b987ce1f137a54, type: 2}
    - {fileID: 11400000, guid: 2ee2997306addac459b987ce1f137a54, type: 2}
    excludeLocations: 0
    excludedAddressTypes: []
    onlyDuringStatuses: 0
    compatibleStatuses: []
    excludeStatuses: 0
    excludedStatuses: []
    useDecorGrimeRange: 1
    grimeRange: {x: 0, y: 0.5}
    floorRanges:
    - {x: 5, y: 999}
    timeRanges: []
