%YAML 1.1
%TAG !u! tag:unity3d.com,2011:
--- !u!114 &11400000
MonoBehaviour:
  m_ObjectHideFlags: 0
  m_CorrespondingSourceObject: {fileID: 0}
  m_PrefabInstance: {fileID: 0}
  m_PrefabAsset: {fileID: 0}
  m_GameObject: {fileID: 0}
  m_Enabled: 1
  m_EditorHideFlags: 0
  m_Script: {fileID: 11500000, guid: df34c098fe792944a8bdb8310fc6f3c5, type: 3}
  m_Name: TheCandorBookOfHistory3
  m_EditorClassIdentifier: 
  presetName: TheCandorBookOfHistory3
  bookName: TheCandorBookOfHistory3
  author: Candor News Group
  genre: 01000000090000000a000000
  isSeries: 1
  seriesTag: 3
  seriesNumber: 3
  common: 0.725
  baseChance: 0.038
  pickRules:
  - rule: 0
    traitList:
    - {fileID: 11400000, guid: 545463d0aee0a0f418654d4114480a1f, type: 2}
    - {fileID: 11400000, guid: f3d4c981af6ff5f488918c96cd0fb7cd, type: 2}
    - {fileID: 11400000, guid: 5ff3045aaa321d74f8c6fe254bdcfad6, type: 2}
    - {fileID: 11400000, guid: 0625dbcfd101bb8428b8bee6cb7fc8d3, type: 2}
    - {fileID: 11400000, guid: 117bdb6c553548346940c2ba49478645, type: 2}
    - {fileID: 11400000, guid: 00b73d73634973149ba9e20f56cbf7b4, type: 2}
    - {fileID: 11400000, guid: b67862ba1767fa140bec95fc00eab74c, type: 2}
    mustPassForApplication: 0
    baseChance: 0.855
    reasonChance: 0
  - rule: 2
    traitList:
    - {fileID: 11400000, guid: f4cc9f0dee93f9b4eb470c6d584bbf42, type: 2}
    mustPassForApplication: 1
    baseChance: 0
    reasonChance: 0
  spawnRule: 0
  bookMesh: {fileID: 325090503309371590, guid: 49e44705e48f0664fa95deca278c11ba, type: 3}
  bookMaterial: {fileID: 2100000, guid: 528d802c48287324a8487f6c6289437f, type: 2}
  ddsMessage: 15337322-b399-4d35-91c7-6121b918bb49
