%YAML 1.1
%TAG !u! tag:unity3d.com,2011:
--- !u!114 &11400000
MonoBehaviour:
  m_ObjectHideFlags: 0
  m_CorrespondingSourceObject: {fileID: 0}
  m_PrefabInstance: {fileID: 0}
  m_PrefabAsset: {fileID: 0}
  m_GameObject: {fileID: 0}
  m_Enabled: 1
  m_EditorHideFlags: 0
  m_Script: {fileID: 11500000, guid: df34c098fe792944a8bdb8310fc6f3c5, type: 3}
  m_Name: WilliamLeeAndTheAgeOfIndustry
  m_EditorClassIdentifier: 
  presetName: WilliamLeeAndTheAgeOfIndustry
  bookName: WilliamLeeAndTheAgeOfIndustry
  author: 'Sisi Thomas '
  genre: 01000000
  isSeries: 0
  seriesTag: 1
  seriesNumber: 8
  common: 0.59
  baseChance: 0
  pickRules:
  - rule: 0
    traitList:
    - {fileID: 11400000, guid: 5ff3045aaa321d74f8c6fe254bdcfad6, type: 2}
    mustPassForApplication: 0
    baseChance: 0.789
    reasonChance: 0
  - rule: 0
    traitList:
    - {fileID: 11400000, guid: f3d4c981af6ff5f488918c96cd0fb7cd, type: 2}
    mustPassForApplication: 0
    baseChance: 0.131
    reasonChance: 0
  spawnRule: 0
  bookMesh: {fileID: -4682395450077727051, guid: 056245e69ffdc9e44bd7d72d11146aba,
    type: 3}
  bookMaterial: {fileID: 2100000, guid: 7f3b5369407b3f34eba4c3c99889fd86, type: 2}
  ddsMessage: 90b9535d-0fcb-4d11-a72a-f9946d0015da
