%YAML 1.1
%TAG !u! tag:unity3d.com,2011:
--- !u!114 &11400000
MonoBehaviour:
  m_ObjectHideFlags: 0
  m_CorrespondingSourceObject: {fileID: 0}
  m_PrefabInstance: {fileID: 0}
  m_PrefabAsset: {fileID: 0}
  m_GameObject: {fileID: 0}
  m_Enabled: 1
  m_EditorHideFlags: 0
  m_Script: {fileID: 11500000, guid: 9d757e97b11d4064db60cf985a2a0d9e, type: 3}
  m_Name: 128x128_0048_Layer 36
  m_EditorClassIdentifier: 
  presetName: 128x128_0048_Layer 36
  disable: 0
  texturePreview: {fileID: 2800000, guid: 2fa100fb173c18a4aa573915375b79c9, type: 3}
  material: {fileID: 2100000, guid: f5205d20f7ffac54ba46f51e71fd3a59, type: 2}
  orientationCompatibility: 00000000
  pixelScaleMultiplier: 0.025
  allowInResidential: 1
  allowInCommerical: 1
  allowInLobby: 1
  allowOnStreet: 0
  basePriority: 0
  colourMatching:
  - {r: 0.15686275, g: 0.26666668, b: 0.32941177, a: 1}
  - {r: 0.2627451, g: 0.26666668, b: 0.33333334, a: 1}
  - {r: 0.7882353, g: 0.6745098, b: 0.6, a: 1}
  - {r: 0.16470589, g: 0.15294118, b: 0.0627451, a: 1}
  - {r: 0.19215687, g: 0.12941177, b: 0, a: 1}
  colourMatchingScale: 1
  minimumWealth: 0
  maximumWealth: 1
  roomMatchingScale: 1
  modernity: 7
  cleanness: 5
  loudness: 5
  emotive: 2
  mustRequireTraitFromBelow: 1
  traitModifiers:
  - trait: {fileID: 11400000, guid: 1e3e6e5f81591064da5639c393f50210, type: 2}
    modifier: 5
  - trait: {fileID: 11400000, guid: f44cd0270d824ef47b04bb9a202476bc, type: 2}
    modifier: 7
  - trait: {fileID: 11400000, guid: 76a5741db0b980648972740e712b50d1, type: 2}
    modifier: 10
  useDynamicText: 0
  dynamicTextSource: 0
  textFont: {fileID: 0}
  textColour: {r: 1, g: 1, b: 1, a: 1}
  textSize: 24
