%YAML 1.1
%TAG !u! tag:unity3d.com,2011:
--- !u!114 &11400000
MonoBehaviour:
  m_ObjectHideFlags: 0
  m_CorrespondingSourceObject: {fileID: 0}
  m_PrefabInstance: {fileID: 0}
  m_PrefabAsset: {fileID: 0}
  m_GameObject: {fileID: 0}
  m_Enabled: 1
  m_EditorHideFlags: 0
  m_Script: {fileID: 11500000, guid: 9d757e97b11d4064db60cf985a2a0d9e, type: 3}
  m_Name: 128x128_0046_Layer 38
  m_EditorClassIdentifier: 
  presetName: 128x128_0046_Layer 38
  disable: 0
  texturePreview: {fileID: 2800000, guid: 4bb176e4c5b4d2547966f34df8a14cef, type: 3}
  material: {fileID: 2100000, guid: c0f85c314d1033742ac4ababf4816b5e, type: 2}
  orientationCompatibility: 02000000
  pixelScaleMultiplier: 0.025
  allowInResidential: 1
  allowInCommerical: 1
  allowInLobby: 1
  allowOnStreet: 0
  basePriority: 0
  colourMatching:
  - {r: 0.16470589, g: 0.10980392, b: 0, a: 1}
  - {r: 0.3019608, g: 0.3019608, b: 0.33333334, a: 1}
  - {r: 0.83137256, g: 0.7529412, b: 0.6666667, a: 1}
  - {r: 0.80784315, g: 0.7411765, b: 0.6784314, a: 1}
  - {r: 0.8392157, g: 0.70980394, b: 0.61960787, a: 1}
  colourMatchingScale: 1
  minimumWealth: 0
  maximumWealth: 1
  roomMatchingScale: 1
  modernity: 7
  cleanness: 5
  loudness: 5
  emotive: 2
  mustRequireTraitFromBelow: 1
  traitModifiers:
  - trait: {fileID: 11400000, guid: a79dc4429dc7faf4caf0402275d2a74c, type: 2}
    modifier: 10
  useDynamicText: 0
  dynamicTextSource: 0
  textFont: {fileID: 0}
  textColour: {r: 1, g: 1, b: 1, a: 1}
  textSize: 24
