%YAML 1.1
%TAG !u! tag:unity3d.com,2011:
--- !u!114 &11400000
MonoBehaviour:
  m_ObjectHideFlags: 0
  m_CorrespondingSourceObject: {fileID: 0}
  m_PrefabInstance: {fileID: 0}
  m_PrefabAsset: {fileID: 0}
  m_GameObject: {fileID: 0}
  m_Enabled: 1
  m_EditorHideFlags: 0
  m_Script: {fileID: 11500000, guid: 9d757e97b11d4064db60cf985a2a0d9e, type: 3}
  m_Name: 128x128_0061_Layer 23
  m_EditorClassIdentifier: 
  presetName: 128x128_0061_Layer 23
  disable: 0
  texturePreview: {fileID: 2800000, guid: c3419de55ec7d8349b03c40fa969469e, type: 3}
  material: {fileID: 2100000, guid: 80c2d9b5691b6ce45bbe40011277a6a0, type: 2}
  orientationCompatibility: 01000000
  pixelScaleMultiplier: 0.025
  allowInResidential: 1
  allowInCommerical: 1
  allowInLobby: 1
  allowOnStreet: 0
  basePriority: 0
  colourMatching:
  - {r: 0, g: 0, b: 0, a: 1}
  - {r: 0, g: 0.023529412, b: 0, a: 1}
  - {r: 1, g: 1, b: 1, a: 1}
  - {r: 0, g: 0, b: 0, a: 1}
  - {r: 0.67058825, g: 0.49803922, b: 0.33333334, a: 1}
  colourMatchingScale: 1
  minimumWealth: 0
  maximumWealth: 1
  roomMatchingScale: 1
  modernity: 7
  cleanness: 5
  loudness: 5
  emotive: 2
  mustRequireTraitFromBelow: 1
  traitModifiers:
  - trait: {fileID: 11400000, guid: f2e8b408e7419c54dafa463215bc749e, type: 2}
    modifier: 10
  useDynamicText: 0
  dynamicTextSource: 0
  textFont: {fileID: 0}
  textColour: {r: 1, g: 1, b: 1, a: 1}
  textSize: 24
