%YAML 1.1
%TAG !u! tag:unity3d.com,2011:
--- !u!114 &11400000
MonoBehaviour:
  m_ObjectHideFlags: 0
  m_CorrespondingSourceObject: {fileID: 0}
  m_PrefabInstance: {fileID: 0}
  m_PrefabAsset: {fileID: 0}
  m_GameObject: {fileID: 0}
  m_Enabled: 1
  m_EditorHideFlags: 0
  m_Script: {fileID: 11500000, guid: 9d757e97b11d4064db60cf985a2a0d9e, type: 3}
  m_Name: 128x128_0013_Layer 71
  m_EditorClassIdentifier: 
  presetName: 128x128_0013_Layer 71
  disable: 0
  texturePreview: {fileID: 2800000, guid: fadacdf05dd0e924a8bf740d22c90d09, type: 3}
  material: {fileID: 2100000, guid: e9e38ffa6bd20964cbd9babf2dde1a28, type: 2}
  orientationCompatibility: 00000000
  pixelScaleMultiplier: 0.025
  allowInResidential: 1
  allowInCommerical: 1
  allowInLobby: 1
  allowOnStreet: 0
  basePriority: 0
  colourMatching:
  - {r: 0.03137255, g: 0.6117647, b: 1, a: 1}
  - {r: 0.8392157, g: 0.90588236, b: 0.32156864, a: 1}
  - {r: 1, g: 0.8352941, b: 0.69803923, a: 1}
  - {r: 1, g: 0.96862745, b: 0.92156863, a: 1}
  - {r: 1, g: 0.94509804, b: 0.9411765, a: 1}
  colourMatchingScale: 1
  minimumWealth: 0
  maximumWealth: 1
  roomMatchingScale: 1
  modernity: 7
  cleanness: 5
  loudness: 5
  emotive: 2
  mustRequireTraitFromBelow: 1
  traitModifiers:
  - trait: {fileID: 11400000, guid: 760e48aa0e0bd7f49b8634096b37ff1f, type: 2}
    modifier: 10
  useDynamicText: 0
  dynamicTextSource: 0
  textFont: {fileID: 0}
  textColour: {r: 1, g: 1, b: 1, a: 1}
  textSize: 24
