%YAML 1.1
%TAG !u! tag:unity3d.com,2011:
--- !u!114 &11400000
MonoBehaviour:
  m_ObjectHideFlags: 0
  m_CorrespondingSourceObject: {fileID: 0}
  m_PrefabInstance: {fileID: 0}
  m_PrefabAsset: {fileID: 0}
  m_GameObject: {fileID: 0}
  m_Enabled: 1
  m_EditorHideFlags: 0
  m_Script: {fileID: 11500000, guid: 9d757e97b11d4064db60cf985a2a0d9e, type: 3}
  m_Name: 128x128_0067_Layer 17
  m_EditorClassIdentifier: 
  presetName: 128x128_0067_Layer 17
  disable: 0
  texturePreview: {fileID: 2800000, guid: e229fe03e15a5414f9e3c2063c215425, type: 3}
  material: {fileID: 2100000, guid: 038c9c10971c8d64ebec1f6429fe4f1a, type: 2}
  orientationCompatibility: 00000000
  pixelScaleMultiplier: 0.025
  allowInResidential: 1
  allowInCommerical: 1
  allowInLobby: 1
  allowOnStreet: 0
  basePriority: 0
  colourMatching:
  - {r: 1, g: 1, b: 1, a: 1}
  - {r: 1, g: 0.9843137, b: 0.94509804, a: 1}
  - {r: 1, g: 1, b: 0.9372549, a: 1}
  - {r: 0.7882353, g: 0.74509805, b: 0.7176471, a: 1}
  - {r: 0.74509805, g: 0.85882354, b: 0.78431374, a: 1}
  colourMatchingScale: 1
  minimumWealth: 0
  maximumWealth: 1
  roomMatchingScale: 1
  modernity: 7
  cleanness: 5
  loudness: 5
  emotive: 2
  mustRequireTraitFromBelow: 1
  traitModifiers:
  - trait: {fileID: 11400000, guid: b67862ba1767fa140bec95fc00eab74c, type: 2}
    modifier: 10
  - trait: {fileID: 11400000, guid: 17ce4803302a2374bac37667fc9db836, type: 2}
    modifier: 5
  useDynamicText: 0
  dynamicTextSource: 0
  textFont: {fileID: 0}
  textColour: {r: 1, g: 1, b: 1, a: 1}
  textSize: 24
