%YAML 1.1
%TAG !u! tag:unity3d.com,2011:
--- !u!114 &11400000
MonoBehaviour:
  m_ObjectHideFlags: 0
  m_CorrespondingSourceObject: {fileID: 0}
  m_PrefabInstance: {fileID: 0}
  m_PrefabAsset: {fileID: 0}
  m_GameObject: {fileID: 0}
  m_Enabled: 1
  m_EditorHideFlags: 0
  m_Script: {fileID: 11500000, guid: 9d757e97b11d4064db60cf985a2a0d9e, type: 3}
  m_Name: 128x128_0059_Layer 25
  m_EditorClassIdentifier: 
  presetName: 128x128_0059_Layer 25
  disable: 0
  texturePreview: {fileID: 2800000, guid: 44a4eeace865dcb41b4546114c47e99b, type: 3}
  material: {fileID: 2100000, guid: 1013cc2f930ade643a5ecd95765f323a, type: 2}
  orientationCompatibility: 00000000
  pixelScaleMultiplier: 0.025
  allowInResidential: 1
  allowInCommerical: 1
  allowInLobby: 1
  allowOnStreet: 0
  basePriority: 0
  colourMatching:
  - {r: 0, g: 0, b: 0, a: 1}
  - {r: 0, g: 0, b: 0, a: 1}
  - {r: 0.83137256, g: 0.8627451, b: 0.64705884, a: 1}
  - {r: 0.03137255, g: 0, b: 0.015686275, a: 1}
  - {r: 0, g: 0, b: 0, a: 1}
  colourMatchingScale: 1
  minimumWealth: 0
  maximumWealth: 1
  roomMatchingScale: 1
  modernity: 7
  cleanness: 5
  loudness: 5
  emotive: 2
  mustRequireTraitFromBelow: 1
  traitModifiers:
  - trait: {fileID: 11400000, guid: 11f3c9bb61d637e469ce36a2e7ea7874, type: 2}
    modifier: 10
  - trait: {fileID: 11400000, guid: e9b46bb7fa2b89f46927588387633ba0, type: 2}
    modifier: 5
  useDynamicText: 0
  dynamicTextSource: 0
  textFont: {fileID: 0}
  textColour: {r: 1, g: 1, b: 1, a: 1}
  textSize: 24
