%YAML 1.1
%TAG !u! tag:unity3d.com,2011:
--- !u!114 &11400000
MonoBehaviour:
  m_ObjectHideFlags: 0
  m_CorrespondingSourceObject: {fileID: 0}
  m_PrefabInstance: {fileID: 0}
  m_PrefabAsset: {fileID: 0}
  m_GameObject: {fileID: 0}
  m_Enabled: 1
  m_EditorHideFlags: 0
  m_Script: {fileID: 11500000, guid: e512325a7823fa2428f27f48fedbb6af, type: 3}
  m_Name: FemalePonytail
  m_EditorClassIdentifier: 
  presetName: FemalePonytail
  covers: 11000000
  outfitCategories: 06000000
  suitableForGenders: 0100000002000000
  suitableForBuilds: 01000000030000000200000000000000
  tags: 
  enableFacialFeatureSetup: 1
  suitableForHairstyle: 01000000
  isHead: 0
  pupilsOffset: {x: 0, y: 0.15, z: 0.1205}
  eyebrowsOffset: {x: 0, y: 0.1719, z: 0.133}
  mouthOffset: {x: 0, y: 0.045, z: 0.151}
  hatRenderCompatible: 0
  excludeHats: []
  hairRenderMode: 0
  setFootwear: 0
  footwear: 3
  priority: 2
  onlyChooseIfAllModelPartsAreAvailable: 0
  incompatibility: []
  useWealthValues: 0
  minimumWealth: 0
  maximumWealth: 1
  baseColourSource: 3
  colourBase: []
  colour1Source: 0
  colour1: []
  colour2Source: 4
  colour2: []
  colour3Source: 0
  colour3: []
  includeInPersonalityMatching: 1
  baseChance: 1
  useHEXACO: 1
  hexaco:
    outputMin: 1
    outputMax: 10
    enableFeminineMasculine: 1
    feminineMasculine: 0
    enableHumility: 0
    humility: 0
    enableEmotionality: 0
    emotionality: 0
    enableExtraversion: 0
    extraversion: 0
    enableAgreeableness: 0
    agreeableness: 0
    enableConscientiousness: 0
    conscientiousness: 0
    enableCreativity: 0
    creativity: 0
  useTraits: 0
  characterTraits: []
  models:
  - prefab: {fileID: 2507325890244846233, guid: 66fe2837dd38c004f9a2fbfe37e126cf,
      type: 3}
    anchor: 17
    offsetPosition: {x: 0, y: 0.207, z: -0.1339}
    offsetEuler: {x: 0, y: 0, z: 0}
    exclusiveAnchorModel: 1
