%YAML 1.1
%TAG !u! tag:unity3d.com,2011:
--- !u!114 &11400000
MonoBehaviour:
  m_ObjectHideFlags: 0
  m_CorrespondingSourceObject: {fileID: 0}
  m_PrefabInstance: {fileID: 0}
  m_PrefabAsset: {fileID: 0}
  m_GameObject: {fileID: 0}
  m_Enabled: 1
  m_EditorHideFlags: 0
  m_Script: {fileID: 11500000, guid: 0da14b35f8d566c4fb57d76d13c3a1da, type: 3}
  m_Name: fingerprint
  m_EditorClassIdentifier: 
  presetName: fingerprint
  subClass: Fingerprint
  windowStyle: {fileID: 11400000, guid: 9ab7c23d1b0116f4da1d39bfec7f96a3, type: 2}
  useDataKeys: 1
  validKeys:
  - key: 0
    uniqueKey: 1
    countTowardsProfile: 1
  - key: 2
    uniqueKey: 1
    countTowardsProfile: 1
  - key: 1
    uniqueKey: 1
    countTowardsProfile: 0
  passiveTies:
  - mainKey: 1
    mergeAtStart: 0100000002000000
  - mainKey: 2
    mergeAtStart: 0100000002000000
  notifyOfTies: 0
  useBelongsToInName: 0
  isSingleton: 0
  disableHistory: 0
  allowCustomNames: 1
  markAsDiscoveredOnAnyInteraction: 0
  forceWorldInteraction: 0
  useWindowFocusMode: 0
  iconSpriteLarge: {fileID: 21300000, guid: 0b9b151383c66f043842ac351febff9d, type: 3}
  defaultNullImage: {fileID: 2800000, guid: 6e3ad1f3bdfe95d4999ffe98ce21a27e, type: 3}
  useInGamePhoto: 0
  useWriter: 0
  relativeCamPhotoPos: {x: 0, y: -0.1, z: 0.5}
  relativeCamPhotoEuler: {x: 0, y: 180, z: 0}
  captureRules: 3
  changeTimeOfDay: 0
  captureTimeOfDay: 9.5
  useCaptureLight: 0
  useSurveillanceCapture: 0
  itemOwner: 0
  itemWriter: 0
  itemReceiver: 0
  factSetup:
  - preset: {fileID: 11400000, guid: 0b453e5e41341c24eb9f810c5c29416a, type: 2}
    link: 1
    onlyIfInOwnedPosition: 0
    createOnDiscovery: 1
    forceDiscoveryOnCreation: 0
    switchFindingFactToFrom: 0
  addFactLinks: []
  discoverOnCreate: 1
  keyMergeOnDiscovery: []
  discoveryTriggers: 
  applicationOnDiscover: []
  ddsDocumentID: a178c7d9-4ec2-4991-b5f9-cd917a0f7549
  isMatchParent: 0
  matchTypes:
  - {fileID: 11400000, guid: 3aaae69ae227b164cb1f497a3c0ca1f5, type: 2}
  enableSummary: 1
  enableFacts: 1
  pinnedStyle: 0
  pinnedBackgroundColour: {r: 1, g: 1, b: 1, a: 1}
