%YAML 1.1
%TAG !u! tag:unity3d.com,2011:
--- !u!114 &11400000
MonoBehaviour:
  m_ObjectHideFlags: 0
  m_CorrespondingSourceObject: {fileID: 0}
  m_PrefabInstance: {fileID: 0}
  m_PrefabAsset: {fileID: 0}
  m_GameObject: {fileID: 0}
  m_Enabled: 1
  m_EditorHideFlags: 0
  m_Script: {fileID: 11500000, guid: 0da14b35f8d566c4fb57d76d13c3a1da, type: 3}
  m_Name: PlayerStickyNote
  m_EditorClassIdentifier: 
  presetName: PlayerStickyNote
  subClass: StickyNote
  windowStyle: {fileID: 11400000, guid: 9ab7c23d1b0116f4da1d39bfec7f96a3, type: 2}
  useDataKeys: 0
  validKeys: []
  passiveTies: []
  notifyOfTies: 0
  useBelongsToInName: 0
  isSingleton: 0
  disableHistory: 1
  allowCustomNames: 1
  markAsDiscoveredOnAnyInteraction: 1
  forceWorldInteraction: 0
  useWindowFocusMode: 0
  iconSpriteLarge: {fileID: 21300000, guid: 912eed2180dfe4046b7d748323812067, type: 3}
  defaultNullImage: {fileID: 0}
  useInGamePhoto: 0
  useWriter: 0
  relativeCamPhotoPos: {x: 0, y: 0, z: 0}
  relativeCamPhotoEuler: {x: 0, y: 0, z: 0}
  captureRules: 0
  changeTimeOfDay: 0
  captureTimeOfDay: 12
  useCaptureLight: 0
  useSurveillanceCapture: 0
  itemOwner: 0
  itemWriter: 0
  itemReceiver: 0
  factSetup: []
  addFactLinks: []
  discoverOnCreate: 0
  keyMergeOnDiscovery: []
  discoveryTriggers: 
  applicationOnDiscover: []
  ddsDocumentID: 250ed862-9f19-4ed4-83fb-3f1f61209887
  isMatchParent: 0
  matchTypes: []
  enableSummary: 1
  enableFacts: 1
  pinnedStyle: 1
  pinnedBackgroundColour: {r: 1, g: 0.9607843, b: 0.42352942, a: 1}
