%YAML 1.1
%TAG !u! tag:unity3d.com,2011:
--- !u!114 &11400000
MonoBehaviour:
  m_ObjectHideFlags: 0
  m_CorrespondingSourceObject: {fileID: 0}
  m_PrefabInstance: {fileID: 0}
  m_PrefabAsset: {fileID: 0}
  m_GameObject: {fileID: 0}
  m_Enabled: 1
  m_EditorHideFlags: 0
  m_Script: {fileID: 11500000, guid: 0da14b35f8d566c4fb57d76d13c3a1da, type: 3}
  m_Name: SaleNote
  m_EditorClassIdentifier: 
  presetName: SaleNote
  subClass: SalesNote
  windowStyle: {fileID: 11400000, guid: 984071eddf4b85d42ad8c506950b49dd, type: 2}
  useDataKeys: 0
  validKeys: []
  passiveTies: []
  notifyOfTies: 0
  useBelongsToInName: 0
  isSingleton: 0
  disableHistory: 1
  allowCustomNames: 0
  markAsDiscoveredOnAnyInteraction: 1
  forceWorldInteraction: 0
  useWindowFocusMode: 0
  iconSpriteLarge: {fileID: 21300000, guid: b934f0260d2f77241b0a68fd239bc587, type: 3}
  defaultNullImage: {fileID: 2800000, guid: cd27e3ecf95414646aee61c2cc3cdc6f, type: 3}
  useInGamePhoto: 0
  useWriter: 0
  relativeCamPhotoPos: {x: -0.075, y: 0.25, z: 0.2}
  relativeCamPhotoEuler: {x: 45, y: 155, z: 0}
  captureRules: 2
  changeTimeOfDay: 0
  captureTimeOfDay: 9.5
  useCaptureLight: 0
  useSurveillanceCapture: 0
  itemOwner: 0
  itemWriter: 0
  itemReceiver: 0
  factSetup: []
  addFactLinks: []
  discoverOnCreate: 0
  keyMergeOnDiscovery: []
  discoveryTriggers: 
  applicationOnDiscover: []
  ddsDocumentID: af0f602f-ff8e-45e0-ae7a-4e2b1a5442fe
  isMatchParent: 0
  matchTypes: []
  enableSummary: 1
  enableFacts: 1
  pinnedStyle: 0
  pinnedBackgroundColour: {r: 1, g: 1, b: 1, a: 1}
