%YAML 1.1
%TAG !u! tag:unity3d.com,2011:
--- !u!114 &11400000
MonoBehaviour:
  m_ObjectHideFlags: 0
  m_CorrespondingSourceObject: {fileID: 0}
  m_PrefabInstance: {fileID: 0}
  m_PrefabAsset: {fileID: 0}
  m_GameObject: {fileID: 0}
  m_Enabled: 1
  m_EditorHideFlags: 0
  m_Script: {fileID: 11500000, guid: e512325a7823fa2428f27f48fedbb6af, type: 3}
  m_Name: FemaleAverageBaggyJeans
  m_EditorClassIdentifier: 
  presetName: FemaleAverageBaggyJeans
  covers: 0c0000000d0000000a0000000b00000000000000
  outfitCategories: 00000000
  suitableForGenders: 01000000
  suitableForBuilds: 01000000
  tags: 
  enableFacialFeatureSetup: 0
  suitableForHairstyle: 
  isHead: 0
  pupilsOffset: {x: 0, y: 0.15, z: 0.1205}
  eyebrowsOffset: {x: 0, y: 0.1719, z: 0.133}
  mouthOffset: {x: 0, y: 0.045, z: 0.151}
  hatRenderCompatible: 0
  excludeHats: []
  hairRenderMode: 0
  setFootwear: 0
  footwear: 3
  priority: 2
  onlyChooseIfAllModelPartsAreAvailable: 0
  incompatibility: []
  useWealthValues: 1
  minimumWealth: 0
  maximumWealth: 0.5
  baseColourSource: 3
  colourBase: []
  colour1Source: 1
  colour1:
  - {fileID: 11400000, guid: b02afa79cd7df394b8745dcf293d8221, type: 2}
  colour2Source: 0
  colour2: []
  colour3Source: 0
  colour3: []
  includeInPersonalityMatching: 1
  baseChance: 1
  useHEXACO: 0
  hexaco:
    outputMin: 1
    outputMax: 10
    enableFeminineMasculine: 0
    feminineMasculine: 0
    enableHumility: 0
    humility: 0
    enableEmotionality: 0
    emotionality: 0
    enableExtraversion: 0
    extraversion: 0
    enableAgreeableness: 0
    agreeableness: 0
    enableConscientiousness: 0
    conscientiousness: 0
    enableCreativity: 0
    creativity: 0
  useTraits: 0
  characterTraits: []
  models:
  - prefab: {fileID: 1706496045434311059, guid: cd0830a302dbe3240b67843812a5a8c3,
      type: 3}
    anchor: 12
    offsetPosition: {x: -0.03, y: 0, z: 0}
    offsetEuler: {x: -0, y: -0, z: -0}
    exclusiveAnchorModel: 1
  - prefab: {fileID: 1706496045434311059, guid: cd0830a302dbe3240b67843812a5a8c3,
      type: 3}
    anchor: 13
    offsetPosition: {x: -0.03, y: 0, z: 0}
    offsetEuler: {x: -0, y: -0, z: -0}
    exclusiveAnchorModel: 1
  - prefab: {fileID: 7614063736007142211, guid: 1ae6e4923d0627444b2b888beeb4ce73,
      type: 3}
    anchor: 10
    offsetPosition: {x: 0, y: 0, z: 0}
    offsetEuler: {x: -0, y: -0, z: -0}
    exclusiveAnchorModel: 1
  - prefab: {fileID: 7614063736007142211, guid: 1ae6e4923d0627444b2b888beeb4ce73,
      type: 3}
    anchor: 11
    offsetPosition: {x: 0, y: 0, z: 0}
    offsetEuler: {x: -0, y: -0, z: -0}
    exclusiveAnchorModel: 1
  - prefab: {fileID: 8054672934709847205, guid: f4d55bfe16f765c41b0df6b41f730fcd,
      type: 3}
    anchor: 0
    offsetPosition: {x: 0, y: 0, z: 0}
    offsetEuler: {x: -0, y: -0, z: -0}
    exclusiveAnchorModel: 1
