%YAML 1.1
%TAG !u! tag:unity3d.com,2011:
--- !u!114 &11400000
MonoBehaviour:
  m_ObjectHideFlags: 0
  m_CorrespondingSourceObject: {fileID: 0}
  m_PrefabInstance: {fileID: 0}
  m_PrefabAsset: {fileID: 0}
  m_GameObject: {fileID: 0}
  m_Enabled: 1
  m_EditorHideFlags: 0
  m_Script: {fileID: 11500000, guid: 202d67e9981949d44b0b94cd94eeb17b, type: 3}
  m_Name: ChocolateBar
  m_EditorClassIdentifier: 
  presetName: ChocolateBar
  spawnable: 1
  prefab: {fileID: 1248173812241743866, guid: 1daec33069521144eaaa6f6b606b263b, type: 3}
  prefabLocalEuler: {x: 0, y: 0, z: 0}
  prefabLocalScale: {x: 1, y: 1, z: 1}
  dontSaveWithSaveGames: 0
  onlySaveWithSaveGamesIfWorldObject: 0
  excludeFromObjectPooling: 0
  excludeFromVisibilityRangeChecks: 0
  spawnRange: 1
  showWorldObjectInSceneCapture: 0
  captureStateInSceneCapture: 0
  createProxy: 1
  onlyCreateProxyInDetailedCapture: 1
  createProxyAtRange: 0
  inheritColouringFromDecor: 0
  shareColoursWithFurniture: 0
  useOwnColourSettings: 0
  mainColour: 0
  customColour1: 0
  customColour2: 0
  customColour3: 0
  inheritGrubValue: 0
  autoName: 1
  includeBelongsTo: 0
  useNameShorthand: 0
  useApartmentName: 0
  isLight: {fileID: 0}
  lightswitch: 0
  allowUnscrewed: 1
  isMainLight: 0
  staticImage: {fileID: 21300000, guid: a4135e9af31ee094f932e844e8120713, type: 3}
  imagePos: {x: 0, y: 0, z: 0}
  imageRot: {x: 348.82886, y: 232.15332, z: 1.0503283}
  imageScale: 2.6926
  imagePrefabOverride: {fileID: 0}
  iconOverride: {fileID: 21300000, guid: 19e50fdc1546b854f8c9bef700ebf6b2, type: 3}
  itemClass: 4
  allowInApartmentStorage: 1
  allowInApartmentShop: 0
  apartmentPlacementMode: 0
  mustTouchFurniture: []
  useMaterialOverride: 0
  materialOverride:
    concrete: 0
    wood: 0
    carpet: 0
    tile: 0
    plaster: 0
    fabric: 0
    metal: 0
    glass: 0
  actionsPreset:
  - {fileID: 11400000, guid: 3c0ba7994b9ea5747b2eb8e86cbb8959, type: 2}
  onlyIllegalIfInNonPublic: 1
  rangeModifier: 0
  physicsProfile: {fileID: 11400000, guid: 61e0268d561f7e047a4223c0999768ad, type: 2}
  overrideMass: 0
  forcePhysicsAlwaysOn: 0
  reactWithExternalStimuli: 1
  mass: 0.2
  breakable: 0
  particleProfile: {fileID: 0}
  overrideShatterSettings: 0
  shardSize: {x: 0.025, y: 0.025, z: 0.025}
  shardEveryXPixels: 64
  overrideSpatterSettings: 0
  spatterSimulation: {fileID: 0}
  spatterCountMultiplier: 1
  overrideFurnitureSetting: 0
  enterTransition: {fileID: 0}
  exitTransition: {fileID: 0}
  enterTransition2: {fileID: 0}
  exitTransition2: {fileID: 0}
  switchSFX: []
  startingSwitchState: 1
  startingCustomState1: 0
  startingCustomState2: 0
  startingCustomState3: 0
  startingLockState: 0
  value: {x: 2, y: 4}
  AIPriority: 5
  disableForSocialGroups: 0
  pickDistanceMultiplier: 1
  perActionPrioritySettings: []
  tamperEnabled: 1
  useSetting:
    usageOffset: {x: 0, y: 0, z: 0.35}
    facingOffset: {x: 0, y: 0, z: 0}
    useNodeFloorPosition: 1
    useDoorBehaviour: 0
    useSittingOffset: 0
    useArmsStandingOffset: 0
  readingEnabled: 0
  readyingEnabledOnlyWithSwitchIsTue: 0
  readingEnabledOnlyWithKaizenSkill: 0
  readingSource: 0
  discoverOnRead: 0
  pageTurnReadingDelay: 0
  distanceRecognitionEnabled: 0
  distanceRecognitionOnly: 0
  recognitionRange: 5
  subObjectClasses:
  - {fileID: 11400000, guid: 0aaad4ed1f701c04fa83b5ecff1443de, type: 2}
  - {fileID: 11400000, guid: f340d62cd9711584ebe230cab1e27cd8, type: 2}
  - {fileID: 11400000, guid: ad94ec4caa37bcd44879ed6bea2a0f1a, type: 2}
  backupClasses:
  - {fileID: 11400000, guid: 94ecd56f625166b449047f5eee385c68, type: 2}
  - {fileID: 11400000, guid: 0aaad4ed1f701c04fa83b5ecff1443de, type: 2}
  autoPlacement: 0
  alwaysPlaceAtGameLocation: 0
  frequencyPerGamelocationMin: 0
  frequencyPerGameLocationMax: 0
  perGameLocationObjectPriority: 3
  placeIfFiltersPresentInOwner: 1
  placeAtHome: 1
  placeAtWork: 1
  traitModifiers:
  - rule: 0
    traitList:
    - {fileID: 11400000, guid: bc9b11ffb23d44f43a44307916fc02e0, type: 2}
    mustPassForApplication: 0
    appliedFrequencyMin: 0
    appliedFrequencyMax: 1
  - rule: 2
    traitList:
    - {fileID: 11400000, guid: 946c441b0557f5e49b671cecdd2a7035, type: 2}
    mustPassForApplication: 1
    appliedFrequencyMin: 0
    appliedFrequencyMax: 1
  frequencyPerOwnerMin: 0
  frequencyPerOwnerMax: 0
  multiplyByMessiness: 0
  perOwnerObjectPriority: 0
  writerIs: 0
  receiverIs: 0
  canBeFromSelf: 0
  limitPerObject: 1
  perObjectLimit: 1
  limitPerRoom: 0
  perRoomLimit: 99
  limitPerAddress: 0
  perAddressLimit: 99
  limitInResidential: 0
  perResidentialLimit: 1
  limitInCommercial: 0
  perCommercialLimit: 1
  banFromRooms: []
  limitToCertainRooms: 0
  onlyInRooms: []
  limitToCertainBuildings: 0
  onlyInBuildings: []
  attemptToStoreInFolder: {fileID: 0}
  folderPlacementChance: 1
  dontPlaceIfNoFolder: 0
  folderOwnershipMustMatch: 0
  useSubSpawning: 0
  securityLevel: 0
  ownedRule: 2
  overrideWithOnlyOwnedSpawnAtWork: 1
  subSpawnClass: {fileID: 0}
  subSpawnPositions: []
  relocationAuthority: 0
  relocateIfPlacedInPlayersHome: 1
  AIWillCorrectPosition: 1
  useEvidence: 1
  useSingleton: {fileID: 0}
  findEvidence: 0
  spawnEvidence: {fileID: 11400000, guid: be16e9d8ac6f0a544b293da8249526b0, type: 2}
  locationIsParent: 1
  summaryMessageSource: 0e882630-e793-4df2-ac51-5bb27362697f
  overrideEvidencePhotoSettings: 0
  relativeCamPhotoPos: {x: -0.075, y: 0.25, z: 0.2}
  relativeCamPhotoEuler: {x: 45, y: 155, z: 0}
  includeLock: {fileID: 0}
  lockOffset: {x: 0, y: 0, z: 0}
  passwordSource: 0
  attemptedOpenSound: {fileID: 0}
  armLockOnClose: 1
  lockStrength: {x: 0.1, y: 0.4}
  isSelfLock: 0
  useMaterialChanges: 0
  lockOffMaterial: {fileID: 0}
  lockOnMaterial: {fileID: 0}
  isComputer: 0
  bootApp: {fileID: 0}
  logInApp: {fileID: 0}
  desktopApp: {fileID: 0}
  additionalApps: []
  fingerprintsEnabled: 1
  printsSource: 11
  fingerprintDensity: 3
  enableDynamicFingerprints: 1
  overrideMaxDynamicFingerprints: 0
  maxDynamicFingerprints: 8
  fpsItem: {fileID: 11400000, guid: 24591802e85131640a1fe9a259db4240, type: 2}
  isInventoryItem: 1
  fpsItemOffset: {x: 0, y: 0, z: 0}
  fpsItemRotation: {x: 0, y: 0, z: 0}
  consumableAmount: 4
  destroyWhenAllConsumed: 0
  useSameModelAsTrash: 0
  trashItem: {fileID: 11400000, guid: 2ac4f0e59d57091459f1e64449c0d80d, type: 2}
  playerConsumeLoop: {fileID: 11400000, guid: 4024ab0e0db181441bd00c570eb45ce8, type: 2}
  takeOneEvent: {fileID: 0}
  disposal: 0
  chanceOfDroppedAngle: 0
  droppedAngleHeightBoost: 0.1
  weapon: {fileID: 0}
  inventoryCarryItem: 0
  requiredCarryAnimation: 1
  aiCarryAnimation: 1
  aiHeldObjectPosition: {x: -0.05, y: -0.1, z: -0.02}
  aiHeldObjectRotation: {x: 90, y: 0, z: 0}
  putDownAtHome: 0
  takeWith: 0
  putDownPositions: []
  backupPutDownPositions: []
  specialCaseFlag: 16
  affectRoomSteamLevel: 0
  isPayphone: 0
  isStinky: 0
  isClock: 0
  isMoney: 0
  isHeatSource: 0
  markAsTrashOnCreate: 0
  isLitter: 0
  isDecal: 0
  resetSwitchStates: 0
  resetTimer: 0.01
  musicTracks: []
  retailItem: {fileID: 11400000, guid: 2db70f9d5d80af043875e40f48eec8b2, type: 2}
  menuOverride: {fileID: 0}
  hourlyChime: {fileID: 0}
  chimeEqualToHour: 0
  chimeDelay: 1.5
  searchLoop: {fileID: 0}
  copyFrom: {fileID: 0}
