%YAML 1.1
%TAG !u! tag:unity3d.com,2011:
--- !u!1 &7671441384646152950
GameObject:
  m_ObjectHideFlags: 0
  m_CorrespondingSourceObject: {fileID: 0}
  m_PrefabInstance: {fileID: 0}
  m_PrefabAsset: {fileID: 0}
  serializedVersion: 6
  m_Component:
  - component: {fileID: 6642025033525256421}
  - component: {fileID: 4332975089945447330}
  - component: {fileID: 6043844844776128155}
  - component: {fileID: 6412964377133128206}
  m_Layer: 0
  m_Name: PathEdge
  m_TagString: Untagged
  m_Icon: {fileID: 0}
  m_NavMeshLayer: 0
  m_StaticEditorFlags: 0
  m_IsActive: 1
--- !u!4 &6642025033525256421
Transform:
  m_ObjectHideFlags: 0
  m_CorrespondingSourceObject: {fileID: 0}
  m_PrefabInstance: {fileID: 0}
  m_PrefabAsset: {fileID: 0}
  m_GameObject: {fileID: 7671441384646152950}
  m_LocalRotation: {x: -0, y: -0, z: -0, w: 1}
  m_LocalPosition: {x: 3.51, y: 0, z: -2.202}
  m_LocalScale: {x: 1, y: 1, z: 1}
  m_Children:
  - {fileID: 4122686948502734081}
  m_Father: {fileID: 0}
  m_RootOrder: 0
  m_LocalEulerAnglesHint: {x: 0, y: 0, z: 0}
--- !u!33 &4332975089945447330
MeshFilter:
  m_ObjectHideFlags: 0
  m_CorrespondingSourceObject: {fileID: 0}
  m_PrefabInstance: {fileID: 0}
  m_PrefabAsset: {fileID: 0}
  m_GameObject: {fileID: 7671441384646152950}
  m_Mesh: {fileID: 4810577617555402079, guid: 98590805279c65e408b4c187e5c86227, type: 3}
--- !u!23 &6043844844776128155
MeshRenderer:
  m_ObjectHideFlags: 0
  m_CorrespondingSourceObject: {fileID: 0}
  m_PrefabInstance: {fileID: 0}
  m_PrefabAsset: {fileID: 0}
  m_GameObject: {fileID: 7671441384646152950}
  m_Enabled: 1
  m_CastShadows: 1
  m_ReceiveShadows: 1
  m_DynamicOccludee: 1
  m_MotionVectors: 1
  m_LightProbeUsage: 1
  m_ReflectionProbeUsage: 1
  m_RayTracingMode: 2
  m_RenderingLayerMask: 1
  m_RendererPriority: 0
  m_Materials:
  - {fileID: 2100000, guid: 002270845c98fbf4bba9a092ceb4e253, type: 2}
  m_StaticBatchInfo:
    firstSubMesh: 0
    subMeshCount: 0
  m_StaticBatchRoot: {fileID: 0}
  m_ProbeAnchor: {fileID: 0}
  m_LightProbeVolumeOverride: {fileID: 0}
  m_ScaleInLightmap: 1
  m_ReceiveGI: 1
  m_PreserveUVs: 0
  m_IgnoreNormalsForChartDetection: 0
  m_ImportantGI: 0
  m_StitchLightmapSeams: 1
  m_SelectedEditorRenderState: 3
  m_MinimumChartSize: 4
  m_AutoUVMaxDistance: 0.5
  m_AutoUVMaxAngle: 89
  m_LightmapParameters: {fileID: 0}
  m_SortingLayerID: 0
  m_SortingLayer: 0
  m_SortingOrder: 0
--- !u!65 &6412964377133128206
BoxCollider:
  m_ObjectHideFlags: 0
  m_CorrespondingSourceObject: {fileID: 0}
  m_PrefabInstance: {fileID: 0}
  m_PrefabAsset: {fileID: 0}
  m_GameObject: {fileID: 7671441384646152950}
  m_Material: {fileID: 0}
  m_IsTrigger: 0
  m_Enabled: 1
  serializedVersion: 2
  m_Size: {x: 1.8000001, y: 0.2, z: 0.19999999}
  m_Center: {x: 0, y: 0.1, z: -0.8000001}
--- !u!1001 &8956548195597200923
PrefabInstance:
  m_ObjectHideFlags: 0
  serializedVersion: 2
  m_Modification:
    m_TransformParent: {fileID: 6642025033525256421}
    m_Modifications:
    - target: {fileID: -4216859302048453862, guid: d897b3990fbfb4a468901706ac25efc0,
        type: 3}
      propertyPath: m_LocalPosition.x
      value: 0
      objectReference: {fileID: 0}
    - target: {fileID: -4216859302048453862, guid: d897b3990fbfb4a468901706ac25efc0,
        type: 3}
      propertyPath: m_LocalPosition.y
      value: 0.001
      objectReference: {fileID: 0}
    - target: {fileID: -4216859302048453862, guid: d897b3990fbfb4a468901706ac25efc0,
        type: 3}
      propertyPath: m_LocalPosition.z
      value: -0.425
      objectReference: {fileID: 0}
    - target: {fileID: -4216859302048453862, guid: d897b3990fbfb4a468901706ac25efc0,
        type: 3}
      propertyPath: m_LocalRotation.x
      value: -0
      objectReference: {fileID: 0}
    - target: {fileID: -4216859302048453862, guid: d897b3990fbfb4a468901706ac25efc0,
        type: 3}
      propertyPath: m_LocalRotation.y
      value: -0
      objectReference: {fileID: 0}
    - target: {fileID: -4216859302048453862, guid: d897b3990fbfb4a468901706ac25efc0,
        type: 3}
      propertyPath: m_LocalRotation.z
      value: -0
      objectReference: {fileID: 0}
    - target: {fileID: -4216859302048453862, guid: d897b3990fbfb4a468901706ac25efc0,
        type: 3}
      propertyPath: m_LocalRotation.w
      value: 1
      objectReference: {fileID: 0}
    - target: {fileID: -4216859302048453862, guid: d897b3990fbfb4a468901706ac25efc0,
        type: 3}
      propertyPath: m_RootOrder
      value: 0
      objectReference: {fileID: 0}
    - target: {fileID: -4216859302048453862, guid: d897b3990fbfb4a468901706ac25efc0,
        type: 3}
      propertyPath: m_LocalEulerAnglesHint.x
      value: 0
      objectReference: {fileID: 0}
    - target: {fileID: -4216859302048453862, guid: d897b3990fbfb4a468901706ac25efc0,
        type: 3}
      propertyPath: m_LocalEulerAnglesHint.y
      value: 0
      objectReference: {fileID: 0}
    - target: {fileID: -4216859302048453862, guid: d897b3990fbfb4a468901706ac25efc0,
        type: 3}
      propertyPath: m_LocalEulerAnglesHint.z
      value: 0
      objectReference: {fileID: 0}
    - target: {fileID: -1504981713932161579, guid: d897b3990fbfb4a468901706ac25efc0,
        type: 3}
      propertyPath: m_Materials.Array.data[0]
      value: 
      objectReference: {fileID: 2100000, guid: 320c81ca7718dcc439885f699f2534fa, type: 2}
    - target: {fileID: -927199367670048503, guid: d897b3990fbfb4a468901706ac25efc0,
        type: 3}
      propertyPath: m_Name
      value: PathEdgeTexture
      objectReference: {fileID: 0}
    m_RemovedComponents:
    - {fileID: -6860895033569716450, guid: d897b3990fbfb4a468901706ac25efc0, type: 3}
  m_SourcePrefab: {fileID: 100100000, guid: d897b3990fbfb4a468901706ac25efc0, type: 3}
--- !u!4 &4122686948502734081 stripped
Transform:
  m_CorrespondingSourceObject: {fileID: -4216859302048453862, guid: d897b3990fbfb4a468901706ac25efc0,
    type: 3}
  m_PrefabInstance: {fileID: 8956548195597200923}
  m_PrefabAsset: {fileID: 0}
