"Game Reference Key","Notes","Displayed Text","Alternate Text","Frequency","Requires Suffix","Misc."
"[The key used by the game to find strings]","[Not loaded into the game, for explanation only]","[The displayed string in-game]","[Alternate displayed string, eg. Nickname]","[For lists]","[Does this require a suffix for naming?]","[Miscellaneous]"
"— ","— ","— ","— ","— ","— ","— "
"submit case","","Envie o formulário de resolução à prefeitura","",,"","10:31 01/12/2022"
"case processing","","Processando caso...","",,"","10:31 01/12/2022"
"collect hand in","","Obtenha o formulário de resolução de caso de homicídio na prefeitura","",,"","9:32 12/04/2023"
"answer the telephone","","Atenda o telefone","",,"","10:31 01/12/2022"
"turn on the bedside light","","Ligue a luz na cabeceira","",,"","10:31 01/12/2022"
"turn on the light switch in the lounge","","Ligue o interruptor na sala de estar","",,"","10:31 01/12/2022"
"turn on the light switch in the kitchen","","Ligue o interruptor na cozinha","",,"","10:31 01/12/2022"
"search the apartment for clues","","Vasculhe o apartamento em busca de pistas","",,"","10:31 01/12/2022"
"check the front door","","Há um bilhete na porta da frente...","",,"","9:32 12/04/2023"
"look up |notewritername| in your city directory","","Procure |story.kidnapper.name| no Catálogo da Cidade","",,"","10:31 01/12/2022"
"go to |notewriteraddress|","","Vá até |story.kidnapper.home.name|","",,"","10:31 01/12/2022"
"don't forget the key to your apartment","","Não se esqueça da chave do seu apartamento","",,"","10:31 01/12/2022"
"try the door","","Verifique a porta","",,"","10:31 01/12/2022"
"find a way inside...","","Encontre um jeito de entrar...","",,"","10:31 01/12/2022"
"option 1: pick the lock","","Opção 1: use uma gazua","",,"","10:31 01/12/2022"
"option 2: find a ventilation duct","","Opção 2: encontre um duto de ventilação","",,"","10:31 01/12/2022"
"investigate the property","","Investigue a propriedade","",,"","10:31 01/12/2022"
"search for clues","","Procure pistas e afixe-as no mural do caso","",,"","10:31 01/12/2022"
"find a hiding place!","","Encontre um lugar para se esconder!","",,"","10:31 01/12/2022"
"escape the apartment","","Fuja do prédio","",,"","10:31 01/12/2022"
"escape the building","","Fuja do prédio","",,"","10:31 01/12/2022"
"investigate your leads...","","Investigue suas pistas...","",,"","10:31 01/12/2022"
"pin the note to your case board","","Afixe a anotação no mural do caso com o alfinete vermelho","",,"","10:31 01/12/2022"
"inspect the city directory","","Inspecione o Catálogo da Cidade","",,"","10:31 01/12/2022"
"pin |notewriteraddress| to your case board","","Afixe |story.kidnapper.home.name| no mural do caso","",,"","10:31 01/12/2022"
"plot a route to |notewriteraddress| on your map","","Trace uma rota até |story.kidnapper.home.name| com o botão na janela de provas do endereço","",,"","9:32 12/04/2023"
"close the case board by pressing space","","Feche o mural do caso com |controls.caseboard|","",,"","9:32 12/04/2023"
"unlock the door to your apartment","","Interaja com a maçaneta para destrancar a porta do seu apartamento","",,"","10:31 01/12/2022"
"knock on the door","","Bata à porta","",,"","10:31 01/12/2022"
"knock on the door again","","Bata à porta de novo","",,"","10:31 01/12/2022"
"identify the body","","Encontre um documento com foto para identificar o corpo (olhe em volta)","",,"","9:32 12/04/2023"
"find a hiding place! under the bed might work.","","Encontre um lugar para se esconder. Debaixo da cama, talvez.","",,"","10:31 01/12/2022"
"access the backroom","","Vá até a sala nos fundos","",,"","10:31 01/12/2022"
"look for the entry matching what you found in |notewriterfirstname|'s apartment","","Procure a entrada correspondente ao que você encontrou no apartamento de |story.kidnapper.firstname|","",,"","10:31 01/12/2022"
"look for evidence on |notewriterfirstname|'s desk","","Procure provas na mesa de |story.kidnapper.name|","",,"","10:31 01/12/2022"
"look for evidence on |kidnapperfirstname|'s desk","","Procure provas na mesa de |story.notewriter.name|","",,"","10:31 01/12/2022"
"look up |kidnappername| in a city directory","","Procure |story.kidnapper.name| em um Catálogo da Cidade","",,"","10:31 01/12/2022"
"investigate |kidnapperaddress|","","Investigue |story.kidnapper.home.name|","",,"","10:31 01/12/2022"
"writerscalendar","","Encontre com |story.kidnapper.casualname| no |story.restaurant.name|. |story.meettime.time|","",,"","10:31 01/12/2022"
"kidnappercalendar","","Encontrar |story.notewriter.casualname| no |story.restaurant.name|? Cuidado com o que você diz!","",,"","10:31 01/12/2022"
"option 3: barge the door open","","Opção 3: arrombe a porta","",,"","10:31 01/12/2022"
"find time of death","","Analise o cadáver e descubra o horário da morte","",,"","10:31 01/12/2022"
"find cause of death","","Descubra a causa da morte","",,"","10:31 01/12/2022"
"search for clues around the crime scene","","Procure pistas pela cena do crime","",,"","10:31 01/12/2022"
"scan for fingerprints","","Selecione o leitor de digitais no inventário (|controls.weaponselect|), procure digitais em objetos que o elemento pode ter tocado e inspecione-as","",,"","9:32 12/04/2023"
"search for clues at the crime scene","","Procure pistas na cena do crime","",,"","10:31 01/12/2022"
"this is from |restaurant|.","","Isso é do |restaurant|","",,"","10:31 01/12/2022"
"access the cruncher","","Acesse o computador. A senha será a mesma que a da porta.","",,"","9:32 12/04/2023"
"access the back office","","Acesse a administração do |story.restaurant.name|","",,"","10:31 01/12/2022"
"look for surveillance entries from around |meettime|","","Procure |story.kidnapper.firstname| nas imagens de segurança por volta de |story.meettime.time| de |story.meettime.day| no |story.restaurant.name|","",,"","14:25 11/09/2023"
"access |notewriterfirstname|'s cruncher","","Acesse o computador de |story.kidnapper.name| na |story.workplace.name|","",,"","9:32 12/04/2023"
"access kidnapper cruncher","","Encontre a mesa de |story.kidnapper.name| na |story.workplace.name| e acesse o computador","",,"","9:32 12/04/2023"
"complete the hand in form","","Responda às perguntas no formulário do caso","",,"","10:31 01/12/2022"
"print surveillance, open the evidence window to the mystery person","","Imprima imagens de monitoramento e abra a janela de provas para a pessoa misteriosa","",,"","10:31 01/12/2022"
"get victim's prints","","Obtenha as digitais da vítima","",,"","10:31 01/12/2022"
"print any relevent vmail threads","","Imprima mensagens de V-Mail relevantes","",,"","10:31 01/12/2022"
"turned on lights","","Ligou as luzes","",,"","10:31 01/12/2022"
"pick up fingerprint scanner","","Pegue o leitor de digitais","",,"","10:31 01/12/2022"
"pick up handcuffs","","Pegue as algemas","",,"","10:31 01/12/2022"
"pick up equipment","","Abra o topo da caixa para pegar os equipamentos","",,"","9:32 12/04/2023"
"sometimes it's useful to search the trash!","","Às vezes, vale a pena revirar o lixo!","",,"","10:31 01/12/2022"
"check for recent calls","","Disque 541-0000 para verificar as chamadas recentes","",,"","10:31 01/12/2022"
"i can use the building's telephone router to find out who called this number","","Posso usar o roteador de telefones do prédio para descobrir quem ligou para este número","",,"","10:31 01/12/2022"
"use handcuffs to arrest the killer, then call enforcers using a telephone","","Use as algemas para prender o assassino e use um telefone para ligar para a Patrulha","",,"","10:31 01/12/2022"
"find |notewritername|","","Encontre |story.notewriter.name|","",,"","10:31 01/12/2022"
"use venilation ducts to escape, or wait for the enforcers to leave.","","Use dutos de ventilação para fugir ou se esconder e espere até que a Patrulha saia","",,"","9:32 12/04/2023"
"close the case board","","Feche o mural do caso com |controls.caseboard|","",,"","10:31 01/12/2022"
"look for hairpins or paperclips to pick the lock","","Procure grampos de cabelo ou clipes de papel para destrancar (|story.lockpicksneeded|)","",,"","10:31 01/12/2022"
"unlock the box","","Interaja com o cadeado para destrancar a caixa","",,"","10:31 01/12/2022"
"pick up the key to your apartment","","Pegue a chave do seu apartamento","",,"","10:31 01/12/2022"
"pick up hairpin","","Pegue o grampo de cabelo","",,"","10:31 01/12/2022"
"pick up paperclip","","Pegue o clipe de papel","",,"","10:31 01/12/2022"
"i'd better come prepared...","","É melhor eu me preparar...","",,"","10:31 01/12/2022"
"find old detective equipment","","Encontre equipamentos antigos de detetive","",,"","10:31 01/12/2022"
"pick up print scanner","","Pegue o leitor de digitais","",,"","10:31 01/12/2022"
"pick up lockpick kit","","Pegue o kit de gazuas","",,"","10:31 01/12/2022"
"select the name '|kidnappername|' on the note","","Selecione o nome '|story.kidnapper.name|' na anotação","",,"","10:31 01/12/2022"
"pin |kidnappername| to your case board","","Afixe |story.kidnapper.name| no mural do caso com o alfinete vermelho","",,"","10:31 01/12/2022"
"open the case board and select the pinned |kidnapperaddress|","","Abra o mural do caso com |controls.caseboard| e selecione |story.kidnapper.home.name| afixado","",,"","9:32 12/04/2023"
"scan for prints","","Procure digitais","",,"","10:31 01/12/2022"
"thought i saw something over here...","","Pensei ter visto alguma coisa por aqui...","",,"","10:31 01/12/2022"
"scan for prints 0","","Procure digitais por aqui e inspecione-as...","",,"","9:32 12/04/2023"
"scan for prints 1","","Procure digitais por aqui e inspecione-as...","",,"","9:32 12/04/2023"
"scan for prints 2","","Procure digitais por aqui e inspecione-as...","",,"","9:32 12/04/2023"
"scan for prints 3","","Procure digitais por aqui e inspecione-as...","",,"","9:32 12/04/2023"
"view hand in","","Veja os objetivos do seu caso com o botão 'Resolver' no canto superior direito do menu do mural do caso","",,"","10:31 01/12/2022"
"restaurant","","Vá até |story.restaurant.name|","",,"","9:32 12/04/2023"
"check the table where |story.kidnapper.name| was sitting","","Investigue a mesa no |story.restaurant.name| em que |story.kidnapper.name| se sentou","",,"","9:32 12/04/2023"
"office","","Vá até |story.workplace.name|","",,"","9:32 12/04/2023"
"weapons dealer","","Parece que |story.weaponsdealer.name| está fornecendo armas a quem quer que tenha matado |story.kidnapper.firstname|. Use um Catálogo da Cidade para encontrar.","",,"","9:32 12/04/2023"
"search weapons dealer","","Vasculhe |city.weaponsdealer.home.name| em busca de pistas sobre quem comprou armas de |city.weaponsdealer.name| recentemente.","",,"","10:31 01/12/2022"
"find killer","","Investigue |story.associate.name| (use um Catálogo da Cidade para encontrar essa pessoa)","",,"","9:32 12/04/2023"
"find proof","","Vasculhe |story.associate.home.name| em busca de provas que liguem |story.associate.name| ao caso","",,"","10:31 01/12/2022"
"access cabinet","","Acesse o roteador de telefones de |story.kidnapper.home.building|","",,"","9:32 12/04/2023"
"find cabinet","","Encontre o armário do roteador de telefones de |story.kidnapper.home.building|","",,"","9:32 12/04/2023"
"unlock cabinet","","Use uma chave ou gazua e destranque o armário do roteador de telefones","",,"","9:32 12/04/2023"
"trace call","","Pegue uma chamada feita ou recebida por |story.kidnapper.home.name| para rastrear. Trace uma rota até o outro prédio.","",,"","9:32 12/04/2023"
"access other cabinet","","Acesse outro armário em |story.routeraddress.building|","",,"","10:31 01/12/2022"
"find other call","","Encontre outra chamada correspondente à que você encontrou em |story.kidnapper.home.building|","",,"","10:31 01/12/2022"
"go to other address","","Vá para |story.routeraddress.name|","",,"","10:31 01/12/2022"
"search other address","","Vasculhe |story.routeraddress.name|","",,"","10:31 01/12/2022"
"it's worth checking out the address book...","","Vale a pena conferir o livro de endereços (pode ser útil deixá-lo afixado)","",,"","9:32 12/04/2023"
"access notewriter cruncher","","Encontre a mesa de |story.notewriter.name| na |story.workplace.name| e acesse o computador","",,"","9:32 12/04/2023"
"return to apartment","","Retorne ao seu apartamento em |story.playersapartment.name| (opcional)","",,"","10:31 01/12/2022"
"purchase apartment","","Compre um novo apartamento","",,"","10:31 01/12/2022"
"view board","","Procure apartamentos à venda ou bicos para ganhar um dinheiro a mais em quadros de anúncios","",,"","10:31 01/12/2022"
"hint: you can pick the lock by looking at the handle","","Olhe para a maçaneta para usar uma gazua ou encontre outra forma de entrar...","",,"","9:32 12/04/2023"
"disable security by tracing the red wires to the breaker box (optional)","","Siga os fios vermelhos até o disjuntor para desativar equipamentos de segurança (opcional)","",,"","10:31 01/12/2022"
"disable security systems by using the lever (optional)","","Abra o disjuntor do |story.restaurant.name| e use a alavanca para desabilitar a segurança (opcional)","",,"","9:32 12/04/2023"
"you may be able to find the passcode on a note somewhere...","","Talvez dê para encontrar a senha em uma anotação em algum lugar...","",,"","10:31 01/12/2022"
"bribe staff for access (optional)","","Suborne funcionários para ter acesso (opcional)","",,"","10:31 01/12/2022"
"open the 'surveillance' application","","Abra o programa 'Monitoramento'","",,"","10:31 01/12/2022"
"|story.kidnapper.name| is sitting with somebody. open an evidence window by inspecting their mugshot","","|story.kidnapper.name| está com alguém. Inspecione a foto do rosto para abrir a janela de provas.","",,"","10:31 01/12/2022"
"find employee record for |story.kidnapper.name| for more info (optional)","","Encontre o histórico de funcionário de |story.kidnapper.name| para mais informações (opcional)","",,"","10:31 01/12/2022"
"open the 'v mail' application","","Abra o programa do 'V-Mail'","",,"","10:31 01/12/2022"
"install sync disk","","Visite uma Clínica de Sync para instalar o disco Sync","",,"","10:31 01/12/2022"
"arrest the killer","","Prenda o assassino","",,"","9:32 12/04/2023"
"playersbirthday","","Aniversário de |city.player.casualname|","",,"","9:32 12/04/2023"
"partnersbirthday","","Aniversário de Sam","",,"","9:32 12/04/2023"
"find and talk to |story.slophouseowner.name| about accommodation","","Encontre e fale com |story.flophouseowner.name| sobre acomodações (use um Catálogo da Cidade)","",,"","9:32 12/04/2023"
"visit |story.flophouse.name|","","Visite |story.flophouse.name|","",,"","9:32 12/04/2023"
"check notice board","","Olhe o quadro de anúncios","",,"","9:32 12/04/2023"
"you can change the decor of your apartment using the inventory menu (|controls.weaponselect|) (optional)","","Você pode editar a decoração do seu apartamento pelo menu do inventário (|controls.weaponselect|) (opcional)","",,"","9:32 12/04/2023"
"work towards retirement by advancing social ranks (optional)","","Ascenda de classe social para conseguir sua aposentadoria (opcional)","",,"","9:32 12/04/2023"
"you can close this case when ready by using the resolve button","","Você pode usar o botão Resolver para encerrar este caso quando quiser","",,"","9:32 12/04/2023"
"hint: you can always find a city directory next to a public telelphone","","Dica: sempre há um Catálogo da Cidade ao lado de um telefone público","",,"","9:32 12/04/2023"
"hint: you also search for public or visited places by using |controls.notebook|","","Dica: use |controls.notebook| para buscar locais públicos ou visitados (ou provas inspecionadas)","",,"","9:32 12/04/2023"
"look around for vents for a potential quick exit 0","","Procure dutos de ar para encontrar possíveis saídas rápidas","",,"","9:32 12/04/2023"
"look around for vents for a potential quick exit 1","","Procure dutos de ar para encontrar possíveis saídas rápidas","",,"","9:32 12/04/2023"
"look around for vents for a potential quick exit 2","","Procure dutos de ar para encontrar possíveis saídas rápidas","",,"","9:32 12/04/2023"
"pick up the sync disk in the mailbox","","Pegue o disco Sync na caixa de correio","",,"","9:32 12/04/2023"
"what is the full name of the killer?","","Qual é o nome completo do assassino?","",,"","9:32 12/04/2023"
"do you have evidence that places the killer at a crime scene?","","Você tem provas que liguem o assassino à cena do crime?","",,"","9:32 12/04/2023"
"where does the killer live?","","Onde o assassino mora?","",,"","9:32 12/04/2023"
"have you located the murder weapon?","","Já localizou a arma do crime?","",,"","9:32 12/04/2023"
