"Game Reference Key","Notes","Displayed Text","Alternate Text","Frequency","Requires Suffix","Misc."
"[The key used by the game to find strings]","[Not loaded into the game, for explanation only]","[The displayed string in-game]","[Alternate displayed string, eg. Nickname]","[For lists]","[Does this require a suffix for naming?]","[Miscellaneous]"
"— ","— ","— ","— ","— ","— ","— "
"asiantakeaway","","Restaurante","",,"","10:31 01/12/2022"
"restaurant","","Restaurante","",,"","10:31 01/12/2022"
"asianeatery","","Restaurante","",,"","10:31 01/12/2022"
"mediumoffice","","Escritório","",,"","10:31 01/12/2022"
"fastfood","","Lanchonete","",,"","10:31 01/12/2022"
"bar","","Bar","",,"","10:31 01/12/2022"
"americandiner","","Restaurante americano","",,"","10:31 01/12/2022"
"industrialplant","","Indústria","",,"","10:31 01/12/2022"
"workplacecanteen","","Refeitório","",,"","10:31 01/12/2022"
"industrialoffice","","Escritório industrial","",,"","10:31 01/12/2022"
"buildingmanagement","","Administração de prédio","",,"","10:31 01/12/2022"
"pawnshop","","Loja de penhores","",,"","10:31 01/12/2022"
"launderette","","Lavanderia automática","",,"","10:31 01/12/2022"
"supermarket","","Supermercado","",,"","10:31 01/12/2022"
