"Game Reference Key","Notes","Displayed Text","Alternate Text","Frequency","Requires Suffix","Misc."
"[The key used by the game to find strings]","[Not loaded into the game, for explanation only]","[The displayed string in-game]","[Alternate displayed string, eg. Nickname]","[For lists]","[Does this require a suffix for naming?]","[Miscellaneous]"
"— ","— ","— ","— ","— ","— ","— "
"male","","homem","",,"","10:31 01/12/2022"
"female","","mulher","",,"","10:31 01/12/2022"
"nonbinary","","pessoa não-binária","",,"","10:31 01/12/2022"
"hshort","","baixa","",,"","10:31 01/12/2022"
"haverage","","média","",,"","10:31 01/12/2022"
"tall","","alta","",,"","10:31 01/12/2022"
"verytall","","muito alta","",,"","10:31 01/12/2022"
"veryshort","","muito baixa","",,"","10:31 01/12/2022"
"he","","ele","",,"","10:31 01/12/2022"
"him","","dele","",,"","10:31 01/12/2022"
"his","","dele","",,"","10:31 01/12/2022"
"she","","ela","",,"","10:31 01/12/2022"
"her","","dela","",,"","10:31 01/12/2022"
"they","","elu","",,"","10:31 01/12/2022"
"them","","delu","",,"","10:31 01/12/2022"
"their","","delu","",,"","10:31 01/12/2022"
"bald","","careca","",,"","10:31 01/12/2022"
"longhair","","longo","",,"","10:31 01/12/2022"
"shorthair","","curto","",,"","10:31 01/12/2022"
"greeneyes","","olhos verdes","",,"","10:31 01/12/2022"
"blueeyes","","olhos azuis","",,"","10:31 01/12/2022"
"greyeyes","","olhos cinza","",,"","10:31 01/12/2022"
"browneyes","","olhos castanhos","",,"","10:31 01/12/2022"
"skinny","","magro","",,"","10:31 01/12/2022"
"skinny_F","","magra","",,"","10:31 01/12/2022"
"skinny_NB","","magre","",,"","10:31 01/12/2022"
"average","","médio","",,"","10:31 01/12/2022"
"average_F","","média","",,"","10:31 01/12/2022"
"average_NB","","médie","",,"","10:31 01/12/2022"
"overweight","","grande","",,"","9:32 12/04/2023"
"muscular","","forte","",,"","10:31 01/12/2022"
"adult","","adulto","",,"","10:31 01/12/2022"
"adult_F","","adulta","",,"","10:31 01/12/2022"
"adult_NB","","adulte","",,"","10:31 01/12/2022"
"youngadult","","jovem adulto","",,"","10:31 01/12/2022"
"youngadult_F","","jovem adulta","",,"","10:31 01/12/2022"
"youngadult_NB","","jovem adulte","",,"","10:31 01/12/2022"
"red","","cabelo ruivo","",,"","10:31 01/12/2022"
"brown","","cabelo castanho","",,"","10:31 01/12/2022"
"blonde","","cabelo loiro","",,"","10:31 01/12/2022"
"purple","","cabelo roxo","",,"","10:31 01/12/2022"
"black","","cabelo preto","",,"","10:31 01/12/2022"
"ginger","","cabelo acobreado","",,"","10:31 01/12/2022"
"white","","cabelo branco","",,"","10:31 01/12/2022"
"green","","cabelo verde","",,"","10:31 01/12/2022"
"grey","","cabelo cinza","",,"","10:31 01/12/2022"
"blue","","cabelo azul","",,"","10:31 01/12/2022"
"pink","","cabelo rosa","",,"","10:31 01/12/2022"
"lb","","lb","",,"","10:31 01/12/2022"
"shoe size","","Tamanho do calçado","",,"","10:31 01/12/2022"
"shoe size estimate","","aproximadamente","",,"","10:31 01/12/2022"
"mr","","Sr.","",,"","10:31 01/12/2022"
"mx","","Sre.","",,"","10:31 01/12/2022"
"ms","","Sra.","",,"","10:31 01/12/2022"
"age","","Idade","",,"","10:31 01/12/2022"
"date of birth","","Data de nascimento","",,"","10:31 01/12/2022"
"gender","","Gênero","",,"","10:31 01/12/2022"
"height","","Estatura","",,"","10:31 01/12/2022"
"build","","Porte","",,"","10:31 01/12/2022"
"hair","","Cabelo","",,"","10:31 01/12/2022"
"eyes","","Olhos","",,"","10:31 01/12/2022"
"glasses","","Óculos","",,"","10:31 01/12/2022"
"yes","","Sim","",,"","10:31 01/12/2022"
"facial hair","","Pelos faciais","",,"","10:31 01/12/2022"
"blood type","","Tipo sanguíneo","",,"","10:31 01/12/2022"
"address","","Endereço","",,"","10:31 01/12/2022"
"workplace","","Local de trabalho","",,"","10:31 01/12/2022"
"job title","","Cargo","",,"","10:31 01/12/2022"
"work hours","","Expediente","",,"","10:31 01/12/2022"
"salary","","Salário","",,"","10:31 01/12/2022"
"additional notes","","Anotações adicionais","",,"","10:31 01/12/2022"
"no","","Não","",,"","10:31 01/12/2022"
"profile","","Perfil","",,"","10:31 01/12/2022"
"interest","","Interesse","",,"","10:31 01/12/2022"
"interest-nature","","Natureza","",,"","10:31 01/12/2022"
"none","","Nenhum","",,"","10:31 01/12/2022"
"partner first name","","Nome do(a) parceiro(a)","",,"","10:31 01/12/2022"
"first name initial","","Inicial do nome","",,"","10:31 01/12/2022"
"handwriting","","Caligrafia","",,"","10:31 01/12/2022"
"affliction","","Afecção","",,"","10:31 01/12/2022"
"affliction-highbloodpressure","","pressão alta","",,"","10:31 01/12/2022"
"interest-whiskey","","uísque","",,"","10:31 01/12/2022"
"affliction-migraines","","enxaqueca","",,"","10:31 01/12/2022"
"partner job","","Ocupação do(a) parceiro(a)","",,"","10:31 01/12/2022"
"interest-music","","Música","",,"","10:31 01/12/2022"
"lives on the ","","Mora no","",,"","10:31 01/12/2022"
"telephone","","Telefone","",,"","10:31 01/12/2022"
"works in ","","Local de trabalho","",,"","10:31 01/12/2022"
"voice id","","Voz","",,"","10:31 01/12/2022"
"passcode","","Senha","",,"","10:31 01/12/2022"
"interest-baseball","","Beisebol","",,"","10:31 01/12/2022"
"lives in ","","Endereço","",,"","10:31 01/12/2022"
"location","","Local","",,"","10:31 01/12/2022"
"blueprints","","Plantas baixas","",,"","10:31 01/12/2022"
"type","","Tipo","",,"","10:31 01/12/2022"
"belongs to","","Pertence a","",,"","10:31 01/12/2022"
"name","","Nome","",,"","10:31 01/12/2022"
"photo","","Foto","",,"","10:31 01/12/2022"
"fingerprint","","Digital","",,"","10:31 01/12/2022"
"first name","","Nome","",,"","10:31 01/12/2022"
"surname","","Sobrenome","",,"","10:31 01/12/2022"
"affliction-alcoholic","","alcoolismo","",,"","10:31 01/12/2022"
"member","","membro","",,"","10:31 01/12/2022"
"interest-houseplants","","plantas domésticas","",,"","10:31 01/12/2022"
"old","","idoso","",,"","10:31 01/12/2022"
"old_F","","idosa","",,"","10:31 01/12/2022"
"old_NB","","idose","",,"","10:31 01/12/2022"
"affliction-chronicpain","","dor crônica","",,"","10:31 01/12/2022"
"apos","","A+","",,"","10:31 01/12/2022"
"aneg","","A-","",,"","10:31 01/12/2022"
"bpos","","B+","",,"","10:31 01/12/2022"
"bneg","","B-","",,"","10:31 01/12/2022"
"opos","","O+","",,"","10:31 01/12/2022"
"oneg","","O-","",,"","10:31 01/12/2022"
"abpos","","AB+","",,"","10:31 01/12/2022"
"abneg","","AB-","",,"","10:31 01/12/2022"
"?","","?","",,"","10:31 01/12/2022"
"affliction-athsma","","asma","",,"","10:31 01/12/2022"
"affliction-depression","","depressão","",,"","10:31 01/12/2022"
"affliction-diabetic","","diabetes","",,"","10:31 01/12/2022"
"affliction-hardofhearing","","deficiência auditiva","",,"","10:31 01/12/2022"
"affliction-insomnia","","insônia","",,"","10:31 01/12/2022"
"interest-americanfootball","","futebol americano","",,"","10:31 01/12/2022"
"interest-architecture","","arquitetura","",,"","10:31 01/12/2022"
"interest-balletdancing","","balé","",,"","10:31 01/12/2022"
"interest-beer","","cerveja","",,"","10:31 01/12/2022"
"interest-bodybuilding","","fisiculturismo","",,"","10:31 01/12/2022"
"interest-bookworm","","livros","",,"","10:31 01/12/2022"
"interest-calligraphy","","caligrafia","",,"","10:31 01/12/2022"
"interest-chemistry","","química","",,"","10:31 01/12/2022"
"interest-chess","","xadrez","",,"","10:31 01/12/2022"
"interest-classicliterature","","literatura clássica","",,"","10:31 01/12/2022"
"interest-coffeeconnoisseur","","café","",,"","10:31 01/12/2022"
"interest-collectingmemorabilia","","colecionismo","",,"","10:31 01/12/2022"
"interest-creativewriting","","escrita criativa","",,"","10:31 01/12/2022"
"interest-diy","","artesanato","",,"","10:31 01/12/2022"
"interest-drawing","","desenho","",,"","10:31 01/12/2022"
"interest-guns","","armas","",,"","10:31 01/12/2022"
"interest-ikebana","","ikebana","",,"","10:31 01/12/2022"
"interest-juggling","","malabarismo","",,"","10:31 01/12/2022"
"interest-knitting","","tricô","",,"","10:31 01/12/2022"
"interest-meatlover","","carne","",,"","10:31 01/12/2022"
"interest-painting","","pintura","",,"","10:31 01/12/2022"
"interest-photography","","fotografia","",,"","10:31 01/12/2022"
"interest-poetry","","poesia","",,"","10:31 01/12/2022"
"interest-soccer","","futebol","",,"","10:31 01/12/2022"
"interest-sports","","esportes","",,"","10:31 01/12/2022"
"interest-tarot","","tarô","",,"","10:31 01/12/2022"
"interest-teaconnoisseur","","chá","",,"","10:31 01/12/2022"
"interest-tennis","","tênis","",,"","10:31 01/12/2022"
"interest-violin","","violino","",,"","10:31 01/12/2022"
"interest-vodka","","vodca","",,"","10:31 01/12/2022"
"interest-weightlifting","","halterofilismo","",,"","10:31 01/12/2022"
"interest-wine","","vinho","",,"","10:31 01/12/2022"
"district","","Bairro","",,"","9:32 12/04/2023"
"sample","","Amostra","",,"","9:32 12/04/2023"
"partner is member","","O parceiro é membro","",,"","14:25 11/09/2023"
"partner is member_F","","A parceira é membro","",,"","14:25 11/09/2023"
"partner is member_NB","","Le parceire é membro","",,"","14:25 11/09/2023"
