"Game Reference Key","Notes","Displayed Text","Alternate Text","Frequency","Requires Suffix","Misc."
"[The key used by the game to find strings]","[Not loaded into the game, for explanation only]","[The displayed string in-game]","[Alternate displayed string, eg. Nickname]","[For lists]","[Does this require a suffix for naming?]","[Miscellaneous]"
"— ","— ","— ","— ","— ","— ","— "
"retailowner","","Proprietário de loja","",,"","10:31 01/12/2022"
"retailowner_F","","Proprietária de loja","",,"","10:31 01/12/2022"
"retailowner_NB","","Proprietárie de loja","",,"","10:31 01/12/2022"
"retailmanager","","Gerente de loja","",,"","10:31 01/12/2022"
"shopkeeper","","Atendente de loja","",,"","10:31 01/12/2022"
"generalmanager","","Gerente geral","",,"","10:31 01/12/2022"
"headofhr","","Chefe de RH","",,"","10:31 01/12/2022"
"personalassistant","","Assistente pessoal","",,"","10:31 01/12/2022"
"officemanager","","Gerente de escritório","",,"","10:31 01/12/2022"
"headofoperations","","Chefe de operações","",,"","10:31 01/12/2022"
"hradministrator","","Administrador de RH","",,"","10:31 01/12/2022"
"hradministrator_F","","Administradora de RH","",,"","10:31 01/12/2022"
"hradministrator_NB","","Administradore de RH","",,"","10:31 01/12/2022"
"marketingexecutive","","Executivo de marketing","",,"","10:31 01/12/2022"
"marketingexecutive_F","","Executiva de marketing","",,"","10:31 01/12/2022"
"marketingexecutive_NB","","Executive de marketing","",,"","10:31 01/12/2022"
"accountant","","Contador","",,"","10:31 01/12/2022"
"criminalaccountant","","Contador","",,"","10:31 01/12/2022"
"accountant_F","","Contadora","",,"","10:31 01/12/2022"
"criminalaccountant_F","","Contadora","",,"","10:31 01/12/2022"
"accountant_NB","","Contadore","",,"","10:31 01/12/2022"
"criminalaccountant_NB","","Contadore","",,"","10:31 01/12/2022"
"qatechnician","","Técnico de CQ","",,"","10:31 01/12/2022"
"qatechnician_F","","Técnica de CQ","",,"","10:31 01/12/2022"
"qatechnician_NB","","Técnique de CQ","",,"","10:31 01/12/2022"
"customerservicetechnician","","Técnico de atendimento ao cliente","",,"","10:31 01/12/2022"
"customerservicetechnician_F","","Técnica de atendimento ao cliente","",,"","10:31 01/12/2022"
"customerservicetechnician_NB","","Técnique de atendimento ao cliente","",,"","10:31 01/12/2022"
"buyer","","Comprador","",,"","10:31 01/12/2022"
"buyer_F","","Compradora","",,"","10:31 01/12/2022"
"buyer_NB","","Compradore","",,"","10:31 01/12/2022"
"receptionist","","Recepcionista","",,"","10:31 01/12/2022"
"officetemp","","Funcionário temporário de escritório","",,"","10:31 01/12/2022"
"officetemp_F","","Funcionária temporária de escritório","",,"","10:31 01/12/2022"
"officetemp_NB","","Funcionárie temporárie de escritório","",,"","10:31 01/12/2022"
"warehousemanager","","Gerente de armazém","",,"","10:31 01/12/2022"
"administrator","","Administrador","",,"","10:31 01/12/2022"
"administrator_F","","Administradora","",,"","10:31 01/12/2022"
"administrator_NB","","Administradore","",,"","10:31 01/12/2022"
"warehousetechnician","","Técnico de armazém","",,"","10:31 01/12/2022"
"warehousetechnician_F","","Técnica de armazém","",,"","10:31 01/12/2022"
"warehousetechnician_NB","","Técnique de armazém","",,"","10:31 01/12/2022"
"machinist","","Industriário","",,"","10:31 01/12/2022"
"machinist_F","","Industriária","",,"","10:31 01/12/2022"
"machinist_NB","","Industriárie","",,"","10:31 01/12/2022"
"securityguard","","Segurança","",,"","10:31 01/12/2022"
"securityguard2","","Segurança","",,"","10:31 01/12/2022"
"securityguarddesk","","Segurança","",,"","10:31 01/12/2022"
"janitor","","Zelador","",,"","10:31 01/12/2022"
"janitor_F","","Zeladora","",,"","10:31 01/12/2022"
"janitor_NB","","Zeladore","",,"","10:31 01/12/2022"
"barstaff","","Funcionário de bar","",,"","10:31 01/12/2022"
"barstaff_F","","Funcionária de bar","",,"","10:31 01/12/2022"
"barstaff_NB","","Funcionárie de bar","",,"","10:31 01/12/2022"
"barkeeper","","Bartender","",,"","10:31 01/12/2022"
"headchef","","Chef de cozinha","",,"","10:31 01/12/2022"
"souschef","","Sous chef","",,"","10:31 01/12/2022"
"kitchenhand","","Auxiliar de cozinha","",,"","10:31 01/12/2022"
"companydirector","","Diretor de empresa","",,"","10:31 01/12/2022"
"companydirector_F","","Diretora de empresa","",,"","10:31 01/12/2022"
"companydirector_NB","","Diretore de empresa","",,"","10:31 01/12/2022"
"waiter","","Garçom","",,"","10:31 01/12/2022"
"waiter_F","","Garçonete","",,"","10:31 01/12/2022"
"waiter_NB","","Garçone","",,"","10:31 01/12/2022"
"floormanager","","Gerente de setor","",,"","10:31 01/12/2022"
"foreman","","Contramestre","",,"","10:31 01/12/2022"
"engineer","","Engenheiro","",,"","10:31 01/12/2022"
"engineer_F","","Engenheira","",,"","10:31 01/12/2022"
"engineer_NB","","Engenheire","",,"","10:31 01/12/2022"
"sitemanager","","Mestre de obras","",,"","10:31 01/12/2022"
"safetyofficer","","Fiscal de segurança","",,"","10:31 01/12/2022"
"r&dmanager","","Gerente de pesquisa","",,"","10:31 01/12/2022"
"shippingmanager","","Gerente de transporte","",,"","10:31 01/12/2022"
"buildingmanager","","Síndico","",,"","10:31 01/12/2022"
"buildingmanager_F","","Síndica","",,"","10:31 01/12/2022"
"buildingmanager_NB","","Síndique","",,"","10:31 01/12/2022"
"buildingjanitor","","Zelador de prédio","",,"","10:31 01/12/2022"
"buildingjanitor_F","","Zeladora de prédio","",,"","10:31 01/12/2022"
"buildingjanitor_NB","","Zeladore de prédio","",,"","10:31 01/12/2022"
"hiredkiller","","Assassino de aluguel","",,"","10:31 01/12/2022"
"hiredkiller_F","","Assassina de aluguel","",,"","10:31 01/12/2022"
"hiredkiller_NB","","Assassine de aluguel","",,"","10:31 01/12/2022"
"unemployed","","Desempregado","",,"","10:31 01/12/2022"
"unemployed_F","","Desempregada","",,"","10:31 01/12/2022"
"unemployed_NB","","Desempregade","",,"","10:31 01/12/2022"
"waitstaff","","Cumim","",,"","10:31 01/12/2022"
"shopassistant","","Assistente de loja","",,"","10:31 01/12/2022"
"selfemployedstreetstallvendor","","Vendedor de barraca de rua","",,"","10:31 01/12/2022"
"selfemployedstreetstallvendor_F","","Vendedora de barraca de rua","",,"","10:31 01/12/2022"
"selfemployedstreetstallvendor_NB","","Vendedore de barraca de rua","",,"","10:31 01/12/2022"
"laundryworker","","Funcionário de lavanderia","",,"","10:31 01/12/2022"
"laundryworker_F","","Funcionária de lavanderia","",,"","10:31 01/12/2022"
"laundryworker_NB","","Funcionárie de lavanderia","",,"","10:31 01/12/2022"
"enforcer","","Patrulha","",,"","10:31 01/12/2022"
"enforcercaptain","","Capitão da Patrulha","",,"","10:31 01/12/2022"
"enforcercaptain_F","","Capitã da Patrulha","",,"","10:31 01/12/2022"
"enforcercaptain_NB","","Capitãe da Patrulha","",,"","10:31 01/12/2022"
"dataanalyst","","Analista de dados","",,"","10:31 01/12/2022"
"chiefmedicalofficer","","Diretor-médico","",,"","10:31 01/12/2022"
"chiefmedicalofficer_F","","Diretora-médica","",,"","10:31 01/12/2022"
"chiefmedicalofficer_NB","","Diretore-médique","",,"","10:31 01/12/2022"
"medicalofficer","","Médico de departamento","",,"","10:31 01/12/2022"
"medicalofficer_F","","Médica de departamento","",,"","10:31 01/12/2022"
"medicalofficer_NB","","Médique de departamento","",,"","10:31 01/12/2022"
"nurse","","Enfermeiro","",,"","10:31 01/12/2022"
"nurse_F","","Enfermeira","",,"","10:31 01/12/2022"
"nurse_NB","","Enfermeire","",,"","10:31 01/12/2022"
"elgenclinicmanager","","Gerente da clínica El Gen","",,"","10:31 01/12/2022"
"elgenrep","","Representante da El Gen","",,"","10:31 01/12/2022"
"selfemployedlandlord","","Proprietário de imóvel","",,"","10:31 01/12/2022"
"selfemployedlandlord_F","","Proprietária de imóvel","",,"","10:31 01/12/2022"
"selfemployedlandlord_NB","","Proprietárie de imóvel","",,"","10:31 01/12/2022"
"selfemployedweaponsdealer","","Vendedor de armas","",,"","10:31 01/12/2022"
"weaponsdealer","","Vendedor de armas","",,"","10:31 01/12/2022"
"selfemployedweaponsdealer_F","","Vendedora de armas","",,"","10:31 01/12/2022"
"weaponsdealer_F","","Vendedora de armas","",,"","10:31 01/12/2022"
"selfemployedweaponsdealer_NB","","Vendedore de armas","",,"","10:31 01/12/2022"
"weaponsdealer_NB","","Vendedore de armas","",,"","10:31 01/12/2022"
"blackmarketdoctor","","Médico do mercado paralelo","",,"","10:31 01/12/2022"
"blackmarketdoctor_F","","Médica do mercado paralelo","",,"","10:31 01/12/2022"
"blackmarketdoctor_NB","","Médique do mercado paralelo","",,"","10:31 01/12/2022"
"blackmarkettrader","","Comerciante do mercado paralelo","",,"","10:31 01/12/2022"
"debtcollector","","Agiota","",,"","10:31 01/12/2022"
"gamblingdenowner","","Proprietário de cassino ilegal","",,"","10:31 01/12/2022"
"gamblingdenowner_F","","Proprietária de cassino ilegal","",,"","10:31 01/12/2022"
"gamblingdenowner_NB","","Proprietárie de cassino ilegal","",,"","10:31 01/12/2022"
"supervisor","","Supervisor","",,"","10:31 01/12/2022"
"supervisor_F","","Supervisora","",,"","10:31 01/12/2022"
"supervisor_NB","","Supervisore","",,"","10:31 01/12/2022"
"porter","","Porteiro","",,"","14:25 11/09/2023"
"porter_F","","Porteira","",,"","14:25 11/09/2023"
"porter_NB","","Porteire","",,"","14:25 11/09/2023"
