"Game Reference Key","Notes","Displayed Text","Alternate Text","Frequency","Requires Suffix","Misc."
"[The key used by the game to find strings]","[Not loaded into the game, for explanation only]","[The displayed string in-game]","[Alternate displayed string, eg. Nickname]","[For lists]","[Does this require a suffix for naming?]","[Miscellaneous]"
"— ","— ","— ","— ","— ","— ","— "
"name","","Nome","",,"","10:31 01/12/2022"
"fingerprint","","Digital","",,"","10:31 01/12/2022"
"key","","Chave adquirida de","",,"","10:31 01/12/2022"
"tutorial_notebook","","Aperte F1 a qualquer momento para acessar a ajuda do jogo","",,"","10:31 01/12/2022"
"lockpicks","","Gazua(s)","",,"","10:31 01/12/2022"
"lockpick_deplete","","Gazua(s) restante(s)...","",,"","10:31 01/12/2022"
"not_enough_lockpicks","","Você não tem mais gazuas!","",,"","10:31 01/12/2022"
"lockpick_success","","Destrancado!","",,"","10:31 01/12/2022"
"taken_fingerprint","","Digital coletada","",,"","10:31 01/12/2022"
"corpsabotage_fail","","Sabotagem malsucedida: você já instalou um decifrador aqui!","",,"","10:31 01/12/2022"
"codebreaker success","","Decifrador bem-sucedido!","",,"","10:31 01/12/2022"
"telephone engaged","","O telefone está ocupado. Tente mais tarde...","",,"","10:31 01/12/2022"
"linked unique information","","Atualização do perfil","",,"","10:31 01/12/2022"
"image/likeness","","Imagem/aparência","",,"","10:31 01/12/2022"
"new tutorial section","","Nova seção de tutorial","",,"","10:31 01/12/2022"
"inventory full","","Inventário lotado! Largue alguma coisa para pegar este item...","",,"","10:31 01/12/2022"
"passcode","","Senha de acesso adquirida","",,"","10:31 01/12/2022"
"ko","","Desmaiou... Você vai acordar em breve...","",,"","10:31 01/12/2022"
"added to inventory","","Adicionado ao inventário","",,"","10:31 01/12/2022"
"telephone","","Número de telefone adquirido","",,"","10:31 01/12/2022"
"closing time","","Horário de fechamento","",,"","10:31 01/12/2022"
"collected handin","","Formulário coletado","",,"","10:31 01/12/2022"
"case submitted","","Caso enviado para processamento. Aguarde os resultados.","",,"","10:31 01/12/2022"
"case unsolved","","O caso ainda não foi resolvido. Tente de novo...","",,"","10:31 01/12/2022"
"case completed","","Resolvido","",,"","10:31 01/12/2022"
"tip-changelead","","Dica: você pode mudar de pista a qualquer momento usando o botão no formulário de resolução do caso.","",,"","10:31 01/12/2022"
"suspect released","","Suspeito absolvido","",,"","10:31 01/12/2022"
"suspect convicted","","Suspeito condenado","",,"","10:31 01/12/2022"
"new enforcer call","","[Radar] Assassinato relatado","",,"","10:31 01/12/2022"
"corpsabotage_success","","Sucesso","",,"","10:31 01/12/2022"
"somebody is coming to answer the door...","","Alguém está vindo atender à porta...","",,"","10:31 01/12/2022"
"job information updated!","","Informações do trabalho atualizadas!","",,"","10:31 01/12/2022"
"linked to","","Conectado a","",,"","10:31 01/12/2022"
"new information","","Novas informações","",,"","10:31 01/12/2022"
"you can open your case board at any time by pressing f","","Aperte F a qualquer momento para abrir o mural do caso","",,"","10:31 01/12/2022"
"the demo timer starts now...","","O relógio da demo começa a correr agora...","",,"","10:31 01/12/2022"
"corpsabotage_success_bonus","","Bônus de proprietário","",,"","10:31 01/12/2022"
"case closed","","Caso encerrado","",,"","10:31 01/12/2022"
"unsolved","","Não resolvido","",,"","10:31 01/12/2022"
"social credit score","","Créditos sociais","",,"","10:31 01/12/2022"
"new murder case","","Novo caso de homicídio","",,"","10:31 01/12/2022"
"case opened","","Caso em aberto","",,"","10:31 01/12/2022"
"the case of the ","","Caso do","",,"","10:31 01/12/2022"
"movement alert","","Alerta de movimento","",,"","10:31 01/12/2022"
"tracking citizen...","","Rastreando cidadão...","",,"","10:31 01/12/2022"
"social credit level up","","Subiu de nível de créditos sociais","",,"","10:31 01/12/2022"
"gained social credit","","Ganhou créditos sociais","",,"","10:31 01/12/2022"
"social credit","","Créditos sociais","",,"","10:31 01/12/2022"
"job failed","","Trabalho malsucedido","",,"","10:31 01/12/2022"
"locked_help","","Trancada! Interaja com a maçaneta para ver as opções...","",,"","9:32 12/04/2023"
"locked","","Trancada!","",,"","9:32 12/04/2023"
"look at the target object to progress the action","","Olhe para o objeto-alvo para avançar na ação","",,"","9:32 12/04/2023"
"nobody_home","","Se ninguém estiver em casa, você pode ter que voltar depois (ou encontrar a pessoa)...","",,"","9:32 12/04/2023"
"unable to save at this time","","Não é possível salvar neste momento","",,"","9:32 12/04/2023"
"game saved","","Jogo salvo","",,"","9:32 12/04/2023"
"fingerprint_prompt","","Procure impressões digitais com |controls.secondary| para inspecioná-las","",,"","9:32 12/04/2023"
"not_enough_money","","Você não tem dinheiro suficiente!","",,"","9:32 12/04/2023"
"you have acquired information about residents of: ","","Você adquiriu informações sobre os moradores de: ","",,"","9:32 12/04/2023"
"new apartment","","Novo apartamento","",,"","14:25 11/09/2023"
"hotel_kickout1","","Expulsaram você do seu quarto do hotel por não pagar a estadia!","",,"","14:25 11/09/2023"
"hotel_kickout2","","Talvez seja melhor não passar no hotel por algum tempo...","",,"","14:25 11/09/2023"
