"Game Reference Key","Notes","Displayed Text","Alternate Text","Frequency","Requires Suffix","Misc."
"[The key used by the game to find strings]","[Not loaded into the game, for explanation only]","[The displayed string in-game]","[Alternate displayed string, eg. Nickname]","[For lists]","[Does this require a suffix for naming?]","[Miscellaneous]"
"— ","— ","— ","— ","— ","— ","— "
"punch","","Socar","",,"","10:31 01/12/2022"
"open","","Abrir","",,"","10:31 01/12/2022"
"drink","","Beber","",,"","10:31 01/12/2022"
"counter","","Contra-atacar","",,"","10:31 01/12/2022"
"case file","","Arquivo do caso","",,"","10:31 01/12/2022"
"hide","","Esconder-se","",,"","10:31 01/12/2022"
"cancel","","Cancelar","",,"","10:31 01/12/2022"
"case board","","Mural do caso","",,"","10:31 01/12/2022"
"lockpicking","","Uso de gazuas","",,"","10:31 01/12/2022"
"inventory","","Inventário","",,"","10:31 01/12/2022"
"close","","Fechar","",,"","10:31 01/12/2022"
"turn on","","Ligar","",,"","10:31 01/12/2022"
"turn off","","Desligar","",,"","10:31 01/12/2022"
"lock","","Trancar","",,"","10:31 01/12/2022"
"unlock","","Destrancar","",,"","10:31 01/12/2022"
"interact","","Interagir","",,"","10:31 01/12/2022"
"button","","Botão","",,"","10:31 01/12/2022"
"inspect","","Inspecionar","",,"","10:31 01/12/2022"
"pick up","","Pegar","",,"","10:31 01/12/2022"
"knock","","Bater","",,"","10:31 01/12/2022"
"lockpick","","Usar gazua","",,"","10:31 01/12/2022"
"access","","Acessar","",,"","10:31 01/12/2022"
"read","","Ler","",,"","10:31 01/12/2022"
"peek","","Espiar","",,"","10:31 01/12/2022"
"return","","Retornar","",,"","10:31 01/12/2022"
"evasion","","Esquiva","",,"","10:31 01/12/2022"
"evade","","Esquivar","",,"","10:31 01/12/2022"
"take","","Pegar","",,"","10:31 01/12/2022"
"talk to","","Conversar","",,"","10:31 01/12/2022"
"say","","Dizer","",,"","10:31 01/12/2022"
"view file...","","Ver arquivo...","",,"","10:31 01/12/2022"
"flush","","Dar descarga","",,"","10:31 01/12/2022"
"crawl into","","Rastejar","",,"","10:31 01/12/2022"
"go through","","Atravessar","",,"","10:31 01/12/2022"
"use","","Usar","",,"","10:31 01/12/2022"
"arm","","Redefinir","",,"","10:31 01/12/2022"
"reivew job","","Avaliar trabalho","",,"","10:31 01/12/2022"
"review job","","Avaliar trabalho","",,"","10:31 01/12/2022"
"previous month","","Mês anterior","",,"","10:31 01/12/2022"
"next month","","Mês seguinte","",,"","10:31 01/12/2022"
"look underneath","","Olhar por baixo","",,"","10:31 01/12/2022"
"put back","","Devolver","",,"","10:31 01/12/2022"
"sleep","","Dormir","",,"","10:31 01/12/2022"
"get up","","Levantar","",,"","10:31 01/12/2022"
"answer","","Atender","",,"","10:31 01/12/2022"
"end call","","Encerrar chamada","",,"","10:31 01/12/2022"
"get in","","Deitar","",,"","10:31 01/12/2022"
"enter","","Entrar","",,"","10:31 01/12/2022"
"put down","","Colocar no lugar","",,"","10:31 01/12/2022"
"throw","","Arremessar","",,"","10:31 01/12/2022"
"sit down","","Sentar","",,"","10:31 01/12/2022"
"take (lockpick)","","Pegar (gazua)","",,"","10:31 01/12/2022"
"call","","Ligar","",,"","10:31 01/12/2022"
"set alarm (sleep)","","Ajustar alarme (dormir)","",,"","10:31 01/12/2022"
"set hours/minutes","","Definir horas/minutos","",,"","10:31 01/12/2022"
"pass time","","Passar tempo","",,"","10:31 01/12/2022"
"set alarm (pass time)","","Ajustar alarme (passar tempo)","",,"","10:31 01/12/2022"
"scoot","","Passar para o lado","",,"","10:31 01/12/2022"
"time forward","","Avançar tempo","",,"","10:31 01/12/2022"
"time back","","Recuar tempo","",,"","10:31 01/12/2022"
"barge","","Arrombar","",,"","10:31 01/12/2022"
"jump","","Pular","",,"","10:31 01/12/2022"
"crouch","","Agachar","",,"","10:31 01/12/2022"
"sprint","","Correr","",,"","10:31 01/12/2022"
"flashlight","","Lanterna","",,"","10:31 01/12/2022"
"scroll","","Rolar/Menu de contexto","",,"","10:31 01/12/2022"
"scroll/context menu","","Rolar/Menu de contexto","",,"","10:31 01/12/2022"
"zoom in","","Aproximar câmera","",,"","10:31 01/12/2022"
"zoom out","","Afastar câmera","",,"","10:31 01/12/2022"
"end conversation","","Encerrar conversa","",,"","10:31 01/12/2022"
"sit","","Sentar","",,"","10:31 01/12/2022"
"operate","","Operar","",,"","10:31 01/12/2022"
"next","","Próximo","",,"","10:31 01/12/2022"
"previous","","Anterior","",,"","10:31 01/12/2022"
"trigger alarm","","Acionar alarme","",,"","10:31 01/12/2022"
"view","","Visualizar","",,"","10:31 01/12/2022"
"slide out","","Retirar","",,"","10:31 01/12/2022"
"slide back","","Colocar de volta","",,"","10:31 01/12/2022"
"search","","Procurar","",,"","10:31 01/12/2022"
"unscrew bulb","","Desparafusar lâmpada","",,"","10:31 01/12/2022"
"screw bulb","","Parafusar lâmpada","",,"","10:31 01/12/2022"
"scan","","Procurar digitais","",,"","10:31 01/12/2022"
"take print","","Coletar digital","",,"","10:31 01/12/2022"
"takeprint","","Coletando digital","",,"","10:31 01/12/2022"
"search/analyse","","Procurar/analisar","",,"","10:31 01/12/2022"
"up","","Cima","",,"","10:31 01/12/2022"
"down","","Baixo","",,"","10:31 01/12/2022"
"handcuff","","Algemas","",,"","10:31 01/12/2022"
"takedown","","Derrubar","",,"","10:31 01/12/2022"
"hang up","","Pendurar","",,"","10:31 01/12/2022"
"dial...","","Discar...","",,"","10:31 01/12/2022"
"swap","","Trocar","",,"","10:31 01/12/2022"
"eat","","Comer","",,"","10:31 01/12/2022"
"raise","","Erguer","",,"","10:31 01/12/2022"
"take picture","","Tirar foto","",,"","10:31 01/12/2022"
"place","","Colocar","",,"","10:31 01/12/2022"
"sabotage","","Sabotar","",,"","10:31 01/12/2022"
"view fuse box","","Ver caixa de fusíveis","",,"","10:31 01/12/2022"
"view call logs","","Ver registros de chamadas","",,"","10:31 01/12/2022"
"select","","Selecionar","",,"","10:31 01/12/2022"
"drop/place","","Largar/Colocar","",,"","10:31 01/12/2022"
"click","","Clicar","",,"","10:31 01/12/2022"
"check underneath","","Olhar por baixo","",,"","10:31 01/12/2022"
"next page","","Próxima página","",,"","10:31 01/12/2022"
"previous page","","Página anterior","",,"","10:31 01/12/2022"
"take one","","Pegar um","",,"","10:31 01/12/2022"
"dry","","Secar","",,"","10:31 01/12/2022"
"ko","","Recuperando","",,"","10:31 01/12/2022"
"install/uninstall sync disks...","","Instalar/desinstalar discos Sync...","",,"","10:31 01/12/2022"
"apply","","Aplicar","",,"","10:31 01/12/2022"
"sleep...","","Dormir...","",,"","10:31 01/12/2022"
"switch hours/minutes","","Alternar horas/minutos","",,"","10:31 01/12/2022"
"alarm forward","","Avançar alarme","",,"","10:31 01/12/2022"
"alarm back","","Voltar alarme","",,"","10:31 01/12/2022"
"pass time....","","Passar tempo...","",,"","10:31 01/12/2022"
"set alarm (wait)","","Ajustar alarme (esperar)","",,"","10:31 01/12/2022"
"notebook","","Caderno","",,"","10:31 01/12/2022"
"turn on hob","","Ligar","",,"","10:31 01/12/2022"
"hand in case","","Entregar caso","",,"","10:31 01/12/2022"
"get case form","","Obter formulários de resolução","",,"","10:31 01/12/2022"
"change decor","","Mudar decoração","",,"","10:31 01/12/2022"
"get out","","Sair","",,"","10:31 01/12/2022"
"turn off hob","","Desligar","",,"","10:31 01/12/2022"
"order","","Pedir","",,"","10:31 01/12/2022"
"switch off","","Desligar","",,"","10:31 01/12/2022"
"switch on","","Ligar","",,"","10:31 01/12/2022"
"nearestinteractable","","Interativo mais próximo","",,"","10:31 01/12/2022"
"nearest interactable","","Interativo mais próximo","",,"","10:31 01/12/2022"
"scroll map","","Navegar pelo mapa","",,"","10:31 01/12/2022"
"cycle interface","","Alternar interface","",,"","10:31 01/12/2022"
"move evidence","","Mover provas","",,"","10:31 01/12/2022"
"scroll board","","Navegar pelo mural","",,"","10:31 01/12/2022"
"zoom","","Zoom","",,"","10:31 01/12/2022"
"prev. window","","Janela ant.","",,"","10:31 01/12/2022"
"next window","","Próx. janela","",,"","10:31 01/12/2022"
"move window","","Mover janela","",,"","10:31 01/12/2022"
"context menu","","Menu de contexto","",,"","10:31 01/12/2022"
"shoot","","Realizar tacada","",,"","10:31 01/12/2022"
"reset","","Redefinir","",,"","10:31 01/12/2022"
"resume","","Retomar","",,"","10:31 01/12/2022"
"release","","Lançar","",,"","10:31 01/12/2022"
"give","","Dar","",,"","10:31 01/12/2022"
"attack","","Atacar","",,"","10:31 01/12/2022"
"vomit","","Vomitar","",,"","10:31 01/12/2022"
"vomiting","","Vomitando","",,"","10:31 01/12/2022"
"sabotaging","","Sabotando","",,"","10:31 01/12/2022"
"select & return","","Selecionar e retornar","",,"","10:31 01/12/2022"
"select & close","","Selecionar e fechar","",,"","10:31 01/12/2022"
"next track","","Próxima faixa","",,"","9:32 12/04/2023"
"previous track","","Faixa anterior","",,"","9:32 12/04/2023"
"create string","","Criar fio","",,"","9:32 12/04/2023"
"lower","","Baixar","",,"","9:32 12/04/2023"
"rotate left","","Girar para a esquerda","",,"","9:32 12/04/2023"
"rotate right","","Girar para a direita","",,"","9:32 12/04/2023"
"dispose","","Descartar","",,"","14:25 11/09/2023"
