"Game Reference Key","Notes","Displayed Text","Alternate Text","Frequency","Requires Suffix","Misc."
"[The key used by the game to find strings]","[Not loaded into the game, for explanation only]","[The displayed string in-game]","[Alternate displayed string, eg. Nickname]","[For lists]","[Does this require a suffix for naming?]","[Miscellaneous]"
"— ","— ","— ","— ","— ","— ","— "
"cold","","Frio","",,"","10:31 01/12/2022"
"vandalism_description","","Vandalismo","",,"","10:31 01/12/2022"
"theft_description","","Roubo","",,"","10:31 01/12/2022"
"illegalaction","","Ilegalidade","",,"","10:31 01/12/2022"
"trespassing","","Invasão","",,"","10:31 01/12/2022"
"trespassing_description","","Invasão","",,"","10:31 01/12/2022"
"tampering_description","","Sabotagem","",,"","10:31 01/12/2022"
"breakingandentering_description","","Arrombamento e invasão","",,"","10:31 01/12/2022"
"assault_description","","Agressão","",,"","10:31 01/12/2022"
"trespassing_description_trespassmajor","","Se descobrirem suas ações, podem prender você, aplicar multas ou coisa pior!","",,"","10:31 01/12/2022"
"illegalaction_description","","Se descobrirem suas ações, podem prender você, aplicar multas ou coisa pior!","",,"","10:31 01/12/2022"
"trespassing_description_trespassminor","","Você vai ter que se retirar. Se não fizer isso, haverá consequências...","",,"","10:31 01/12/2022"
"capturerisk","","Multas potenciais","",,"","9:32 12/04/2023"
"capturerisk_description","","Caso capturem você, haverá um preço a pagar. Despiste as testemunhas. Se estiver sublinhado, significa que viram você, e é necessário fugir do prédio.","",,"","10:31 01/12/2022"
"stinky","","Fedendo","",,"","10:31 01/12/2022"
"stinky_description","","Os cidadãos podem sentir seu cheiro antes de enxergar você! Tome um banho.","",,"","10:31 01/12/2022"
"cold_description","","Você sofrerá com tremedeiras e uma perda gradual de vida. Faça algo ou vá para um lugar mais quente.","",,"","10:31 01/12/2022"
"tired","","Cansaço","",,"","10:31 01/12/2022"
"tired_description","","Penalidade na velocidade de movimento. Se você se sentar ou deitar, vai cair no sono. Procure ingerir cafeína ou descansar um pouco.","",,"","10:31 01/12/2022"
"wet","","Molhado","",,"","10:31 01/12/2022"
"wet_description","","Cuidado para não correr em superfícies escorregadias! Esse status desaparece com o tempo, mas você pode usar uma toalha.","",,"","10:31 01/12/2022"
"headache","","Dor de Cabeça","",,"","10:31 01/12/2022"
"headache_description","","Penalidade na velocidade de movimento. Correr piora a situação! Esse status desaparece com o tempo, mas você pode usar analgésicos.","",,"","10:31 01/12/2022"
"hungry","","Fome","",,"","10:31 01/12/2022"
"hungry_description","","Recuperação de vida impossibilitada. Arranje alguma coisa para comer.","",,"","10:31 01/12/2022"
"thirsty","","Sede","",,"","10:31 01/12/2022"
"thirsty_description","","Recuperação de vida impossibilitada. Arranje alguma coisa para beber.","",,"","10:31 01/12/2022"
"drunk","","Embriaguez","",,"","10:31 01/12/2022"
"drunk_description","","Você bebeu demais! Penalidade na velocidade de movimento e controle. Esse status desaparece com o tempo.","",,"","10:31 01/12/2022"
"sick","","Náusea","",,"","10:31 01/12/2022"
"sick_description","","Penalidade na velocidade de movimento e controle. Esse status desaparece com o tempo, mas você pode achar um lugar para vomitar.","",,"","10:31 01/12/2022"
"pursued","","Perseguido","",,"","10:31 01/12/2022"
"pursued_description","","Estão atrás de você!","",,"","10:31 01/12/2022"
"hydrated","","Hidratado","",,"","10:31 01/12/2022"
"hydrated_description","","Reforço na vida máxima e na regeneração de vida.","",,"","10:31 01/12/2022"
"energized_description","","Reforço na vida máxima e na regeneração de vida.","",,"","10:31 01/12/2022"
"energized","","Energizado","",,"","10:31 01/12/2022"
"focused","","Foco","",,"","10:31 01/12/2022"
"focused_description","","Reforço na velocidade de movimento.","",,"","10:31 01/12/2022"
"brokenleg","","Perna Quebrada","",,"","10:31 01/12/2022"
"brokenleg_description","","Penalidade na velocidade de movimento. Encontre uma tala para se curar.","",,"","10:31 01/12/2022"
"blackeye","","Olho Roxo","",,"","10:31 01/12/2022"
"blackeye_description","","Penalidade na visão. Esse status desaparece com o tempo, mas analgésicos aceleram a recuperação.","",,"","10:31 01/12/2022"
"bruised","","Contundido","",,"","10:31 01/12/2022"
"bruised_description","","Aumento no dano recebido. Esse status desaparece com o tempo, mas analgésicos aceleram a recuperação.","",,"","10:31 01/12/2022"
"numb","","Torpor","",,"","10:31 01/12/2022"
"numb_description","","Redução no dano recebido e no dano causado. Esse status desaparece com o tempo.","",,"","10:31 01/12/2022"
"bleeding","","Sangramento","",,"","10:31 01/12/2022"
"bleeding_description","","Perda gradual de vida. Esse status desaparece com o tempo, mas você pode desmaiar antes! Encontre uma bandagem.","",,"","10:31 01/12/2022"
"detained","","Detido","",,"","10:31 01/12/2022"
"detained_description","","Prenderam você, e a segurança vai ficar na sua cola se tentar fugir. Pague as multas ou fuja para remover o status.","",,"","10:31 01/12/2022"
"wellrested","","Descansado","",,"","10:31 01/12/2022"
"wellrested_description","","Reforço na velocidade de movimento, na vida máxima e na regeneração de vida.","",,"","10:31 01/12/2022"
"wanted","","Ameaça à Segurança!","",,"","10:31 01/12/2022"
"wanted_description","","Os sistemas de alarme focarão em você. Evite-os.","",,"","10:31 01/12/2022"
"hiding","","Escondido","",,"","10:31 01/12/2022"
"hiding_description","","Você está a salvo dos perseguidores, a menos que alguém tenha visto você se esconder.","",,"","10:31 01/12/2022"
"starchaddiction","","Vício em Starch Kola","",,"","10:31 01/12/2022"
"starchaddiction_description","","Consuma um produto Starch Kola para curar a abstinência.","",,"","10:31 01/12/2022"
"syncdiskinstall","","Instalando disco Sync...","",,"","10:31 01/12/2022"
"syncdiskinstall_description","","Você pode sentir uma pequena desorientação.","",,"","10:31 01/12/2022"
"poisoned","","Envenenado","",,"","10:31 01/12/2022"
"poisoned_description","","Você perderá vida rapidamente! Encontre comprimidos de carvão para purificar seu corpo.","",,"","10:31 01/12/2022"
"toxicgas","","Gás Tóxico","",,"","10:31 01/12/2022"
"toxicgas_description","","Esta sala está tomada por um gás tóxico. Saia imediatamente!","",,"","10:31 01/12/2022"
"alarmactive","","Alarme Ativo","",,"","10:31 01/12/2022"
"blinded","","Visão Ofuscada","",,"","10:31 01/12/2022"
"blinded_description","","Visão Ofuscada","",,"","10:31 01/12/2022"
"guestpass","","Passe de visitante","",,"","9:32 12/04/2023"
"guestpass_description","","Você pode explorar","",,"","9:32 12/04/2023"
