"Game Reference Key","Notes","Displayed Text","Alternate Text","Frequency","Requires Suffix","Misc."
"[The key used by the game to find strings]","[Not loaded into the game, for explanation only]","[The displayed string in-game]","[Alternate displayed string, eg. Nickname]","[For lists]","[Does this require a suffix for naming?]","[Miscellaneous]"
"— ","— ","— ","— ","— ","— ","— "
"crossout","","Riscar","",,"","10:31 01/12/2022"
"plot route","","Traçar rota","",,"","10:31 01/12/2022"
"plotroute","","Traçar rota","",,"","10:31 01/12/2022"
"collapse","","Exibir/ocultar","",,"","10:31 01/12/2022"
"cash","","Dinheiro","",,"","10:31 01/12/2022"
"notebook","","Caderno","",,"","10:31 01/12/2022"
"accept job","","Aceitar trabalho","",,"","10:31 01/12/2022"
"take item","","Pegar item","",,"","10:31 01/12/2022"
"locate on map","","Localizar no mapa","",,"","10:31 01/12/2022"
"resolvecase","","Resolver caso","",,"","10:31 01/12/2022"
"closecase","","Encerrar caso","",,"","10:31 01/12/2022"
"map","","Mapa","",,"","10:31 01/12/2022"
"map_detail","","Facilita a orientação para chegar em diferentes locais","",,"","10:31 01/12/2022"
"auto travel","","Viagem automática","",,"","10:31 01/12/2022"
"editor_elevator","","Posicionar elevadores. Depois de posicionar, selecione para girá-los.","",,"","10:31 01/12/2022"
"editor_stairwell","","Posicionar escadarias. Depois de posicionar, selecione para girá-las.","",,"","10:31 01/12/2022"
"editor_secondaryentrance","","Posicionar entradas secundárias","",,"","10:31 01/12/2022"
"editor_mainentrance","","Posicionar entrada principal","",,"","10:31 01/12/2022"
"editor_rotatefloor","","Girar um pivô para virar para um lado diferente","",,"","10:31 01/12/2022"
"editor_designatewalls","","Designar paredes","",,"","10:31 01/12/2022"
"editor_designateaddress","","Designar endereços","",,"","10:31 01/12/2022"
"editor_designatefloor","","Designar piso/teto","",,"","10:31 01/12/2022"
"editor_notool","","Remover seleção de ferramenta","",,"","10:31 01/12/2022"
"editor_forceroom","","Forçar a sala atual a ser algo específico","",,"","10:31 01/12/2022"
"mapdrag","","Redimensionar mapa","",,"","10:31 01/12/2022"
"mapdrag_detail","","Arraste para redimensionar o mapa","",,"","10:31 01/12/2022"
"mapfloordown","","Descer um andar","",,"","10:31 01/12/2022"
"mapfloordown_detail","","Mova o mapa para exibir um andar abaixo.","",,"","10:31 01/12/2022"
"mapfloorup","","Subir um andar","",,"","10:31 01/12/2022"
"mapfloorup_detail","","Mova o mapa para exibir um andar acima.","",,"","10:31 01/12/2022"
"openlocationasevidence","","Abrir pasta do local atual","",,"","10:31 01/12/2022"
"openlocationasevidence_detail","","Abra uma pasta contendo informações sobre o local atual.","",,"","10:31 01/12/2022"
"centreonplayer","","Centralizar no jogador","",,"","10:31 01/12/2022"
"centreonplayer_detail","","Centralize o mapa na sua posição atual.","",,"","10:31 01/12/2022"
"cash_detail","","Quantidade de dinheiro que você tem.","",,"","10:31 01/12/2022"
"togglearrow","","Exibir seta direcional","",,"","10:31 01/12/2022"
"togglearrow_detail","","Exiba ou oculte a seta direcional que você vê em primeira pessoa para saber aonde você deve ir. Sempre é possível apertar e segurar Tab para visualizar o mapa quando não estiver nesta tela.","",,"","10:31 01/12/2022"
"pinwindow","","Afixar/desafixar","",,"","10:31 01/12/2022"
"pinwindow_detail","","Afixe ou desafixe esta prova no mural do caso.","",,"","10:31 01/12/2022"
"openapartment","","Abrir pasta do apartamento","",,"","10:31 01/12/2022"
"openapartment_detail","","Abra uma pasta contendo informações sobre seu apartamento.","",,"","10:31 01/12/2022"
"stickynote","","Nova anotação adesiva","",,"","10:31 01/12/2022"
"sticknote_detail","","Crie uma anotação que pode ser adicionada ao mural do caso. É possível escrever o que quiser nela.","",,"","10:31 01/12/2022"
"sync","","Discos Sync","",,"","10:31 01/12/2022"
"sync_detail","","Discos Sync são aprimoramentos de DNA que podem ser adquiridos e equipados para ganhar uma habilidade extra.","",,"","10:31 01/12/2022"
"locate on map detail","","Encontre este local no mapa...","",,"","10:31 01/12/2022"
"plot route detail","","Trace uma rota até este local...","",,"","10:31 01/12/2022"
"nocase","","Limpar mural","",,"","10:31 01/12/2022"
"nocase_detail","","Desmarque o caso para folgar","",,"","10:31 01/12/2022"
"stickynote_detail","","Crie uma nova anotação adesiva para escrever seus próprios recados.","",,"","10:31 01/12/2022"
"customcase","","Novo caso personalizado","",,"","10:31 01/12/2022"
"customcase_detail","","Crie um novo caso para afixar as informações que você escolher.","",,"","10:31 01/12/2022"
"closecase_detail","","Encerre este caso e o remova da barra de casos.","",,"","10:31 01/12/2022"
"collapse_detail","","Minimize ou restaure isto no mural do caso.","",,"","10:31 01/12/2022"
"crossout_detail","","Insira ou remova um risco.","",,"","10:31 01/12/2022"
"link","","Nova conexão personalizada","",,"","10:31 01/12/2022"
"link_detail","","Crie uma nova conexão personalizada ligada a isto.","",,"","10:31 01/12/2022"
"contextmenu","","Opções adicionais","",,"","10:31 01/12/2022"
"contextmenu_detail","","Visualizar opções adicionais...","",,"","10:31 01/12/2022"
"hideconnection","","Ocultar/exibir conexão","",,"","10:31 01/12/2022"
"hideconnection_detail","","Oculte ou exiba esta conexão com um fio.","",,"","10:31 01/12/2022"
"open phone number location","","Abrir local do número de telefone","",,"","10:31 01/12/2022"
"open phone number occupants","","Abrir perfis ligados ao número de telefone","",,"","10:31 01/12/2022"
"open phone number evidence","","Abrir prova do número de telefone","",,"","10:31 01/12/2022"
"collecthandin","","Requer formulário de resolução","",,"","10:31 01/12/2022"
"collecthandin_detail","","Obtenha um formulário para este caso a fim de ver as questões que você precisa responder para solucioná-lo.","",,"","10:31 01/12/2022"
"select from board","","selecionar do mural","",,"","10:31 01/12/2022"
"incorrect answer","","Resposta incorreta","",,"","10:31 01/12/2022"
"correct reveal","","A(s) resposta(s) correta(s)","",,"","10:31 01/12/2022"
"correct answer","","resposta correta","",,"","10:31 01/12/2022"
"resolvecase_detail","","Responda estas questões para solucionar o caso.","",,"","10:31 01/12/2022"
"socialrank","","Classe social","",,"","10:31 01/12/2022"
"socialrank_detail","","Aumenta conforme você ganha mais experiência. Atingir o nível máximo permite que você se aposente.","",,"","10:31 01/12/2022"
"person","","Pessoa","",,"","10:31 01/12/2022"
"notebook_detail","","Contém ajuda, busca, referências rápidas e pastas abertas anteriormente.","",,"","10:31 01/12/2022"
"lockpicks","","Gazuas","",,"","10:31 01/12/2022"
"lockpicks_detail","","Consumível usado para destrancar portas ou sabotar equipamentos de segurança.","",,"","10:31 01/12/2022"
"person_detail","","Mostra seu inventário e status atuais.","",,"","10:31 01/12/2022"
"locationonmap","","Mostrar no mapa","",,"","10:31 01/12/2022"
"locationonmap_detail","","Aponte este local no mapa...","",,"","10:31 01/12/2022"
"plotroute_detail","","Trace uma rota até este local usando um caminho marcado no mapa e a seta direcional...","",,"","10:31 01/12/2022"
"social credit level","","Nível de crédito social","",,"","10:31 01/12/2022"
"drop this item","","Largue este item","",,"","10:31 01/12/2022"
"scan this item for fingerprints","","Procure digitais neste item","",,"","10:31 01/12/2022"
"bring up this item's evidence folder","","Abra a pasta de provas deste item","",,"","10:31 01/12/2022"
"edit the decor of your apartment","","Altere a decoração do seu apartamento","",,"","10:31 01/12/2022"
"worldinteraction","","Se este ícone aparecer, significa que você está interagindo com o item diretamente no mundo, e não na memória (afixada no mural do caso). Mais ações podem ficar disponíveis ao interagir diretamente.","",,"","9:32 12/04/2023"
"takeitem","","Pegar este item","",,"","9:32 12/04/2023"
"cleartext","","Alterne entre exibição de manuscrito e texto claro.","",,"","9:32 12/04/2023"
"toggle chairs display","","Ativar/desativar exibição de cadeiras","",,"","9:32 12/04/2023"
"toggle tables display","","Ativar/desativar exibição de mesas","",,"","9:32 12/04/2023"
"toggle sideboards display","","Ativar/desativar exibição de aparadores","",,"","9:32 12/04/2023"
"toggle electronics display","","Ativar/desativar exibição de eletrônicos","",,"","9:32 12/04/2023"
"toggle structural display","","Ativar/desativar exibição de estruturas","",,"","9:32 12/04/2023"
"toggle decoration display","","Ativar/desativar exibição de decorações","",,"","9:32 12/04/2023"
"toggle misc display","","Ativar/desativar exibição de miscelânea","",,"","9:32 12/04/2023"
"move to storage","","Mover para o depósito","",,"","9:32 12/04/2023"
"move this item into storage","","Mover este item para o depósito","",,"","9:32 12/04/2023"
"toggle consumable display","","Ativar/desativar exibição de consumíveis","",,"","9:32 12/04/2023"
"toggle medical display","","Ativar/desativar exibição de itens médicos","",,"","9:32 12/04/2023"
"toggle equipment display","","Ativar/desativar exibição de equipamentos","",,"","9:32 12/04/2023"
"toggle documents display","","Ativar/desativar exibição de documentos","",,"","9:32 12/04/2023"
"toggle light fittings display","","Ativar/desativar exibição de itens de iluminação","",,"","9:32 12/04/2023"
