"Game Reference Key","Notes","Displayed Text","Alternate Text","Frequency","Requires Suffix","Misc."
"[The key used by the game to find strings]","[Not loaded into the game, for explanation only]","[The displayed string in-game]","[Alternate displayed string, eg. Nickname]","[For lists]","[Does this require a suffix for naming?]","[Miscellaneous]"
"— ","— ","— ","— ","— ","— ","— "
"address","","地址","",,"","10:31 01/12/2022"
"type","","类型","",,"","10:31 01/12/2022"
"?","","?","",,"","10:31 01/12/2022"
"office","","办公室","",,"","10:31 01/12/2022"
"eaterykitchen","","厨房","",,"","10:31 01/12/2022"
"lobby","","大厅","",,"","10:31 01/12/2022"
"ground floor","","一层","",,"","10:31 01/12/2022"
"floor landing","","楼梯平台","",,"","10:31 01/12/2022"
"jobposting","","悬赏任务启事","",,"","10:31 01/12/2022"
"postedby","","发布人","",,"","10:31 01/12/2022"
"isperpetrator","","是惯犯","",,"","10:31 01/12/2022"
"landing","","平台","",,"","10:31 01/12/2022"
"key","","钥匙","",,"","10:31 01/12/2022"
"birthday","","出生于","",,"","10:31 01/12/2022"
"age","","年龄","",,"","10:31 01/12/2022"
"belongsto","","属于","",,"","10:31 01/12/2022"
"fingerprintbelongsto","","属于","",,"","10:31 01/12/2022"
"sentby","","发送者","",,"","10:31 01/12/2022"
"located in the","","位于","",,"","10:31 01/12/2022"
"building","","建筑物","",,"","10:31 01/12/2022"
"menu","","菜单","",,"","10:31 01/12/2022"
"worksat","","就职于","",,"","10:31 01/12/2022"
"as a","","职位","",,"","10:31 01/12/2022"
"livesat","","住在","",,"","10:31 01/12/2022"
"locatedat","","位于","",,"","10:31 01/12/2022"
"workshours","","工作时间","",,"","10:31 01/12/2022"
"unknown","","未知市民","",,"","10:25 21/09/2023"
"citizen","","未知市民","",,"","10:25 21/09/2023"
"purchasedat","","购买于","",,"","10:31 01/12/2022"
"foundat","","发现地点","",,"","10:31 01/12/2022"
"foundatnotname","","发现地点","",,"","10:31 01/12/2022"
"deceased","","去世","",,"","10:31 01/12/2022"
"paid by","","付款者","",,"","10:31 01/12/2022"
"purchasedby","","购买者","",,"","10:31 01/12/2022"
"purchased","","已购买","",,"","10:31 01/12/2022"
"at","","于","",,"","10:31 01/12/2022"
"matches","","匹配","",,"","10:31 01/12/2022"
"birthdaycard","","生日卡片","",,"","10:31 01/12/2022"
"workteam","","同事","",,"","10:31 01/12/2022"
"workother","","同事","",,"","10:31 01/12/2022"
"familiarwork","","同事","",,"","10:31 01/12/2022"
"workswith","","同事","",,"","10:31 01/12/2022"
"lover","","情人","",,"","10:31 01/12/2022"
"isfriendswith","","好友关系","",,"","10:31 01/12/2022"
"neighbor","","邻居","",,"","10:31 01/12/2022"
"familiarresidence","","邻居","",,"","10:31 01/12/2022"
"purchasedtime","","购买于","",,"","10:31 01/12/2022"
"soldat","","出售于","",,"","10:31 01/12/2022"
"open","","打开","",,"","10:31 01/12/2022"
"every day","","每日","",,"","10:31 01/12/2022"
"vacant","","空","",,"","10:31 01/12/2022"
"businessbackroom","","后台办公室","",,"","10:31 01/12/2022"
"customlink","","创建的联系","",,"","10:31 01/12/2022"
"photoof","","属于","",,"","10:31 01/12/2022"
"photograph","","照片","",,"","10:31 01/12/2022"
"containspassword","","包含密码","",,"","10:31 01/12/2022"
"makesreferenceto","","提及","",,"","10:31 01/12/2022"
"string_autofact","","[自动创建]","",,"","10:31 01/12/2022"
"string_customfact","","[玩家创建]","",,"","10:31 01/12/2022"
"food","","食品","",,"","10:31 01/12/2022"
"24 hours","","24小时","",,"","10:31 01/12/2022"
"snacks","","零食","",,"","10:31 01/12/2022"
"drink","","饮用","",,"","10:31 01/12/2022"
"foundon","","发现于","",,"","10:31 01/12/2022"
"isinrelationshipwith","","恋爱关系","",,"","10:31 01/12/2022"
"referencedin","","被提及","",,"","10:31 01/12/2022"
"park","","公园","",,"","10:31 01/12/2022"
"commerical","","商业","",,"","10:31 01/12/2022"
"commercial","","商业","",,"","10:31 01/12/2022"
"industrial","","工业","",,"","10:31 01/12/2022"
"residential","","住宅","",,"","10:31 01/12/2022"
"set","","设定","",,"","10:31 01/12/2022"
"fingerprint","","指纹","",,"","10:31 01/12/2022"
"except","","除","",,"","10:31 01/12/2022"
"featuresin","","出现于","",,"","10:31 01/12/2022"
"murderhappenedat","","死亡时间","",,"","10:31 01/12/2022"
"timeofdeath","","死亡时间","",,"","10:31 01/12/2022"
"from","","自","",,"","10:31 01/12/2022"
"to","","至","",,"","10:31 01/12/2022"
"istelephonenumberof","","电话号码","",,"","10:31 01/12/2022"
"istelephonenumberfor","","电话号码","",,"","10:31 01/12/2022"
"stranger","","陌生人","",,"","10:31 01/12/2022"
"called","","来电","",,"","10:31 01/12/2022"
"callfrom","","通话来自","",,"","10:31 01/12/2022"
"callto","","通话拨至","",,"","10:31 01/12/2022"
"unknown type","","未知类型","",,"","10:31 01/12/2022"
"diedat","","死于","",,"","10:31 01/12/2022"
"publicproperty","","公共财产","",,"","10:31 01/12/2022"
"municipal","","市政府","",,"","10:31 01/12/2022"
"indentify number","","身份号码","",,"","10:31 01/12/2022"
"indentify last caller","","查出最后一个来电者","",,"","10:31 01/12/2022"
"enforcers","","执法者","",,"","10:31 01/12/2022"
"payphone","","付费电话","",,"","10:31 01/12/2022"
"duration","","时长","",,"","10:31 01/12/2022"
"purchase","","购买","",,"","10:31 01/12/2022"
"heel","","高跟鞋","",,"","10:31 01/12/2022"
"size","","尺码","",,"","10:31 01/12/2022"
"boots","","靴子","",,"","10:31 01/12/2022"
"normal","","正常","",,"","10:31 01/12/2022"
"istarget","","目标","",,"","10:31 01/12/2022"
"livesatbuilding","","住在建筑物","",,"","10:31 01/12/2022"
"worksatbuilding","","就职于建筑物","",,"","10:31 01/12/2022"
"livesonfloor","","居住楼层","",,"","10:31 01/12/2022"
"photo","","照片","",,"","10:31 01/12/2022"
"voice","","声音","",,"","10:31 01/12/2022"
"fingerprints","","指纹","",,"","10:31 01/12/2022"
"name","","名字","",,"","10:31 01/12/2022"
"isparamourof","","情人关系","",,"","10:31 01/12/2022"
"unknown location","","未知地点","",,"","10:31 01/12/2022"
"floor","","楼层","",,"","9:32 12/04/2023"
"issuspectedcheating","","情人","",,"","14:25 11/09/2023"
"favourite","","最喜欢的 ","",,"","14:25 11/09/2023"
"is",""," ","",,"","14:25 11/09/2023"
