"Game Reference Key","Notes","Displayed Text","Alternate Text","Frequency","Requires Suffix","Misc."
"[The key used by the game to find strings]","[Not loaded into the game, for explanation only]","[The displayed string in-game]","[Alternate displayed string, eg. Nickname]","[For lists]","[Does this require a suffix for naming?]","[Miscellaneous]"
"— ","— ","— ","— ","— ","— ","— "
"name","","名字","",,"","10:31 01/12/2022"
"fingerprint","","指纹","",,"","10:31 01/12/2022"
"key","","获得钥匙：","",,"","10:31 01/12/2022"
"tutorial_notebook","","你可以随时按下F1打开游戏帮助","",,"","10:31 01/12/2022"
"lockpicks","","撬锁工具","",,"","10:31 01/12/2022"
"lockpick_deplete","","撬锁工具剩余……","",,"","10:31 01/12/2022"
"not_enough_lockpicks","","你已没有撬锁工具！","",,"","10:31 01/12/2022"
"lockpick_success","","成功撬锁！","",,"","10:31 01/12/2022"
"taken_fingerprint","","取得的指纹：","",,"","10:31 01/12/2022"
"corpsabotage_fail","","破坏失败：你已经在这里安装了键盘记录器！","",,"","10:31 01/12/2022"
"codebreaker success","","密码破解器成功！","",,"","10:31 01/12/2022"
"telephone engaged","","电话占线。请稍后拨打……","",,"","10:31 01/12/2022"
"linked unique information","","档案更新","",,"","10:31 01/12/2022"
"image/likeness","","图像/肖像","",,"","10:31 01/12/2022"
"new tutorial section","","新教程","",,"","10:31 01/12/2022"
"inventory full","","物品栏已满！请丢弃一样东西以将这件物品拾起……","",,"","10:31 01/12/2022"
"passcode","","获得的密码","",,"","10:31 01/12/2022"
"ko","","昏迷……你很快就会醒过来……","",,"","10:31 01/12/2022"
"added to inventory","","加入物品栏","",,"","10:31 01/12/2022"
"telephone","","获得的电话号码","",,"","10:31 01/12/2022"
"closing time","","关闭时间","",,"","10:31 01/12/2022"
"collected handin","","已领取表格","",,"","15:12 06/02/2023"
"case submitted","","提交处理的案件。请静候结果。","",,"","10:31 01/12/2022"
"case unsolved","","这一案件还没有解决，请再次尝试……","",,"","10:31 01/12/2022"
"case completed","","已破案","",,"","15:12 06/02/2023"
"tip-changelead","","提示：你可以随时使用案件表格里的按钮更改线报。","",,"","10:31 01/12/2022"
"suspect released","","嫌疑人被释放","",,"","10:31 01/12/2022"
"suspect convicted","","嫌疑人被定罪","",,"","10:31 01/12/2022"
"new enforcer call","","[扫描器]报告的谋杀案","",,"","10:31 01/12/2022"
"corpsabotage_success","","成功","",,"","10:31 01/12/2022"
"somebody is coming to answer the door...","","有人会来应门……","",,"","10:31 01/12/2022"
"job information updated!","","任务信息已更新！","",,"","10:31 01/12/2022"
"linked to","","关联","",,"","10:31 01/12/2022"
"new information","","新信息","",,"","10:31 01/12/2022"
"you can open your case board at any time by pressing f","","你可以随时按下F打开线索板","",,"","10:31 01/12/2022"
"the demo timer starts now...","","试玩版计时器现在开始……","",,"","10:31 01/12/2022"
"corpsabotage_success_bonus","","所有权奖励","",,"","10:31 01/12/2022"
"case closed","","已关闭的案件","",,"","10:31 01/12/2022"
"unsolved","","尚未破案","",,"","15:12 06/02/2023"
"social credit score","","社会信用分","",,"","10:31 01/12/2022"
"new murder case","","新谋杀案","",,"","10:31 01/12/2022"
"case opened","","立案案件","",,"","10:31 01/12/2022"
"the case of the ","","案件","",,"","10:31 01/12/2022"
"movement alert","","行动警报","",,"","10:31 01/12/2022"
"tracking citizen...","","追踪市民……","",,"","10:31 01/12/2022"
"social credit level up","","社会信用升级","",,"","10:31 01/12/2022"
"gained social credit","","获得的社会信用","",,"","10:31 01/12/2022"
"social credit","","社会信用","",,"","10:31 01/12/2022"
"job failed","","任务失败","",,"","10:31 01/12/2022"
"locked_help","","已上锁！与门把手互动，寻找可行选项……","",,"","9:32 12/04/2023"
"locked","","已上锁！","",,"","9:32 12/04/2023"
"look at the target object to progress the action","","查看目标物品以继续行动","",,"","9:32 12/04/2023"
"nobody_home","","如果家里没人，你可能需要等会再来（或者直接找到对方）……","",,"","9:32 12/04/2023"
"unable to save at this time","","目前无法保存","",,"","9:32 12/04/2023"
"game saved","","游戏已保存","",,"","9:32 12/04/2023"
"fingerprint_prompt","","用|controls.secondary|扫描后查看指纹","",,"","9:32 12/04/2023"
"not_enough_money","","你的钱不够！","",,"","9:32 12/04/2023"
"you have acquired information about residents of: ","","你已获得目标居民的信息： ","",,"","9:32 12/04/2023"
"new apartment","","新公寓","",,"","14:25 11/09/2023"
"hotel_kickout1","","你因未支付账单而被赶出了酒店房间！","",,"","14:25 11/09/2023"
"hotel_kickout2","","……你近期最好不要住酒店……","",,"","14:25 11/09/2023"
