%YAML 1.1
%TAG !u! tag:unity3d.com,2011:
--- !u!114 &11400000
MonoBehaviour:
  m_ObjectHideFlags: 0
  m_CorrespondingSourceObject: {fileID: 0}
  m_PrefabInstance: {fileID: 0}
  m_PrefabAsset: {fileID: 0}
  m_GameObject: {fileID: 0}
  m_Enabled: 1
  m_EditorHideFlags: 0
  m_Script: {fileID: 11500000, guid: 3f919a38bda07a046a96d2a335329b22, type: 3}
  m_Name: IndustrialOffice
  m_EditorClassIdentifier: 
  presetName: IndustrialOffice
  companyCategories: 
  isIllegal: 0
  useBuildingOverrideName: 1
  overrideSuffixList:
  - company.suffix.office
  useStreetNameChance: 0.101
  useDistrictNameChance: 0.108
  useOwnerFirstNameChance: 0
  useOwnerSurNameChance: 0.762
  useCompanyNameListChance: 1
  aliterationWeight: 1
  prefixChance: 0
  prefixList: []
  mainChance: 1
  mainNamingList:
  - colours
  - greekalphabet
  - industrial
  suffixList:
  - company.suffix.office
  theRules: []
  minimumSalary: 2
  topSalary: 6
  payGradeCurve:
    serializedVersion: 2
    m_Curve:
    - serializedVersion: 3
      time: 0
      value: 0
      inSlope: 0
      outSlope: 1
      tangentMode: 0
      weightedMode: 0
      inWeight: 0.33333334
      outWeight: 0.33333334
    - serializedVersion: 3
      time: 1
      value: 1
      inSlope: 1
      outSlope: 0
      tangentMode: 0
      weightedMode: 0
      inWeight: 0.33333334
      outWeight: 0.33333334
    m_PreInfinity: 2
    m_PostInfinity: 2
    m_RotationOrder: 4
  publicFacing: 0
  isSelfEmployed: 0
  autoCreate: 0
  priority: 5
  cityPopRatio: 0.03
  minimumNumber: 2
  maximumNumber: 10
  menus: []
  recordSalesData: 0
  previousFakeSalesRecords: 5
  requiredTraits: []
  enableSelling: 0
  enableSellingOfIllegalItems: 0
  sellValueMultiplier: 0.5
  possibleUniformColours:
  - {r: 0.8962264, g: 0.48565164, b: 0.19023676, a: 1}
  - {r: 0.1715023, g: 0.5001682, b: 0.7735849, a: 1}
  - {r: 0.8773585, g: 0.8060133, b: 0.16967781, a: 1}
  workHours: {fileID: 11400000, guid: a3809d026374bf44793a50b73d750610, type: 2}
  structure: {fileID: 11400000, guid: e37bb4cbd9f41454681f0a70adc74d52, type: 2}
  controlsBuildingSurveillance: 0
