%YAML 1.1
%TAG !u! tag:unity3d.com,2011:
--- !u!114 &11400000
MonoBehaviour:
  m_ObjectHideFlags: 0
  m_CorrespondingSourceObject: {fileID: 0}
  m_PrefabInstance: {fileID: 0}
  m_PrefabAsset: {fileID: 0}
  m_GameObject: {fileID: 0}
  m_Enabled: 1
  m_EditorHideFlags: 0
  m_Script: {fileID: 11500000, guid: 5b599ef23743e374185ab9738190bce4, type: 3}
  m_Name: PavementShort
  m_EditorClassIdentifier: 
  presetName: PavementShort
  sectionType: 6
  prefabList:
  - prefab: {fileID: 1923009026813076, guid: 2e3a329542d3b10469f8ceb51802d240, type: 3}
    normalMaterial: {fileID: 2100000, guid: 635679b41686f694fa9318c92ba32f11, type: 2}
    rainMaterial: {fileID: 2100000, guid: 136fff9e9baf9bd46bdf3c64df093ff7, type: 2}
