"Game Reference Key","Notes","Displayed Text","Alternate Text","Frequency","Requires Suffix","Misc."
"[The key used by the game to find strings]","[Not loaded into the game, for explanation only]","[The displayed string in-game]","[Alternate displayed string, eg. Nickname]","[For lists]","[Does this require a suffix for naming?]","[Miscellaneous]"
"— ","— ","— ","— ","— ","— ","— "
"hotel",,"Hotel",,10,,"14:49 03/08/2023"
"resorts",,"Resorts",,1,,"14:49 03/08/2023"
"lodge",,"Lodge",,1,,"14:49 03/08/2023"
