"Game Reference Key","Notes","Displayed Text","Alternate Text","Frequency","Requires Suffix","Misc."
"[The key used by the game to find strings]","[Not loaded into the game, for explanation only]","[The displayed string in-game]","[Alternate displayed string, eg. Nickname]","[For lists]","[Does this require a suffix for naming?]","[Miscellaneous]"
"— ","— ","— ","— ","— ","— ","— "
"electric","","Electric","",1,"Y","11:49 05/09/2022"
"thunder","","Thunder","",1,"Y","11:49 05/09/2022"
"spark","","Spark","",1,"","11:49 05/09/2022"
"power","","Power","",1,"Y","11:49 05/09/2022"
"infamous","","Infamous","",1,"","11:49 05/09/2022"
"devil","","Devil","",1,"Y","11:49 05/09/2022"
"punk","","Punk","",1,"","11:49 05/09/2022"
"flash","","Flash","",1,"","11:49 05/09/2022"
"superpower","","Superpower","",1,"","11:49 05/09/2022"
"revolver","","Revolver","",1,"","11:49 05/09/2022"
"famous","","Famous","",1,"Y","11:49 05/09/2022"
"brassknuckle","","Brassknuckle","",1,"","11:49 05/09/2022"
"radioactive","","Radioactive","",1,"Y","11:49 05/09/2022"
"angel face","","Angel Face","",1,"","11:49 05/09/2022"
"velvet","","Velvet","",1,"","11:49 05/09/2022"
"blitzkrieg","","Blitzkrieg","",1,"","11:49 05/09/2022"
"hardcore","","Hardcore","",1,"Y","11:49 05/09/2022"
"notorious","","Notorious","",1,"","11:49 05/09/2022"
"rampage","","Rampage","",1,"","11:49 05/09/2022"
"slam","","Slam","",1,"","11:49 05/09/2022"
