"Game Reference Key","Notes","Displayed Text","Alternate Text","Frequency","Requires Suffix","Misc."
"[The key used by the game to find strings]","[Not loaded into the game, for explanation only]","[The displayed string in-game]","[Alternate displayed string, eg. Nickname]","[For lists]","[Does this require a suffix for naming?]","[Miscellaneous]"
"— ","— ","— ","— ","— ","— ","— "
"stores","","Stores","",1,"","11:49 05/09/2022"
"foods","","Foods","",1,"","11:49 05/09/2022"
"wholefoods","","Wholefoods","",1,"","11:49 05/09/2022"
"health store","","Health Store","",1,"","11:49 05/09/2022"
"fine foods","","Fine Foods","",1,"","11:49 05/09/2022"
"market","","Market","",1,"","11:49 05/09/2022"
"24","","24","",1,"","11:49 05/09/2022"
"savings","","Savings","",1,"","11:49 05/09/2022"
"cost cut","","Cost Cut","",1,"","11:49 05/09/2022"
"express","","Express","",1,"","11:49 05/09/2022"
"news & booze","","News & Booze","",1,"","11:49 05/09/2022"
"checkout","","Checkout","",1,"","11:49 05/09/2022"
"retail","","Retail","",1,"","11:49 05/09/2022"
"essentials","","Essentials","",1,"","11:49 05/09/2022"
