"Game Reference Key","Notes","Displayed Text","Alternate Text","Frequency","Requires Suffix","Misc."
"[The key used by the game to find strings]","[Not loaded into the game, for explanation only]","[The displayed string in-game]","[Alternate displayed string, eg. Nickname]","[For lists]","[Does this require a suffix for naming?]","[Miscellaneous]"
"— ","— ","— ","— ","— ","— ","— "
"iris","","Iris","purple",1,"Y","11:49 05/09/2022"
"orchid","","Orchid","purple",1,"Y","11:49 05/09/2022"
"juniper","","Juniper","green",1,"Y","11:49 05/09/2022"
"sage","","Sage","green",1,"Y","11:49 05/09/2022"
"olive","","Olive","green",1,"Y","11:49 05/09/2022"
"hickory","","Hickory","brown",1,"Y","11:49 05/09/2022"
"rose","","Rose","red",1,"Y","11:49 05/09/2022"
"lily","","Lily","white",1,"Y","11:49 05/09/2022"
"hyacinth","","Hyacinth","white",1,"Y","11:49 05/09/2022"
"carnation","","Carnation","red",1,"Y","11:49 05/09/2022"
"daffodil","","Daffodil","yellow",1,"Y","11:49 05/09/2022"
"marigold","","Marigold","yellow",1,"Y","11:49 05/09/2022"
"ivy","","Ivy","green",1,"Y","11:49 05/09/2022"
"jasmine","","Jasmine","white",1,"Y","11:49 05/09/2022"
"briar","","Briar","green",1,"Y","11:49 05/09/2022"
"lavender","","Lavender","purple",1,"Y","11:49 05/09/2022"
"indigo","","Indigo","blue",1,"Y","11:49 05/09/2022"
"rosemary","","Rosemary","green",1,"Y","11:49 05/09/2022"
