%YAML 1.1
%TAG !u! tag:unity3d.com,2011:
--- !u!114 &11400000
MonoBehaviour:
  m_ObjectHideFlags: 0
  m_CorrespondingSourceObject: {fileID: 0}
  m_PrefabInstance: {fileID: 0}
  m_PrefabAsset: {fileID: 0}
  m_GameObject: {fileID: 0}
  m_Enabled: 1
  m_EditorHideFlags: 0
  m_Script: {fileID: 11500000, guid: 0e087d085558cda48823734b75f7ef49, type: 3}
  m_Name: PurpHomeVandalismMed
  m_EditorClassIdentifier: 
  presetName: PurpHomeVandalismMed
  disabled: 0
  baseChance: 1
  useHEXACO: 1
  feminineMasculine: 5
  humility: 3
  emotionality: 7
  extraversion: 5
  agreeableness: 3
  conscientiousness: 5
  creativity: 5
  useTraits: 0
  characterTraitsPoster: []
  characterTraitsPurp: []
  specialConditions: 01000000
  d0Name: Cause Cr|revengeamount| of vandalism at |purp.home.name|.
  d1Name: Cause Cr|revengeamount| of vandalism at the home of |purp.name|.
  idTargetName: Cause Cr|revengeamount| of vandalism at the home of the target.
  tag: 0
  icon: 31
  passedNumberRange: {x: 500, y: 1000}
  rewardMultiplier: {x: 1.1, y: 1.2}
  resolveQuestionName: Cause Cr|revengeamount| of vandalism at the home of |purp.name|.
  resolveQuestionNameAlternate: Cause Cr|revengeamount| of vandalism at the home
    of the target.
  answerMethod: Vandalism
