%YAML 1.1
%TAG !u! tag:unity3d.com,2011:
--- !u!114 &11400000
MonoBehaviour:
  m_ObjectHideFlags: 0
  m_CorrespondingSourceObject: {fileID: 0}
  m_PrefabInstance: {fileID: 0}
  m_PrefabAsset: {fileID: 0}
  m_GameObject: {fileID: 0}
  m_Enabled: 1
  m_EditorHideFlags: 0
  m_Script: {fileID: 11500000, guid: 0e087d085558cda48823734b75f7ef49, type: 3}
  m_Name: PurpWorkVandalismWindow
  m_EditorClassIdentifier: 
  presetName: PurpWorkVandalismWindow
  disabled: 0
  baseChance: 1
  useHEXACO: 1
  feminineMasculine: 5
  humility: 5
  emotionality: 5
  extraversion: 5
  agreeableness: 5
  conscientiousness: 5
  creativity: 5
  useTraits: 0
  characterTraitsPoster: []
  characterTraitsPurp: []
  specialConditions: 0000000001000000
  d0Name: Cause Cr|revengeamount| of vandalism at |purp.job.employer.location.name|
    by breaking windows.
  d1Name: Cause Cr|revengeamount| of vandalism at the workplace of |purp.name| by
    breaking windows.
  idTargetName: Cause Cr|revengeamount| of vandalism at the workplace of the target
    by breaking windows.
  tag: 2
  icon: 31
  passedNumberRange: {x: 500, y: 1000}
  rewardMultiplier: {x: 1, y: 1.1}
  resolveQuestionName: Cause Cr|revengeamount| of vandalism at |purp.job.employer.location.name|
    by breaking windows.
  resolveQuestionNameAlternate: Cause Cr|revengeamount| of vandalism at the workplace
    of the target by breaking windows.
  answerMethod: VandalismWindow
