%YAML 1.1
%TAG !u! tag:unity3d.com,2011:
--- !u!114 &11400000
MonoBehaviour:
  m_ObjectHideFlags: 0
  m_CorrespondingSourceObject: {fileID: 0}
  m_PrefabInstance: {fileID: 0}
  m_PrefabAsset: {fileID: 0}
  m_GameObject: {fileID: 0}
  m_Enabled: 1
  m_EditorHideFlags: 0
  m_Script: {fileID: 11500000, guid: 0e087d085558cda48823734b75f7ef49, type: 3}
  m_Name: PurpHomeKickDownDoor
  m_EditorClassIdentifier: 
  presetName: PurpHomeKickDownDoor
  disabled: 0
  baseChance: 1
  useHEXACO: 1
  feminineMasculine: 5
  humility: 7
  emotionality: 6
  extraversion: 5
  agreeableness: 5
  conscientiousness: 5
  creativity: 5
  useTraits: 0
  characterTraitsPoster: []
  characterTraitsPurp: []
  specialConditions: 
  d0Name: Kick down the door of |purp.name|.
  d1Name: Kick down the door of the target.
  idTargetName: Kick down the door of the target.
  tag: 4
  icon: 8
  passedNumberRange: {x: 0, y: 0}
  rewardMultiplier: {x: 1, y: 1}
  resolveQuestionName: Kick down the door of |purp.name|.
  resolveQuestionNameAlternate: Kick down the door of the target.
  answerMethod: KickDownDoor
