%YAML 1.1
%TAG !u! tag:unity3d.com,2011:
--- !u!114 &11400000
MonoBehaviour:
  m_ObjectHideFlags: 0
  m_CorrespondingSourceObject: {fileID: 0}
  m_PrefabInstance: {fileID: 0}
  m_PrefabAsset: {fileID: 0}
  m_GameObject: {fileID: 0}
  m_Enabled: 1
  m_EditorHideFlags: 0
  m_Script: {fileID: 11500000, guid: 0e087d085558cda48823734b75f7ef49, type: 3}
  m_Name: PurpThrowFood
  m_EditorClassIdentifier: 
  presetName: PurpThrowFood
  disabled: 0
  baseChance: 1
  useHEXACO: 1
  feminineMasculine: 5
  humility: 8
  emotionality: 7
  extraversion: 5
  agreeableness: 5
  conscientiousness: 4
  creativity: 7
  useTraits: 0
  characterTraitsPoster: []
  characterTraitsPurp: []
  specialConditions: 
  d0Name: Throw some food in the face of |purp.name|.
  d1Name: Throw some food in the face of the target.
  idTargetName: Throw some food in the face of the target.
  tag: 3
  icon: 37
  passedNumberRange: {x: 0, y: 0}
  rewardMultiplier: {x: 1, y: 1}
  resolveQuestionName: Throw some food in the face of |purp.name|.
  resolveQuestionNameAlternate: Throw some food in the face of the target.
  answerMethod: ManualTrigger
