%YAML 1.1
%TAG !u! tag:unity3d.com,2011:
--- !u!114 &11400000
MonoBehaviour:
  m_ObjectHideFlags: 0
  m_CorrespondingSourceObject: {fileID: 0}
  m_PrefabInstance: {fileID: 0}
  m_PrefabAsset: {fileID: 0}
  m_GameObject: {fileID: 0}
  m_Enabled: 1
  m_EditorHideFlags: 0
  m_Script: {fileID: 11500000, guid: 48e73e7ed0821774f954b6e116bc060d, type: 3}
  m_Name: DestroyItem
  m_EditorClassIdentifier: 
  presetName: DestroyItem
  rewardModifier: 0
  postersDoor: 1
  cityHall: 0
  blocks:
  - name: Submit under door
    elementType: 6
    dialogReference: 
    tagReference: 0
    spawnItems: []
    enableUpdateWhileTalking: 0
    objectiveDelay: 0
    validItems: []
    validFurniture: []
    disableOnDifficulties: 
    onlyCompativleWithIntros: []
    onlyCompatibleWithHandIns: []
    triggerFailIfItemDestroyed: 
