%YAML 1.1
%TAG !u! tag:unity3d.com,2011:
--- !u!114 &11400000
MonoBehaviour:
  m_ObjectHideFlags: 0
  m_CorrespondingSourceObject: {fileID: 0}
  m_PrefabInstance: {fileID: 0}
  m_PrefabAsset: {fileID: 0}
  m_GameObject: {fileID: 0}
  m_Enabled: 1
  m_EditorHideFlags: 0
  m_Script: {fileID: 11500000, guid: bd8cf01e916836245a209f51bdf8dea5, type: 3}
  m_Name: PlasterCeiling
  m_EditorClassIdentifier: 
  presetName: PlasterCeiling
  material: {fileID: 2100000, guid: 011217b4f1da6bc42b48aeaeddd52753, type: 2}
  variations:
  - name: Neutral
    main: 13
    colour1: 15
    colour2: 15
    colour3: 15
  concrete: 1
  plaster: 0
  wood: 0
  carpet: 0
  tile: 0
  metal: 0
  glass: 0
  fabric: 0
  noFloorReplacement: {fileID: 0}
  allowFootprints: 0
  affectFootprintDirt: 0
  grubFootprintDirtMultiplier: 0.05
  materialType: 2
  minimumWealth: 0
  designStyles:
  - designStyle: {fileID: 11400000, guid: f7900e58d7b990840b8413d0629275ee, type: 2}
    weighting: 1
  - designStyle: {fileID: 11400000, guid: e72ea046ed0da1e4fa8dc37cf23d4962, type: 2}
    weighting: 1
  - designStyle: {fileID: 11400000, guid: 874a29f205e656345b6bf7e398fd3d8d, type: 2}
    weighting: 1
  - designStyle: {fileID: 11400000, guid: e02dfc783e1042e48b87ceb703c8dc23, type: 2}
    weighting: 1
  - designStyle: {fileID: 11400000, guid: 238eb7f62296f3149bd39ce3b7506276, type: 2}
    weighting: 1
  - designStyle: {fileID: 11400000, guid: fb5884c44b9167f4982a3fe7b4a798b4, type: 2}
    weighting: 1
  - designStyle: {fileID: 11400000, guid: 748ca6bfa273c674187dcd4ec18a224a, type: 2}
    weighting: 1
  allowedRoomFilters:
  - {fileID: 11400000, guid: 01fee357f9164574199a0d636f80c26e, type: 2}
  purchasable: 1
  price: 10
  decorSprite: {fileID: 21300000, guid: 57f8cef5c7bf7ad43bd43d5b937e7907, type: 3}
