%YAML 1.1
%TAG !u! tag:unity3d.com,2011:
--- !u!114 &11400000
MonoBehaviour:
  m_ObjectHideFlags: 0
  m_CorrespondingSourceObject: {fileID: 0}
  m_PrefabInstance: {fileID: 0}
  m_PrefabAsset: {fileID: 0}
  m_GameObject: {fileID: 0}
  m_Enabled: 1
  m_EditorHideFlags: 0
  m_Script: {fileID: 11500000, guid: 9d757e97b11d4064db60cf985a2a0d9e, type: 3}
  m_Name: GraffitiFroste
  m_EditorClassIdentifier: 
  presetName: GraffitiFroste
  disable: 0
  texturePreview: {fileID: 0}
  material: {fileID: 2100000, guid: af2f7e2c25f22c149ba6806daa3f9382, type: 2}
  orientationCompatibility: 08000000
  pixelScaleMultiplier: 0.05
  allowInResidential: 0
  allowInCommerical: 1
  allowInLobby: 1
  allowOnStreet: 1
  basePriority: 1
  colourMatching: []
  colourMatchingScale: 0
  minimumWealth: 0
  maximumWealth: 1
  roomMatchingScale: 0
  modernity: 5
  cleanness: 4
  loudness: 8
  emotive: 3
  mustRequireTraitFromBelow: 0
  traitModifiers: []
  useDynamicText: 0
  dynamicTextSource: 0
  textFont: {fileID: 0}
  textColour: {r: 1, g: 1, b: 1, a: 1}
  textSize: 24
