%YAML 1.1
%TAG !u! tag:unity3d.com,2011:
--- !u!114 &11400000
MonoBehaviour:
  m_ObjectHideFlags: 0
  m_CorrespondingSourceObject: {fileID: 0}
  m_PrefabInstance: {fileID: 0}
  m_PrefabAsset: {fileID: 0}
  m_GameObject: {fileID: 0}
  m_Enabled: 1
  m_EditorHideFlags: 0
  m_Script: {fileID: 11500000, guid: 202d67e9981949d44b0b94cd94eeb17b, type: 3}
  m_Name: SemiAutomaticPistolSilenced
  m_EditorClassIdentifier: 
  presetName: SemiAutomaticPistolSilenced
  spawnable: 1
  prefab: {fileID: 4145892562636802283, guid: 20d4280fb7c78b04692dfa162e623b6f, type: 3}
  prefabLocalEuler: {x: 0, y: 0, z: 0}
  prefabLocalScale: {x: 1, y: 1, z: 1}
  dontSaveWithSaveGames: 0
  onlySaveWithSaveGamesIfWorldObject: 0
  excludeFromObjectPooling: 0
  excludeFromVisibilityRangeChecks: 0
  spawnRange: 2
  showWorldObjectInSceneCapture: 0
  captureStateInSceneCapture: 0
  createProxy: 1
  onlyCreateProxyInDetailedCapture: 1
  createProxyAtRange: 0
  inheritColouringFromDecor: 0
  shareColoursWithFurniture: 0
  useOwnColourSettings: 0
  mainColour: 0
  customColour1: 0
  customColour2: 0
  customColour3: 0
  inheritGrubValue: 0
  autoName: 1
  includeBelongsTo: 0
  useNameShorthand: 0
  useApartmentName: 0
  isLight: {fileID: 0}
  lightswitch: 0
  allowUnscrewed: 1
  isMainLight: 0
  staticImage: {fileID: 21300000, guid: 03501a7b22b646c468060ecf8a317697, type: 3}
  imagePos: {x: 0, y: 0, z: 0}
  imageRot: {x: 0, y: 0, z: 0}
  imageScale: 1
  imagePrefabOverride: {fileID: 0}
  iconOverride: {fileID: 21300000, guid: b876c3525d694dd438a48166702984a0, type: 3}
  itemClass: 4
  allowInApartmentStorage: 1
  allowInApartmentShop: 0
  apartmentPlacementMode: 0
  mustTouchFurniture: []
  useMaterialOverride: 0
  materialOverride:
    concrete: 0
    wood: 0
    carpet: 0
    tile: 0
    plaster: 0
    fabric: 0
    metal: 0
    glass: 0
  actionsPreset:
  - {fileID: 11400000, guid: 3c0ba7994b9ea5747b2eb8e86cbb8959, type: 2}
  onlyIllegalIfInNonPublic: 1
  rangeModifier: 0
  physicsProfile: {fileID: 11400000, guid: e6b8d35706b60834d8ccedd6994e6375, type: 2}
  overrideMass: 0
  forcePhysicsAlwaysOn: 0
  reactWithExternalStimuli: 1
  mass: 1
  breakable: 0
  particleProfile: {fileID: 0}
  overrideShatterSettings: 0
  shardSize: {x: 0.025, y: 0.025, z: 0.025}
  shardEveryXPixels: 64
  overrideSpatterSettings: 0
  spatterSimulation: {fileID: 0}
  spatterCountMultiplier: 1
  overrideFurnitureSetting: 0
  enterTransition: {fileID: 0}
  exitTransition: {fileID: 0}
  enterTransition2: {fileID: 0}
  exitTransition2: {fileID: 0}
  switchSFX: []
  startingSwitchState: 0
  startingCustomState1: 0
  startingCustomState2: 0
  startingCustomState3: 0
  startingLockState: 0
  value: {x: 100, y: 100}
  AIPriority: 5
  disableForSocialGroups: 0
  pickDistanceMultiplier: 1
  perActionPrioritySettings: []
  tamperEnabled: 1
  useSetting:
    usageOffset: {x: 0, y: 0, z: 0.35}
    facingOffset: {x: 0, y: 0, z: 0}
    useNodeFloorPosition: 1
    useDoorBehaviour: 0
    useSittingOffset: 0
    useArmsStandingOffset: 0
  readingEnabled: 0
  readyingEnabledOnlyWithSwitchIsTue: 0
  readingEnabledOnlyWithKaizenSkill: 0
  readingSource: 0
  discoverOnRead: 0
  pageTurnReadingDelay: 0
  distanceRecognitionEnabled: 0
  distanceRecognitionOnly: 0
  recognitionRange: 5
  subObjectClasses:
  - {fileID: 11400000, guid: f340d62cd9711584ebe230cab1e27cd8, type: 2}
  - {fileID: 11400000, guid: 1344b73ecd802f244b155b2bea6cb649, type: 2}
  backupClasses:
  - {fileID: 11400000, guid: 0aaad4ed1f701c04fa83b5ecff1443de, type: 2}
  - {fileID: 11400000, guid: ad94ec4caa37bcd44879ed6bea2a0f1a, type: 2}
  - {fileID: 11400000, guid: 93c4b1cb41af1dc4796a525d7b2da47b, type: 2}
  - {fileID: 11400000, guid: 58d35ae0305e7d541af98472310ee11c, type: 2}
  - {fileID: 11400000, guid: 94ecd56f625166b449047f5eee385c68, type: 2}
  autoPlacement: 4
  alwaysPlaceAtGameLocation: 0
  frequencyPerGamelocationMin: 0
  frequencyPerGameLocationMax: 0
  perGameLocationObjectPriority: 0
  placeIfFiltersPresentInOwner: 0
  placeAtHome: 1
  placeAtWork: 0
  traitModifiers: []
  frequencyPerOwnerMin: 0
  frequencyPerOwnerMax: 0
  multiplyByMessiness: 0
  perOwnerObjectPriority: 8
  writerIs: 0
  receiverIs: 0
  canBeFromSelf: 0
  limitPerObject: 1
  perObjectLimit: 1
  limitPerRoom: 0
  perRoomLimit: 99
  limitPerAddress: 0
  perAddressLimit: 99
  limitInResidential: 0
  perResidentialLimit: 1
  limitInCommercial: 0
  perCommercialLimit: 1
  banFromRooms: []
  limitToCertainRooms: 0
  onlyInRooms: []
  limitToCertainBuildings: 0
  onlyInBuildings: []
  attemptToStoreInFolder: {fileID: 0}
  folderPlacementChance: 1
  dontPlaceIfNoFolder: 0
  folderOwnershipMustMatch: 0
  useSubSpawning: 0
  securityLevel: 3
  ownedRule: 3
  overrideWithOnlyOwnedSpawnAtWork: 1
  subSpawnClass: {fileID: 0}
  subSpawnPositions: []
  relocationAuthority: 0
  relocateIfPlacedInPlayersHome: 1
  AIWillCorrectPosition: 1
  useEvidence: 1
  useSingleton: {fileID: 0}
  findEvidence: 0
  spawnEvidence: {fileID: 11400000, guid: be16e9d8ac6f0a544b293da8249526b0, type: 2}
  locationIsParent: 1
  summaryMessageSource: dc8a0a6c-c949-4291-8a3b-456dd88e6a92
  overrideEvidencePhotoSettings: 0
  relativeCamPhotoPos: {x: -0.075, y: 0.25, z: 0.2}
  relativeCamPhotoEuler: {x: 45, y: 155, z: 0}
  includeLock: {fileID: 0}
  lockOffset: {x: 0, y: 0, z: 0}
  passwordSource: 0
  attemptedOpenSound: {fileID: 0}
  armLockOnClose: 1
  lockStrength: {x: 0.1, y: 0.4}
  isSelfLock: 0
  useMaterialChanges: 0
  lockOffMaterial: {fileID: 0}
  lockOnMaterial: {fileID: 0}
  isComputer: 0
  bootApp: {fileID: 0}
  logInApp: {fileID: 0}
  desktopApp: {fileID: 0}
  additionalApps: []
  fingerprintsEnabled: 1
  printsSource: 11
  fingerprintDensity: 3
  enableDynamicFingerprints: 1
  overrideMaxDynamicFingerprints: 0
  maxDynamicFingerprints: 8
  fpsItem: {fileID: 11400000, guid: 3bb2a19dd8c1dd1488e8b1a85665a7c1, type: 2}
  isInventoryItem: 1
  fpsItemOffset: {x: -221, y: 252, z: 41}
  fpsItemRotation: {x: 15.606407, y: 0.28533557, z: 138.77623}
  consumableAmount: 0
  destroyWhenAllConsumed: 0
  useSameModelAsTrash: 1
  trashItem: {fileID: 0}
  playerConsumeLoop: {fileID: 0}
  takeOneEvent: {fileID: 0}
  disposal: 0
  chanceOfDroppedAngle: 0
  droppedAngleHeightBoost: 0.1
  weapon: {fileID: 11400000, guid: 17e76b350b208ef49aeea0c85c5bc879, type: 2}
  inventoryCarryItem: 0
  requiredCarryAnimation: 0
  aiCarryAnimation: 1
  aiHeldObjectPosition: {x: -0.055, y: -0.15, z: 0.08}
  aiHeldObjectRotation: {x: 90, y: 90, z: 0}
  putDownAtHome: 1
  takeWith: 1
  putDownPositions:
  - {fileID: 11400000, guid: 93c4b1cb41af1dc4796a525d7b2da47b, type: 2}
  - {fileID: 11400000, guid: ad94ec4caa37bcd44879ed6bea2a0f1a, type: 2}
  - {fileID: 11400000, guid: 1344b73ecd802f244b155b2bea6cb649, type: 2}
  - {fileID: 11400000, guid: 4e84b479f5bbc6f4f81821d28d1ceaa5, type: 2}
  - {fileID: 11400000, guid: f340d62cd9711584ebe230cab1e27cd8, type: 2}
  backupPutDownPositions:
  - {fileID: 11400000, guid: 0aaad4ed1f701c04fa83b5ecff1443de, type: 2}
  - {fileID: 11400000, guid: 58d35ae0305e7d541af98472310ee11c, type: 2}
  - {fileID: 11400000, guid: 94ecd56f625166b449047f5eee385c68, type: 2}
  specialCaseFlag: 0
  affectRoomSteamLevel: 0
  isPayphone: 0
  isStinky: 0
  isClock: 0
  isMoney: 0
  isHeatSource: 0
  markAsTrashOnCreate: 0
  isLitter: 0
  isDecal: 0
  resetSwitchStates: 0
  resetTimer: 0.01
  musicTracks: []
  retailItem: {fileID: 11400000, guid: 6d7b5f1d9756cdf41846ae30aff6764b, type: 2}
  menuOverride: {fileID: 0}
  hourlyChime: {fileID: 0}
  chimeEqualToHour: 0
  chimeDelay: 1.5
  searchLoop: {fileID: 0}
  copyFrom: {fileID: 0}
