%YAML 1.1
%TAG !u! tag:unity3d.com,2011:
--- !u!114 &11400000
MonoBehaviour:
  m_ObjectHideFlags: 0
  m_CorrespondingSourceObject: {fileID: 0}
  m_PrefabInstance: {fileID: 0}
  m_PrefabAsset: {fileID: 0}
  m_GameObject: {fileID: 0}
  m_Enabled: 1
  m_EditorHideFlags: 0
  m_Script: {fileID: 11500000, guid: 72189a82c99322f4aa2415fd1bc7be82, type: 3}
  m_Name: NaiWongBao
  m_EditorClassIdentifier: 
  presetName: NaiWongBao
  itemPreset: {fileID: 11400000, guid: c90fd2f7618493d4a9f6c65c5d2774b0, type: 2}
  canBeFavourite: 1
  isHot: 0
  isConsumable: 1
  brandName: 
  tags: 
  desireCategory: 1
  menuCategory: 2
  ethnicity: 070000000800000009000000
  minimumWealth: 0
  mustFeatureTraits: []
  cantFeatureTrait: []
  preferredTraits:
  - {fileID: 11400000, guid: 17ce4803302a2374bac37667fc9db836, type: 2}
  nourishment: 0.5
  hydration: 0
  alertness: 0.1
  energy: 0
  excitement: 0.2
  chores: 0
  hygiene: 0
  bladder: 0
  heat: 0
  drunk: 0
  sick: 0
  headache: 0
  wet: 0
  brokenLeg: 0
  bruised: 0
  blackEye: 0
  blackedOut: 0
  numb: 0
  bleeding: 0
  wellRested: 0
  breath: 0
  starchAddiction: 0
  poisoned: 0
  health: 0
