%YAML 1.1
%TAG !u! tag:unity3d.com,2011:
--- !u!114 &11400000
MonoBehaviour:
  m_ObjectHideFlags: 0
  m_CorrespondingSourceObject: {fileID: 0}
  m_PrefabInstance: {fileID: 0}
  m_PrefabAsset: {fileID: 0}
  m_GameObject: {fileID: 0}
  m_Enabled: 1
  m_EditorHideFlags: 0
  m_Script: {fileID: 11500000, guid: c75b4af04599eae47bd80b0942199e98, type: 3}
  m_Name: BuildingBathrooms
  m_EditorClassIdentifier: 
  presetName: BuildingBathrooms
  assignPurpose: 1
  addressPreset: {fileID: 0}
  publicFacing: 1
  isOutside: 0
  isLobby: 0
  roomLayout:
  - {fileID: 11400000, guid: 65e88270b78309d48b0cdbf01ea97952, type: 2}
  requiresHallway: 1
  hallway: {fileID: 11400000, guid: 4feaa49c940ecd84b94179e8c973e38c, type: 2}
  hallwayDistanceThreshold: 3
  useBuildingDesignStyle: 1
  overrideEvidencePhotoSettings: 1
  relativeCamPhotoPos: {x: 11, y: 1.8, z: -2.7}
  relativeCamPhotoEuler: {x: -10, y: -55, z: 0}
  doorwaysNormal:
  - {fileID: 11400000, guid: ddd7bdbd66808bb4c91d839f457379cf, type: 2}
  doorwaysFlat:
  - {fileID: 11400000, guid: 7579f8450f1f00f439e867b0bc79e5dc, type: 2}
  roomDividersLeft:
  - {fileID: 11400000, guid: f83ddf1e222ed614e81ccf2d84b03000, type: 2}
  roomDividersCentre:
  - {fileID: 11400000, guid: ea5eb59e12585504fbc636eeda65a0f1, type: 2}
  roomDividersRight:
  - {fileID: 11400000, guid: 45b5d554c6ada5e489dea032860e69d1, type: 2}
