%YAML 1.1
%TAG !u! tag:unity3d.com,2011:
--- !u!114 &11400000
MonoBehaviour:
  m_ObjectHideFlags: 0
  m_CorrespondingSourceObject: {fileID: 0}
  m_PrefabInstance: {fileID: 0}
  m_PrefabAsset: {fileID: 0}
  m_GameObject: {fileID: 0}
  m_Enabled: 1
  m_EditorHideFlags: 0
  m_Script: {fileID: 11500000, guid: c75b4af04599eae47bd80b0942199e98, type: 3}
  m_Name: Eatery
  m_EditorClassIdentifier: 
  presetName: Eatery
  assignPurpose: 1
  addressPreset: {fileID: 0}
  publicFacing: 1
  isOutside: 0
  isLobby: 0
  roomLayout:
  - {fileID: 11400000, guid: 4f6ce0378601dbf4fbb96d1b3b813379, type: 2}
  - {fileID: 11400000, guid: 16e8bf2f69919d046859c0a65d9906f3, type: 2}
  - {fileID: 11400000, guid: 355730bca681f1846bb5ec56ce248fcf, type: 2}
  - {fileID: 11400000, guid: af15f40da28854349be1498a3f03a714, type: 2}
  requiresHallway: 0
  hallway: {fileID: 0}
  hallwayDistanceThreshold: 6
  useBuildingDesignStyle: 0
  overrideEvidencePhotoSettings: 1
  relativeCamPhotoPos: {x: 0, y: 1.8, z: -5}
  relativeCamPhotoEuler: {x: -6, y: -5, z: 0}
  doorwaysNormal:
  - {fileID: 11400000, guid: ddd7bdbd66808bb4c91d839f457379cf, type: 2}
  doorwaysFlat:
  - {fileID: 11400000, guid: 7579f8450f1f00f439e867b0bc79e5dc, type: 2}
  roomDividersLeft:
  - {fileID: 11400000, guid: f83ddf1e222ed614e81ccf2d84b03000, type: 2}
  roomDividersCentre:
  - {fileID: 11400000, guid: ea5eb59e12585504fbc636eeda65a0f1, type: 2}
  roomDividersRight:
  - {fileID: 11400000, guid: 45b5d554c6ada5e489dea032860e69d1, type: 2}
