%YAML 1.1
%TAG !u! tag:unity3d.com,2011:
--- !u!114 &11400000
MonoBehaviour:
  m_ObjectHideFlags: 0
  m_CorrespondingSourceObject: {fileID: 0}
  m_PrefabInstance: {fileID: 0}
  m_PrefabAsset: {fileID: 0}
  m_GameObject: {fileID: 0}
  m_Enabled: 1
  m_EditorHideFlags: 0
  m_Script: {fileID: 11500000, guid: c75b4af04599eae47bd80b0942199e98, type: 3}
  m_Name: Park
  m_EditorClassIdentifier: 
  presetName: Park
  assignPurpose: 1
  addressPreset: {fileID: 0}
  publicFacing: 1
  isOutside: 1
  isLobby: 0
  roomLayout:
  - {fileID: 11400000, guid: 442339cf2c5e1604fb1aa603dccaf6e5, type: 2}
  requiresHallway: 0
  hallway: {fileID: 0}
  hallwayDistanceThreshold: 6
  useBuildingDesignStyle: 1
  overrideEvidencePhotoSettings: 0
  relativeCamPhotoPos: {x: 0.2, y: 1.8, z: -2.5}
  relativeCamPhotoEuler: {x: 7, y: -5, z: 0}
  doorwaysNormal:
  - {fileID: 11400000, guid: dc6395f685e19e245a8a510dcb8d2542, type: 2}
  doorwaysFlat:
  - {fileID: 11400000, guid: dc6395f685e19e245a8a510dcb8d2542, type: 2}
  roomDividersLeft:
  - {fileID: 11400000, guid: dc6395f685e19e245a8a510dcb8d2542, type: 2}
  roomDividersCentre:
  - {fileID: 11400000, guid: dc6395f685e19e245a8a510dcb8d2542, type: 2}
  roomDividersRight:
  - {fileID: 11400000, guid: dc6395f685e19e245a8a510dcb8d2542, type: 2}
