%YAML 1.1
%TAG !u! tag:unity3d.com,2011:
--- !u!114 &11400000
MonoBehaviour:
  m_ObjectHideFlags: 0
  m_CorrespondingSourceObject: {fileID: 0}
  m_PrefabInstance: {fileID: 0}
  m_PrefabAsset: {fileID: 0}
  m_GameObject: {fileID: 0}
  m_Enabled: 1
  m_EditorHideFlags: 0
  m_Script: {fileID: 11500000, guid: 3aedd3a7847dd714e95fc4dea1881354, type: 3}
  m_Name: KitchenKnifeLarge
  m_EditorClassIdentifier: 
  presetName: KitchenKnifeLarge
  type: 3
  ammunition: []
  murderDifficultyModifier: 1
  muzzleOffset: {x: -0.524, y: 0.0202, z: -0.044}
  brassEjectOffset: {x: 0.056, y: 0.061, z: -0.058}
  itemRightOverride: {fileID: 5834933251103022694, guid: c37583552db7f6c41b3082c183daf19f,
    type: 3}
  itemRightLocalPos: {x: -0.001, y: -0.068, z: 0.179}
  itemRightLocalEuler: {x: 0, y: 180, z: 270}
  itemLeftOverride: {fileID: 0}
  itemLeftLocalPos: {x: 0, y: 0, z: 0}
  itemLeftLocalEuler: {x: 0, y: 0, z: 0}
  overideUsesCarryAnimation: 0
  overrideCarryAnimation: 1
  usedInPersonalDefence: 1
  disabled: 0
  basePriority: 3
  socialClassRange: {x: 0, y: 0.6}
  citizenSpawningWithScore: 0
  personalDefenceTraitModifiers:
  - rule: 0
    traitList:
    - {fileID: 11400000, guid: ddf836a9aa21de94dbeff87441c6e593, type: 2}
    mustPassForApplication: 0
    scoreModifier: 1
  jobModifierList:
  - {fileID: 11400000, guid: 56cb6c9187e67e64b99b775e07d54474, type: 2}
  - {fileID: 11400000, guid: 174cb2f1db799534bb5fe6eb84127d78, type: 2}
  - {fileID: 11400000, guid: 86423509312cd714e82ea3a83580a98b, type: 2}
  jobScoreModifier: 2
  drawnNerveModifier: -0.1
  barkTriggerChance: 1
  bark: 34
  incomingNerveDamageMultiplier: 0.8
  attackTriggerPoint: 0.45
  attackRemovePoint: 1
  shots: 1
  weaponMaxRange: {x: 1.65, y: 1.65}
  minimumRange: 0
  maximumBulletRange: 1.9
  weaponRangeLerpSource: 1
  fireDelay: {x: 0.5, y: 0.2}
  fireDelayLerpSource: 3
  attackAccuracy: {x: 1, y: 1}
  attackAccuracyLerpSource: 0
  attackDamage: {x: 0.5, y: 0.85}
  attackDamageLerpSource: 3
  applyPoison: 0
  shellCasing: {fileID: 0}
  ejectBrassSetting: 0
  bulletHole: {fileID: 0}
  entryWound: {fileID: 11400000, guid: c37b64a2eec8c0c4784f91b3d7a2a734, type: 2}
  forwardSpatter: {fileID: 11400000, guid: 6b297daa836d57f45b6c5e529bffbe08, type: 2}
  backSpatter: {fileID: 0}
  fireEvent: {fileID: 11400000, guid: 95a504209dcdfaf4f905ff44b817a54a, type: 2}
  impactEvent: {fileID: 0}
  impactEventBody: {fileID: 11400000, guid: 32e1922d2949be942832f6a6c78abbfb, type: 2}
  impactEventPlayer: {fileID: 11400000, guid: 717a432ac2af7dc48b7a6d9e19e4e88c, type: 2}
