%YAML 1.1
%TAG !u! tag:unity3d.com,2011:
--- !u!114 &11400000
MonoBehaviour:
  m_ObjectHideFlags: 0
  m_CorrespondingSourceObject: {fileID: 0}
  m_PrefabInstance: {fileID: 0}
  m_PrefabAsset: {fileID: 0}
  m_GameObject: {fileID: 0}
  m_Enabled: 1
  m_EditorHideFlags: 0
  m_Script: {fileID: 11500000, guid: 3aedd3a7847dd714e95fc4dea1881354, type: 3}
  m_Name: Razor
  m_EditorClassIdentifier: 
  presetName: Razor
  type: 3
  ammunition: []
  murderDifficultyModifier: 1
  muzzleOffset: {x: -0.524, y: 0.0202, z: -0.044}
  brassEjectOffset: {x: 0.056, y: 0.061, z: -0.058}
  itemRightOverride: {fileID: 7841238200316600625, guid: b110959d5fa6cec4b825f7b0ec11268d,
    type: 3}
  itemRightLocalPos: {x: -0.054, y: -0.072, z: 0.12}
  itemRightLocalEuler: {x: 0, y: 196.55087, z: 0}
  itemLeftOverride: {fileID: 0}
  itemLeftLocalPos: {x: 0, y: 0, z: 0}
  itemLeftLocalEuler: {x: 0, y: 0, z: 0}
  overideUsesCarryAnimation: 0
  overrideCarryAnimation: 1
  usedInPersonalDefence: 1
  disabled: 0
  basePriority: 0
  socialClassRange: {x: 0, y: 1}
  citizenSpawningWithScore: 0
  personalDefenceTraitModifiers:
  - rule: 1
    traitList:
    - {fileID: 11400000, guid: ddf836a9aa21de94dbeff87441c6e593, type: 2}
    - {fileID: 11400000, guid: f190c8774a7c4084a888588b2adf1946, type: 2}
    mustPassForApplication: 0
    scoreModifier: 1
  jobModifierList: []
  jobScoreModifier: 1
  drawnNerveModifier: 0
  barkTriggerChance: 0.5
  bark: 34
  incomingNerveDamageMultiplier: 1
  attackTriggerPoint: 0.45
  attackRemovePoint: 1
  shots: 1
  weaponMaxRange: {x: 1.65, y: 1.65}
  minimumRange: 0
  maximumBulletRange: 1.9
  weaponRangeLerpSource: 1
  fireDelay: {x: 0.5, y: 0.2}
  fireDelayLerpSource: 3
  attackAccuracy: {x: 1, y: 1}
  attackAccuracyLerpSource: 0
  attackDamage: {x: 0.35, y: 0.65}
  attackDamageLerpSource: 3
  applyPoison: 0
  shellCasing: {fileID: 0}
  ejectBrassSetting: 0
  bulletHole: {fileID: 0}
  entryWound: {fileID: 11400000, guid: c37b64a2eec8c0c4784f91b3d7a2a734, type: 2}
  forwardSpatter: {fileID: 11400000, guid: 6b297daa836d57f45b6c5e529bffbe08, type: 2}
  backSpatter: {fileID: 0}
  fireEvent: {fileID: 11400000, guid: 95a504209dcdfaf4f905ff44b817a54a, type: 2}
  impactEvent: {fileID: 0}
  impactEventBody: {fileID: 11400000, guid: 32e1922d2949be942832f6a6c78abbfb, type: 2}
  impactEventPlayer: {fileID: 11400000, guid: 717a432ac2af7dc48b7a6d9e19e4e88c, type: 2}
