%YAML 1.1
%TAG !u! tag:unity3d.com,2011:
--- !u!114 &11400000
MonoBehaviour:
  m_ObjectHideFlags: 0
  m_CorrespondingSourceObject: {fileID: 0}
  m_PrefabInstance: {fileID: 0}
  m_PrefabAsset: {fileID: 0}
  m_GameObject: {fileID: 0}
  m_Enabled: 1
  m_EditorHideFlags: 0
  m_Script: {fileID: 11500000, guid: b027b92df02e3b24d89774c2509ea4f9, type: 3}
  m_Name: Char-Eccentric
  m_EditorClassIdentifier: 
  presetName: Char-Eccentric
  isTrait: 1
  needsReson: 0
  requiresPartner: 0
  requiresSingle: 0
  requiresHome: 0
  requiresEmployment: 0
  needsDate: 0
  featureInInterestPool: 0
  featureInAfflictionPool: 0
  ageDateRange: {x: 5, y: 10}
  useCouplesAnniversary: 0
  isPassword: 0
  disabled: 0
  postiveNegative: 1
  pickStage: 1
  primeBaseChance: 0
  pickRules:
  - rule: 2
    traitList:
    - {fileID: 11400000, guid: 55988421cc84a6e42ba3059fc1ae8133, type: 2}
    - {fileID: 11400000, guid: 71cc0226c7373444ba555216fa40077b, type: 2}
    mustPassForApplication: 1
    baseChance: 0
    reasonChance: 0
  matchChance: 0.642
  useHumilityMatch: 0
  matchHumility: 0
  useEmotionalityMatch: 0
  matchEmotionality: 0
  useExtraversionMatch: 0
  matchExtraversion: 0
  useAgreeablenessMatch: 0
  matchAgreeableness: 1
  useConscientiousnessMatch: 0
  matchConscientiousness: 0
  useCreativityMatch: 1
  matchCreativity: 1
  useSocietalClassMatch: 1
  matchSocietalClass: 1
  effectHumility: 0
  effectEmotionality: 0
  effectExtraversion: 0
  effectAgreeableness: 0
  effectConscientiousness: 0
  effectCreativity: 0
  maxHealthModifier: 0
  recoveryRateModifier: 0
  combatSkillModifier: 0
  combatHeftModifier: 0
  maxNerveModifier: 0
  breathRecoveryModifier: 0
  limitHumility: {x: 0, y: 1}
  limitEmotionality: {x: 0, y: 1}
  limitExtraversion: {x: 0, y: 1}
  limitAgreeableness: {x: 0, y: 1}
  limitConscientiousness: {x: 0, y: 1}
  limitCreativity: {x: 0, y: 1}
  slangUsageModifier: 0
  slangGreetingDefault: []
  slangGreetingMale: []
  slangGreetingFemale: []
  slangGreetingLover: []
  slangCurse:
  - Bejabbering
  - Fudging
  - Pizzling
  slangCurseNoun: []
  slangPraiseNoun:
  - extraordinaire
  preferredBookCountModifier: 0
  sightingLimitMemoryModifier: 0
