%YAML 1.1
%TAG !u! tag:unity3d.com,2011:
--- !u!114 &11400000
MonoBehaviour:
  m_ObjectHideFlags: 0
  m_CorrespondingSourceObject: {fileID: 0}
  m_PrefabInstance: {fileID: 0}
  m_PrefabAsset: {fileID: 0}
  m_GameObject: {fileID: 0}
  m_Enabled: 1
  m_EditorHideFlags: 0
  m_Script: {fileID: 11500000, guid: b027b92df02e3b24d89774c2509ea4f9, type: 3}
  m_Name: Char-Abrasive
  m_EditorClassIdentifier: 
  presetName: Char-Abrasive
  isTrait: 1
  needsReson: 0
  requiresPartner: 0
  requiresSingle: 0
  requiresHome: 0
  requiresEmployment: 0
  needsDate: 0
  featureInInterestPool: 0
  featureInAfflictionPool: 0
  ageDateRange: {x: 5, y: 10}
  useCouplesAnniversary: 0
  isPassword: 0
  disabled: 0
  postiveNegative: 2
  pickStage: 1
  primeBaseChance: 0
  pickRules:
  - rule: 2
    traitList:
    - {fileID: 11400000, guid: 299033066b7f63041bd59fc2bf4604bc, type: 2}
    - {fileID: 11400000, guid: 8223d05f2b3212040931c43d749a69f5, type: 2}
    - {fileID: 11400000, guid: c57c7d6985e21dc4a993c80bb272f797, type: 2}
    - {fileID: 11400000, guid: c980a65ff3c7d494f8af06d26cd424ff, type: 2}
    - {fileID: 11400000, guid: 512a703d7e83b9548990c15ba468e878, type: 2}
    - {fileID: 11400000, guid: a280ee6378a3163488772b4247e73b02, type: 2}
    - {fileID: 11400000, guid: d50f10f30d199424aa2a88aebde99818, type: 2}
    mustPassForApplication: 1
    baseChance: 0
    reasonChance: 0
  matchChance: 0.896
  useHumilityMatch: 1
  matchHumility: 0.12
  useEmotionalityMatch: 0
  matchEmotionality: 1
  useExtraversionMatch: 0
  matchExtraversion: 0
  useAgreeablenessMatch: 1
  matchAgreeableness: 0
  useConscientiousnessMatch: 0
  matchConscientiousness: 0
  useCreativityMatch: 0
  matchCreativity: 0
  useSocietalClassMatch: 0
  matchSocietalClass: 0
  effectHumility: 0
  effectEmotionality: 0
  effectExtraversion: 0
  effectAgreeableness: 0
  effectConscientiousness: 0
  effectCreativity: 0
  maxHealthModifier: 0
  recoveryRateModifier: 0
  combatSkillModifier: 0
  combatHeftModifier: 0
  maxNerveModifier: 0
  breathRecoveryModifier: 0
  limitHumility: {x: 0, y: 1}
  limitEmotionality: {x: 0, y: 1}
  limitExtraversion: {x: 0, y: 1}
  limitAgreeableness: {x: 0, y: 1}
  limitConscientiousness: {x: 0, y: 1}
  limitCreativity: {x: 0, y: 1}
  slangUsageModifier: 0
  slangGreetingDefault: []
  slangGreetingMale: []
  slangGreetingFemale:
  - lady
  slangGreetingLover: []
  slangCurse: []
  slangCurseNoun: []
  slangPraiseNoun: []
  preferredBookCountModifier: 0
  sightingLimitMemoryModifier: 0
