%YAML 1.1
%TAG !u! tag:unity3d.com,2011:
--- !u!114 &11400000
MonoBehaviour:
  m_ObjectHideFlags: 0
  m_CorrespondingSourceObject: {fileID: 0}
  m_PrefabInstance: {fileID: 0}
  m_PrefabAsset: {fileID: 0}
  m_GameObject: {fileID: 0}
  m_Enabled: 1
  m_EditorHideFlags: 0
  m_Script: {fileID: 11500000, guid: b027b92df02e3b24d89774c2509ea4f9, type: 3}
  m_Name: Char-Alpha
  m_EditorClassIdentifier: 
  presetName: Char-Alpha
  isTrait: 1
  needsReson: 0
  requiresPartner: 0
  requiresSingle: 0
  requiresHome: 0
  requiresEmployment: 0
  needsDate: 0
  featureInInterestPool: 0
  featureInAfflictionPool: 0
  ageDateRange: {x: 5, y: 10}
  useCouplesAnniversary: 0
  isPassword: 0
  disabled: 0
  postiveNegative: 1
  pickStage: 2
  primeBaseChance: 0
  pickRules:
  - rule: 0
    traitList:
    - {fileID: 11400000, guid: 8caeebc7bc53ec24690467f57ca41139, type: 2}
    mustPassForApplication: 1
    baseChance: 0.2
    reasonChance: 0
  matchChance: 0.465
  useHumilityMatch: 0
  matchHumility: 0
  useEmotionalityMatch: 1
  matchEmotionality: 0.24
  useExtraversionMatch: 1
  matchExtraversion: 1
  useAgreeablenessMatch: 0
  matchAgreeableness: 1
  useConscientiousnessMatch: 0
  matchConscientiousness: 0
  useCreativityMatch: 0
  matchCreativity: 0
  useSocietalClassMatch: 0
  matchSocietalClass: 0
  effectHumility: 0
  effectEmotionality: 0
  effectExtraversion: 0
  effectAgreeableness: 0
  effectConscientiousness: 0
  effectCreativity: 0
  maxHealthModifier: 0
  recoveryRateModifier: 0
  combatSkillModifier: 0
  combatHeftModifier: 0
  maxNerveModifier: 0
  breathRecoveryModifier: 0
  limitHumility: {x: 0, y: 1}
  limitEmotionality: {x: 0, y: 1}
  limitExtraversion: {x: 0, y: 1}
  limitAgreeableness: {x: 0, y: 1}
  limitConscientiousness: {x: 0, y: 1}
  limitCreativity: {x: 0, y: 1}
  slangUsageModifier: 0.2
  slangGreetingDefault: []
  slangGreetingMale:
  - son
  slangGreetingFemale:
  - lady
  slangGreetingLover: []
  slangCurse: []
  slangCurseNoun: []
  slangPraiseNoun:
  - dragon
  preferredBookCountModifier: 0
  sightingLimitMemoryModifier: 0
