%YAML 1.1
%TAG !u! tag:unity3d.com,2011:
--- !u!114 &11400000
MonoBehaviour:
  m_ObjectHideFlags: 0
  m_CorrespondingSourceObject: {fileID: 0}
  m_PrefabInstance: {fileID: 0}
  m_PrefabAsset: {fileID: 0}
  m_GameObject: {fileID: 0}
  m_Enabled: 1
  m_EditorHideFlags: 0
  m_Script: {fileID: 11500000, guid: 0da14b35f8d566c4fb57d76d13c3a1da, type: 3}
  m_Name: BirthdayCard
  m_EditorClassIdentifier: 
  presetName: BirthdayCard
  subClass: BirthdayCard
  windowStyle: {fileID: 11400000, guid: 9ab7c23d1b0116f4da1d39bfec7f96a3, type: 2}
  useDataKeys: 0
  validKeys: []
  passiveTies: []
  notifyOfTies: 0
  useBelongsToInName: 0
  isSingleton: 0
  disableHistory: 0
  allowCustomNames: 1
  markAsDiscoveredOnAnyInteraction: 0
  forceWorldInteraction: 0
  useWindowFocusMode: 0
  iconSpriteLarge: {fileID: 21300000, guid: 3179dc05ffbe18b42b0e4688861ddf26, type: 3}
  defaultNullImage: {fileID: 2800000, guid: cd27e3ecf95414646aee61c2cc3cdc6f, type: 3}
  useInGamePhoto: 0
  useWriter: 0
  relativeCamPhotoPos: {x: -0.075, y: 0.25, z: 0.2}
  relativeCamPhotoEuler: {x: 45, y: 155, z: 0}
  captureRules: 2
  changeTimeOfDay: 0
  captureTimeOfDay: 9.5
  useCaptureLight: 1
  useSurveillanceCapture: 0
  itemOwner: 0
  itemWriter: 0
  itemReceiver: 0
  factSetup:
  - preset: {fileID: 11400000, guid: 308ab4e8edb2aed49ab39dd8bd404a06, type: 2}
    link: 5
    onlyIfInOwnedPosition: 0
    createOnDiscovery: 1
    forceDiscoveryOnCreation: 1
    switchFindingFactToFrom: 0
  - preset: {fileID: 11400000, guid: 3c265a5c6fea5eb4d91bb2032becc4e1, type: 2}
    link: 2
    onlyIfInOwnedPosition: 0
    createOnDiscovery: 1
    forceDiscoveryOnCreation: 1
    switchFindingFactToFrom: 0
  - preset: {fileID: 11400000, guid: 48e371a697ff1ba47994a44db2853be0, type: 2}
    link: 1
    onlyIfInOwnedPosition: 0
    createOnDiscovery: 1
    forceDiscoveryOnCreation: 1
    switchFindingFactToFrom: 0
  addFactLinks: []
  discoverOnCreate: 0
  keyMergeOnDiscovery:
  - link: 1
    mergeKeys: 260000001f000000
  - link: 2
    mergeKeys: 2600000014000000
  discoveryTriggers: 
  applicationOnDiscover: []
  ddsDocumentID: 715b743b-ee3e-4d93-99c5-fc5b1882b2f0
  isMatchParent: 0
  matchTypes: []
  enableSummary: 1
  enableFacts: 1
  pinnedStyle: 0
  pinnedBackgroundColour: {r: 1, g: 1, b: 1, a: 1}
