%YAML 1.1
%TAG !u! tag:unity3d.com,2011:
--- !u!114 &11400000
MonoBehaviour:
  m_ObjectHideFlags: 0
  m_CorrespondingSourceObject: {fileID: 0}
  m_PrefabInstance: {fileID: 0}
  m_PrefabAsset: {fileID: 0}
  m_GameObject: {fileID: 0}
  m_Enabled: 1
  m_EditorHideFlags: 0
  m_Script: {fileID: 11500000, guid: 0da14b35f8d566c4fb57d76d13c3a1da, type: 3}
  m_Name: EmployeePhoto
  m_EditorClassIdentifier: 
  presetName: EmployeePhoto
  subClass: 
  windowStyle: {fileID: 11400000, guid: 9ab7c23d1b0116f4da1d39bfec7f96a3, type: 2}
  useDataKeys: 0
  validKeys: []
  passiveTies: []
  notifyOfTies: 0
  useBelongsToInName: 1
  isSingleton: 0
  disableHistory: 0
  allowCustomNames: 1
  markAsDiscoveredOnAnyInteraction: 0
  forceWorldInteraction: 0
  useWindowFocusMode: 0
  iconSpriteLarge: {fileID: 21300000, guid: 3179dc05ffbe18b42b0e4688861ddf26, type: 3}
  defaultNullImage: {fileID: 2800000, guid: cd27e3ecf95414646aee61c2cc3cdc6f, type: 3}
  useInGamePhoto: 1
  useWriter: 1
  relativeCamPhotoPos: {x: 0, y: 0.3, z: 0.5}
  relativeCamPhotoEuler: {x: 0, y: 180, z: 0}
  captureRules: 3
  changeTimeOfDay: 0
  captureTimeOfDay: 9.5
  useCaptureLight: 0
  useSurveillanceCapture: 0
  itemOwner: 0
  itemWriter: 0
  itemReceiver: 0
  factSetup:
  - preset: {fileID: 11400000, guid: 308ab4e8edb2aed49ab39dd8bd404a06, type: 2}
    link: 5
    onlyIfInOwnedPosition: 0
    createOnDiscovery: 1
    forceDiscoveryOnCreation: 1
    switchFindingFactToFrom: 0
  - preset: {fileID: 11400000, guid: 3c265a5c6fea5eb4d91bb2032becc4e1, type: 2}
    link: 1
    onlyIfInOwnedPosition: 0
    createOnDiscovery: 1
    forceDiscoveryOnCreation: 1
    switchFindingFactToFrom: 0
  addFactLinks:
  - subject: 0
    factDictionary: WorksAt
    key: 15
    discovery: 1
  discoverOnCreate: 0
  keyMergeOnDiscovery:
  - link: 1
    mergeKeys: 00000000010000000f00000011000000
  discoveryTriggers: 
  applicationOnDiscover: []
  ddsDocumentID: 13b1cb4c-ee21-4d09-9150-9f12a7361055
  isMatchParent: 0
  matchTypes: []
  enableSummary: 1
  enableFacts: 1
  pinnedStyle: 0
  pinnedBackgroundColour: {r: 1, g: 1, b: 1, a: 1}
