%YAML 1.1
%TAG !u! tag:unity3d.com,2011:
--- !u!114 &11400000
MonoBehaviour:
  m_ObjectHideFlags: 0
  m_CorrespondingSourceObject: {fileID: 0}
  m_PrefabInstance: {fileID: 0}
  m_PrefabAsset: {fileID: 0}
  m_GameObject: {fileID: 0}
  m_Enabled: 1
  m_EditorHideFlags: 0
  m_Script: {fileID: 11500000, guid: 070402d0f52d680418a8e0ef2563a1f4, type: 3}
  m_Name: TelephoneGreeting
  m_EditorClassIdentifier: 
  presetName: TelephoneGreeting
  msgID: 
  defaultOption: 0
  telephoneCallOption: 0
  hospitalDecisionOption: 0
  tiedToKey: 4
  ranking: 2
  removeAfterSaying: 0
  dailyReplenish: 0
  isJobDetails: 0
  ignoreActiveJobRequirement: 0
  specialCase: 0
  cost: 0
  usePercentageCost: 0
  useAllWealthIfNotEnough: 0
  displayIfPasswordUnknown: 0
  inputBox: 0
  displayAsIllegal: 0
  preceedingSyntax: 
  followingSyntax: 
  useSuccessTest: 1
  requiresPassword: 0
  baseChance: 0
  affectChanceIfRestrained: 0
  modifySuccessChanceTraits:
  - rule: 2
    traitList:
    - {fileID: 11400000, guid: f190c8774a7c4084a888588b2adf1946, type: 2}
    - {fileID: 11400000, guid: 351ba7bc606a18645bd2910ad92edc32, type: 2}
    mustPassForApplication: 0
    baseChance: 0.25
    reasonChance: 0
  - rule: 2
    traitList:
    - {fileID: 11400000, guid: bc70a5abdae07ee419d4bc64e4bc153a, type: 2}
    - {fileID: 11400000, guid: cdd8c1f26aba14d408cac0912a7c623f, type: 2}
    - {fileID: 11400000, guid: 6f81dbe55a54fce42bb5e363daa024aa, type: 2}
    mustPassForApplication: 0
    baseChance: 0.25
    reasonChance: 0
  - rule: 0
    traitList:
    - {fileID: 11400000, guid: 343a83648f78cd942883175b25c2cdfe, type: 2}
    - {fileID: 11400000, guid: 512a703d7e83b9548990c15ba468e878, type: 2}
    - {fileID: 11400000, guid: cbc18401bc0b6e744b0b69b6ffa67ab7, type: 2}
    - {fileID: 11400000, guid: 6171b07df33fac4408c0b879c96876d6, type: 2}
    - {fileID: 11400000, guid: 75de25e79be21b54a8e70d484cbc12d7, type: 2}
    - {fileID: 11400000, guid: a280ee6378a3163488772b4247e73b02, type: 2}
    - {fileID: 11400000, guid: 91469e8527d8a584ca0a39d5a88a8bcb, type: 2}
    mustPassForApplication: 0
    baseChance: 0.5
    reasonChance: 0
  responses:
  - dictionaryString: TelephoneGreetingSuccess
    ddsMessageID: fce52c8f-f96d-46f9-9ec1-5d3c6e923997
    isSuccessful: 1
    chance: 1
    useParsing: 1
    shout: 0
    interupt: 0
    onlyIfEnfocerOnDuty: 0
    onlyIfNotEnforcerOnDuty: 0
    mustFeatureTrait: []
    cantFeatureTrait: []
    tieKeys: 260000002100000004000000
    applyDiscovery: 
    endsDialog: 0
    jobHandIn: 0
  - dictionaryString: TelephoneGreetingFail
    ddsMessageID: d02bc808-1d45-4e9c-acea-e5ab3313225f
    isSuccessful: 0
    chance: 1
    useParsing: 1
    shout: 0
    interupt: 0
    onlyIfEnfocerOnDuty: 0
    onlyIfNotEnforcerOnDuty: 0
    mustFeatureTrait: []
    cantFeatureTrait: []
    tieKeys: 2100000004000000
    applyDiscovery: 
    endsDialog: 0
    jobHandIn: 0
  followUpDialogSuccess: []
  followUpDialogFail: []
  removeDialog: []
  removeDialogOnSuccess: []
  removeDialogOnFail: []
