%YAML 1.1
%TAG !u! tag:unity3d.com,2011:
--- !u!114 &11400000
MonoBehaviour:
  m_ObjectHideFlags: 0
  m_CorrespondingSourceObject: {fileID: 0}
  m_PrefabInstance: {fileID: 0}
  m_PrefabAsset: {fileID: 0}
  m_GameObject: {fileID: 0}
  m_Enabled: 1
  m_EditorHideFlags: 0
  m_Script: {fileID: 11500000, guid: 35c25a853cc72de47830820970110d3f, type: 3}
  m_Name: arresting
  m_EditorClassIdentifier: 
  presetName: arresting
  disabled: 0
  messageID: 433e864f-b314-415e-8e0a-45d88ea670dd
  contentDisplay:
  - helpDisplaySetting: 1
    clip: {fileID: 32900000, guid: 8f8d237398a074046adf263debc35112, type: 3}
    image: {fileID: 0}
  - helpDisplaySetting: 2
    clip: {fileID: 32900000, guid: e885f15fa9404194e956946003a92dbd, type: 3}
    image: {fileID: 0}
  - helpDisplaySetting: 2
    clip: {fileID: 32900000, guid: 23f55fb45eecfaa4891a4304640e4e72, type: 3}
    image: {fileID: 0}
