%YAML 1.1
%TAG !u! tag:unity3d.com,2011:
--- !u!114 &11400000
MonoBehaviour:
  m_ObjectHideFlags: 0
  m_CorrespondingSourceObject: {fileID: 0}
  m_PrefabInstance: {fileID: 0}
  m_PrefabAsset: {fileID: 0}
  m_GameObject: {fileID: 0}
  m_Enabled: 1
  m_EditorHideFlags: 0
  m_Script: {fileID: 11500000, guid: 35c25a853cc72de47830820970110d3f, type: 3}
  m_Name: breakingandentering
  m_EditorClassIdentifier: 
  presetName: breakingandentering
  disabled: 0
  messageID: 146506b8-f43b-4655-a990-ab7be1416cc1
  contentDisplay:
  - helpDisplaySetting: 0
    clip: {fileID: 32900000, guid: a774274244270624b82cbadc7efcec21, type: 3}
    image: {fileID: 0}
  - helpDisplaySetting: 1
    clip: {fileID: 32900000, guid: 229d026caaa84a340b7326a7fd608067, type: 3}
    image: {fileID: 0}
  - helpDisplaySetting: 0
    clip: {fileID: 32900000, guid: 17e204a522cb57c4ca836e87946eb6bb, type: 3}
    image: {fileID: 0}
  - helpDisplaySetting: 2
    clip: {fileID: 32900000, guid: c56df2e8e2723334685b7da61111242f, type: 3}
    image: {fileID: 0}
  - helpDisplaySetting: 2
    clip: {fileID: 32900000, guid: 6e542ef7acd551c4a85f8225072b8d15, type: 3}
    image: {fileID: 0}
