%YAML 1.1
%TAG !u! tag:unity3d.com,2011:
--- !u!114 &11400000
MonoBehaviour:
  m_ObjectHideFlags: 0
  m_CorrespondingSourceObject: {fileID: 0}
  m_PrefabInstance: {fileID: 0}
  m_PrefabAsset: {fileID: 0}
  m_GameObject: {fileID: 0}
  m_Enabled: 1
  m_EditorHideFlags: 0
  m_Script: {fileID: 11500000, guid: 35c25a853cc72de47830820970110d3f, type: 3}
  m_Name: murders
  m_EditorClassIdentifier: 
  presetName: murders
  disabled: 0
  messageID: 2b5debab-9411-4649-ba82-197917a3b96e
  contentDisplay: []
