%YAML 1.1
%TAG !u! tag:unity3d.com,2011:
--- !u!114 &11400000
MonoBehaviour:
  m_ObjectHideFlags: 0
  m_CorrespondingSourceObject: {fileID: 0}
  m_PrefabInstance: {fileID: 0}
  m_PrefabAsset: {fileID: 0}
  m_GameObject: {fileID: 0}
  m_Enabled: 1
  m_EditorHideFlags: 0
  m_Script: {fileID: 11500000, guid: 35c25a853cc72de47830820970110d3f, type: 3}
  m_Name: sidejobs
  m_EditorClassIdentifier: 
  presetName: sidejobs
  disabled: 0
  messageID: 217ff138-5f79-4d67-8257-532dc6babe4c
  contentDisplay: []
