%YAML 1.1
%TAG !u! tag:unity3d.com,2011:
--- !u!114 &11400000
MonoBehaviour:
  m_ObjectHideFlags: 0
  m_CorrespondingSourceObject: {fileID: 0}
  m_PrefabInstance: {fileID: 0}
  m_PrefabAsset: {fileID: 0}
  m_GameObject: {fileID: 0}
  m_Enabled: 1
  m_EditorHideFlags: 0
  m_Script: {fileID: 11500000, guid: 35c25a853cc72de47830820970110d3f, type: 3}
  m_Name: stealth
  m_EditorClassIdentifier: 
  presetName: stealth
  disabled: 0
  messageID: 53e8fa3a-391d-4829-8058-db10a35f1881
  contentDisplay:
  - helpDisplaySetting: 1
    clip: {fileID: 32900000, guid: 82eef1dd9c83b83419478637f88d28a2, type: 3}
    image: {fileID: 0}
  - helpDisplaySetting: 2
    clip: {fileID: 32900000, guid: 8d6edcff97f2f4d40937dd62e8dba662, type: 3}
    image: {fileID: 0}
