%YAML 1.1
%TAG !u! tag:unity3d.com,2011:
--- !u!114 &11400000
MonoBehaviour:
  m_ObjectHideFlags: 0
  m_CorrespondingSourceObject: {fileID: 0}
  m_PrefabInstance: {fileID: 0}
  m_PrefabAsset: {fileID: 0}
  m_GameObject: {fileID: 0}
  m_Enabled: 1
  m_EditorHideFlags: 0
  m_Script: {fileID: 11500000, guid: 7559a64a9e831bf4cacd0fc9e5cb79a5, type: 3}
  m_Name: 5_StreetJunk_B
  m_EditorClassIdentifier: 
  disable: 0
  presetName: 5_StreetJunk_B
  clusterElements:
  - onlyValidIfPreviousObjectPlaced: 0
    placements:
    - {x: -1, y: -3}
    furnitureClass: {fileID: 11400000, guid: e828b46be97fafe4990fb0b312c133b9, type: 2}
    facing: 1
    importantToCluster: 1
    chanceOfPlacementAttempt: 1
    placementScoreBoost: 20
    useFovBlock: 0
    blockDirection: {x: 0, y: 1}
    maxFOVBlockDistance: 5
    localScale: {x: 1, y: 1, z: 1}
    positionOffset: {x: 0, y: 0, z: 0}
  - onlyValidIfPreviousObjectPlaced: 0
    placements:
    - {x: 1, y: -3}
    furnitureClass: {fileID: 11400000, guid: e828b46be97fafe4990fb0b312c133b9, type: 2}
    facing: 1
    importantToCluster: 0
    chanceOfPlacementAttempt: 1
    placementScoreBoost: 1
    useFovBlock: 0
    blockDirection: {x: 0, y: 1}
    maxFOVBlockDistance: 5
    localScale: {x: 1, y: 1, z: 1}
    positionOffset: {x: 0, y: 0, z: 0}
  - onlyValidIfPreviousObjectPlaced: 0
    placements:
    - {x: 2, y: 2}
    furnitureClass: {fileID: 11400000, guid: e828b46be97fafe4990fb0b312c133b9, type: 2}
    facing: 0
    importantToCluster: 0
    chanceOfPlacementAttempt: 1
    placementScoreBoost: 1
    useFovBlock: 0
    blockDirection: {x: 0, y: 1}
    maxFOVBlockDistance: 5
    localScale: {x: 1, y: 1, z: 1}
    positionOffset: {x: 0, y: 0, z: 0}
  - onlyValidIfPreviousObjectPlaced: 0
    placements:
    - {x: 0, y: 2}
    furnitureClass: {fileID: 11400000, guid: e828b46be97fafe4990fb0b312c133b9, type: 2}
    facing: 0
    importantToCluster: 0
    chanceOfPlacementAttempt: 1
    placementScoreBoost: 1
    useFovBlock: 0
    blockDirection: {x: 0, y: 1}
    maxFOVBlockDistance: 5
    localScale: {x: 1, y: 1, z: 1}
    positionOffset: {x: 0, y: 0, z: 0}
  - onlyValidIfPreviousObjectPlaced: 0
    placements:
    - {x: 2, y: -3}
    furnitureClass: {fileID: 11400000, guid: 53b4010e68463c942b2bb4fe6d115a35, type: 2}
    facing: 1
    importantToCluster: 0
    chanceOfPlacementAttempt: 1
    placementScoreBoost: 1
    useFovBlock: 0
    blockDirection: {x: 0, y: 1}
    maxFOVBlockDistance: 5
    localScale: {x: 1, y: 1, z: 1}
    positionOffset: {x: 0, y: 0, z: 0}
  - onlyValidIfPreviousObjectPlaced: 0
    placements:
    - {x: -1, y: 2}
    furnitureClass: {fileID: 11400000, guid: 53b4010e68463c942b2bb4fe6d115a35, type: 2}
    facing: 0
    importantToCluster: 0
    chanceOfPlacementAttempt: 1
    placementScoreBoost: 1
    useFovBlock: 0
    blockDirection: {x: 0, y: 1}
    maxFOVBlockDistance: 5
    localScale: {x: 1, y: 1, z: 1}
    positionOffset: {x: 0, y: 0, z: 0}
  - onlyValidIfPreviousObjectPlaced: 0
    placements:
    - {x: 0, y: -3}
    furnitureClass: {fileID: 11400000, guid: 63b821640b5a56b41834c30fd923d879, type: 2}
    facing: 1
    importantToCluster: 0
    chanceOfPlacementAttempt: 1
    placementScoreBoost: 1
    useFovBlock: 0
    blockDirection: {x: 0, y: 1}
    maxFOVBlockDistance: 5
    localScale: {x: 1, y: 1, z: 1}
    positionOffset: {x: 0, y: 0, z: 0}
  - onlyValidIfPreviousObjectPlaced: 0
    placements:
    - {x: 2, y: -3}
    furnitureClass: {fileID: 11400000, guid: a2913539e80cd624890c18adcdf9cae8, type: 2}
    facing: 1
    importantToCluster: 0
    chanceOfPlacementAttempt: 1
    placementScoreBoost: 1
    useFovBlock: 0
    blockDirection: {x: 0, y: 1}
    maxFOVBlockDistance: 5
    localScale: {x: 1, y: 1, z: 1}
    positionOffset: {x: 0, y: 0, z: 0}
  placementChance: 1
  roomPriority: 10.5
  modifyPriorityTraits: []
  modifyPlacementChanceTraits: []
  essentialFurniture: 0
  updatePreCalculated: 0
  calculatedMinRoomSize: 1
  minimumZeroNodeWallCount: 0
  maximumZeroNodeWallCount: 4
  zeroNodeClasses: []
  minimumRoomSize: 14
  useMaximumRoomSize: 0
  maximumRoomSize: 999
  useCustomZeroNodeMinWallCount: 0
  customZeroNodeMinWallCount: 0
  useCustomZeroNodeMaxWallCount: 1
  customZeroNodeMaxWallCount: 0
  zeroNodeWallRules: []
  allowedInOpenPlan: 0
  allowInResidential: 0
  allowInCompanies: 0
  allowOnStreets: 1
  coastalOnly: 0
  limitToDistricts: 1
  allowedInDistricts:
  - {fileID: 11400000, guid: 8b3f353f27e0537458ec542ee154b003, type: 2}
  - {fileID: 11400000, guid: b78700d5a0aa6da4e9a690055be01ab2, type: 2}
  - {fileID: 11400000, guid: 79e5715c0f6bf164ebb033a2de16a409, type: 2}
  banFromDistricts: 0
  notAllowedInDistricts: []
  skipIfNoAddressInhabitants: 0
  allowedRoomFilters:
  - {fileID: 11400000, guid: e60bea4a2d187f047a1860600532ec92, type: 2}
  limitPerRoom: 1
  maximumPerRoom: 2
  limitPerAddress: 0
  maximumPerAddress: 1
  limitToFloor: 1
  allowedOnFloor: 0
  limitPerBuilding: 0
  maximumPerBuilding: 1
  limitPerCity: 0
  maximumPerCity: 1
  wealthLimit: 0
  minimumWealth: 0
  maximumWealth: 1
  useRoomGrub: 0
  minimumGrub: 0
  maximumGrub: 1
  useBuildingResidences: 0
  minimumResidences: 0
  maximumResidences: 40
  removeClustersOnSuccess: []
  removeClustersOnFail: []
  securityDoor: 0
  isBreakerBox: 0
  enableDebug: 0
