%YAML 1.1
%TAG !u! tag:unity3d.com,2011:
--- !u!114 &11400000
MonoBehaviour:
  m_ObjectHideFlags: 0
  m_CorrespondingSourceObject: {fileID: 0}
  m_PrefabInstance: {fileID: 0}
  m_PrefabAsset: {fileID: 0}
  m_GameObject: {fileID: 0}
  m_Enabled: 1
  m_EditorHideFlags: 0
  m_Script: {fileID: 11500000, guid: 7559a64a9e831bf4cacd0fc9e5cb79a5, type: 3}
  m_Name: 7_JunctionStreetLights
  m_EditorClassIdentifier: 
  disable: 0
  presetName: 7_JunctionStreetLights
  clusterElements:
  - onlyValidIfPreviousObjectPlaced: 0
    placements:
    - {x: 2, y: 2}
    furnitureClass: {fileID: 11400000, guid: 15abac75a5360fe44996712459c2db3d, type: 2}
    facing: 1
    importantToCluster: 1
    chanceOfPlacementAttempt: 1
    placementScoreBoost: 1
    useFovBlock: 0
    blockDirection: {x: 0, y: 1}
    maxFOVBlockDistance: 5
    localScale: {x: 1, y: 1, z: 1}
    positionOffset: {x: 0, y: 0, z: 0}
  - onlyValidIfPreviousObjectPlaced: 0
    placements:
    - {x: -3, y: 2}
    furnitureClass: {fileID: 11400000, guid: 15abac75a5360fe44996712459c2db3d, type: 2}
    facing: 2
    importantToCluster: 1
    chanceOfPlacementAttempt: 1
    placementScoreBoost: 1
    useFovBlock: 0
    blockDirection: {x: 0, y: 1}
    maxFOVBlockDistance: 5
    localScale: {x: 1, y: 1, z: 1}
    positionOffset: {x: 0, y: 0, z: 0}
  - onlyValidIfPreviousObjectPlaced: 0
    placements:
    - {x: 2, y: -3}
    furnitureClass: {fileID: 11400000, guid: 15abac75a5360fe44996712459c2db3d, type: 2}
    facing: 3
    importantToCluster: 1
    chanceOfPlacementAttempt: 1
    placementScoreBoost: 1
    useFovBlock: 0
    blockDirection: {x: 0, y: 1}
    maxFOVBlockDistance: 5
    localScale: {x: 1, y: 1, z: 1}
    positionOffset: {x: 0, y: 0, z: 0}
  - onlyValidIfPreviousObjectPlaced: 0
    placements:
    - {x: -3, y: -3}
    furnitureClass: {fileID: 11400000, guid: 15abac75a5360fe44996712459c2db3d, type: 2}
    facing: 0
    importantToCluster: 1
    chanceOfPlacementAttempt: 1
    placementScoreBoost: 1
    useFovBlock: 0
    blockDirection: {x: 0, y: 1}
    maxFOVBlockDistance: 5
    localScale: {x: 1, y: 1, z: 1}
    positionOffset: {x: 0, y: 0, z: 0}
  placementChance: 1
  roomPriority: 10.7
  modifyPriorityTraits: []
  modifyPlacementChanceTraits: []
  essentialFurniture: 0
  updatePreCalculated: 0
  calculatedMinRoomSize: 4
  minimumZeroNodeWallCount: 0
  maximumZeroNodeWallCount: 4
  zeroNodeClasses: []
  minimumRoomSize: 36
  useMaximumRoomSize: 0
  maximumRoomSize: 99
  useCustomZeroNodeMinWallCount: 0
  customZeroNodeMinWallCount: 0
  useCustomZeroNodeMaxWallCount: 1
  customZeroNodeMaxWallCount: 0
  zeroNodeWallRules: []
  allowedInOpenPlan: 0
  allowInResidential: 0
  allowInCompanies: 0
  allowOnStreets: 1
  coastalOnly: 0
  limitToDistricts: 0
  allowedInDistricts: []
  banFromDistricts: 0
  notAllowedInDistricts: []
  skipIfNoAddressInhabitants: 0
  allowedRoomFilters:
  - {fileID: 11400000, guid: f4fd0596e8315f34f9138d71e8ce6078, type: 2}
  limitPerRoom: 1
  maximumPerRoom: 3
  limitPerAddress: 1
  maximumPerAddress: 3
  limitToFloor: 1
  allowedOnFloor: 0
  limitPerBuilding: 0
  maximumPerBuilding: 1
  limitPerCity: 0
  maximumPerCity: 1
  wealthLimit: 0
  minimumWealth: 0
  maximumWealth: 1
  useRoomGrub: 0
  minimumGrub: 0
  maximumGrub: 1
  useBuildingResidences: 0
  minimumResidences: 0
  maximumResidences: 40
  removeClustersOnSuccess: []
  removeClustersOnFail: []
  securityDoor: 0
  isBreakerBox: 0
  enableDebug: 0
