"Game Reference Key","Notes","Displayed Text","Alternate Text","Frequency","Requires Suffix","Misc."
"[The key used by the game to find strings]","[Not loaded into the game, for explanation only]","[The displayed string in-game]","[Alternate displayed string, eg. Nickname]","[For lists]","[Does this require a suffix for naming?]","[Miscellaneous]"
"— ","— ","— ","— ","— ","— ","— "
"male","","мужчина","",,"","10:31 01/12/2022"
"female","","женщина","",,"","10:31 01/12/2022"
"nonbinary","","небинарная персона","",,"","10:31 01/12/2022"
"hshort","","низкий","",,"","10:31 01/12/2022"
"haverage","","средний","",,"","10:31 01/12/2022"
"tall","","высокий","",,"","10:31 01/12/2022"
"verytall","","очень высокий","",,"","10:31 01/12/2022"
"veryshort","","очень низкий","",,"","10:31 01/12/2022"
"he","","он","",,"","10:31 01/12/2022"
"him","","его","",,"","10:31 01/12/2022"
"his","","его","",,"","10:31 01/12/2022"
"she","","она","",,"","10:31 01/12/2022"
"her","","ее","",,"","10:31 01/12/2022"
"they","","он","",,"","10:31 01/12/2022"
"they_F","","она","",,"","10:31 01/12/2022"
"they_NB","","она","",,"","10:31 01/12/2022"
"them","","ему","",,"","10:31 01/12/2022"
"them_F","","ей","",,"","10:31 01/12/2022"
"them_NB","","ей","",,"","10:31 01/12/2022"
"their","","его","",,"","10:31 01/12/2022"
"their_F","","ее","",,"","10:31 01/12/2022"
"their_NB","","ее","",,"","10:31 01/12/2022"
"bald","","нет волос","",,"","10:31 01/12/2022"
"longhair","","длинные","",,"","10:31 01/12/2022"
"shorthair","","короткие","",,"","10:31 01/12/2022"
"greeneyes","","зеленые","",,"","10:31 01/12/2022"
"blueeyes","","голубые","",,"","10:31 01/12/2022"
"greyeyes","","серые","",,"","10:31 01/12/2022"
"browneyes","","карие","",,"","10:31 01/12/2022"
"skinny","","худощавое","",,"","10:31 01/12/2022"
"average","","среднее","",,"","10:31 01/12/2022"
"overweight","","полное","",,"","9:32 12/04/2023"
"muscular","","крепкое","",,"","10:31 01/12/2022"
"adult","","зрелый","",,"","10:31 01/12/2022"
"youngadult","","молодой","",,"","10:31 01/12/2022"
"red","","красные","",,"","10:31 01/12/2022"
"brown","","каштановые","",,"","10:31 01/12/2022"
"blonde","","светлые","",,"","10:31 01/12/2022"
"purple","","фиолетовые","",,"","10:31 01/12/2022"
"black","","черные","",,"","10:31 01/12/2022"
"ginger","","рыжие","",,"","10:31 01/12/2022"
"white","","белые","",,"","10:31 01/12/2022"
"green","","зеленые","",,"","10:31 01/12/2022"
"grey","","серые","",,"","10:31 01/12/2022"
"blue","","синие","",,"","10:31 01/12/2022"
"pink","","розовые","",,"","10:31 01/12/2022"
"lb","","lb","",,"","10:31 01/12/2022"
"shoe size","","размер обуви","",,"","10:31 01/12/2022"
"shoe size estimate","","приблизительно","",,"","10:31 01/12/2022"
"mr","","Мистер","",,"","10:31 01/12/2022"
"mx","","Мисс","",,"","10:31 01/12/2022"
"ms","","Мисс","",,"","10:31 01/12/2022"
"age","","Возраст","",,"","10:31 01/12/2022"
"date of birth","","Дата рождения","",,"","10:31 01/12/2022"
"gender","","Пол","",,"","10:31 01/12/2022"
"height","","Рост","",,"","10:31 01/12/2022"
"build","","Телосложение","",,"","10:31 01/12/2022"
"hair","","Волосы","",,"","10:31 01/12/2022"
"eyes","","Глаза","",,"","10:31 01/12/2022"
"glasses","","Очки","",,"","10:31 01/12/2022"
"yes","","Да","",,"","10:31 01/12/2022"
"facial hair","","Усы и борода","",,"","10:31 01/12/2022"
"blood type","","Группа крови","",,"","10:31 01/12/2022"
"address","","Адрес","",,"","10:31 01/12/2022"
"workplace","","Место работы","",,"","10:31 01/12/2022"
"job title","","Должность","",,"","10:31 01/12/2022"
"work hours","","Часы работы","",,"","10:31 01/12/2022"
"salary","","Зарплата","",,"","10:31 01/12/2022"
"additional notes","","Дополнительные заметки","",,"","10:31 01/12/2022"
"no","","Нет","",,"","10:31 01/12/2022"
"profile","","Профиль","",,"","10:31 01/12/2022"
"interest","","Интерес","",,"","10:31 01/12/2022"
"interest-nature","","Природа","",,"","10:31 01/12/2022"
"none","","Нет","",,"","10:31 01/12/2022"
"partner first name","","Имя любимого человека","",,"","10:31 01/12/2022"
"first name initial","","Первая буква имени","",,"","10:31 01/12/2022"
"handwriting","","Почерк","",,"","10:31 01/12/2022"
"affliction","","Недуг","",,"","10:31 01/12/2022"
"affliction-highbloodpressure","","высокое давление","",,"","10:31 01/12/2022"
"interest-whiskey","","виски","",,"","10:31 01/12/2022"
"affliction-migraines","","мигрень","",,"","10:31 01/12/2022"
"partner job","","Работа любимого человека","",,"","10:31 01/12/2022"
"interest-music","","Музыка","",,"","10:31 01/12/2022"
"lives on the ","","Этаж проживания","",,"","10:31 01/12/2022"
"telephone","","Телефон","",,"","10:31 01/12/2022"
"works in ","","Место работы","",,"","10:31 01/12/2022"
"voice id","","Голосовой ID","",,"","10:31 01/12/2022"
"passcode","","Пароль","",,"","10:31 01/12/2022"
"interest-baseball","","Бейсбол","",,"","10:31 01/12/2022"
"lives in ","","Место проживания","",,"","10:31 01/12/2022"
"location","","Место","",,"","10:31 01/12/2022"
"blueprints","","Чертежи","",,"","10:31 01/12/2022"
"type","","Тип","",,"","10:31 01/12/2022"
"belongs to","","Принадлежит","",,"","10:31 01/12/2022"
"name","","Имя","",,"","10:31 01/12/2022"
"photo","","Фото","",,"","10:31 01/12/2022"
"fingerprint","","Отпечаток пальца","",,"","10:31 01/12/2022"
"first name","","Имя","",,"","10:31 01/12/2022"
"surname","","Фамилия","",,"","10:31 01/12/2022"
"affliction-alcoholic","","алкоголизм","",,"","10:31 01/12/2022"
"member","","член","",,"","10:31 01/12/2022"
"interest-houseplants","","комнатные растения","",,"","10:31 01/12/2022"
"old","","пожилой","",,"","10:31 01/12/2022"
"affliction-chronicpain","","хроническая боль","",,"","10:31 01/12/2022"
"apos","","A+","",,"","10:31 01/12/2022"
"aneg","","A-","",,"","10:31 01/12/2022"
"bpos","","B+","",,"","10:31 01/12/2022"
"bneg","","B-","",,"","10:31 01/12/2022"
"opos","","O+","",,"","10:31 01/12/2022"
"oneg","","O-","",,"","10:31 01/12/2022"
"abpos","","AB+","",,"","10:31 01/12/2022"
"abneg","","AB-","",,"","10:31 01/12/2022"
"?","","?","",,"","10:31 01/12/2022"
"affliction-athsma","","астма","",,"","10:31 01/12/2022"
"affliction-depression","","депрессия","",,"","10:31 01/12/2022"
"affliction-diabetic","","диабет","",,"","10:31 01/12/2022"
"affliction-hardofhearing","","потеря слуха","",,"","10:31 01/12/2022"
"affliction-insomnia","","бессонница","",,"","10:31 01/12/2022"
"interest-americanfootball","","американский футбол","",,"","10:31 01/12/2022"
"interest-architecture","","архитектура","",,"","10:31 01/12/2022"
"interest-balletdancing","","балет","",,"","10:31 01/12/2022"
"interest-beer","","пиво","",,"","10:31 01/12/2022"
"interest-bodybuilding","","бодибилдинг","",,"","10:31 01/12/2022"
"interest-bookworm","","книги","",,"","10:31 01/12/2022"
"interest-calligraphy","","каллиграфия","",,"","10:31 01/12/2022"
"interest-chemistry","","химия","",,"","10:31 01/12/2022"
"interest-chess","","шахматы","",,"","10:31 01/12/2022"
"interest-classicliterature","","классическая литература","",,"","10:31 01/12/2022"
"interest-coffeeconnoisseur","","кофе","",,"","10:31 01/12/2022"
"interest-collectingmemorabilia","","коллекционирование сувениров","",,"","10:31 01/12/2022"
"interest-creativewriting","","литературное творчество","",,"","10:31 01/12/2022"
"interest-diy","","DIY","",,"","10:31 01/12/2022"
"interest-drawing","","черчение","",,"","10:31 01/12/2022"
"interest-guns","","огнестрельное оружие","",,"","10:31 01/12/2022"
"interest-ikebana","","икебана","",,"","10:31 01/12/2022"
"interest-juggling","","жонглирование","",,"","10:31 01/12/2022"
"interest-knitting","","вязание","",,"","10:31 01/12/2022"
"interest-meatlover","","мясо","",,"","10:31 01/12/2022"
"interest-painting","","рисование","",,"","10:31 01/12/2022"
"interest-photography","","фотография","",,"","10:31 01/12/2022"
"interest-poetry","","поэзия","",,"","10:31 01/12/2022"
"interest-soccer","","футбол","",,"","10:31 01/12/2022"
"interest-sports","","спорт","",,"","10:31 01/12/2022"
"interest-tarot","","карты таро","",,"","10:31 01/12/2022"
"interest-teaconnoisseur","","чай","",,"","10:31 01/12/2022"
"interest-tennis","","теннис","",,"","10:31 01/12/2022"
"interest-violin","","скрипка","",,"","10:31 01/12/2022"
"interest-vodka","","водка","",,"","10:31 01/12/2022"
"interest-weightlifting","","тяжелая атлетика","",,"","10:31 01/12/2022"
"interest-wine","","вино","",,"","10:31 01/12/2022"
"district","","Район","",,"","9:32 12/04/2023"
"sample","","Образец","",,"","9:32 12/04/2023"
"partner is member","","Партнер состоит в организации","",,"","14:25 11/09/2023"
