%YAML 1.1
%TAG !u! tag:unity3d.com,2011:
--- !u!114 &11400000
MonoBehaviour:
  m_ObjectHideFlags: 0
  m_CorrespondingSourceObject: {fileID: 0}
  m_PrefabInstance: {fileID: 0}
  m_PrefabAsset: {fileID: 0}
  m_GameObject: {fileID: 0}
  m_Enabled: 1
  m_EditorHideFlags: 0
  m_Script: {fileID: 11500000, guid: df34c098fe792944a8bdb8310fc6f3c5, type: 3}
  m_Name: RosesOnTheStairs
  m_EditorClassIdentifier: 
  presetName: RosesOnTheStairs
  bookName: RosesOnTheStairs
  author: Portia Truelove
  genre: 03000000
  isSeries: 1
  seriesTag: 2
  seriesNumber: 2
  common: 0.76
  baseChance: 0.1
  pickRules:
  - rule: 0
    traitList:
    - {fileID: 11400000, guid: 72d4b3330c73b654fbb3ec3793d388ba, type: 2}
    mustPassForApplication: 0
    baseChance: 0.789
    reasonChance: 0
  - rule: 0
    traitList:
    - {fileID: 11400000, guid: d03cdf0e1164cde49862e355cd74398d, type: 2}
    - {fileID: 11400000, guid: 2d765f3f58af73f448dda861768a1f41, type: 2}
    - {fileID: 11400000, guid: fc9f82b822d38354ab006975b2264ff2, type: 2}
    mustPassForApplication: 0
    baseChance: 0.229
    reasonChance: 0
  - rule: 0
    traitList:
    - {fileID: 11400000, guid: 083cc78edcdb88f4496f507ec9741bd8, type: 2}
    mustPassForApplication: 0
    baseChance: 0.3
    reasonChance: 0
  spawnRule: 0
  bookMesh: {fileID: 7032977736774662889, guid: 9362eee85b3d03647b7d03fd1987c389,
    type: 3}
  bookMaterial: {fileID: 2100000, guid: be4f14da1e0c92148b2c6e26bc4b755a, type: 2}
  ddsMessage: 6ed4d426-6652-40dd-92b9-714573faab38
