%YAML 1.1
%TAG !u! tag:unity3d.com,2011:
--- !u!114 &11400000
MonoBehaviour:
  m_ObjectHideFlags: 0
  m_CorrespondingSourceObject: {fileID: 0}
  m_PrefabInstance: {fileID: 0}
  m_PrefabAsset: {fileID: 0}
  m_GameObject: {fileID: 0}
  m_Enabled: 1
  m_EditorHideFlags: 0
  m_Script: {fileID: 11500000, guid: 991197f4d8bd3ae49a4ce3e6323f0100, type: 3}
  m_Name: AIPickUpItemFromFloor
  m_EditorClassIdentifier: 
  presetName: AIPickUpItemFromFloor
  defaultKey: 0
  debug: 0
  inputPriority: 0
  unavailableWhenItemSelected: 0
  unavailableWhenItemsSelected: []
  onlyAvailableWhenItemSelected: 0
  availableWhenItemsSelected: []
  holsterCurrentItemOnAction: 0
  disableUIDisplay: 0
  actionLocation: 0
  confirmActionLocation: 0
  onUnableToFindLocation: 2
  searchSetting: 0
  onUsePointBusy: 1
  usageSlot: 0
  robberyPriorityMultiplier: 0
  avoidRepeatingInteractables: 0
  filterSearchUsingRoomType: 0
  searchRoomType: []
  limitSearchToGoalLocation: 0
  findOverrideWithHome: 0
  requiresTelephone: 0
  requiresTelephoneNoCall: 0
  activationRequiresConsumable: 0
  bannedRooms: 0
  completableAction: 1
  minutesTakenRange: {x: 0.2, y: 0.2}
  completeOnSeeIllegal: 0
  repeatOnComplete: 0
  repeatWhileHavingConsumables: 0
  requiresForcedUpdate: 0
  dontUpdateGoalPriorityWhileActive: 0
  dontUpdateGoalPriorityFor: 0
  limitTickRate: 0
  minimumTickRate: 0
  maximumTickRate: 2
  dontRemoveOnRefresh: 0
  nonRefreshable: 0
  useLOSCheck: 0
  cancelIfNonValidMugging: 0
  skipIfAIIsInState: 0
  skipIfReaction: 0
  skipIfGuestPass: 0
  facing: 2
  lookAround: 0
  cancelIfPersuitTargetNotInRange: 0
  facePlayerWhileTalkingTo: 0
  changeIdleOnActivate: 1
  idleAnimationOnActivate: 0
  changeIdleOnArrival: 1
  idleAnimationOnArrival: 17
  changeIdleOnDeactivate: 1
  idleAnimationOnDeactivate: 0
  changeIdleOnComplete: 1
  idleAnimationOnComplete: 0
  changeArmsOnActivate: 0
  armsAnimationOnActivate: 0
  changeArmsOnArrival: 1
  armsAnimationOnArrival: 0
  changeArmsOnDeactivate: 0
  armsAnimationOnDeactivate: 0
  changeArmsOnComplete: 0
  armsAnimationOnComplete: 0
  lying: 0
  useCurrentConsumable: 0
  progressNourishment: 0
  progressHydration: 0
  progressAlertness: 0
  progressEnergy: 0
  progressExcitement: 0
  progressChores: 0
  progressHygeiene: 0
  progressBladder: 0
  progressHeat: 0
  progressDrunk: 0
  progressBreath: 0
  progressPoisoned: 0
  overtimeNourishment: 0
  overtimeHydration: 0
  overtimeAlertness: 0
  overtimeEnergy: 0
  overtimeExcitement: 0
  overtimeChores: 0
  overtimeHygiene: 0
  overtimeBladder: 0
  overtimeHeat: 0
  overtimeDrunk: 0
  overtimeBreath: 0
  overtimePoison: 0
  useInvestigationUrgency: 0
  forceRun: 0
  runIfSeesPlayer: 0
  socialRules: 0
  spookAction: 0
  disableSightingUpdates: 0
  attackPersuitTargetOnProximity: 0
  throwObjectsAtTarget: 1
  useCombatPose: 0
  onlyUseCombatPoseWithEscalationOne: 1
  sleepOnArrival: 0
  uninteruptableWhileAtLocation: 0
  progressVmailThreads: 0
  disableConversationTriggers: 0
  exitConversationOnActivate: 0
  forcedActive: []
  forcedActionsOnArrival: []
  forcedActionsOnComplete: []
  forcedActionsSearchLevel: 0
  executeCompleteActionsOnEnd: 0
  executeCompleteActionsOnEndIfArrived: 0
  executeThisOnComplete: 1
  switchStatesOnEnd: []
  tamperAction: 0
  tamperResetAction: 0
  canFallAsleep: 0
  fallAsleepAfterMinimum: 20
  checkActionAgainstState: []
  forceReactionState: 0
  setReactionState: 0
  ignoreLockedDoors: 0
  breakDownDoors: 0
  doorsAllowed: 1
  deactivateAllowed: 1
  repeatDelayOnActionFail: 0
  repeatDelayOnActionSuccess: 0
  turnAllGamelocationLightsOff: 0
  overrideGoalLightRule: 0
  onlyOverrideIfAtGamelocation: 1
  lightingBehaviour: []
  overrideGoalDoorRule: 0
  doorRule: 0
  onArrivalSound: {fileID: 0}
  isLoop: 0
  soundDelay: 0
  outdoorClothingCheck: 0
  specificOutfitOnActivate: 0
  allowedOutfitOnActivate: 5
  makeClothedOnActivate: 0
  specificOutfitOnArrive: 0
  allowedOutfitOnArrive: 5
  makeClothedOnArrive: 0
  specificOutfitOnDeactivate: 0
  allowedOutfitOnDeactivate: 0
  makeClothedOnDeactivate: 0
  specificOutfitOnComplete: 0
  allowedOutfitOnComplete: 5
  makeClothedOnComplete: 0
  setExpressionOnActivate: 1
  activateExpression: 3
  setExpressionOnArrive: 1
  arriveExpression: 0
  setExpressionOnDeactivate: 0
  deactivateExpression: 0
  setExpressionOnComplete: 0
  completeExpression: 0
  allowItems: 0
  enableCustomItem: 0
  itemRight: {fileID: 0}
  itemRightLocalPos: {x: 0, y: 0, z: 0}
  itemRightLocalEuler: {x: 0, y: 0, z: 0}
  itemLeft: {fileID: 0}
  itemLeftLocalPos: {x: 0, y: 0, z: 0}
  itemLeftLocalEuler: {x: 0, y: 0, z: 0}
  spawnCustomItemOn: 0
  destroyCustomItemOn: 3
  requiresCarryAnimation: 0
  overrideCarryAnimation: 1
  chanceOfOnTrigger: 1
  onTriggerBark: 17000000
  chanceOfWhileJourney: 0.5
  whileJourneyBark: 
  chanceOfOnArrival: 0.75
  onArrivalBark: 
  chanceOfWhileArrived: 0.5
  mustSeeOtherCitizen: 0
  whileArrivedBark: 
  chanceOfOnComplete: 0.5
  onCompleteBark: 
