%YAML 1.1
%TAG !u! tag:unity3d.com,2011:
--- !u!114 &11400000
MonoBehaviour:
  m_ObjectHideFlags: 0
  m_CorrespondingSourceObject: {fileID: 0}
  m_PrefabInstance: {fileID: 0}
  m_PrefabAsset: {fileID: 0}
  m_GameObject: {fileID: 0}
  m_Enabled: 1
  m_EditorHideFlags: 0
  m_Script: {fileID: 11500000, guid: 991197f4d8bd3ae49a4ce3e6323f0100, type: 3}
  m_Name: GoToEnforcer
  m_EditorClassIdentifier: 
  presetName: GoToEnforcer
  defaultKey: 0
  debug: 0
  inputPriority: 0
  unavailableWhenItemSelected: 0
  unavailableWhenItemsSelected: []
  onlyAvailableWhenItemSelected: 0
  availableWhenItemsSelected: []
  holsterCurrentItemOnAction: 0
  disableUIDisplay: 0
  actionLocation: 5
  confirmActionLocation: 1
  onUnableToFindLocation: 0
  searchSetting: 2
  onUsePointBusy: 4
  usageSlot: 0
  robberyPriorityMultiplier: 0
  avoidRepeatingInteractables: 0
  filterSearchUsingRoomType: 0
  searchRoomType: []
  limitSearchToGoalLocation: 1
  findOverrideWithHome: 0
  requiresTelephone: 0
  requiresTelephoneNoCall: 0
  activationRequiresConsumable: 0
  bannedRooms: 0
  completableAction: 1
  minutesTakenRange: {x: 1, y: 1}
  completeOnSeeIllegal: 0
  repeatOnComplete: 0
  repeatWhileHavingConsumables: 0
  requiresForcedUpdate: 0
  dontUpdateGoalPriorityWhileActive: 1
  dontUpdateGoalPriorityFor: 10
  limitTickRate: 1
  minimumTickRate: 4
  maximumTickRate: 4
  dontRemoveOnRefresh: 0
  nonRefreshable: 0
  useLOSCheck: 0
  cancelIfNonValidMugging: 0
  skipIfAIIsInState: 0
  skipIfReaction: 0
  skipIfGuestPass: 0
  facing: 0
  lookAround: 1
  cancelIfPersuitTargetNotInRange: 0
  facePlayerWhileTalkingTo: 1
  changeIdleOnActivate: 1
  idleAnimationOnActivate: 0
  changeIdleOnArrival: 0
  idleAnimationOnArrival: 0
  changeIdleOnDeactivate: 0
  idleAnimationOnDeactivate: 0
  changeIdleOnComplete: 0
  idleAnimationOnComplete: 0
  changeArmsOnActivate: 0
  armsAnimationOnActivate: 0
  changeArmsOnArrival: 0
  armsAnimationOnArrival: 0
  changeArmsOnDeactivate: 0
  armsAnimationOnDeactivate: 0
  changeArmsOnComplete: 0
  armsAnimationOnComplete: 0
  lying: 0
  useCurrentConsumable: 0
  progressNourishment: 0
  progressHydration: 0
  progressAlertness: 0
  progressEnergy: 0
  progressExcitement: 0
  progressChores: 0
  progressHygeiene: 0
  progressBladder: 0
  progressHeat: 0
  progressDrunk: 0
  progressBreath: 0
  progressPoisoned: 0
  overtimeNourishment: 0
  overtimeHydration: 0
  overtimeAlertness: 0
  overtimeEnergy: 0
  overtimeExcitement: 0
  overtimeChores: 0
  overtimeHygiene: 0
  overtimeBladder: 0
  overtimeHeat: 0
  overtimeDrunk: 0
  overtimeBreath: 0
  overtimePoison: 0
  useInvestigationUrgency: 0
  forceRun: 1
  runIfSeesPlayer: 0
  socialRules: 0
  spookAction: 0
  disableSightingUpdates: 0
  attackPersuitTargetOnProximity: 0
  throwObjectsAtTarget: 1
  useCombatPose: 1
  onlyUseCombatPoseWithEscalationOne: 0
  sleepOnArrival: 0
  uninteruptableWhileAtLocation: 0
  progressVmailThreads: 0
  disableConversationTriggers: 1
  exitConversationOnActivate: 1
  forcedActive: []
  forcedActionsOnArrival: []
  forcedActionsOnComplete: []
  forcedActionsSearchLevel: 3
  executeCompleteActionsOnEnd: 0
  executeCompleteActionsOnEndIfArrived: 1
  executeThisOnComplete: 0
  switchStatesOnEnd: []
  tamperAction: 0
  tamperResetAction: 0
  canFallAsleep: 0
  fallAsleepAfterMinimum: 20
  checkActionAgainstState: []
  forceReactionState: 0
  setReactionState: 0
  ignoreLockedDoors: 0
  breakDownDoors: 1
  doorsAllowed: 1
  deactivateAllowed: 1
  repeatDelayOnActionFail: 0
  repeatDelayOnActionSuccess: 0
  turnAllGamelocationLightsOff: 0
  overrideGoalLightRule: 1
  onlyOverrideIfAtGamelocation: 1
  lightingBehaviour:
  - dayRule: 0
    passthroughBehaviour: 7
    destinationBehaviour: 7
    exitRoomBehaviour: 7
    exitGameLocationBehaviour: 7
  overrideGoalDoorRule: 1
  doorRule: 2
  onArrivalSound: {fileID: 0}
  isLoop: 0
  soundDelay: 0
  outdoorClothingCheck: 0
  specificOutfitOnActivate: 1
  allowedOutfitOnActivate: 1
  makeClothedOnActivate: 0
  specificOutfitOnArrive: 0
  allowedOutfitOnArrive: 5
  makeClothedOnArrive: 0
  specificOutfitOnDeactivate: 0
  allowedOutfitOnDeactivate: 0
  makeClothedOnDeactivate: 0
  specificOutfitOnComplete: 0
  allowedOutfitOnComplete: 5
  makeClothedOnComplete: 0
  setExpressionOnActivate: 1
  activateExpression: 1
  setExpressionOnArrive: 0
  arriveExpression: 0
  setExpressionOnDeactivate: 0
  deactivateExpression: 0
  setExpressionOnComplete: 0
  completeExpression: 0
  allowItems: 1
  enableCustomItem: 0
  itemRight: {fileID: 0}
  itemRightLocalPos: {x: 0, y: 0, z: 0}
  itemRightLocalEuler: {x: 0, y: 0, z: 0}
  itemLeft: {fileID: 0}
  itemLeftLocalPos: {x: 0, y: 0, z: 0}
  itemLeftLocalEuler: {x: 0, y: 0, z: 0}
  spawnCustomItemOn: 0
  destroyCustomItemOn: 3
  requiresCarryAnimation: 0
  overrideCarryAnimation: 1
  chanceOfOnTrigger: 0.5
  onTriggerBark: 
  chanceOfWhileJourney: 0.1
  whileJourneyBark: 
  chanceOfOnArrival: 0.5
  onArrivalBark: 
  chanceOfWhileArrived: 0.5
  mustSeeOtherCitizen: 0
  whileArrivedBark: 
  chanceOfOnComplete: 0.5
  onCompleteBark: 
