%YAML 1.1
%TAG !u! tag:unity3d.com,2011:
--- !u!114 &11400000
MonoBehaviour:
  m_ObjectHideFlags: 0
  m_CorrespondingSourceObject: {fileID: 0}
  m_PrefabInstance: {fileID: 0}
  m_PrefabAsset: {fileID: 0}
  m_GameObject: {fileID: 0}
  m_Enabled: 1
  m_EditorHideFlags: 0
  m_Script: {fileID: 11500000, guid: 7559a64a9e831bf4cacd0fc9e5cb79a5, type: 3}
  m_Name: OfficeCubicleX2
  m_EditorClassIdentifier: 
  disable: 0
  presetName: OfficeCubicleX2
  clusterElements:
  - onlyValidIfPreviousObjectPlaced: 0
    placements:
    - {x: 0, y: 0}
    furnitureClass: {fileID: 11400000, guid: 9061401d881f50748859d114bac24d1f, type: 2}
    facing: 0
    importantToCluster: 1
    chanceOfPlacementAttempt: 1
    placementScoreBoost: 0
    useFovBlock: 1
    blockDirection: {x: 0, y: 1}
    maxFOVBlockDistance: 1
    localScale: {x: 1, y: 1, z: 1}
    positionOffset: {x: 0, y: 0, z: 0}
  - onlyValidIfPreviousObjectPlaced: 1
    placements:
    - {x: 0, y: 0}
    furnitureClass: {fileID: 11400000, guid: f2ad42d5859afbe45b6aed135fac2e36, type: 2}
    facing: 0
    importantToCluster: 0
    chanceOfPlacementAttempt: 1
    placementScoreBoost: 0
    useFovBlock: 0
    blockDirection: {x: 0, y: 0}
    maxFOVBlockDistance: 0
    localScale: {x: 1, y: 1, z: 1}
    positionOffset: {x: 0, y: 0, z: 0}
  - onlyValidIfPreviousObjectPlaced: 0
    placements:
    - {x: 1, y: 0}
    furnitureClass: {fileID: 11400000, guid: 9061401d881f50748859d114bac24d1f, type: 2}
    facing: 0
    importantToCluster: 1
    chanceOfPlacementAttempt: 1
    placementScoreBoost: 0
    useFovBlock: 1
    blockDirection: {x: 0, y: 1}
    maxFOVBlockDistance: 0
    localScale: {x: 1, y: 1, z: 1}
    positionOffset: {x: 0, y: 0, z: 0}
  - onlyValidIfPreviousObjectPlaced: 1
    placements:
    - {x: 1, y: 0}
    furnitureClass: {fileID: 11400000, guid: f2ad42d5859afbe45b6aed135fac2e36, type: 2}
    facing: 0
    importantToCluster: 0
    chanceOfPlacementAttempt: 1
    placementScoreBoost: 0
    useFovBlock: 0
    blockDirection: {x: 0, y: 1}
    maxFOVBlockDistance: 0
    localScale: {x: 1, y: 1, z: 1}
    positionOffset: {x: 0, y: 0, z: 0}
  placementChance: 1
  roomPriority: 3
  modifyPriorityTraits: []
  modifyPlacementChanceTraits: []
  essentialFurniture: 0
  updatePreCalculated: 0
  calculatedMinRoomSize: 2
  minimumZeroNodeWallCount: 0
  maximumZeroNodeWallCount: 3
  zeroNodeClasses:
  - {fileID: 11400000, guid: 9061401d881f50748859d114bac24d1f, type: 2}
  minimumRoomSize: 6
  useMaximumRoomSize: 1
  maximumRoomSize: 99
  useMinimumTesselation: 0
  nodesMustBeUnoccupied: 1
  minimumTesselation: {x: 1, y: 1}
  allowedInOpenPlan: 0
  allowInResidential: 0
  allowInCompanies: 1
  allowOnStreets: 0
  coastalOnly: 0
  limitToDistricts: 0
  allowedInDistricts: []
  banFromDistricts: 0
  notAllowedInDistricts: []
  skipIfNoAddressInhabitants: 0
  allowedRoomFilters:
  - {fileID: 11400000, guid: 941451c9596a1ee42ad529f1a4ffe426, type: 2}
  - {fileID: 11400000, guid: 0f0aa887900b2f24fae5fa1e24137032, type: 2}
  limitPerRoom: 1
  maximumPerRoom: 99
  limitPerAddress: 0
  maximumPerAddress: 1
  limitToFloor: 0
  allowedOnFloor: 0
  limitPerBuilding: 0
  maximumPerBuilding: 1
  limitPerCity: 0
  maximumPerCity: 1
  wealthLimit: 0
  minimumWealth: 0
  maximumWealth: 1
  useRoomGrub: 0
  minimumGrub: 0
  maximumGrub: 1
  useBuildingResidences: 0
  minimumResidences: 0
  maximumResidences: 40
  removeClustersOnSuccess: []
  removeClustersOnFail: []
  securityDoor: 0
  isBreakerBox: 0
  enableDebug: 0
