%YAML 1.1
%TAG !u! tag:unity3d.com,2011:
--- !u!114 &11400000
MonoBehaviour:
  m_ObjectHideFlags: 0
  m_CorrespondingSourceObject: {fileID: 0}
  m_PrefabInstance: {fileID: 0}
  m_PrefabAsset: {fileID: 0}
  m_GameObject: {fileID: 0}
  m_Enabled: 1
  m_EditorHideFlags: 0
  m_Script: {fileID: 11500000, guid: e512325a7823fa2428f27f48fedbb6af, type: 3}
  m_Name: FemaleOverweightPolice
  m_EditorClassIdentifier: 
  presetName: FemaleOverweightPolice
  covers: 03000000080000000900000006000000070000000400000005000000010000000e0000000c0000000d0000000a0000000b000000000000000f00000010000000
  outfitCategories: 01000000
  suitableForGenders: 01000000
  suitableForBuilds: 02000000
  tags: 01000000
  enableFacialFeatureSetup: 0
  suitableForHairstyle: 
  isHead: 0
  pupilsOffset: {x: 0, y: 0.15, z: 0.1205}
  eyebrowsOffset: {x: 0, y: 0.1719, z: 0.133}
  mouthOffset: {x: 0, y: 0.045, z: 0.151}
  hatRenderCompatible: 0
  excludeHats: []
  hairRenderMode: 0
  setFootwear: 0
  footwear: 3
  priority: 5
  onlyChooseIfAllModelPartsAreAvailable: 0
  incompatibility: []
  useWealthValues: 0
  minimumWealth: 0.5
  maximumWealth: 1
  baseColourSource: 3
  colourBase: []
  colour1Source: 0
  colour1: []
  colour2Source: 2
  colour2: []
  colour3Source: 0
  colour3: []
  includeInPersonalityMatching: 1
  baseChance: 1
  useHEXACO: 0
  hexaco:
    outputMin: 1
    outputMax: 10
    enableFeminineMasculine: 0
    feminineMasculine: 0
    enableHumility: 0
    humility: 0
    enableEmotionality: 0
    emotionality: 0
    enableExtraversion: 0
    extraversion: 0
    enableAgreeableness: 0
    agreeableness: 0
    enableConscientiousness: 0
    conscientiousness: 0
    enableCreativity: 0
    creativity: 0
  useTraits: 0
  characterTraits: []
  models:
  - prefab: {fileID: 2066807634150804990, guid: 40ea7eca3b7313247a5af54a80489e38,
      type: 3}
    anchor: 3
    offsetPosition: {x: 0, y: -0.275, z: -0.0519}
    offsetEuler: {x: -0, y: -0, z: -0}
    exclusiveAnchorModel: 1
  - prefab: {fileID: 4050906465215828573, guid: aa8bf21f87ec9b94b92d5955c5315b0e,
      type: 3}
    anchor: 8
    offsetPosition: {x: 0, y: 0, z: 0}
    offsetEuler: {x: -0, y: -0, z: -0}
    exclusiveAnchorModel: 1
  - prefab: {fileID: 4050906465215828573, guid: aa8bf21f87ec9b94b92d5955c5315b0e,
      type: 3}
    anchor: 9
    offsetPosition: {x: 0, y: 0, z: 0}
    offsetEuler: {x: -0, y: -0, z: -0}
    exclusiveAnchorModel: 1
  - prefab: {fileID: 700322686845000172, guid: 3792e8be7df9e7a47b6045b38607760f, type: 3}
    anchor: 6
    offsetPosition: {x: 0, y: -0.076, z: 0}
    offsetEuler: {x: -0, y: -0, z: -0}
    exclusiveAnchorModel: 1
  - prefab: {fileID: 700322686845000172, guid: 3792e8be7df9e7a47b6045b38607760f, type: 3}
    anchor: 7
    offsetPosition: {x: 0, y: -0.076, z: 0}
    offsetEuler: {x: -0, y: -0, z: -0}
    exclusiveAnchorModel: 1
  - prefab: {fileID: 2065822379317806842, guid: 2b93110f6c505f441824a533ad3fc449,
      type: 3}
    anchor: 4
    offsetPosition: {x: 0, y: -0.101, z: 0}
    offsetEuler: {x: -0, y: -0, z: -0}
    exclusiveAnchorModel: 1
  - prefab: {fileID: 2065822379317806842, guid: 2b93110f6c505f441824a533ad3fc449,
      type: 3}
    anchor: 5
    offsetPosition: {x: 0, y: -0.101, z: 0}
    offsetEuler: {x: -0, y: -0, z: -0}
    exclusiveAnchorModel: 1
  - prefab: {fileID: 5088312009776825327, guid: 756e7264225da664daf0e243021dda0b,
      type: 3}
    anchor: 1
    offsetPosition: {x: 0, y: 0.06, z: 0.037}
    offsetEuler: {x: -0, y: -0, z: -0}
    exclusiveAnchorModel: 1
  - prefab: {fileID: 3035192719531555386, guid: e3ba47fcb684a5c499d01ed2959b2deb,
      type: 3}
    anchor: 14
    offsetPosition: {x: 0, y: -0.152, z: 0.015}
    offsetEuler: {x: -0, y: -0, z: -0}
    exclusiveAnchorModel: 1
  - prefab: {fileID: 7352656054876243069, guid: 0ed7afafab166a04dba7bb86246b36a6,
      type: 3}
    anchor: 12
    offsetPosition: {x: 0, y: 0, z: 0}
    offsetEuler: {x: -0, y: -0, z: -0}
    exclusiveAnchorModel: 1
  - prefab: {fileID: 7352656054876243069, guid: 0ed7afafab166a04dba7bb86246b36a6,
      type: 3}
    anchor: 13
    offsetPosition: {x: 0, y: 0, z: 0}
    offsetEuler: {x: -0, y: -0, z: -0}
    exclusiveAnchorModel: 1
  - prefab: {fileID: 1189188693458456091, guid: 7bd0036786555544180933a11da357a6,
      type: 3}
    anchor: 10
    offsetPosition: {x: 0, y: 0, z: 0}
    offsetEuler: {x: -0, y: -0, z: -0}
    exclusiveAnchorModel: 1
  - prefab: {fileID: 1189188693458456091, guid: 7bd0036786555544180933a11da357a6,
      type: 3}
    anchor: 11
    offsetPosition: {x: 0, y: 0, z: 0}
    offsetEuler: {x: -0, y: -0, z: -0}
    exclusiveAnchorModel: 1
  - prefab: {fileID: 8181010229995277569, guid: 9911531ce1d1b654b9fe43c0c3c0925e,
      type: 3}
    anchor: 0
    offsetPosition: {x: 0, y: 0, z: 0}
    offsetEuler: {x: -0, y: -0, z: -0}
    exclusiveAnchorModel: 1
  - prefab: {fileID: 660047763863229343, guid: bebc24273222dd14e908eddc1ea24ee8, type: 3}
    anchor: 15
    offsetPosition: {x: 0, y: 0, z: 0}
    offsetEuler: {x: -0, y: -0, z: -0}
    exclusiveAnchorModel: 1
  - prefab: {fileID: 660047763863229343, guid: bebc24273222dd14e908eddc1ea24ee8, type: 3}
    anchor: 16
    offsetPosition: {x: 0, y: 0, z: 0}
    offsetEuler: {x: -0, y: -0, z: -0}
    exclusiveAnchorModel: 1
