%YAML 1.1
%TAG !u! tag:unity3d.com,2011:
--- !u!114 &11400000
MonoBehaviour:
  m_ObjectHideFlags: 0
  m_CorrespondingSourceObject: {fileID: 0}
  m_PrefabInstance: {fileID: 0}
  m_PrefabAsset: {fileID: 0}
  m_GameObject: {fileID: 0}
  m_Enabled: 1
  m_EditorHideFlags: 0
  m_Script: {fileID: 11500000, guid: e512325a7823fa2428f27f48fedbb6af, type: 3}
  m_Name: FemaleOverweightPoufDress
  m_EditorClassIdentifier: 
  presetName: FemaleOverweightPoufDress
  covers: 0400000005000000010000000e0000000a0000000b00000000000000
  outfitCategories: 
  suitableForGenders: 01000000
  suitableForBuilds: 02000000
  tags: 00000000
  enableFacialFeatureSetup: 0
  suitableForHairstyle: 
  isHead: 0
  pupilsOffset: {x: 0, y: 0.15, z: 0.1205}
  eyebrowsOffset: {x: 0, y: 0.1719, z: 0.133}
  mouthOffset: {x: 0, y: 0.045, z: 0.151}
  hatRenderCompatible: 0
  excludeHats: []
  hairRenderMode: 0
  setFootwear: 0
  footwear: 3
  priority: 2
  onlyChooseIfAllModelPartsAreAvailable: 1
  incompatibility:
  - incompatibleIf: 0
    tags: 01000000
    featured: {fileID: 0}
  useWealthValues: 0
  minimumWealth: 0.5
  maximumWealth: 1
  baseColourSource: 3
  colourBase: []
  colour1Source: 1
  colour1:
  - {fileID: 11400000, guid: 623af1cb486750b4a9e1572bf7c99f00, type: 2}
  - {fileID: 11400000, guid: 89788b7491e57224f80da5012810b06a, type: 2}
  colour2Source: 2
  colour2: []
  colour3Source: 1
  colour3:
  - {fileID: 11400000, guid: 623af1cb486750b4a9e1572bf7c99f00, type: 2}
  - {fileID: 11400000, guid: 89788b7491e57224f80da5012810b06a, type: 2}
  includeInPersonalityMatching: 1
  baseChance: 1
  useHEXACO: 0
  hexaco:
    outputMin: 1
    outputMax: 10
    enableFeminineMasculine: 0
    feminineMasculine: 0
    enableHumility: 0
    humility: 0
    enableEmotionality: 0
    emotionality: 0
    enableExtraversion: 0
    extraversion: 0
    enableAgreeableness: 0
    agreeableness: 0
    enableConscientiousness: 0
    conscientiousness: 0
    enableCreativity: 0
    creativity: 0
  useTraits: 0
  characterTraits: []
  models:
  - prefab: {fileID: 230190491765087716, guid: 79043c4cc89548746a6c1bc96bcf1a7c, type: 3}
    anchor: 4
    offsetPosition: {x: 0, y: 0, z: 0}
    offsetEuler: {x: -0, y: -0, z: -0}
    exclusiveAnchorModel: 1
  - prefab: {fileID: 230190491765087716, guid: 79043c4cc89548746a6c1bc96bcf1a7c, type: 3}
    anchor: 5
    offsetPosition: {x: 0, y: 0, z: 0}
    offsetEuler: {x: -0, y: -0, z: -0}
    exclusiveAnchorModel: 1
  - prefab: {fileID: 5621779345271688987, guid: 134e9e5b9d756a64a8995cb7efa157d4,
      type: 3}
    anchor: 1
    offsetPosition: {x: 0, y: 0.015, z: 0}
    offsetEuler: {x: -0, y: -0, z: -0}
    exclusiveAnchorModel: 1
  - prefab: {fileID: 9044686070027387642, guid: 6b1e2b5891549e54aa6bf7e4d701cfbc,
      type: 3}
    anchor: 14
    offsetPosition: {x: 0, y: 0.054, z: 0.0024}
    offsetEuler: {x: -0, y: -0, z: -0}
    exclusiveAnchorModel: 1
  - prefab: {fileID: 3291768063411916439, guid: 59b2aadf9cf373f43b219da825fe17c3,
      type: 3}
    anchor: 10
    offsetPosition: {x: 0.03, y: -0.112, z: -0.045}
    offsetEuler: {x: -0, y: -0, z: -0}
    exclusiveAnchorModel: 1
  - prefab: {fileID: 3291768063411916439, guid: 59b2aadf9cf373f43b219da825fe17c3,
      type: 3}
    anchor: 11
    offsetPosition: {x: 0.03, y: -0.112, z: -0.045}
    offsetEuler: {x: -0, y: -0, z: -0}
    exclusiveAnchorModel: 1
