%YAML 1.1
%TAG !u! tag:unity3d.com,2011:
--- !u!114 &11400000
MonoBehaviour:
  m_ObjectHideFlags: 0
  m_CorrespondingSourceObject: {fileID: 0}
  m_PrefabInstance: {fileID: 0}
  m_PrefabAsset: {fileID: 0}
  m_GameObject: {fileID: 0}
  m_Enabled: 1
  m_EditorHideFlags: 0
  m_Script: {fileID: 11500000, guid: e512325a7823fa2428f27f48fedbb6af, type: 3}
  m_Name: FemaleOverweightRolledUpShirt
  m_EditorClassIdentifier: 
  presetName: FemaleOverweightRolledUpShirt
  covers: 010000000e0000000400000005000000000000000a0000000b0000000c0000000d000000
  outfitCategories: 00000000
  suitableForGenders: 01000000
  suitableForBuilds: 02000000
  tags: 
  enableFacialFeatureSetup: 0
  suitableForHairstyle: 
  isHead: 0
  pupilsOffset: {x: 0, y: 0.15, z: 0.1205}
  eyebrowsOffset: {x: 0, y: 0.1719, z: 0.133}
  mouthOffset: {x: 0, y: 0.045, z: 0.151}
  hatRenderCompatible: 0
  excludeHats: []
  hairRenderMode: 0
  setFootwear: 0
  footwear: 3
  priority: 2
  onlyChooseIfAllModelPartsAreAvailable: 0
  incompatibility: []
  useWealthValues: 0
  minimumWealth: 0.5
  maximumWealth: 1
  baseColourSource: 3
  colourBase: []
  colour1Source: 2
  colour1: []
  colour2Source: 1
  colour2:
  - {fileID: 11400000, guid: b02afa79cd7df394b8745dcf293d8221, type: 2}
  - {fileID: 11400000, guid: 623af1cb486750b4a9e1572bf7c99f00, type: 2}
  - {fileID: 11400000, guid: c0dadb8990475f746acdc0b6c9f1f8c2, type: 2}
  - {fileID: 11400000, guid: e72fd4181c5ab214392aa28773624bb5, type: 2}
  colour3Source: 1
  colour3:
  - {fileID: 11400000, guid: b02afa79cd7df394b8745dcf293d8221, type: 2}
  - {fileID: 11400000, guid: c0dadb8990475f746acdc0b6c9f1f8c2, type: 2}
  - {fileID: 11400000, guid: 623af1cb486750b4a9e1572bf7c99f00, type: 2}
  - {fileID: 11400000, guid: 89788b7491e57224f80da5012810b06a, type: 2}
  includeInPersonalityMatching: 1
  baseChance: 1
  useHEXACO: 0
  hexaco:
    outputMin: 1
    outputMax: 10
    enableFeminineMasculine: 0
    feminineMasculine: 0
    enableHumility: 0
    humility: 0
    enableEmotionality: 0
    emotionality: 0
    enableExtraversion: 0
    extraversion: 0
    enableAgreeableness: 0
    agreeableness: 0
    enableConscientiousness: 0
    conscientiousness: 0
    enableCreativity: 0
    creativity: 0
  useTraits: 0
  characterTraits: []
  models:
  - prefab: {fileID: 696742860167808785, guid: 0132f75e9c2dab344947a37e7a41a583, type: 3}
    anchor: 1
    offsetPosition: {x: 0, y: 0, z: 0}
    offsetEuler: {x: -0, y: 0, z: 0}
    exclusiveAnchorModel: 1
  - prefab: {fileID: 8473590239009750840, guid: dc57e6d068b0fca43a96f685a66bed56,
      type: 3}
    anchor: 14
    offsetPosition: {x: 0, y: 0, z: 0.03}
    offsetEuler: {x: -0, y: 0, z: 0}
    exclusiveAnchorModel: 1
  - prefab: {fileID: 7471197668527611145, guid: 1a9e90f9cf0e92a46afd58a00e191a83,
      type: 3}
    anchor: 4
    offsetPosition: {x: 0.015, y: -0.0975, z: 0.0145}
    offsetEuler: {x: -0, y: 0, z: 0}
    exclusiveAnchorModel: 1
  - prefab: {fileID: 7471197668527611145, guid: 1a9e90f9cf0e92a46afd58a00e191a83,
      type: 3}
    anchor: 5
    offsetPosition: {x: 0.015, y: -0.0975, z: 0.0145}
    offsetEuler: {x: -0, y: 0, z: 0}
    exclusiveAnchorModel: 1
  - prefab: {fileID: 3803394451404233949, guid: 5dc26731b7c3d834faa0d35c7811cc56,
      type: 3}
    anchor: 0
    offsetPosition: {x: 0, y: 0, z: 0}
    offsetEuler: {x: -0, y: 0, z: 0}
    exclusiveAnchorModel: 1
  - prefab: {fileID: 8092054375099565153, guid: b9dbb252c43ba34499b5407dece41da1,
      type: 3}
    anchor: 10
    offsetPosition: {x: 0, y: 0, z: 0}
    offsetEuler: {x: -0, y: 0, z: 0}
    exclusiveAnchorModel: 1
  - prefab: {fileID: 8092054375099565153, guid: b9dbb252c43ba34499b5407dece41da1,
      type: 3}
    anchor: 11
    offsetPosition: {x: 0, y: 0, z: 0}
    offsetEuler: {x: -0, y: 0, z: 0}
    exclusiveAnchorModel: 1
  - prefab: {fileID: 1183241019604315237, guid: 9b613438909a5fa4988f88a92033d81a,
      type: 3}
    anchor: 12
    offsetPosition: {x: 0, y: 0, z: 0}
    offsetEuler: {x: -0, y: 0, z: 0}
    exclusiveAnchorModel: 1
  - prefab: {fileID: 1183241019604315237, guid: 9b613438909a5fa4988f88a92033d81a,
      type: 3}
    anchor: 13
    offsetPosition: {x: 0, y: 0, z: 0}
    offsetEuler: {x: -0, y: 0, z: 0}
    exclusiveAnchorModel: 1
