%YAML 1.1
%TAG !u! tag:unity3d.com,2011:
--- !u!114 &11400000
MonoBehaviour:
  m_ObjectHideFlags: 0
  m_CorrespondingSourceObject: {fileID: 0}
  m_PrefabInstance: {fileID: 0}
  m_PrefabAsset: {fileID: 0}
  m_GameObject: {fileID: 0}
  m_Enabled: 1
  m_EditorHideFlags: 0
  m_Script: {fileID: 11500000, guid: e512325a7823fa2428f27f48fedbb6af, type: 3}
  m_Name: FemaleSkinnyTrenchCoat
  m_EditorClassIdentifier: 
  presetName: FemaleSkinnyTrenchCoat
  covers: 06000000040000000700000005000000010000000e000000
  outfitCategories: 030000000400000005000000
  suitableForGenders: 01000000
  suitableForBuilds: 01000000
  tags: 00000000
  enableFacialFeatureSetup: 0
  suitableForHairstyle: 
  isHead: 0
  pupilsOffset: {x: 0, y: 0.15, z: 0.1205}
  eyebrowsOffset: {x: 0, y: 0.1719, z: 0.133}
  mouthOffset: {x: 0, y: 0.045, z: 0.151}
  hatRenderCompatible: 0
  excludeHats: []
  hairRenderMode: 0
  setFootwear: 0
  footwear: 3
  priority: 4
  onlyChooseIfAllModelPartsAreAvailable: 1
  incompatibility:
  - incompatibleIf: 0
    tags: 00000000
    featured: {fileID: 0}
  useWealthValues: 0
  minimumWealth: 0.5
  maximumWealth: 0.5
  baseColourSource: 3
  colourBase: []
  colour1Source: 1
  colour1:
  - {fileID: 11400000, guid: b02afa79cd7df394b8745dcf293d8221, type: 2}
  - {fileID: 11400000, guid: 1f6aea910751eaa40950362c9d92eb87, type: 2}
  - {fileID: 11400000, guid: 1f6aea910751eaa40950362c9d92eb87, type: 2}
  - {fileID: 11400000, guid: 446e47510ded25442a1870552f9110bb, type: 2}
  colour2Source: 2
  colour2: []
  colour3Source: 5
  colour3: []
  includeInPersonalityMatching: 1
  baseChance: 1
  useHEXACO: 0
  hexaco:
    outputMin: 1
    outputMax: 10
    enableFeminineMasculine: 0
    feminineMasculine: 0
    enableHumility: 0
    humility: 0
    enableEmotionality: 0
    emotionality: 0
    enableExtraversion: 0
    extraversion: 0
    enableAgreeableness: 0
    agreeableness: 0
    enableConscientiousness: 0
    conscientiousness: 0
    enableCreativity: 0
    creativity: 0
  useTraits: 0
  characterTraits: []
  models:
  - prefab: {fileID: 5623864521900825403, guid: 0ec681f3ef4913d4988c7b3f403bcc47,
      type: 3}
    anchor: 6
    offsetPosition: {x: 0, y: 0, z: 0.007}
    offsetEuler: {x: -0, y: -0, z: -0}
    exclusiveAnchorModel: 1
  - prefab: {fileID: 3903159218003784429, guid: eca012dc2c01193499c4692e11cc9f89,
      type: 3}
    anchor: 4
    offsetPosition: {x: -0.03, y: 0, z: 0}
    offsetEuler: {x: -0, y: -0, z: -0}
    exclusiveAnchorModel: 1
  - prefab: {fileID: 5623864521900825403, guid: 0ec681f3ef4913d4988c7b3f403bcc47,
      type: 3}
    anchor: 7
    offsetPosition: {x: 0, y: 0, z: 0.007}
    offsetEuler: {x: -0, y: -0, z: -0}
    exclusiveAnchorModel: 1
  - prefab: {fileID: 3903159218003784429, guid: eca012dc2c01193499c4692e11cc9f89,
      type: 3}
    anchor: 5
    offsetPosition: {x: -0.03, y: 0, z: 0}
    offsetEuler: {x: -0, y: -0, z: -0}
    exclusiveAnchorModel: 1
  - prefab: {fileID: 8195138478074468728, guid: 527f6638885435f4a9c876b92b52a4ab,
      type: 3}
    anchor: 1
    offsetPosition: {x: 0, y: 0.044, z: 0.023}
    offsetEuler: {x: -0, y: -0, z: -0}
    exclusiveAnchorModel: 1
  - prefab: {fileID: 1265170293318622957, guid: 54e293e5856c0ea40882e1843ef0533e,
      type: 3}
    anchor: 14
    offsetPosition: {x: 0, y: -0.164, z: -0.015}
    offsetEuler: {x: -0, y: -0, z: -0}
    exclusiveAnchorModel: 1
  - prefab: {fileID: 2994884485135347684, guid: 9204e11609962764c92c9d0b91b70143,
      type: 3}
    anchor: 10
    offsetPosition: {x: 0, y: -0.173, z: -0.031}
    offsetEuler: {x: -0, y: -0, z: -0}
    exclusiveAnchorModel: 0
  - prefab: {fileID: 7593046729518447210, guid: 8a05c6b50013017418004e664117bfb9,
      type: 3}
    anchor: 11
    offsetPosition: {x: 0, y: -0.173, z: -0.031}
    offsetEuler: {x: -0, y: -0, z: -0}
    exclusiveAnchorModel: 0
