%YAML 1.1
%TAG !u! tag:unity3d.com,2011:
--- !u!114 &11400000
MonoBehaviour:
  m_ObjectHideFlags: 0
  m_CorrespondingSourceObject: {fileID: 0}
  m_PrefabInstance: {fileID: 0}
  m_PrefabAsset: {fileID: 0}
  m_GameObject: {fileID: 0}
  m_Enabled: 1
  m_EditorHideFlags: 0
  m_Script: {fileID: 11500000, guid: e512325a7823fa2428f27f48fedbb6af, type: 3}
  m_Name: MaleSkinnyTShirtBaggy
  m_EditorClassIdentifier: 
  presetName: MaleSkinnyTShirtBaggy
  covers: 0100000004000000050000000e000000
  outfitCategories: 
  suitableForGenders: 00000000
  suitableForBuilds: 00000000
  tags: 
  enableFacialFeatureSetup: 0
  suitableForHairstyle: 
  isHead: 0
  pupilsOffset: {x: 0, y: 0.15, z: 0.1205}
  eyebrowsOffset: {x: 0, y: 0.1719, z: 0.133}
  mouthOffset: {x: 0, y: 0.045, z: 0.151}
  hatRenderCompatible: 0
  excludeHats: []
  hairRenderMode: 0
  setFootwear: 0
  footwear: 3
  priority: 2
  onlyChooseIfAllModelPartsAreAvailable: 0
  incompatibility: []
  useWealthValues: 0
  minimumWealth: 0.5
  maximumWealth: 1
  baseColourSource: 3
  colourBase: []
  colour1Source: 1
  colour1:
  - {fileID: 11400000, guid: 03f85804621d0cc4eb64a9b11f1e076b, type: 2}
  colour2Source: 2
  colour2: []
  colour3Source: 0
  colour3: []
  includeInPersonalityMatching: 1
  baseChance: 1
  useHEXACO: 0
  hexaco:
    outputMin: 1
    outputMax: 10
    enableFeminineMasculine: 0
    feminineMasculine: 0
    enableHumility: 0
    humility: 0
    enableEmotionality: 0
    emotionality: 0
    enableExtraversion: 0
    extraversion: 0
    enableAgreeableness: 0
    agreeableness: 0
    enableConscientiousness: 0
    conscientiousness: 0
    enableCreativity: 0
    creativity: 0
  useTraits: 0
  characterTraits: []
  models:
  - prefab: {fileID: 38892777540571470, guid: 121d380fe018b3c418d51da6a1080a36, type: 3}
    anchor: 1
    offsetPosition: {x: 0, y: 0, z: 0.03}
    offsetEuler: {x: -0, y: -0, z: -0}
    exclusiveAnchorModel: 1
  - prefab: {fileID: 338813857353168934, guid: 909d2f9ffd5a093499d09e632b90e974, type: 3}
    anchor: 4
    offsetPosition: {x: -0.002, y: 0.012, z: 0.0289}
    offsetEuler: {x: -0, y: -0, z: -0}
    exclusiveAnchorModel: 1
  - prefab: {fileID: 338813857353168934, guid: 909d2f9ffd5a093499d09e632b90e974, type: 3}
    anchor: 5
    offsetPosition: {x: -0.002, y: 0.012, z: 0.0289}
    offsetEuler: {x: -0, y: -0, z: -0}
    exclusiveAnchorModel: 1
  - prefab: {fileID: 8006921422539232343, guid: 693bc84610b3a1040950d205aee8fcfa,
      type: 3}
    anchor: 14
    offsetPosition: {x: 0, y: 0, z: 0}
    offsetEuler: {x: -0, y: -0, z: -0}
    exclusiveAnchorModel: 1
