%YAML 1.1
%TAG !u! tag:unity3d.com,2011:
--- !u!114 &11400000
MonoBehaviour:
  m_ObjectHideFlags: 0
  m_CorrespondingSourceObject: {fileID: 0}
  m_PrefabInstance: {fileID: 0}
  m_PrefabAsset: {fileID: 0}
  m_GameObject: {fileID: 0}
  m_Enabled: 1
  m_EditorHideFlags: 0
  m_Script: {fileID: 11500000, guid: e512325a7823fa2428f27f48fedbb6af, type: 3}
  m_Name: MaleAverageSuitJacket
  m_EditorClassIdentifier: 
  presetName: MaleAverageSuitJacket
  covers: 010000000e000000040000000500000006000000070000000a0000000b0000000c0000000d00000000000000
  outfitCategories: 0100000002000000
  suitableForGenders: 00000000
  suitableForBuilds: 0100000003000000
  tags: 
  enableFacialFeatureSetup: 0
  suitableForHairstyle: 
  isHead: 0
  pupilsOffset: {x: 0, y: 0.15, z: 0.1205}
  eyebrowsOffset: {x: 0, y: 0.1719, z: 0.133}
  mouthOffset: {x: 0, y: 0.045, z: 0.151}
  hatRenderCompatible: 0
  excludeHats: []
  hairRenderMode: 0
  setFootwear: 0
  footwear: 3
  priority: 2
  onlyChooseIfAllModelPartsAreAvailable: 0
  incompatibility: []
  useWealthValues: 0
  minimumWealth: 0.5
  maximumWealth: 1
  baseColourSource: 3
  colourBase: []
  colour1Source: 1
  colour1:
  - {fileID: 11400000, guid: 1f6aea910751eaa40950362c9d92eb87, type: 2}
  - {fileID: 11400000, guid: 89788b7491e57224f80da5012810b06a, type: 2}
  - {fileID: 11400000, guid: 446e47510ded25442a1870552f9110bb, type: 2}
  colour2Source: 2
  colour2: []
  colour3Source: 1
  colour3:
  - {fileID: 11400000, guid: 03f85804621d0cc4eb64a9b11f1e076b, type: 2}
  includeInPersonalityMatching: 1
  baseChance: 1
  useHEXACO: 0
  hexaco:
    outputMin: 1
    outputMax: 10
    enableFeminineMasculine: 0
    feminineMasculine: 0
    enableHumility: 0
    humility: 0
    enableEmotionality: 0
    emotionality: 0
    enableExtraversion: 0
    extraversion: 0
    enableAgreeableness: 0
    agreeableness: 0
    enableConscientiousness: 0
    conscientiousness: 0
    enableCreativity: 0
    creativity: 0
  useTraits: 0
  characterTraits: []
  models:
  - prefab: {fileID: 5594325138173840278, guid: ef1952701b9dac14db418c4b1304db9d,
      type: 3}
    anchor: 1
    offsetPosition: {x: 0, y: 0.03, z: 0.01}
    offsetEuler: {x: -0, y: -0, z: -0}
    exclusiveAnchorModel: 1
  - prefab: {fileID: 4992073292476265411, guid: 6cb5158aef75f964b92d9b209f0b5989,
      type: 3}
    anchor: 14
    offsetPosition: {x: 0, y: -0.16, z: 0.0035}
    offsetEuler: {x: -0, y: -0, z: -0}
    exclusiveAnchorModel: 1
  - prefab: {fileID: 6138527939498909582, guid: 13added7039572642b3c5de9da6cd07f,
      type: 3}
    anchor: 4
    offsetPosition: {x: 0, y: -0.11, z: 0}
    offsetEuler: {x: -0, y: -0, z: -0}
    exclusiveAnchorModel: 1
  - prefab: {fileID: 6138527939498909582, guid: 13added7039572642b3c5de9da6cd07f,
      type: 3}
    anchor: 5
    offsetPosition: {x: 0, y: -0.11, z: 0}
    offsetEuler: {x: -0, y: -0, z: -0}
    exclusiveAnchorModel: 1
  - prefab: {fileID: 5009483758380596950, guid: 8bce468f5e27c8049b600f003c318a1d,
      type: 3}
    anchor: 6
    offsetPosition: {x: 0, y: -0.095, z: 0.009}
    offsetEuler: {x: -0, y: -0, z: -0}
    exclusiveAnchorModel: 1
  - prefab: {fileID: 5009483758380596950, guid: 8bce468f5e27c8049b600f003c318a1d,
      type: 3}
    anchor: 7
    offsetPosition: {x: 0, y: -0.095, z: 0.009}
    offsetEuler: {x: -0, y: -0, z: -0}
    exclusiveAnchorModel: 1
  - prefab: {fileID: 2094034324344221303, guid: 65e634a9c0eed9d4182d3fada3f9daaf,
      type: 3}
    anchor: 10
    offsetPosition: {x: 0, y: 0, z: 0}
    offsetEuler: {x: -0, y: -0, z: -0}
    exclusiveAnchorModel: 1
  - prefab: {fileID: 2094034324344221303, guid: 65e634a9c0eed9d4182d3fada3f9daaf,
      type: 3}
    anchor: 11
    offsetPosition: {x: 0, y: 0, z: 0}
    offsetEuler: {x: -0, y: -0, z: -0}
    exclusiveAnchorModel: 1
  - prefab: {fileID: 5272794617038161120, guid: 89d579f0015daec48afeceef745afe5e,
      type: 3}
    anchor: 12
    offsetPosition: {x: 0, y: 0, z: 0}
    offsetEuler: {x: -0, y: -0, z: -0}
    exclusiveAnchorModel: 1
  - prefab: {fileID: 5272794617038161120, guid: 89d579f0015daec48afeceef745afe5e,
      type: 3}
    anchor: 13
    offsetPosition: {x: 0, y: 0, z: 0}
    offsetEuler: {x: -0, y: -0, z: -0}
    exclusiveAnchorModel: 1
  - prefab: {fileID: 707518531538464970, guid: 313df86aa3bc5dc4e83e7b25d0ca62a2, type: 3}
    anchor: 0
    offsetPosition: {x: 0, y: 0, z: 0}
    offsetEuler: {x: -0, y: -0, z: -0}
    exclusiveAnchorModel: 1
