%YAML 1.1
%TAG !u! tag:unity3d.com,2011:
--- !u!114 &11400000
MonoBehaviour:
  m_ObjectHideFlags: 0
  m_CorrespondingSourceObject: {fileID: 0}
  m_PrefabInstance: {fileID: 0}
  m_PrefabAsset: {fileID: 0}
  m_GameObject: {fileID: 0}
  m_Enabled: 1
  m_EditorHideFlags: 0
  m_Script: {fileID: 11500000, guid: e512325a7823fa2428f27f48fedbb6af, type: 3}
  m_Name: MaleAverageOveralls
  m_EditorClassIdentifier: 
  presetName: MaleAverageOveralls
  covers: 06000000070000000400000005000000010000000e0000000c0000000d0000000a0000000b00000000000000
  outfitCategories: 01000000
  suitableForGenders: 00000000
  suitableForBuilds: 01000000
  tags: 
  enableFacialFeatureSetup: 0
  suitableForHairstyle: 
  isHead: 0
  pupilsOffset: {x: 0, y: 0.15, z: 0.1205}
  eyebrowsOffset: {x: 0, y: 0.1719, z: 0.133}
  mouthOffset: {x: 0, y: 0.045, z: 0.151}
  hatRenderCompatible: 0
  excludeHats: []
  hairRenderMode: 0
  setFootwear: 0
  footwear: 3
  priority: 2
  onlyChooseIfAllModelPartsAreAvailable: 0
  incompatibility: []
  useWealthValues: 0
  minimumWealth: 0
  maximumWealth: 1
  baseColourSource: 3
  colourBase: []
  colour1Source: 1
  colour1:
  - {fileID: 11400000, guid: b02afa79cd7df394b8745dcf293d8221, type: 2}
  - {fileID: 11400000, guid: c0dadb8990475f746acdc0b6c9f1f8c2, type: 2}
  colour2Source: 2
  colour2: []
  colour3Source: 1
  colour3:
  - {fileID: 11400000, guid: 545bdbdd61080ab4eacdd164dc3bbed8, type: 2}
  - {fileID: 11400000, guid: 03f85804621d0cc4eb64a9b11f1e076b, type: 2}
  - {fileID: 11400000, guid: 1f6aea910751eaa40950362c9d92eb87, type: 2}
  includeInPersonalityMatching: 1
  baseChance: 1
  useHEXACO: 0
  hexaco:
    outputMin: 1
    outputMax: 10
    enableFeminineMasculine: 0
    feminineMasculine: 0
    enableHumility: 0
    humility: 0
    enableEmotionality: 0
    emotionality: 0
    enableExtraversion: 0
    extraversion: 0
    enableAgreeableness: 0
    agreeableness: 0
    enableConscientiousness: 0
    conscientiousness: 0
    enableCreativity: 0
    creativity: 0
  useTraits: 0
  characterTraits: []
  models:
  - prefab: {fileID: 5921737729832514407, guid: 447103a5e384f48469e53e68dcb891df,
      type: 3}
    anchor: 6
    offsetPosition: {x: 0, y: 0, z: 0}
    offsetEuler: {x: -0, y: -0, z: -0}
    exclusiveAnchorModel: 1
  - prefab: {fileID: 5921737729832514407, guid: 447103a5e384f48469e53e68dcb891df,
      type: 3}
    anchor: 7
    offsetPosition: {x: 0, y: 0, z: 0}
    offsetEuler: {x: -0, y: -0, z: -0}
    exclusiveAnchorModel: 1
  - prefab: {fileID: 4785025792225855293, guid: 62a663c53e679644780c3056aaa88022,
      type: 3}
    anchor: 4
    offsetPosition: {x: 0, y: 0, z: 0}
    offsetEuler: {x: -0, y: -0, z: -0}
    exclusiveAnchorModel: 1
  - prefab: {fileID: 4785025792225855293, guid: 62a663c53e679644780c3056aaa88022,
      type: 3}
    anchor: 5
    offsetPosition: {x: 0, y: 0, z: 0}
    offsetEuler: {x: -0, y: -0, z: -0}
    exclusiveAnchorModel: 1
  - prefab: {fileID: 5782238635063986174, guid: 77e45d13733200943a288e699cdd7c1a,
      type: 3}
    anchor: 1
    offsetPosition: {x: 0, y: 0, z: 0}
    offsetEuler: {x: -0, y: -0, z: -0}
    exclusiveAnchorModel: 1
  - prefab: {fileID: 2544024154563240670, guid: 78d1d1b1f134aa94e82fb041e5e16a92,
      type: 3}
    anchor: 14
    offsetPosition: {x: 0, y: 0.06, z: -0.03}
    offsetEuler: {x: -0, y: -0, z: -0}
    exclusiveAnchorModel: 1
  - prefab: {fileID: 1520420542724825279, guid: 72d5e43be9b94b6498450713128951c2,
      type: 3}
    anchor: 12
    offsetPosition: {x: -0.03, y: 0, z: 0}
    offsetEuler: {x: -0, y: -0, z: -0}
    exclusiveAnchorModel: 1
  - prefab: {fileID: 1520420542724825279, guid: 72d5e43be9b94b6498450713128951c2,
      type: 3}
    anchor: 13
    offsetPosition: {x: -0.03, y: 0, z: 0}
    offsetEuler: {x: -0, y: -0, z: -0}
    exclusiveAnchorModel: 1
  - prefab: {fileID: 8103309957585373731, guid: 5675a2756b8a89a40824e269d09132ec,
      type: 3}
    anchor: 10
    offsetPosition: {x: 0, y: 0, z: 0}
    offsetEuler: {x: -0, y: -0, z: -0}
    exclusiveAnchorModel: 1
  - prefab: {fileID: 8103309957585373731, guid: 5675a2756b8a89a40824e269d09132ec,
      type: 3}
    anchor: 11
    offsetPosition: {x: 0, y: 0, z: 0}
    offsetEuler: {x: -0, y: -0, z: -0}
    exclusiveAnchorModel: 1
  - prefab: {fileID: 9193953579205653082, guid: c26447b9e904a49458c56aecd3f294a3,
      type: 3}
    anchor: 0
    offsetPosition: {x: 0, y: 0, z: 0}
    offsetEuler: {x: -0, y: -0, z: -0}
    exclusiveAnchorModel: 1
