%YAML 1.1
%TAG !u! tag:unity3d.com,2011:
--- !u!114 &11400000
MonoBehaviour:
  m_ObjectHideFlags: 0
  m_CorrespondingSourceObject: {fileID: 0}
  m_PrefabInstance: {fileID: 0}
  m_PrefabAsset: {fileID: 0}
  m_GameObject: {fileID: 0}
  m_Enabled: 1
  m_EditorHideFlags: 0
  m_Script: {fileID: 11500000, guid: e512325a7823fa2428f27f48fedbb6af, type: 3}
  m_Name: MaleMuscularTShirt
  m_EditorClassIdentifier: 
  presetName: MaleMuscularTShirt
  covers: 0100000004000000050000000e000000
  outfitCategories: 00000000
  suitableForGenders: 00000000
  suitableForBuilds: 03000000
  tags: 
  enableFacialFeatureSetup: 0
  suitableForHairstyle: 
  isHead: 0
  pupilsOffset: {x: 0, y: 0.15, z: 0.1205}
  eyebrowsOffset: {x: 0, y: 0.1719, z: 0.133}
  mouthOffset: {x: 0, y: 0.045, z: 0.151}
  hatRenderCompatible: 0
  excludeHats: []
  hairRenderMode: 0
  setFootwear: 0
  footwear: 3
  priority: 2
  onlyChooseIfAllModelPartsAreAvailable: 0
  incompatibility: []
  useWealthValues: 0
  minimumWealth: 0.5
  maximumWealth: 1
  baseColourSource: 3
  colourBase: []
  colour1Source: 1
  colour1:
  - {fileID: 11400000, guid: 03f85804621d0cc4eb64a9b11f1e076b, type: 2}
  colour2Source: 2
  colour2: []
  colour3Source: 0
  colour3: []
  includeInPersonalityMatching: 1
  baseChance: 1
  useHEXACO: 0
  hexaco:
    outputMin: 1
    outputMax: 10
    enableFeminineMasculine: 0
    feminineMasculine: 0
    enableHumility: 0
    humility: 0
    enableEmotionality: 0
    emotionality: 0
    enableExtraversion: 0
    extraversion: 0
    enableAgreeableness: 0
    agreeableness: 0
    enableConscientiousness: 0
    conscientiousness: 0
    enableCreativity: 0
    creativity: 0
  useTraits: 0
  characterTraits: []
  models:
  - prefab: {fileID: 1520660289939654969, guid: ddb9fc290c0a4a9448d82870fa5893fb,
      type: 3}
    anchor: 1
    offsetPosition: {x: 0, y: 0, z: 0.008}
    offsetEuler: {x: -0, y: -0, z: -0}
    exclusiveAnchorModel: 1
  - prefab: {fileID: 9160559450642177162, guid: f54c0d5f9f5d6684ca7ca641a5b854ba,
      type: 3}
    anchor: 4
    offsetPosition: {x: 0, y: 0, z: 0}
    offsetEuler: {x: -0, y: -0, z: -0}
    exclusiveAnchorModel: 1
  - prefab: {fileID: 9160559450642177162, guid: f54c0d5f9f5d6684ca7ca641a5b854ba,
      type: 3}
    anchor: 5
    offsetPosition: {x: 0, y: 0, z: 0}
    offsetEuler: {x: -0, y: -0, z: -0}
    exclusiveAnchorModel: 1
  - prefab: {fileID: 1372263384509428394, guid: cf01ab7739f842c499cb25be79d2b0a8,
      type: 3}
    anchor: 14
    offsetPosition: {x: 0, y: 0.08, z: -0.03}
    offsetEuler: {x: -0, y: -0, z: -0}
    exclusiveAnchorModel: 1
