%YAML 1.1
%TAG !u! tag:unity3d.com,2011:
--- !u!114 &11400000
MonoBehaviour:
  m_ObjectHideFlags: 0
  m_CorrespondingSourceObject: {fileID: 0}
  m_PrefabInstance: {fileID: 0}
  m_PrefabAsset: {fileID: 0}
  m_GameObject: {fileID: 0}
  m_Enabled: 1
  m_EditorHideFlags: 0
  m_Script: {fileID: 11500000, guid: e512325a7823fa2428f27f48fedbb6af, type: 3}
  m_Name: MaleOverweightCook
  m_EditorClassIdentifier: 
  presetName: MaleOverweightCook
  covers: 06000000070000000400000005000000010000000c0000000d0000000a0000000b000000000000000a0000000b000000000000000e000000
  outfitCategories: 01000000
  suitableForGenders: 01000000
  suitableForBuilds: 02000000
  tags: 01000000
  enableFacialFeatureSetup: 0
  suitableForHairstyle: 
  isHead: 0
  pupilsOffset: {x: 0, y: 0.15, z: 0.1205}
  eyebrowsOffset: {x: 0, y: 0.1719, z: 0.133}
  mouthOffset: {x: 0, y: 0.045, z: 0.151}
  hatRenderCompatible: 0
  excludeHats: []
  hairRenderMode: 0
  setFootwear: 0
  footwear: 3
  priority: 2
  onlyChooseIfAllModelPartsAreAvailable: 0
  incompatibility: []
  useWealthValues: 0
  minimumWealth: 0.5
  maximumWealth: 1
  baseColourSource: 3
  colourBase: []
  colour1Source: 1
  colour1:
  - {fileID: 11400000, guid: b02afa79cd7df394b8745dcf293d8221, type: 2}
  colour2Source: 2
  colour2: []
  colour3Source: 0
  colour3: []
  includeInPersonalityMatching: 1
  baseChance: 1
  useHEXACO: 0
  hexaco:
    outputMin: 1
    outputMax: 10
    enableFeminineMasculine: 0
    feminineMasculine: 0
    enableHumility: 0
    humility: 0
    enableEmotionality: 0
    emotionality: 0
    enableExtraversion: 0
    extraversion: 0
    enableAgreeableness: 0
    agreeableness: 0
    enableConscientiousness: 0
    conscientiousness: 0
    enableCreativity: 0
    creativity: 0
  useTraits: 0
  characterTraits: []
  models:
  - prefab: {fileID: 1054329664810159715, guid: c516cbb4a1000ec429535b1fefd8183b,
      type: 3}
    anchor: 6
    offsetPosition: {x: 0, y: 0, z: 0}
    offsetEuler: {x: -0, y: -0, z: -0}
    exclusiveAnchorModel: 1
  - prefab: {fileID: 1054329664810159715, guid: c516cbb4a1000ec429535b1fefd8183b,
      type: 3}
    anchor: 7
    offsetPosition: {x: 0, y: 0, z: 0}
    offsetEuler: {x: -0, y: -0, z: -0}
    exclusiveAnchorModel: 1
  - prefab: {fileID: 3929501547159143776, guid: bac3895bb9cfb78428410026771c9bf0,
      type: 3}
    anchor: 4
    offsetPosition: {x: 0, y: 0, z: 0}
    offsetEuler: {x: -0, y: -0, z: -0}
    exclusiveAnchorModel: 1
  - prefab: {fileID: 3929501547159143776, guid: bac3895bb9cfb78428410026771c9bf0,
      type: 3}
    anchor: 5
    offsetPosition: {x: 0, y: 0, z: 0}
    offsetEuler: {x: -0, y: -0, z: -0}
    exclusiveAnchorModel: 1
  - prefab: {fileID: 8243870955145231740, guid: 45b80b1e4461ba949b78422d8c6f6b22,
      type: 3}
    anchor: 1
    offsetPosition: {x: 0, y: 0, z: 0.03}
    offsetEuler: {x: -0, y: -0, z: -0}
    exclusiveAnchorModel: 1
  - prefab: {fileID: 7080826446073900991, guid: 2ada0d78ad3382948a7509f890aca350,
      type: 3}
    anchor: 12
    offsetPosition: {x: 0, y: 0, z: 0}
    offsetEuler: {x: -0, y: -0, z: -0}
    exclusiveAnchorModel: 1
  - prefab: {fileID: 7080826446073900991, guid: 2ada0d78ad3382948a7509f890aca350,
      type: 3}
    anchor: 13
    offsetPosition: {x: 0, y: 0, z: 0}
    offsetEuler: {x: -0, y: -0, z: -0}
    exclusiveAnchorModel: 1
  - prefab: {fileID: 5282813474746140865, guid: eb060208f742e1a49bac3ff7290fc334,
      type: 3}
    anchor: 10
    offsetPosition: {x: 0, y: 0, z: 0}
    offsetEuler: {x: -0, y: -0, z: -0}
    exclusiveAnchorModel: 0
  - prefab: {fileID: 5282813474746140865, guid: eb060208f742e1a49bac3ff7290fc334,
      type: 3}
    anchor: 11
    offsetPosition: {x: 0, y: 0, z: 0}
    offsetEuler: {x: -0, y: -0, z: -0}
    exclusiveAnchorModel: 0
  - prefab: {fileID: 3237214673250971964, guid: fe4fd514d5b6a3d4aabc8f12c5710692,
      type: 3}
    anchor: 0
    offsetPosition: {x: 0, y: 0, z: 0}
    offsetEuler: {x: -0, y: -0, z: -0}
    exclusiveAnchorModel: 0
  - prefab: {fileID: 417517671052215389, guid: 69a79f60f43a3ae4294512dc5c89f5aa, type: 3}
    anchor: 10
    offsetPosition: {x: 0, y: 0, z: 0.059}
    offsetEuler: {x: -0, y: -0, z: -0}
    exclusiveAnchorModel: 0
  - prefab: {fileID: 417517671052215389, guid: 69a79f60f43a3ae4294512dc5c89f5aa, type: 3}
    anchor: 11
    offsetPosition: {x: 0, y: 0, z: 0.059}
    offsetEuler: {x: -0, y: -0, z: -0}
    exclusiveAnchorModel: 0
  - prefab: {fileID: 1380050456330141218, guid: 214b3d2ad1807a24185e0ebd5c9cbe97,
      type: 3}
    anchor: 0
    offsetPosition: {x: 0.196, y: -0.007, z: 0.001}
    offsetEuler: {x: -0, y: -0, z: -0}
    exclusiveAnchorModel: 0
  - prefab: {fileID: 4229708536523306792, guid: 93e977c70af3110458232af00624b966,
      type: 3}
    anchor: 14
    offsetPosition: {x: 0, y: 0.12, z: 0.004}
    offsetEuler: {x: -0, y: -0, z: -0}
    exclusiveAnchorModel: 1
