%YAML 1.1
%TAG !u! tag:unity3d.com,2011:
--- !u!114 &11400000
MonoBehaviour:
  m_ObjectHideFlags: 0
  m_CorrespondingSourceObject: {fileID: 0}
  m_PrefabInstance: {fileID: 0}
  m_PrefabAsset: {fileID: 0}
  m_GameObject: {fileID: 0}
  m_Enabled: 1
  m_EditorHideFlags: 0
  m_Script: {fileID: 11500000, guid: e512325a7823fa2428f27f48fedbb6af, type: 3}
  m_Name: SkinnyNurse
  m_EditorClassIdentifier: 
  presetName: SkinnyNurse
  covers: 0400000005000000010000000e0000000c0000000d0000000a0000000b0000000000000003000000
  outfitCategories: 01000000
  suitableForGenders: 0000000001000000
  suitableForBuilds: 00000000
  tags: 
  enableFacialFeatureSetup: 0
  suitableForHairstyle: 
  isHead: 0
  pupilsOffset: {x: 0, y: 0.15, z: 0.1205}
  eyebrowsOffset: {x: 0, y: 0.1719, z: 0.133}
  mouthOffset: {x: 0, y: 0.045, z: 0.151}
  hatRenderCompatible: 0
  excludeHats: []
  hairRenderMode: 0
  setFootwear: 0
  footwear: 3
  priority: 2
  onlyChooseIfAllModelPartsAreAvailable: 0
  incompatibility: []
  useWealthValues: 0
  minimumWealth: 0
  maximumWealth: 1
  baseColourSource: 3
  colourBase: []
  colour1Source: 1
  colour1:
  - {fileID: 11400000, guid: b02afa79cd7df394b8745dcf293d8221, type: 2}
  colour2Source: 2
  colour2: []
  colour3Source: 1
  colour3:
  - {fileID: 11400000, guid: 623af1cb486750b4a9e1572bf7c99f00, type: 2}
  includeInPersonalityMatching: 1
  baseChance: 1
  useHEXACO: 0
  hexaco:
    outputMin: 1
    outputMax: 10
    enableFeminineMasculine: 0
    feminineMasculine: 0
    enableHumility: 0
    humility: 0
    enableEmotionality: 0
    emotionality: 0
    enableExtraversion: 0
    extraversion: 0
    enableAgreeableness: 0
    agreeableness: 0
    enableConscientiousness: 0
    conscientiousness: 0
    enableCreativity: 0
    creativity: 0
  useTraits: 0
  characterTraits: []
  models:
  - prefab: {fileID: 338813857353168934, guid: 909d2f9ffd5a093499d09e632b90e974, type: 3}
    anchor: 4
    offsetPosition: {x: -0.002, y: 0.012, z: 0.0289}
    offsetEuler: {x: -0, y: -0, z: -0}
    exclusiveAnchorModel: 1
  - prefab: {fileID: 338813857353168934, guid: 909d2f9ffd5a093499d09e632b90e974, type: 3}
    anchor: 5
    offsetPosition: {x: -0.002, y: 0.012, z: 0.0289}
    offsetEuler: {x: -0, y: -0, z: -0}
    exclusiveAnchorModel: 1
  - prefab: {fileID: 1527697373409616821, guid: fe941d7268f787f41a529e08b75f5f33,
      type: 3}
    anchor: 1
    offsetPosition: {x: 0, y: 0.03, z: 0.06}
    offsetEuler: {x: -0, y: -0, z: -0}
    exclusiveAnchorModel: 1
  - prefab: {fileID: 4615541476611789582, guid: ac3f018f95d0a3a4bad68a06f1581dcf,
      type: 3}
    anchor: 14
    offsetPosition: {x: 0, y: 0.03, z: 0.03}
    offsetEuler: {x: -0, y: -0, z: -0}
    exclusiveAnchorModel: 1
  - prefab: {fileID: 2499287503282698978, guid: 9be3e4e47b565db4a9d44789f4426c46,
      type: 3}
    anchor: 12
    offsetPosition: {x: -0.03, y: 0, z: 0.03}
    offsetEuler: {x: -0, y: -0, z: -0}
    exclusiveAnchorModel: 1
  - prefab: {fileID: 2499287503282698978, guid: 9be3e4e47b565db4a9d44789f4426c46,
      type: 3}
    anchor: 13
    offsetPosition: {x: -0.03, y: 0, z: 0.03}
    offsetEuler: {x: -0, y: -0, z: -0}
    exclusiveAnchorModel: 1
  - prefab: {fileID: 5269402139847470604, guid: e7978097381263a458d9709e38a3f3d6,
      type: 3}
    anchor: 10
    offsetPosition: {x: 0, y: 0, z: 0}
    offsetEuler: {x: -0, y: -0, z: -0}
    exclusiveAnchorModel: 1
  - prefab: {fileID: 5269402139847470604, guid: e7978097381263a458d9709e38a3f3d6,
      type: 3}
    anchor: 11
    offsetPosition: {x: 0, y: 0, z: 0}
    offsetEuler: {x: -0, y: -0, z: -0}
    exclusiveAnchorModel: 1
  - prefab: {fileID: 8834714400522240404, guid: 2fbdf4f54ed42fa49a866cd94a153dbd,
      type: 3}
    anchor: 0
    offsetPosition: {x: 0, y: 0, z: 0}
    offsetEuler: {x: -0, y: -0, z: -0}
    exclusiveAnchorModel: 1
  - prefab: {fileID: 3857316259991092794, guid: 37c3f928c48f8be439349773d8bf4a3d,
      type: 3}
    anchor: 3
    offsetPosition: {x: 0, y: -0.006, z: 0.012}
    offsetEuler: {x: -0, y: -0, z: -0}
    exclusiveAnchorModel: 1
