%YAML 1.1
%TAG !u! tag:unity3d.com,2011:
--- !u!114 &11400000
MonoBehaviour:
  m_ObjectHideFlags: 0
  m_CorrespondingSourceObject: {fileID: 0}
  m_PrefabInstance: {fileID: 0}
  m_PrefabAsset: {fileID: 0}
  m_GameObject: {fileID: 0}
  m_Enabled: 1
  m_EditorHideFlags: 0
  m_Script: {fileID: 11500000, guid: e512325a7823fa2428f27f48fedbb6af, type: 3}
  m_Name: SkinnyWaiter
  m_EditorClassIdentifier: 
  presetName: SkinnyWaiter
  covers: 06000000070000000400000005000000010000000c0000000d0000000a0000000b000000000000000a0000000b000000000000000e000000
  outfitCategories: 01000000
  suitableForGenders: 0000000001000000
  suitableForBuilds: 00000000
  tags: 01000000
  enableFacialFeatureSetup: 0
  suitableForHairstyle: 
  isHead: 0
  pupilsOffset: {x: 0, y: 0.15, z: 0.1205}
  eyebrowsOffset: {x: 0, y: 0.1719, z: 0.133}
  mouthOffset: {x: 0, y: 0.045, z: 0.151}
  hatRenderCompatible: 0
  excludeHats: []
  hairRenderMode: 0
  setFootwear: 0
  footwear: 3
  priority: 2
  onlyChooseIfAllModelPartsAreAvailable: 0
  incompatibility: []
  useWealthValues: 0
  minimumWealth: 0.5
  maximumWealth: 1
  baseColourSource: 3
  colourBase: []
  colour1Source: 8
  colour1: []
  colour2Source: 2
  colour2: []
  colour3Source: 0
  colour3: []
  includeInPersonalityMatching: 1
  baseChance: 1
  useHEXACO: 0
  hexaco:
    outputMin: 1
    outputMax: 10
    enableFeminineMasculine: 0
    feminineMasculine: 0
    enableHumility: 0
    humility: 0
    enableEmotionality: 0
    emotionality: 0
    enableExtraversion: 0
    extraversion: 0
    enableAgreeableness: 0
    agreeableness: 0
    enableConscientiousness: 0
    conscientiousness: 0
    enableCreativity: 0
    creativity: 0
  useTraits: 0
  characterTraits: []
  models:
  - prefab: {fileID: 1039266738427093390, guid: 85cb33250cedc9d42a7094d84ed80a46,
      type: 3}
    anchor: 6
    offsetPosition: {x: 0, y: 0, z: 0}
    offsetEuler: {x: -0, y: -0, z: -0}
    exclusiveAnchorModel: 1
  - prefab: {fileID: 1039266738427093390, guid: 85cb33250cedc9d42a7094d84ed80a46,
      type: 3}
    anchor: 7
    offsetPosition: {x: 0, y: 0, z: 0}
    offsetEuler: {x: -0, y: -0, z: -0}
    exclusiveAnchorModel: 1
  - prefab: {fileID: 4023225268685695633, guid: 04cb4215040c0c1478dae219d6f9e29e,
      type: 3}
    anchor: 4
    offsetPosition: {x: 0, y: 0, z: 0}
    offsetEuler: {x: -0, y: -0, z: -0}
    exclusiveAnchorModel: 1
  - prefab: {fileID: 4023225268685695633, guid: 04cb4215040c0c1478dae219d6f9e29e,
      type: 3}
    anchor: 5
    offsetPosition: {x: 0, y: 0, z: 0}
    offsetEuler: {x: -0, y: -0, z: -0}
    exclusiveAnchorModel: 1
  - prefab: {fileID: 2876990544140161697, guid: e7e6ed21587fc764f952bdc34e1ffac8,
      type: 3}
    anchor: 1
    offsetPosition: {x: 0, y: 0, z: 0.03}
    offsetEuler: {x: -0, y: -0, z: -0}
    exclusiveAnchorModel: 1
  - prefab: {fileID: 3337186431332776944, guid: 7bccb0a1f6b88ab46a7f2fb6a6833a90,
      type: 3}
    anchor: 12
    offsetPosition: {x: 0, y: 0, z: 0}
    offsetEuler: {x: -0, y: -0, z: -0}
    exclusiveAnchorModel: 1
  - prefab: {fileID: 3337186431332776944, guid: 7bccb0a1f6b88ab46a7f2fb6a6833a90,
      type: 3}
    anchor: 13
    offsetPosition: {x: 0, y: 0, z: 0}
    offsetEuler: {x: -0, y: -0, z: -0}
    exclusiveAnchorModel: 1
  - prefab: {fileID: 3517646480302465926, guid: f07f52a351477434e906052d2f9f32aa,
      type: 3}
    anchor: 10
    offsetPosition: {x: 0, y: 0, z: 0}
    offsetEuler: {x: -0, y: -0, z: -0}
    exclusiveAnchorModel: 1
  - prefab: {fileID: 3517646480302465926, guid: f07f52a351477434e906052d2f9f32aa,
      type: 3}
    anchor: 11
    offsetPosition: {x: 0, y: 0, z: 0}
    offsetEuler: {x: -0, y: -0, z: -0}
    exclusiveAnchorModel: 1
  - prefab: {fileID: 4755667795806645197, guid: bd3aaf1fde9444b4bacfa38e5c639a67,
      type: 3}
    anchor: 0
    offsetPosition: {x: 0, y: 0.004, z: 0}
    offsetEuler: {x: -0, y: -0, z: -0}
    exclusiveAnchorModel: 1
  - prefab: {fileID: 2175356323810846348, guid: 304ea968cbb63944e9696fc0336a1d50,
      type: 3}
    anchor: 10
    offsetPosition: {x: 0, y: 0, z: -0.025}
    offsetEuler: {x: -0, y: -0, z: -0}
    exclusiveAnchorModel: 1
  - prefab: {fileID: 2175356323810846348, guid: 304ea968cbb63944e9696fc0336a1d50,
      type: 3}
    anchor: 11
    offsetPosition: {x: 0, y: 0, z: -0.025}
    offsetEuler: {x: -0, y: -0, z: -0}
    exclusiveAnchorModel: 1
  - prefab: {fileID: 5975124218424934001, guid: f08e7739e934719458c894ec3602462c,
      type: 3}
    anchor: 0
    offsetPosition: {x: 0.197, y: -0.006, z: -0.085}
    offsetEuler: {x: -0, y: -0, z: -0}
    exclusiveAnchorModel: 1
  - prefab: {fileID: 5385394288693831901, guid: 2b221bc0be2c7194887afe8567886a1b,
      type: 3}
    anchor: 14
    offsetPosition: {x: 0, y: 0.08, z: 0}
    offsetEuler: {x: -0, y: -0, z: -0}
    exclusiveAnchorModel: 1
