%YAML 1.1
%TAG !u! tag:unity3d.com,2011:
--- !u!114 &11400000
MonoBehaviour:
  m_ObjectHideFlags: 0
  m_CorrespondingSourceObject: {fileID: 0}
  m_PrefabInstance: {fileID: 0}
  m_PrefabAsset: {fileID: 0}
  m_GameObject: {fileID: 0}
  m_Enabled: 1
  m_EditorHideFlags: 0
  m_Script: {fileID: 11500000, guid: 7559a64a9e831bf4cacd0fc9e5cb79a5, type: 3}
  m_Name: 1_ArmchairFacingTV
  m_EditorClassIdentifier: 
  presetName: 1_ArmchairFacingTV
  disable: 0
  clusterElements:
  - onlyValidIfPreviousObjectPlaced: 0
    placements:
    - {x: 0, y: 0}
    furnitureClass: {fileID: 11400000, guid: 5080a381627402d43a13d1ceb27776d9, type: 2}
    facing: 1
    importantToCluster: 1
    chanceOfPlacementAttempt: 1
    placementScoreBoost: 0
    useFovBlock: 1
    blockDirection: {x: 0, y: 1}
    maxFOVBlockDistance: 2
    localScale: {x: 1, y: 1, z: 1}
    positionOffset: {x: 0, y: 0, z: 0}
  - onlyValidIfPreviousObjectPlaced: 0
    placements:
    - {x: 0, y: 1}
    - {x: 0, y: 2}
    furnitureClass: {fileID: 11400000, guid: 088c6423c74df8a41acd97f870a9c60f, type: 2}
    facing: 0
    importantToCluster: 1
    chanceOfPlacementAttempt: 1
    placementScoreBoost: 0
    useFovBlock: 1
    blockDirection: {x: 0, y: 1}
    maxFOVBlockDistance: 3
    localScale: {x: 1, y: 1, z: 1}
    positionOffset: {x: 0, y: 0, z: 0}
  placementChance: 1
  roomPriority: 9.01
  modifyPriorityTraits: []
  modifyPlacementChanceTraits: []
  essentialFurniture: 1
  updatePreCalculated: 0
  calculatedMinRoomSize: 2
  minimumZeroNodeWallCount: 1
  maximumZeroNodeWallCount: 3
  zeroNodeClasses:
  - {fileID: 11400000, guid: 5080a381627402d43a13d1ceb27776d9, type: 2}
  minimumRoomSize: 4
  useMaximumRoomSize: 1
  maximumRoomSize: 99
  useCustomZeroNodeMinWallCount: 0
  customZeroNodeMinWallCount: 0
  useCustomZeroNodeMaxWallCount: 0
  customZeroNodeMaxWallCount: 0
  zeroNodeWallRules: []
  allowedInOpenPlan: 0
  allowInResidential: 1
  allowInCompanies: 0
  allowOnStreets: 0
  coastalOnly: 0
  limitToDistricts: 0
  allowedInDistricts: []
  banFromDistricts: 0
  notAllowedInDistricts: []
  skipIfNoAddressInhabitants: 1
  onlySkipNoInhabitantsIfResidenceOrCompany: 1
  dontSkipNoInhabitantsIfIn: []
  allowedRoomFilters:
  - {fileID: 11400000, guid: 480874ff50736bf4b8f7af0e7a1ce5f1, type: 2}
  - {fileID: 11400000, guid: 770ee5c75af9aa1498dff6688591ec50, type: 2}
  limitPerRoom: 1
  maximumPerRoom: 1
  limitPerAddress: 0
  maximumPerAddress: 1
  limitToFloor: 0
  allowedOnFloor: 0
  limitToFloorRange: 1
  allowedOnFloorRange: {x: -1, y: 99}
  wealthLimit: 0
  minimumWealth: 0
  maximumWealth: 1
  useRoomGrub: 0
  minimumGrub: 0
  maximumGrub: 1
  useBuildingResidences: 0
  minimumResidences: 0
  maximumResidences: 40
  addClustersOnSuccess: []
  removeClustersOnSuccess:
  - {fileID: 11400000}
  - {fileID: 11400000, guid: 9543cfa00eb352845a301ed9ea4c6fd0, type: 2}
  - {fileID: 11400000, guid: 96e2466ed923edb4a8ac0e65748a0f3d, type: 2}
  - {fileID: 11400000, guid: adb50185932182f42a5cb6206c680c0c, type: 2}
  - {fileID: 11400000, guid: 8874d578396d7b249b2594d8d66504de, type: 2}
  - {fileID: 11400000, guid: bd55eab130430fb49b1f43aee0d19733, type: 2}
  - {fileID: 11400000, guid: 96e4d91c9e066914abafed2ba34d37dd, type: 2}
  - {fileID: 11400000, guid: 2a55e45ff1d3ca3438579721a146a473, type: 2}
  - {fileID: 11400000, guid: 240dcc6cf281c32498c72306d932ea4d, type: 2}
  - {fileID: 11400000, guid: 273b8917a9b18384897e4d455bf0d208, type: 2}
  removeClustersOnFail: []
  securityDoor: 0
  isBreakerBox: 0
  enableDebug: 0
