%YAML 1.1
%TAG !u! tag:unity3d.com,2011:
--- !u!114 &11400000
MonoBehaviour:
  m_ObjectHideFlags: 0
  m_CorrespondingSourceObject: {fileID: 0}
  m_PrefabInstance: {fileID: 0}
  m_PrefabAsset: {fileID: 0}
  m_GameObject: {fileID: 0}
  m_Enabled: 1
  m_EditorHideFlags: 0
  m_Script: {fileID: 11500000, guid: 05c50b8a24558c04fb29c890553074fd, type: 3}
  m_Name: PoolTable
  m_EditorClassIdentifier: 
  presetName: PoolTable
  classes:
  - {fileID: 11400000, guid: 9f7153472578bd94db695a5c402d755b, type: 2}
  prefab: {fileID: 2636794897700967352, guid: da818d5d7a7f7a1408f5bc933c523308, type: 3}
  allowStaticBatching: 0
  spawnRange: 3
  integratedInteractables:
  - preset: {fileID: 11400000, guid: 25838189e13774942b55b0f7dcdd9c79, type: 2}
    pairToController: 0
    belongsTo: 0
  universalDesignStyle: 1
  designStyles: []
  inheritColouringFromDecor: 0
  shareColours: 0
  inheritGrubFromDecor: 1
  variations: []
  furnitureGroup: 0
  groupID: 0
  concrete: 0
  plaster: 0
  wood: 1
  carpet: 0
  tile: 0
  metal: 0
  glass: 0
  fabric: 0
  minimumRoomSize: 2
  allowedInOpenPlan: 0
  onlyAllowInFollowing: 0
  allowedInAddressesOfType: []
  banInFollowing: 0
  bannedInAddressesOfType: []
  OnlyAllowInBuildings: 0
  allowedInBuildings: []
  banFromBuildings: 0
  notAllowedInBuildings: []
  OnlyAllowInDistricts: 0
  allowedInDistricts: []
  banFromDistricts: 0
  notAllowedInDistricts: []
  requiresGenderedInhabitants: 0
  enableIfGenderPresent: 
  allowedRoomFilters:
  - {fileID: 11400000, guid: d1bfa1c547db3f54fb3b2f087a1f031f, type: 2}
  - {fileID: 11400000, guid: ff557ac56418edd48b07775301891788, type: 2}
  - {fileID: 11400000, guid: 2b658dceab15cb5409a5f04ea7340fa3, type: 2}
  minimumWealth: 0
  usePersonalityWeighting: 1
  modernity: 4
  cleanness: 1
  loudness: 3
  emotive: 7
  subObjects:
  - preset: {fileID: 11400000, guid: 17d707df6ae320e4db82a69cffd5793d, type: 2}
    parent: 
    localPos: {x: -1.692, y: 0.8880005, z: -0.14}
    localRot: {x: 359.23264, y: 105.23947, z: 2.8144016}
    belongsTo: 0
    security: 0
  - preset: {fileID: 11400000, guid: 17d707df6ae320e4db82a69cffd5793d, type: 2}
    parent: 
    localPos: {x: -1.691, y: 0.8880005, z: -0.063194595}
    localRot: {x: 359.39792, y: 74.211006, z: 357.87173}
    belongsTo: 0
    security: 0
  - preset: {fileID: 11400000, guid: 9ca308b6d0ff999409fcf507f6898db3, type: 2}
    parent: 
    localPos: {x: -1.688, y: 0.8880005, z: 0.008}
    localRot: {x: 359.2727, y: 99.286, z: 4.4390635}
    belongsTo: 0
    security: 0
  - preset: {fileID: 11400000, guid: 17d707df6ae320e4db82a69cffd5793d, type: 2}
    parent: 
    localPos: {x: -1.687, y: 0.8880005, z: 0.077}
    localRot: {x: 0.4774836, y: 95.79645, z: 355.30695}
    belongsTo: 0
    security: 0
  - preset: {fileID: 11400000, guid: 9ca308b6d0ff999409fcf507f6898db3, type: 2}
    parent: 
    localPos: {x: -1.684, y: 0.8880005, z: 0.152}
    localRot: {x: 358.9657, y: 75.40375, z: 356.03473}
    belongsTo: 0
    security: 0
  - preset: {fileID: 11400000, guid: 17d707df6ae320e4db82a69cffd5793d, type: 2}
    parent: 
    localPos: {x: -1.613, y: 0.8880005, z: 0.111}
    localRot: {x: 359.1959, y: 96.756615, z: 6.7554393}
    belongsTo: 0
    security: 0
  - preset: {fileID: 11400000, guid: 9ca308b6d0ff999409fcf507f6898db3, type: 2}
    parent: 
    localPos: {x: -1.615, y: 0.8880005, z: 0.04}
    localRot: {x: -0, y: 90, z: 356.0993}
    belongsTo: 0
    security: 0
  - preset: {fileID: 11400000, guid: 17d707df6ae320e4db82a69cffd5793d, type: 2}
    parent: 
    localPos: {x: -1.6102003, y: 0.8880005, z: -0.031594593}
    localRot: {x: 353.5909, y: 83.75122, z: 0.7002742}
    belongsTo: 0
    security: 0
  - preset: {fileID: 11400000, guid: 9ca308b6d0ff999409fcf507f6898db3, type: 2}
    parent: 
    localPos: {x: -1.6114004, y: 0.8880005, z: -0.104}
    localRot: {x: 6.8332276, y: 97.650215, z: 0.91559154}
    belongsTo: 0
    security: 0
  - preset: {fileID: 11400000, guid: 9ca308b6d0ff999409fcf507f6898db3, type: 2}
    parent: 
    localPos: {x: -1.54, y: 0.8880005, z: 0.071}
    localRot: {x: 357.42816, y: 99.555145, z: 359.56723}
    belongsTo: 0
    security: 0
  - preset: {fileID: 11400000, guid: d49646fd597f73a4f926cdff3c0de9d8, type: 2}
    parent: 
    localPos: {x: -1.537, y: 0.8880005, z: -0.005}
    localRot: {x: 3.2350845, y: 85.72053, z: 359.75806}
    belongsTo: 0
    security: 0
  - preset: {fileID: 11400000, guid: 17d707df6ae320e4db82a69cffd5793d, type: 2}
    parent: 
    localPos: {x: -1.5361, y: 0.8880005, z: -0.0834}
    localRot: {x: -0, y: 81.845116, z: -0}
    belongsTo: 0
    security: 0
  - preset: {fileID: 11400000, guid: 17d707df6ae320e4db82a69cffd5793d, type: 2}
    parent: 
    localPos: {x: -1.458, y: 0.8880005, z: 0.034}
    localRot: {x: -0, y: 90, z: 2.3500123}
    belongsTo: 0
    security: 0
  - preset: {fileID: 11400000, guid: 9ca308b6d0ff999409fcf507f6898db3, type: 2}
    parent: 
    localPos: {x: -1.4593, y: 0.888, z: -0.0475}
    localRot: {x: 2.3606007, y: 102.615265, z: 349.57214}
    belongsTo: 0
    security: 0
  - preset: {fileID: 11400000, guid: 9ca308b6d0ff999409fcf507f6898db3, type: 2}
    parent: 
    localPos: {x: -1.38, y: 0.8880005, z: -0.009794593}
    localRot: {x: 5.169336, y: 83.56327, z: 359.41763}
    belongsTo: 0
    security: 0
  - preset: {fileID: 11400000, guid: 335f8456e14d0e24bbc38a887ffa4147, type: 2}
    parent: 
    localPos: {x: -0.373, y: 0.8880005, z: -0.009794593}
    localRot: {x: 5.169336, y: 83.56327, z: 359.41763}
    belongsTo: 0
    security: 0
  testForModifiers: 2
  forcePublicIllegal: 0
  hidingEnterTransition: {fileID: 0}
  hidingExitTransition: {fileID: 0}
  hidingEnterTransition2: {fileID: 0}
  hidingExitTransition2: {fileID: 0}
  map: {fileID: 0}
  drawUnderWalls: 0
  ignoreDirection: 0
  fingerprintsEnabled: 1
  printsSource: 1
  fingerprintDensity: 1
  alterAreaLighting: 0
  possibleColours: []
  lightOperation: 0
  lightAmount: 0.12
  brightnessModifier: 10
  purchasable: 1
  cost: 750
  decorClass: 1
  staticImage: {fileID: 21300000, guid: b26e4777e357ac341af2a8f56495500b, type: 3}
  imagePos: {x: 0, y: 0, z: 0}
  imageRot: {x: 0, y: 0, z: 0}
  imageScale: 1
  imagePrefabOverride: {fileID: 0}
  isJobBoard: 0
  isWorkPosition: 0
  isPlant: 0
  isArt: 0
  isSecurityCamera: 0
  artOrientation: 0
  createSelfEmployed: {fileID: 0}
  workPositionID: 0
  spawnObjectOnChance: 1
  spawnObjectsOnPlacement:
  - {fileID: 11400000, guid: b82d039576139304a8098c5dfb98dd27, type: 2}
  - {fileID: 11400000, guid: 9b27c9604c1553d4d9b3a982b1f28cae, type: 2}
  - {fileID: 11400000, guid: 104da9abd7022fb429409ac6b3718c1a, type: 2}
  - {fileID: 11400000, guid: dfe446a84b262dd42a4317e10ea3ab59, type: 2}
  - {fileID: 11400000, guid: e2aaa20fcacfb2d41bd3f101c2078bd9, type: 2}
  - {fileID: 11400000, guid: efdbbee50979ee2478e24ac972991dd3, type: 2}
  - {fileID: 11400000, guid: f09598e69b80e374c92081db85d60b4b, type: 2}
  - {fileID: 11400000, guid: 83bc697345c7253499dd72ea9ec63fc9, type: 2}
  - {fileID: 11400000, guid: f3b521a3342fc93439c933706aa68df8, type: 2}
  - {fileID: 11400000, guid: 9d9948e0a0741ba43b8822aaa7305a7e, type: 2}
  - {fileID: 11400000, guid: ad39e03faf9af7b4bbdbf2583b49108d, type: 2}
  - {fileID: 11400000, guid: f26937b198a19e444a9b51b56a709166, type: 2}
  - {fileID: 11400000, guid: a6bf05a3574f88e4493e9aedc7cf31c0, type: 2}
  - {fileID: 11400000, guid: 274427bb1658a2e4e84b7f4eef5f546a, type: 2}
  - {fileID: 11400000, guid: ba2fc1bcdd7c963449fdadbec7e170dd, type: 2}
  - {fileID: 11400000, guid: 09cd68ba77dbf2b488e69f7c2032eab5, type: 2}
