%YAML 1.1
%TAG !u! tag:unity3d.com,2011:
--- !u!114 &11400000
MonoBehaviour:
  m_ObjectHideFlags: 0
  m_CorrespondingSourceObject: {fileID: 0}
  m_PrefabInstance: {fileID: 0}
  m_PrefabAsset: {fileID: 0}
  m_GameObject: {fileID: 0}
  m_Enabled: 1
  m_EditorHideFlags: 0
  m_Script: {fileID: 11500000, guid: 05c50b8a24558c04fb29c890553074fd, type: 3}
  m_Name: SimpleSmallTable
  m_EditorClassIdentifier: 
  presetName: SimpleSmallTable
  classes:
  - {fileID: 11400000, guid: 7c46ff125fbecfa44a27cc10664a82b6, type: 2}
  prefab: {fileID: 8648402131816713325, guid: b417cd383b24b8a4e9ca26ae6eb4114e, type: 3}
  allowStaticBatching: 0
  spawnRange: 3
  integratedInteractables:
  - preset: {fileID: 11400000, guid: e196bea45078f5e4aa20183a3372b985, type: 2}
    pairToController: 10
    belongsTo: 0
  universalDesignStyle: 0
  designStyles:
  - {fileID: 11400000, guid: e02dfc783e1042e48b87ceb703c8dc23, type: 2}
  - {fileID: 11400000, guid: fb5884c44b9167f4982a3fe7b4a798b4, type: 2}
  - {fileID: 11400000, guid: f7900e58d7b990840b8413d0629275ee, type: 2}
  - {fileID: 11400000, guid: e72ea046ed0da1e4fa8dc37cf23d4962, type: 2}
  inheritColouringFromDecor: 1
  shareColours: 0
  inheritGrubFromDecor: 1
  variations:
  - name: Wood
    main: 14
    colour1: 15
    colour2: 15
    colour3: 15
  furnitureGroup: 0
  groupID: 0
  concrete: 0
  plaster: 0
  wood: 1
  carpet: 0
  tile: 0
  metal: 0
  glass: 0
  fabric: 0
  minimumRoomSize: 2
  allowedInOpenPlan: 0
  onlyAllowInFollowing: 0
  allowedInAddressesOfType: []
  banInFollowing: 0
  bannedInAddressesOfType: []
  OnlyAllowInBuildings: 0
  allowedInBuildings: []
  banFromBuildings: 0
  notAllowedInBuildings: []
  OnlyAllowInDistricts: 0
  allowedInDistricts: []
  banFromDistricts: 0
  notAllowedInDistricts: []
  requiresGenderedInhabitants: 0
  enableIfGenderPresent: 
  allowedRoomFilters:
  - {fileID: 11400000, guid: 6a40c397f505b0f45ad8c37dd36b6a3b, type: 2}
  - {fileID: 11400000, guid: 2f3b3286b1f859545a5588fc4c06c071, type: 2}
  - {fileID: 11400000, guid: 2b658dceab15cb5409a5f04ea7340fa3, type: 2}
  - {fileID: 11400000, guid: ff557ac56418edd48b07775301891788, type: 2}
  - {fileID: 11400000, guid: 770ee5c75af9aa1498dff6688591ec50, type: 2}
  minimumWealth: 0
  usePersonalityWeighting: 1
  modernity: 2
  cleanness: 2
  loudness: 2
  emotive: 2
  subObjects:
  - preset: {fileID: 11400000, guid: cdbc245f33f972b408cc829d72fd6bc6, type: 2}
    parent: 
    localPos: {x: -0.4373, y: 0.9495, z: -0.4158}
    localRot: {x: -0, y: 0, z: 0}
    belongsTo: 0
    security: 0
  - preset: {fileID: 11400000, guid: 93c4b1cb41af1dc4796a525d7b2da47b, type: 2}
    parent: 
    localPos: {x: 0.337, y: 0.949, z: 0.362}
    localRot: {x: -0, y: 5.598297, z: 0}
    belongsTo: 0
    security: 0
  - preset: {fileID: 11400000, guid: 93c4b1cb41af1dc4796a525d7b2da47b, type: 2}
    parent: 
    localPos: {x: -0.315, y: 0.949, z: 0.273}
    localRot: {x: -0, y: 344.3551, z: 0}
    belongsTo: 0
    security: 0
  - preset: {fileID: 11400000, guid: 93c4b1cb41af1dc4796a525d7b2da47b, type: 2}
    parent: 
    localPos: {x: -0.264, y: 0.949, z: -0.255}
    localRot: {x: -0, y: 9.719845, z: 0}
    belongsTo: 0
    security: 0
  - preset: {fileID: 11400000, guid: 93c4b1cb41af1dc4796a525d7b2da47b, type: 2}
    parent: 
    localPos: {x: 0.356, y: 0.949, z: -0.338}
    localRot: {x: -0, y: 16.650028, z: 0}
    belongsTo: 0
    security: 0
  - preset: {fileID: 11400000, guid: 17394580b1f322f4bb3d9e2899b64a1c, type: 2}
    parent: 
    localPos: {x: 0.02, y: 0.949, z: -0.337}
    localRot: {x: 0, y: 201.68468, z: 0}
    belongsTo: 0
    security: 0
  - preset: {fileID: 11400000, guid: f2f10748d5b490f438b1271d7917428b, type: 2}
    parent: 
    localPos: {x: -0.49, y: 0, z: 0}
    localRot: {x: -0, y: 90, z: 0}
    belongsTo: 0
    security: 0
  - preset: {fileID: 11400000, guid: f2f10748d5b490f438b1271d7917428b, type: 2}
    parent: 
    localPos: {x: 0.5, y: 0, z: 0}
    localRot: {x: -0, y: 270, z: 0}
    belongsTo: 0
    security: 0
  - preset: {fileID: 11400000, guid: f2f10748d5b490f438b1271d7917428b, type: 2}
    parent: 
    localPos: {x: 0, y: 0, z: 0.5}
    localRot: {x: -0, y: 180, z: 0}
    belongsTo: 0
    security: 0
  - preset: {fileID: 11400000, guid: f2f10748d5b490f438b1271d7917428b, type: 2}
    parent: 
    localPos: {x: 0, y: 0, z: -0.5}
    localRot: {x: -0, y: 0, z: 0}
    belongsTo: 0
    security: 0
  - preset: {fileID: 11400000, guid: 17394580b1f322f4bb3d9e2899b64a1c, type: 2}
    parent: 
    localPos: {x: -0.012, y: 0.949, z: 0.341}
    localRot: {x: -0, y: 334.51352, z: 0}
    belongsTo: 0
    security: 0
  - preset: {fileID: 11400000, guid: 17394580b1f322f4bb3d9e2899b64a1c, type: 2}
    parent: 
    localPos: {x: -0.351, y: 0.949, z: 0.016}
    localRot: {x: -0, y: 272.20865, z: 0}
    belongsTo: 0
    security: 0
  - preset: {fileID: 11400000, guid: 17394580b1f322f4bb3d9e2899b64a1c, type: 2}
    parent: 
    localPos: {x: 0.366, y: 0.949, z: 0.028}
    localRot: {x: -0, y: 92.490425, z: -0}
    belongsTo: 0
    security: 0
  - preset: {fileID: 11400000, guid: 9c31c746a9174974e999e50aaf3fcb53, type: 2}
    parent: 
    localPos: {x: 0.128, y: 0.949, z: -0.009}
    localRot: {x: -0, y: 334.51352, z: 0}
    belongsTo: 0
    security: 0
  - preset: {fileID: 11400000, guid: 9c31c746a9174974e999e50aaf3fcb53, type: 2}
    parent: 
    localPos: {x: -0.0745, y: 0.949, z: 0.1173}
    localRot: {x: -0, y: 22.704948, z: 0}
    belongsTo: 0
    security: 0
  - preset: {fileID: 11400000, guid: 9c31c746a9174974e999e50aaf3fcb53, type: 2}
    parent: 
    localPos: {x: -0.0319, y: 0.949, z: -0.0573}
    localRot: {x: -0, y: 32.17065, z: 0}
    belongsTo: 0
    security: 0
  - preset: {fileID: 11400000, guid: 9c31c746a9174974e999e50aaf3fcb53, type: 2}
    parent: 
    localPos: {x: 0.097, y: 0.949, z: 0.16}
    localRot: {x: -0, y: 18.209797, z: 0}
    belongsTo: 0
    security: 0
  - preset: {fileID: 11400000, guid: 7834ec40fc2c7ff4596d8432c68494a9, type: 2}
    parent: 
    localPos: {x: 0.043, y: 0.949, z: 0.068}
    localRot: {x: -0, y: 0, z: 0}
    belongsTo: 0
    security: 0
  - preset: {fileID: 11400000, guid: 94ecd56f625166b449047f5eee385c68, type: 2}
    parent: 
    localPos: {x: 0.198, y: 0.949, z: -0.116}
    localRot: {x: -0, y: 0, z: 0}
    belongsTo: 0
    security: 0
  - preset: {fileID: 11400000, guid: 94ecd56f625166b449047f5eee385c68, type: 2}
    parent: 
    localPos: {x: -0.447, y: 0.949, z: 0.472}
    localRot: {x: -0, y: 90, z: 0}
    belongsTo: 0
    security: 0
  testForModifiers: 2
  forcePublicIllegal: 0
  hidingEnterTransition: {fileID: 11400000, guid: 44c2cd00021f2e44e8b72f6bbe36bc9e,
    type: 2}
  hidingExitTransition: {fileID: 11400000, guid: 4a43039a027241e40967c7788ca87f8d,
    type: 2}
  hidingEnterTransition2: {fileID: 0}
  hidingExitTransition2: {fileID: 0}
  map: {fileID: 2800000, guid: 52e5628b6b5d23546b993bd6b4010a10, type: 3}
  drawUnderWalls: 0
  ignoreDirection: 0
  fingerprintsEnabled: 1
  printsSource: 1
  fingerprintDensity: 1
  alterAreaLighting: 0
  possibleColours: []
  lightOperation: 0
  lightAmount: 0.12
  brightnessModifier: 10
  purchasable: 1
  cost: 100
  decorClass: 1
  staticImage: {fileID: 21300000, guid: fd1863a922f6c0e4cb16bfeb02cf0a07, type: 3}
  imagePos: {x: 0, y: 0, z: 0}
  imageRot: {x: 0, y: 0, z: 0}
  imageScale: 1
  imagePrefabOverride: {fileID: 0}
  isJobBoard: 0
  isWorkPosition: 0
  isPlant: 0
  isArt: 0
  isSecurityCamera: 0
  artOrientation: 0
  createSelfEmployed: {fileID: 0}
  workPositionID: 0
  spawnObjectOnChance: 1
  spawnObjectsOnPlacement: []
