%YAML 1.1
%TAG !u! tag:unity3d.com,2011:
--- !u!114 &11400000
MonoBehaviour:
  m_ObjectHideFlags: 0
  m_CorrespondingSourceObject: {fileID: 0}
  m_PrefabInstance: {fileID: 0}
  m_PrefabAsset: {fileID: 0}
  m_GameObject: {fileID: 0}
  m_Enabled: 1
  m_EditorHideFlags: 0
  m_Script: {fileID: 11500000, guid: b027b92df02e3b24d89774c2509ea4f9, type: 3}
  m_Name: Principle-LEMSupporter
  m_EditorClassIdentifier: 
  presetName: Principle-LEMSupporter
  isTrait: 1
  needsReson: 0
  requiresPartner: 0
  requiresSingle: 0
  requiresHome: 0
  requiresEmployment: 0
  needsDate: 0
  featureInInterestPool: 0
  featureInAfflictionPool: 0
  ageDateRange: {x: 5, y: 10}
  useCouplesAnniversary: 0
  isPassword: 0
  disabled: 0
  postiveNegative: 1
  pickStage: 3
  primeBaseChance: 0
  pickRules:
  - rule: 2
    traitList:
    - {fileID: 11400000, guid: 545463d0aee0a0f418654d4114480a1f, type: 2}
    - {fileID: 11400000, guid: 2a06a6c0c3094a74584ef66fdc4eebde, type: 2}
    - {fileID: 11400000, guid: 2819b4ca59d91a543860a5607c0a4081, type: 2}
    - {fileID: 11400000, guid: a4035646c0a7cb84898381afae67c70b, type: 2}
    - {fileID: 11400000, guid: a8251e09fa428084f8c62748ff5846fb, type: 2}
    - {fileID: 11400000, guid: d3ad42d39e9b14f4b9562f1b33af1a97, type: 2}
    mustPassForApplication: 1
    baseChance: 0
    reasonChance: 0
  matchChance: 0.05
  useHumilityMatch: 1
  matchHumility: 1
  useEmotionalityMatch: 0
  matchEmotionality: 1
  useExtraversionMatch: 0
  matchExtraversion: 0
  useAgreeablenessMatch: 1
  matchAgreeableness: 1
  useConscientiousnessMatch: 0
  matchConscientiousness: 1
  useCreativityMatch: 1
  matchCreativity: 1
  useSocietalClassMatch: 0
  matchSocietalClass: 0
  effectHumility: 0.1
  effectEmotionality: 0
  effectExtraversion: 0
  effectAgreeableness: 0.1
  effectConscientiousness: 0
  effectCreativity: 0.1
  maxHealthModifier: 0
  recoveryRateModifier: 0
  combatSkillModifier: 0
  combatHeftModifier: 0
  maxNerveModifier: 0
  breathRecoveryModifier: 0
  limitHumility: {x: 0, y: 1}
  limitEmotionality: {x: 0, y: 1}
  limitExtraversion: {x: 0, y: 1}
  limitAgreeableness: {x: 0, y: 1}
  limitConscientiousness: {x: 0, y: 1}
  limitCreativity: {x: 0, y: 1}
  slangUsageModifier: 0
  slangGreetingDefault: []
  slangGreetingMale: []
  slangGreetingFemale: []
  slangGreetingLover: []
  slangCurse: []
  slangCurseNoun: []
  slangPraiseNoun: []
  preferredBookCountModifier: 0
  sightingLimitMemoryModifier: 0
