%YAML 1.1
%TAG !u! tag:unity3d.com,2011:
--- !u!114 &11400000
MonoBehaviour:
  m_ObjectHideFlags: 0
  m_CorrespondingSourceObject: {fileID: 0}
  m_PrefabInstance: {fileID: 0}
  m_PrefabAsset: {fileID: 0}
  m_GameObject: {fileID: 0}
  m_Enabled: 1
  m_EditorHideFlags: 0
  m_Script: {fileID: 11500000, guid: 45a6ab8f6b12f0b4ab7afe55805a1668, type: 3}
  m_Name: RetailChain
  m_EditorClassIdentifier: 
  presetName: RetailChain
  retailOpenHours: {x: 9.5, y: 17.5}
  monday: 1
  tuesday: 1
  wednesday: 1
  thursday: 1
  friday: 1
  saturday: 1
  sunday: 1
  shifts:
  - name: day
    shiftType: 1
    decimalHours: {x: 9, y: 18}
    monday: 1
    tuesday: 0
    wednesday: 1
    thursday: 0
    friday: 1
    saturday: 0
    sunday: 1
    debugAssigned: 0
  - name: day alt
    shiftType: 1
    decimalHours: {x: 9, y: 18}
    monday: 0
    tuesday: 1
    wednesday: 0
    thursday: 1
    friday: 0
    saturday: 1
    sunday: 0
    debugAssigned: 0
