%YAML 1.1
%TAG !u! tag:unity3d.com,2011:
--- !u!114 &11400000
MonoBehaviour:
  m_ObjectHideFlags: 0
  m_CorrespondingSourceObject: {fileID: 0}
  m_PrefabInstance: {fileID: 0}
  m_PrefabAsset: {fileID: 0}
  m_GameObject: {fileID: 0}
  m_Enabled: 1
  m_EditorHideFlags: 0
  m_Script: {fileID: 11500000, guid: 45a6ab8f6b12f0b4ab7afe55805a1668, type: 3}
  m_Name: StreetVendor
  m_EditorClassIdentifier: 
  presetName: StreetVendor
  retailOpenHours: {x: 8.5, y: 20.5}
  monday: 1
  tuesday: 1
  wednesday: 1
  thursday: 1
  friday: 1
  saturday: 0
  sunday: 0
  shifts:
  - name: day
    shiftType: 1
    decimalHours: {x: 8.5, y: 20.5}
    monday: 1
    tuesday: 1
    wednesday: 1
    thursday: 1
    friday: 1
    saturday: 0
    sunday: 0
    debugAssigned: 0
