"Game Reference Key","Notes","Displayed Text","Alternate Text","Frequency","Requires Suffix","Misc."
"[The key used by the game to find strings]","[Not loaded into the game, for explanation only]","[The displayed string in-game]","[Alternate displayed string, eg. Nickname]","[For lists]","[Does this require a suffix for naming?]","[Miscellaneous]"
"— ","— ","— ","— ","— ","— ","— "
"submit case","","提交破案表格至市政廳","",,"","10:31 01/12/2022"
"case processing","","案件處理中……","",,"","10:31 01/12/2022"
"collect hand in","","前往市政廳領取謀殺案的破案表格","",,"","9:32 12/04/2023"
"answer the telephone","","接聽電話","",,"","10:31 01/12/2022"
"turn on the bedside light","","打開床頭燈","",,"","10:31 01/12/2022"
"turn on the light switch in the lounge","","打開客廳的燈","",,"","10:31 01/12/2022"
"turn on the light switch in the kitchen","","打開廚房的燈","",,"","10:31 01/12/2022"
"search the apartment for clues","","搜索住處尋找線索","",,"","10:31 01/12/2022"
"check the front door","","前門下面有一張字條……","",,"","9:32 12/04/2023"
"look up |notewritername| in your city directory","","在城市目錄中尋找|story.kidnapper.name|","",,"","10:31 01/12/2022"
"go to |notewriteraddress|","","前往|story.kidnapper.home.name|","",,"","10:31 01/12/2022"
"don't forget the key to your apartment","","別忘了帶你住處的鑰匙","",,"","10:31 01/12/2022"
"try the door","","嘗試開門","",,"","10:31 01/12/2022"
"find a way inside...","","想個辦法進去……","",,"","10:31 01/12/2022"
"option 1: pick the lock","","選項1：開鎖","",,"","10:31 01/12/2022"
"option 2: find a ventilation duct","","選項2：尋找通風管","",,"","10:31 01/12/2022"
"investigate the property","","調查建築","",,"","10:31 01/12/2022"
"search for clues","","尋找線索並將線索釘選至物證板","",,"","10:31 01/12/2022"
"find a hiding place!","","找到地方躲起來！","",,"","10:31 01/12/2022"
"escape the apartment","","逃離建築","",,"","10:31 01/12/2022"
"escape the building","","逃離建築","",,"","10:31 01/12/2022"
"investigate your leads...","","調查你的線索……","",,"","10:31 01/12/2022"
"pin the note to your case board","","使用紅色別針，將字條釘選至物證板","",,"","10:31 01/12/2022"
"inspect the city directory","","查看城市目錄","",,"","10:31 01/12/2022"
"pin |notewriteraddress| to your case board","","將|story.kidnapper.home.name|釘選至物證板","",,"","10:31 01/12/2022"
"plot a route to |notewriteraddress| on your map","","使用地址證據視窗的按鈕，規劃路線前往|story.kidnapper.home.name|","",,"","9:32 12/04/2023"
"close the case board by pressing space","","使用|controls.caseboard|關閉物證板","",,"","9:32 12/04/2023"
"unlock the door to your apartment","","與門把互動，開啟你住處被鎖住的門","",,"","10:31 01/12/2022"
"knock on the door","","敲門","",,"","10:31 01/12/2022"
"knock on the door again","","再次敲門","",,"","10:31 01/12/2022"
"identify the body","","找到照片ID辨識死者身分（四處找找看）","",,"","9:32 12/04/2023"
"find a hiding place! under the bed might work.","","找個地方躲起來，躲在床底下說不定行得通。","",,"","10:31 01/12/2022"
"access the backroom","","進入後室","",,"","10:31 01/12/2022"
"look for the entry matching what you found in |notewriterfirstname|'s apartment","","尋找跟你在|story.kidnapper.firstname|住處找到的東西吻合的條目","",,"","10:31 01/12/2022"
"look for evidence on |notewriterfirstname|'s desk","","在|story.kidnapper.name|的辦公桌尋找證據","",,"","10:31 01/12/2022"
"look for evidence on |kidnapperfirstname|'s desk","","在|story.notewriter.name|的辦公桌尋找證據","",,"","10:31 01/12/2022"
"look up |kidnappername| in a city directory","","在城市目錄中尋找|story.kidnapper.name|","",,"","10:31 01/12/2022"
"investigate |kidnapperaddress|","","調查|story.kidnapper.home.name|","",,"","10:31 01/12/2022"
"writerscalendar","","在|story.restaurant.name|與|story.kidnapper.casualname|碰面，時間約在|story.meettime.time|","",,"","10:31 01/12/2022"
"kidnappercalendar","","在|story.restaurant.name|與|story.notewriter.casualname|碰面？你說話最好注意一點！","",,"","10:31 01/12/2022"
"option 3: barge the door open","","選項3：強行破門而入","",,"","10:31 01/12/2022"
"find time of death","","分析屍體，釐清死亡時間點","",,"","10:31 01/12/2022"
"find cause of death","","釐清死因","",,"","10:31 01/12/2022"
"search for clues around the crime scene","","在犯罪現場周圍尋找線索","",,"","10:31 01/12/2022"
"scan for fingerprints","","從物品欄（|controls.weaponselect|）中選擇指紋掃描裝置，掃描罪犯可能觸碰過的任何東西並檢視物品","",,"","9:32 12/04/2023"
"search for clues at the crime scene","","在犯罪現場尋找線索","",,"","10:31 01/12/2022"
"this is from |restaurant|.","","來自|restaurant|","",,"","10:31 01/12/2022"
"access the cruncher","","使用電腦，密碼跟開門密碼一樣。","",,"","9:32 12/04/2023"
"access the back office","","使用|story.restaurant.name|的後台辦公室","",,"","10:31 01/12/2022"
"look for surveillance entries from around |meettime|","","查看|story.restaurant.name|監視攝影器在|story.meettime.day|的|story.meettime.time|左右的影像，尋找|story.kidnapper.firstname|的蹤影","",,"","14:25 11/09/2023"
"access |notewriterfirstname|'s cruncher","","在|story.workplace.name|使用|story.kidnapper.name|的電腦","",,"","9:32 12/04/2023"
"access kidnapper cruncher","","找到|story.kidnapper.name|在|story.workplace.name|的桌子並使用那邊的電腦","",,"","9:32 12/04/2023"
"complete the hand in form","","完成案件提交表格中的問題","",,"","10:31 01/12/2022"
"print surveillance, open the evidence window to the mystery person","","列印監視攝影器的畫面，開啟關於神秘人的證據視窗","",,"","10:31 01/12/2022"
"get victim's prints","","取得受害者的指紋","",,"","10:31 01/12/2022"
"print any relevent vmail threads","","列印任何有關的V郵件帖子","",,"","10:31 01/12/2022"
"turned on lights","","已開啟燈光","",,"","10:31 01/12/2022"
"pick up fingerprint scanner","","拾取指紋掃描裝置","",,"","10:31 01/12/2022"
"pick up handcuffs","","拾取手銬","",,"","10:31 01/12/2022"
"pick up equipment","","先打開箱子的上半部，然後再拾取設備","",,"","9:32 12/04/2023"
"sometimes it's useful to search the trash!","","有時候搜索垃圾也很有用！","",,"","10:31 01/12/2022"
"check for recent calls","","撥打541-0000查看近期通話","",,"","10:31 01/12/2022"
"i can use the building's telephone router to find out who called this number","","我可以使用這棟建築物的電話路由器，釐清是誰撥打這個號碼","",,"","10:31 01/12/2022"
"use handcuffs to arrest the killer, then call enforcers using a telephone","","使用手銬逮捕殺人犯，然後使用電話呼叫執法人員","",,"","10:31 01/12/2022"
"find |notewritername|","","找到|story.notewriter.name|","",,"","10:31 01/12/2022"
"use venilation ducts to escape, or wait for the enforcers to leave.","","使用通風管逃離現場，或是躲起來並等待執法人員自行離開。","",,"","9:32 12/04/2023"
"close the case board","","使用|controls.caseboard|關閉物證板","",,"","10:31 01/12/2022"
"look for hairpins or paperclips to pick the lock","","尋找髮夾或迴紋針來開鎖（|story.lockpicksneeded|）","",,"","15:12 06/02/2023"
"unlock the box","","與掛鎖互動解鎖盒子","",,"","10:31 01/12/2022"
"pick up the key to your apartment","","拾取你住處的鑰匙","",,"","10:31 01/12/2022"
"pick up hairpin","","拾取髮夾","",,"","10:31 01/12/2022"
"pick up paperclip","","拾取迴紋針","",,"","10:31 01/12/2022"
"i'd better come prepared...","","我最好先做好準備……","",,"","10:31 01/12/2022"
"find old detective equipment","","找到老舊的偵探設備","",,"","10:31 01/12/2022"
"pick up print scanner","","拾取指紋掃描裝置","",,"","10:31 01/12/2022"
"pick up lockpick kit","","拾取開鎖工具組","",,"","10:31 01/12/2022"
"select the name '|kidnappername|' on the note","","選擇紙條上的「|story.kidnapper.name|」名字","",,"","10:31 01/12/2022"
"pin |kidnappername| to your case board","","使用紅色別針，將|story.kidnapper.name|釘選至物證板","",,"","10:31 01/12/2022"
"open the case board and select the pinned |kidnapperaddress|","","使用|controls.caseboard|開啟物證板，並選擇釘選的|story.kidnapper.home.name|","",,"","9:32 12/04/2023"
"scan for prints","","掃描指紋","",,"","10:31 01/12/2022"
"thought i saw something over here...","","我好像有在這邊看到什麼……","",,"","10:31 01/12/2022"
"scan for prints 0","","在這邊掃描並查看指紋……","",,"","9:32 12/04/2023"
"scan for prints 1","","在這邊掃描並查看指紋……","",,"","9:32 12/04/2023"
"scan for prints 2","","在這邊掃描並查看指紋……","",,"","9:32 12/04/2023"
"scan for prints 3","","在這邊掃描並查看指紋……","",,"","9:32 12/04/2023"
"view hand in","","在物證板畫面，使用右上角的「破案」按鈕查看案件目標","",,"","10:31 01/12/2022"
"restaurant","","前往|story.restaurant.name|","",,"","9:32 12/04/2023"
"check the table where |story.kidnapper.name| was sitting","","查看|story.kidnapper.name|先前坐著|story.restaurant.name|的那張桌子","",,"","9:32 12/04/2023"
"office","","前往|story.workplace.name|","",,"","9:32 12/04/2023"
"weapons dealer","","在|story.kidnapper.firstname|謀殺案的背後，似乎是|story.weaponsdealer.name|負責提供武器給兇手：使用城市目錄找到那個位置","",,"","9:32 12/04/2023"
"search weapons dealer","","搜索|city.weaponsdealer.home.name|尋找線索，釐清|city.weaponsdealer.name|最近賣武器給了誰。","",,"","10:31 01/12/2022"
"find killer","","調查|story.associate.name|（使用城市目錄找到對方）","",,"","9:32 12/04/2023"
"find proof","","搜索|story.associate.home.name|尋找證據，將|story.associate.name|與案件連結","",,"","10:31 01/12/2022"
"access cabinet","","使用|story.kidnapper.home.building|的電話路由器","",,"","9:32 12/04/2023"
"find cabinet","","在|story.kidnapper.home.building|找到電話路由器櫃子","",,"","9:32 12/04/2023"
"unlock cabinet","","解鎖電話路由器櫃子的門，或強行開鎖","",,"","9:32 12/04/2023"
"trace call","","選擇打給別人或接進來的通話溯源追蹤。規劃路線前|story.kidnapper.home.name|往另一棟建築物","",,"","9:32 12/04/2023"
"access other cabinet","","使用|story.routeraddress.building|的其他櫃子","",,"","10:31 01/12/2022"
"find other call","","找到另一通跟你在|story.kidnapper.home.building|找到的通話吻合的通話","",,"","10:31 01/12/2022"
"go to other address","","前往|story.routeraddress.name|","",,"","10:31 01/12/2022"
"search other address","","搜索|story.routeraddress.name|","",,"","10:31 01/12/2022"
"it's worth checking out the address book...","","可以查找一下地址簿（釘選這個項目可能會有幫助！）","",,"","9:32 12/04/2023"
"access notewriter cruncher","","找到|story.notewriter.name|在|story.workplace.name|的桌子並使用那邊的電腦","",,"","9:32 12/04/2023"
"return to apartment","","回去你在|story.playersapartment.name|的住處（非必要）","",,"","10:31 01/12/2022"
"purchase apartment","","購買新住處","",,"","10:31 01/12/2022"
"view board","","透過告示板尋找求售的住處，或是進行支線工作賺取額外現金","",,"","10:31 01/12/2022"
"hint: you can pick the lock by looking at the handle","","你可以查看門把並開鎖，或是另外想辦法進去……","",,"","9:32 12/04/2023"
"disable security by tracing the red wires to the breaker box (optional)","","追蹤紅線找到斷路器箱，癱瘓保全系統（非必要）","",,"","10:31 01/12/2022"
"disable security systems by using the lever (optional)","","開啟|story.restaurant.name|的斷路器箱，並使用拉桿停用保全措施（非必要）","",,"","9:32 12/04/2023"
"you may be able to find the passcode on a note somewhere...","","你說不定能在某處的字條上找到密碼……","",,"","10:31 01/12/2022"
"bribe staff for access (optional)","","賄賂工作人員放行讓你進去（非必要）","",,"","10:31 01/12/2022"
"open the 'surveillance' application","","開啟「監視攝影器」應用程式","",,"","10:31 01/12/2022"
"|story.kidnapper.name| is sitting with somebody. open an evidence window by inspecting their mugshot","","|story.kidnapper.name|跟某個人坐在一起。檢視對方的臉部照片，開啟證據視窗","",,"","10:31 01/12/2022"
"find employee record for |story.kidnapper.name| for more info (optional)","","找到|story.kidnapper.name|的員工紀錄，查看更多資訊（非必要）","",,"","10:31 01/12/2022"
"open the 'v mail' application","","開啟「V郵件」應用程式","",,"","10:31 01/12/2022"
"install sync disk","","造訪同步診所安裝同步硬碟","",,"","15:12 06/02/2023"
"arrest the killer","","逮捕殺人犯","",,"","9:32 12/04/2023"
"playersbirthday","","|city.player.casualname|的生日","",,"","9:32 12/04/2023"
"partnersbirthday","","山姆的生日","",,"","9:32 12/04/2023"
"find and talk to |story.slophouseowner.name| about accommodation","","找到|story.flophouseowner.name|並與對方討論住宿的事情（使用城市目錄）","",,"","9:32 12/04/2023"
"visit |story.flophouse.name|","","造訪|story.flophouse.name|","",,"","9:32 12/04/2023"
"check notice board","","查看告示板","",,"","9:32 12/04/2023"
"you can change the decor of your apartment using the inventory menu (|controls.weaponselect|) (optional)","","你可以使用物品欄選單（|controls.weaponselect|）變更你住處的裝潢（非必要）","",,"","9:32 12/04/2023"
"work towards retirement by advancing social ranks (optional)","","提高你的社會階級，往退休的目標努力（非必要）","",,"","9:32 12/04/2023"
"you can close this case when ready by using the resolve button","","準備好之後，使用「破案」按鈕關閉這個案件","",,"","9:32 12/04/2023"
"hint: you can always find a city directory next to a public telelphone","","提示：你隨時都可以在公共電話旁邊找到城市目錄","",,"","9:32 12/04/2023"
"hint: you also search for public or visited places by using |controls.notebook|","","提示：你可以使用|controls.notebook|搜索公共區域或你造訪的區域（或查看證據）","",,"","9:32 12/04/2023"
"look around for vents for a potential quick exit 0","","四處看看有沒有通風口可以用來快速逃脫","",,"","9:32 12/04/2023"
"look around for vents for a potential quick exit 1","","四處看看有沒有通風口可以用來快速逃脫","",,"","9:32 12/04/2023"
"look around for vents for a potential quick exit 2","","四處看看有沒有通風口可以用來快速逃脫","",,"","9:32 12/04/2023"
"pick up the sync disk in the mailbox","","拾取郵箱內的同步圓盤","",,"","9:32 12/04/2023"
"what is the full name of the killer?","","兇手的全名是什麼？","",,"","9:32 12/04/2023"
"do you have evidence that places the killer at a crime scene?","","你是否有在犯罪現場找到能夠指認兇手的證據？","",,"","9:32 12/04/2023"
"where does the killer live?","","兇手住在什麼地方？","",,"","9:32 12/04/2023"
"have you located the murder weapon?","","你是否已經找到兇手的作案兇器？","",,"","9:32 12/04/2023"
