"Game Reference Key","Notes","Displayed Text","Alternate Text","Frequency","Requires Suffix","Misc."
"[The key used by the game to find strings]","[Not loaded into the game, for explanation only]","[The displayed string in-game]","[Alternate displayed string, eg. Nickname]","[For lists]","[Does this require a suffix for naming?]","[Miscellaneous]"
"— ","— ","— ","— ","— ","— ","— "
"address","","地址","",,"","10:31 01/12/2022"
"type","","類型","",,"","10:31 01/12/2022"
"?","","？","",,"","10:31 01/12/2022"
"office","","辦公室","",,"","10:31 01/12/2022"
"eaterykitchen","","廚房","",,"","10:31 01/12/2022"
"lobby","","大廳","",,"","10:31 01/12/2022"
"ground floor","","一樓","",,"","10:31 01/12/2022"
"floor landing","","過道","",,"","10:31 01/12/2022"
"jobposting","","工作啟事","",,"","10:31 01/12/2022"
"postedby","","的發布者是","",,"","10:31 01/12/2022"
"isperpetrator","","犯下了","",,"","10:31 01/12/2022"
"landing","","樓梯平臺","",,"","10:31 01/12/2022"
"key","","鑰匙","",,"","10:31 01/12/2022"
"birthday","","出生於","",,"","10:31 01/12/2022"
"age","","年齡","",,"","10:31 01/12/2022"
"belongsto","","屬於","",,"","10:31 01/12/2022"
"fingerprintbelongsto","","屬於","",,"","10:31 01/12/2022"
"sentby","","是來自","",,"","10:31 01/12/2022"
"located in the","","位於","",,"","10:31 01/12/2022"
"building","","建築","",,"","10:31 01/12/2022"
"menu","","菜單","",,"","15:12 06/02/2023"
"worksat","","的工作地點在","",,"","10:31 01/12/2022"
"as a","","的身分是","",,"","10:31 01/12/2022"
"livesat","","住在","",,"","10:31 01/12/2022"
"locatedat","","位於","",,"","15:12 06/02/2023"
"workshours","","工作時間","",,"","15:12 06/02/2023"
"unknown","","未知市民","",,"","10:25 21/09/2023"
"citizen","","未知市民","",,"","10:25 21/09/2023"
"purchasedat","","購買自","",,"","10:31 01/12/2022"
"foundat","","發現於","",,"","15:12 06/02/2023"
"foundatnotname","","發現於","",,"","15:12 06/02/2023"
"deceased","","過世","",,"","10:31 01/12/2022"
"paid by","","的付款者是","",,"","10:31 01/12/2022"
"purchasedby","","的購買者是","",,"","10:31 01/12/2022"
"purchased","","購買成功","",,"","10:31 01/12/2022"
"at","","在","",,"","10:31 01/12/2022"
"matches","","吻合","",,"","10:31 01/12/2022"
"birthdaycard","","生日卡片","",,"","10:31 01/12/2022"
"workteam","","工作同事為","",,"","10:31 01/12/2022"
"workother","","工作同事為","",,"","10:31 01/12/2022"
"familiarwork","","工作同事為","",,"","10:31 01/12/2022"
"workswith","","工作同事為","",,"","10:31 01/12/2022"
"lover","","的情人是","",,"","10:31 01/12/2022"
"isfriendswith","","的朋友是","",,"","10:31 01/12/2022"
"neighbor","","的鄰居是","",,"","10:31 01/12/2022"
"familiarresidence","","的鄰居是","",,"","10:31 01/12/2022"
"purchasedtime","","購買時間介於","",,"","10:31 01/12/2022"
"soldat","","出售於","",,"","10:31 01/12/2022"
"open","","開啟","",,"","10:31 01/12/2022"
"every day","","每日","",,"","10:31 01/12/2022"
"vacant","","空缺","",,"","10:31 01/12/2022"
"businessbackroom","","後台辦公室","",,"","10:31 01/12/2022"
"customlink","","已建立連結","",,"","10:31 01/12/2022"
"photoof","","屬於","",,"","10:31 01/12/2022"
"photograph","","照片","",,"","10:31 01/12/2022"
"containspassword","","內含密碼","",,"","10:31 01/12/2022"
"makesreferenceto","","提及","",,"","10:31 01/12/2022"
"string_autofact","","[自動建立]","",,"","10:31 01/12/2022"
"string_customfact","","[玩家建立]","",,"","10:31 01/12/2022"
"food","","食物","",,"","10:31 01/12/2022"
"24 hours","","24小時","",,"","10:31 01/12/2022"
"snacks","","點心","",,"","10:31 01/12/2022"
"drink","","喝","",,"","10:31 01/12/2022"
"foundon","","發現自","",,"","10:31 01/12/2022"
"isinrelationshipwith","","的來往對象為","",,"","10:31 01/12/2022"
"referencedin","","被提及於","",,"","10:31 01/12/2022"
"park","","公園","",,"","10:31 01/12/2022"
"commerical","","商務","",,"","10:31 01/12/2022"
"commercial","","商務","",,"","10:31 01/12/2022"
"industrial","","工業","",,"","10:31 01/12/2022"
"residential","","生活","",,"","10:31 01/12/2022"
"set","","設定","",,"","10:31 01/12/2022"
"fingerprint","","指紋","",,"","10:31 01/12/2022"
"except","","例外情況為","",,"","10:31 01/12/2022"
"featuresin","","出現在","",,"","10:31 01/12/2022"
"murderhappenedat","","死亡時間","",,"","10:31 01/12/2022"
"timeofdeath","","死亡時間","",,"","10:31 01/12/2022"
"from","","，傳送者：","",,"","10:31 01/12/2022"
"to","","，接收者：","",,"","10:31 01/12/2022"
"istelephonenumberof","","這支電話號碼屬於","",,"","10:31 01/12/2022"
"istelephonenumberfor","","這支電話號碼是給","",,"","10:31 01/12/2022"
"stranger","","陌生人","",,"","10:31 01/12/2022"
"called","","已致電","",,"","10:31 01/12/2022"
"callfrom","","來電：","",,"","10:31 01/12/2022"
"callto","","去電：","",,"","10:31 01/12/2022"
"unknown type","","未知類型","",,"","10:31 01/12/2022"
"diedat","","死亡時間為","",,"","10:31 01/12/2022"
"publicproperty","","公共財產","",,"","10:31 01/12/2022"
"municipal","","市政","",,"","10:31 01/12/2022"
"indentify number","","身份證號","",,"","15:12 06/02/2023"
"indentify last caller","","找出最後通話者","",,"","15:12 06/02/2023"
"enforcers","","執法人員","",,"","10:31 01/12/2022"
"payphone","","電話亭","",,"","10:31 01/12/2022"
"duration","","持續時間","",,"","10:31 01/12/2022"
"purchase","","購買","",,"","10:31 01/12/2022"
"heel","","高跟鞋","",,"","10:31 01/12/2022"
"size","","尺寸","",,"","10:31 01/12/2022"
"boots","","靴子","",,"","10:31 01/12/2022"
"normal","","普通","",,"","10:31 01/12/2022"
"istarget","","是目標：","",,"","10:31 01/12/2022"
"livesatbuilding","","的居住建築是","",,"","10:31 01/12/2022"
"worksatbuilding","","的工作建築是","",,"","10:31 01/12/2022"
"livesonfloor","","的居住樓層是","",,"","10:31 01/12/2022"
"photo","","照片","",,"","10:31 01/12/2022"
"voice","","聲音","",,"","10:31 01/12/2022"
"fingerprints","","指紋","",,"","10:31 01/12/2022"
"name","","名字","",,"","10:31 01/12/2022"
"isparamourof","","的情人是","",,"","10:31 01/12/2022"
"unknown location","","未知位置","",,"","10:31 01/12/2022"
"floor","","樓層","",,"","9:32 12/04/2023"
"issuspectedcheating","","的情人是","",,"","14:25 11/09/2023"
"favourite","","最喜歡的 ","",,"","14:25 11/09/2023"
"is",""," ","",,"","14:25 11/09/2023"
