"Game Reference Key","Notes","Displayed Text","Alternate Text","Frequency","Requires Suffix","Misc."
"[The key used by the game to find strings]","[Not loaded into the game, for explanation only]","[The displayed string in-game]","[Alternate displayed string, eg. Nickname]","[For lists]","[Does this require a suffix for naming?]","[Miscellaneous]"
"— ","— ","— ","— ","— ","— ","— "
"scan","","掃描","",,"","10:31 01/12/2022"
"evening","","晚上","",,"","10:31 01/12/2022"
"morning","","早上","",,"","10:31 01/12/2022"
"confirmed","","已確認","",,"","10:31 01/12/2022"
"bookclub","","閱讀俱樂部","",,"","10:31 01/12/2022"
"botanyclub","","園藝俱樂部","",,"","10:31 01/12/2022"
"chessclub","","西洋棋俱樂部","",,"","10:31 01/12/2022"
"dramagroup","","戲劇團體","",,"","10:31 01/12/2022"
"gunclub","","槍械俱樂部","",,"","10:31 01/12/2022"
"historyclub","","歷史俱樂部","",,"","10:31 01/12/2022"
"scificlub","","科幻俱樂部","",,"","10:31 01/12/2022"
"cheatersmeet","","約會","",,"","10:31 01/12/2022"
"knittingclub","","編織俱樂部","",,"","10:31 01/12/2022"
"winetastersclub","","品酒俱樂部","",,"","10:31 01/12/2022"
"tarotclub","","塔羅牌俱樂部","",,"","10:31 01/12/2022"
"boss","","老大","",,"","10:31 01/12/2022"
"redgumsmeetup","","紅齦聚會","",,"","10:31 01/12/2022"
"pokerclub","","撲克牌俱樂部","",,"","10:31 01/12/2022"
"afternoon","","下午","",,"","10:31 01/12/2022"
"the |city.name| herald","","|city.name|先鋒","",,"","10:31 01/12/2022"
"newsstand_ticker","","康德新聞，24小時全年無休","",,"","10:31 01/12/2022"
"sir","","先生","",,"","10:31 01/12/2022"
"null","","空","",,"","10:31 01/12/2022"
"ma'am","","女士","",,"","10:31 01/12/2022"
"east","","東","",,"","9:32 12/04/2023"
"west","","西","",,"","9:32 12/04/2023"
"north","","北","",,"","9:32 12/04/2023"
"south","","南","",,"","9:32 12/04/2023"
"static_killer_ref_1","","變態殺人魔","",,"","9:32 12/04/2023"
"static_killer_ref_2","","緋紅殺人魔","",,"","9:32 12/04/2023"
"static_killer_ref_3","","謎樣殺人魔","",,"","9:32 12/04/2023"
"static_killer_ref_4","","變態殺手","",,"","9:32 12/04/2023"
"static_killer_ref_5","","街頭跟蹤者","",,"","9:32 12/04/2023"
"static_killer_ref_6","","恐怖死神","",,"","9:32 12/04/2023"
"static_killer_ref_7","","夜行者","",,"","9:32 12/04/2023"
"static_killer_ref_8","","深夜尾隨者","",,"","9:32 12/04/2023"
"static_killer_ref_9","","大城市殺人魔","",,"","9:32 12/04/2023"
"static_killer_ref_10","","星光殺手","",,"","9:32 12/04/2023"
