"Game Reference Key","Notes","Displayed Text","Alternate Text","Frequency","Requires Suffix","Misc."
"[The key used by the game to find strings]","[Not loaded into the game, for explanation only]","[The displayed string in-game]","[Alternate displayed string, eg. Nickname]","[For lists]","[Does this require a suffix for naming?]","[Miscellaneous]"
"— ","— ","— ","— ","— ","— ","— "
"chapter i","","大半夜","",,"","10:31 01/12/2022"
"introduction","","前序","",,"","15:12 06/02/2023"
