%YAML 1.1
%TAG !u! tag:unity3d.com,2011:
--- !u!114 &11400000
MonoBehaviour:
  m_ObjectHideFlags: 0
  m_CorrespondingSourceObject: {fileID: 0}
  m_PrefabInstance: {fileID: 0}
  m_PrefabAsset: {fileID: 0}
  m_GameObject: {fileID: 0}
  m_Enabled: 1
  m_EditorHideFlags: 0
  m_Script: {fileID: 11500000, guid: 3aedd3a7847dd714e95fc4dea1881354, type: 3}
  m_Name: Lazarus8mm
  m_EditorClassIdentifier: 
  presetName: Lazarus8mm
  type: 0
  ammunition:
  - {fileID: 11400000, guid: fef95bd0fe3b93f4d83277f2abc0eae6, type: 2}
  - {fileID: 11400000, guid: 8fc0ac5a07ed42f4cba20a86e2c6c33d, type: 2}
  murderDifficultyModifier: 0
  muzzleOffset: {x: -0.0532, y: 0.0193, z: 0.121}
  brassEjectOffset: {x: -0.0726, y: 0, z: -0.0492}
  itemRightOverride: {fileID: 4145892562636802283, guid: beb35ca43b0464d4b91902bfbd1ff4bb,
    type: 3}
  itemRightLocalPos: {x: -0.0408, y: -0.1508, z: 0.085}
  itemRightLocalEuler: {x: 90, y: 90, z: 0}
  itemLeftOverride: {fileID: 0}
  itemLeftLocalPos: {x: 0, y: 0, z: 0}
  itemLeftLocalEuler: {x: 0, y: 0, z: 0}
  overideUsesCarryAnimation: 0
  overrideCarryAnimation: 1
  usedInPersonalDefence: 1
  disabled: 0
  basePriority: 7
  socialClassRange: {x: 0.1, y: 1}
  citizenSpawningWithScore: 1
  personalDefenceTraitModifiers:
  - rule: 0
    traitList:
    - {fileID: 11400000, guid: 70e492a3c2895354481e5e505152ce62, type: 2}
    mustPassForApplication: 0
    scoreModifier: 2
  - rule: 0
    traitList:
    - {fileID: 11400000, guid: f190c8774a7c4084a888588b2adf1946, type: 2}
    - {fileID: 11400000, guid: cdd8c1f26aba14d408cac0912a7c623f, type: 2}
    mustPassForApplication: 0
    scoreModifier: 2
  jobModifierList:
  - {fileID: 11400000, guid: cfdbf6a8a453e874f9611869d7efbcc3, type: 2}
  - {fileID: 11400000, guid: 675c764e534e8d844b557699d1ddf540, type: 2}
  - {fileID: 11400000, guid: 16a5c9117caffb749a4d9c05e860d119, type: 2}
  jobScoreModifier: 2
  drawnNerveModifier: -0.35
  barkTriggerChance: 1
  bark: 34
  incomingNerveDamageMultiplier: 0.7
  attackTriggerPoint: 0.1
  attackRemovePoint: 1
  shots: 1
  weaponMaxRange: {x: 6, y: 12}
  minimumRange: 1
  maximumBulletRange: 25
  weaponRangeLerpSource: 3
  fireDelay: {x: 1, y: 0.33}
  fireDelayLerpSource: 3
  attackAccuracy: {x: 0.25, y: 1}
  attackAccuracyLerpSource: 3
  attackDamage: {x: 0.25, y: 0.4}
  attackDamageLerpSource: 2
  applyPoison: 0
  shellCasing: {fileID: 11400000, guid: c91fdf323f856fa489baf70b80af2ee8, type: 2}
  ejectBrassSetting: 1
  bulletHole: {fileID: 11400000, guid: 845eb68fb35403a498821b9234736f2e, type: 2}
  entryWound: {fileID: 11400000, guid: 5ab123cc3dce16948a195565d1d4d147, type: 2}
  forwardSpatter: {fileID: 11400000, guid: a034429f3e30aba4e9bad658ff21c431, type: 2}
  backSpatter: {fileID: 11400000, guid: 56d9513be80d0a24fadd12f499aba07c, type: 2}
  fireEvent: {fileID: 11400000, guid: a8c26fd7a9490ed4c8b6142be1c4d85a, type: 2}
  impactEvent: {fileID: 0}
  impactEventBody: {fileID: 0}
  impactEventPlayer: {fileID: 11400000, guid: 7f4925c0dcc68984cba075cf1ed2fc92, type: 2}
