%YAML 1.1
%TAG !u! tag:unity3d.com,2011:
--- !u!114 &11400000
MonoBehaviour:
  m_ObjectHideFlags: 0
  m_CorrespondingSourceObject: {fileID: 0}
  m_PrefabInstance: {fileID: 0}
  m_PrefabAsset: {fileID: 0}
  m_GameObject: {fileID: 0}
  m_Enabled: 1
  m_EditorHideFlags: 0
  m_Script: {fileID: 11500000, guid: 9d757e97b11d4064db60cf985a2a0d9e, type: 3}
  m_Name: FizzTattered
  m_EditorClassIdentifier: 
  presetName: FizzTattered
  disable: 0
  texturePreview: {fileID: 0}
  material: {fileID: 2100000, guid: b970fc789c86af34fb5eae95cb6d4d4e, type: 2}
  orientationCompatibility: 03000000
  pixelScaleMultiplier: 0.03
  allowInResidential: 1
  allowInCommerical: 1
  allowInLobby: 1
  allowOnStreet: 1
  basePriority: 1
  colourMatching: []
  colourMatchingScale: 5
  minimumWealth: 0
  maximumWealth: 1
  roomMatchingScale: 5
  modernity: 6
  cleanness: 10
  loudness: 2
  emotive: 0
  mustRequireTraitFromBelow: 0
  traitModifiers:
  - trait: {fileID: 11400000, guid: 4f6f756129419e14186a64eb64748c5f, type: 2}
    modifier: 3
  - trait: {fileID: 11400000, guid: c4a1ea6c4f67c7048a533afba7bce0ea, type: 2}
    modifier: 3
  - trait: {fileID: 11400000, guid: cf32dfaa753f46243b8d615ab3e09dc1, type: 2}
    modifier: 1
  - trait: {fileID: 11400000, guid: eab8715264b047545bb9d96252d6406b, type: 2}
    modifier: 1
  useDynamicText: 0
  dynamicTextSource: 0
  textFont: {fileID: 0}
  textColour: {r: 1, g: 1, b: 1, a: 1}
  textSize: 24
