%YAML 1.1
%TAG !u! tag:unity3d.com,2011:
--- !u!114 &11400000
MonoBehaviour:
  m_ObjectHideFlags: 0
  m_CorrespondingSourceObject: {fileID: 0}
  m_PrefabInstance: {fileID: 0}
  m_PrefabAsset: {fileID: 0}
  m_GameObject: {fileID: 0}
  m_Enabled: 1
  m_EditorHideFlags: 0
  m_Script: {fileID: 11500000, guid: 448be6b3c4b5f14489a83188fef044ad, type: 3}
  m_Name: AmericanDiner
  m_EditorClassIdentifier: 
  presetName: AmericanDiner
  debug: 0
  fitsUnitSizeMin: 0
  fitsUnitSizeMax: 225
  hardSizeLimits: 0
  minMaxFloors: {x: 0, y: 999}
  important: 1
  maxInstances: 2
  baseScore: 3
  baseScoreFrequencyPenalty: 1
  idealFootfall: 0.798
  footfallMultiplier: 3
  addressRules: []
  limitToBuildings: []
  forcePick: 0
  ethnicityMatters: 1
  ethnicity: 15
  compatible:
  - {fileID: 11400000, guid: 801a83a428c364440be81e76197df3b2, type: 2}
  roomConfig:
  - {fileID: 11400000, guid: 64def6d02fb945a44b7179adf8bb6c22, type: 2}
  - {fileID: 11400000, guid: b2b134764286b8c45a9c50c9ddd6fad8, type: 2}
  - {fileID: 11400000, guid: 5c526341ba51af24e9b5f2293b6fbecc, type: 2}
  - {fileID: 11400000, guid: b2b134764286b8c45a9c50c9ddd6fad8, type: 2}
  access: 0
  canPassThrough: 1
  openHoursDicatedByAdjoiningCompany: 0
  needsPassword: 0
  dictionaryPasswordSources: []
  minimumPasswordLength: 5
  company: {fileID: 11400000, guid: bc4de5b3b5b9cd94eb2bbbfcce3ec6da, type: 2}
  residence: {fileID: 0}
  playerKnowsPurpose: 0
  evidenceIconLarge: {fileID: 21300000, guid: 245a3bdf86730b942a44eacd48f73fdf, type: 3}
  chanceOfNameSignHorizontal: 1
  horizontalSignOffset: {x: 0, y: 0, z: 0}
  signCharacterSet:
  - {fileID: 11400000, guid: db4508c8d66ba8a498c706f8cccd6375, type: 2}
  chanceOfNameSignVertical: 1
  possibleSigns: []
  specialItems:
  - {fileID: 11400000, guid: 0366ccf380754fc499460a30bf2be8f3, type: 2}
  - {fileID: 11400000, guid: c02454e1d3517404cb887ffebfbb63c3, type: 2}
  - {fileID: 11400000, guid: c02454e1d3517404cb887ffebfbb63c3, type: 2}
  - {fileID: 11400000, guid: c02454e1d3517404cb887ffebfbb63c3, type: 2}
  - {fileID: 11400000, guid: c02454e1d3517404cb887ffebfbb63c3, type: 2}
  - {fileID: 11400000, guid: c02454e1d3517404cb887ffebfbb63c3, type: 2}
  - {fileID: 11400000, guid: c02454e1d3517404cb887ffebfbb63c3, type: 2}
  - {fileID: 11400000, guid: 0544372096f5bab42b035df8a653be18, type: 2}
  - {fileID: 11400000, guid: 0544372096f5bab42b035df8a653be18, type: 2}
  - {fileID: 11400000, guid: 5f98eb22d1d770241879488d39818cbc, type: 2}
  - {fileID: 11400000, guid: 5f98eb22d1d770241879488d39818cbc, type: 2}
  - {fileID: 11400000, guid: 0a91c30cc66b7f04d927c93d72b6c970, type: 2}
  - {fileID: 11400000, guid: 9d0cc4dc05e9f59449610f00a73612b4, type: 2}
  - {fileID: 11400000, guid: c82308c874af6dd48a9b70b6764828bf, type: 2}
  - {fileID: 11400000, guid: c82308c874af6dd48a9b70b6764828bf, type: 2}
  - {fileID: 11400000, guid: 751d7b68f8fd81745829332048a992c1, type: 2}
  - {fileID: 11400000, guid: 751d7b68f8fd81745829332048a992c1, type: 2}
  - {fileID: 11400000, guid: 996aca1abee41d54fbac775f5a05f126, type: 2}
  - {fileID: 11400000, guid: 0dd4707e76485e54e9449c020ee9429b, type: 2}
  chanceOfExternalSpareKey: 0
  airVentRange: {x: 1, y: 2}
  useOwnSecuritySystem: 0
  useOwnBreakerBox: 0
  alarmLocksDownFloor: 0
  overrideBuildingEnvironment: 0
  sceneProfile: 1
  entrancesLockedByDefault: 1
  leaveLightsOn: 0
  disableLockingUp: 0
  disableLocationInformationDisplay: 0
  forceCityDirectoryInclusion: 0
  overrideBuildingName: 1
  sameBuildingEmployeesAuthority: 1
  sameBuildingResidentsAuthority: 0
  canFeatureLostAndFound: 1
  minimumLandValue: 0
  maximumLandValue: 1
  disableThis: 0
