%YAML 1.1
%TAG !u! tag:unity3d.com,2011:
--- !u!114 &11400000
MonoBehaviour:
  m_ObjectHideFlags: 0
  m_CorrespondingSourceObject: {fileID: 0}
  m_PrefabInstance: {fileID: 0}
  m_PrefabAsset: {fileID: 0}
  m_GameObject: {fileID: 0}
  m_Enabled: 1
  m_EditorHideFlags: 0
  m_Script: {fileID: 11500000, guid: 448be6b3c4b5f14489a83188fef044ad, type: 3}
  m_Name: Apartment
  m_EditorClassIdentifier: 
  presetName: Apartment
  debug: 0
  fitsUnitSizeMin: 0
  fitsUnitSizeMax: 225
  hardSizeLimits: 0
  minMaxFloors: {x: -1, y: 999}
  important: 0
  maxInstances: 9999
  baseScore: 3
  baseScoreFrequencyPenalty: 1
  idealFootfall: 0
  footfallMultiplier: 3
  addressRules: []
  limitToBuildings: []
  forcePick: 0
  ethnicityMatters: 0
  ethnicity: 15
  compatible:
  - {fileID: 11400000, guid: 2c6bbbd57bc984446b8350b583b6f0b3, type: 2}
  roomConfig:
  - {fileID: 11400000, guid: 89c8e5cd9aa214d48959831b6101edd9, type: 2}
  - {fileID: 11400000, guid: cb6d8fcbd432eac4089df85d8677007c, type: 2}
  - {fileID: 11400000, guid: 7258ac6062427a3489664cff155995f4, type: 2}
  - {fileID: 11400000, guid: 91d227b1bc12dae409ca721fa70e280a, type: 2}
  - {fileID: 11400000, guid: 9fada49678284e447ab27cb3bd2d3a18, type: 2}
  - {fileID: 11400000, guid: e2a6646f888496f4b92134d55b2e232c, type: 2}
  - {fileID: 11400000, guid: fd4ce24eb00b8d441a684e68d20041f7, type: 2}
  - {fileID: 11400000, guid: 3df0f698b54471f4f86576f0620fdd51, type: 2}
  - {fileID: 11400000, guid: ccd885e6adbab9e4c9cc1c7a806b7281, type: 2}
  - {fileID: 11400000, guid: 8072140c1dc4b434094ad6bd5773ecaf, type: 2}
  - {fileID: 11400000, guid: 892c3ba3269338f4486ae13645adea13, type: 2}
  - {fileID: 11400000, guid: e0dcb6cce789d424ca565c55df566417, type: 2}
  access: 1
  canPassThrough: 0
  openHoursDicatedByAdjoiningCompany: 0
  needsPassword: 0
  dictionaryPasswordSources: []
  minimumPasswordLength: 5
  company: {fileID: 0}
  residence: {fileID: 11400000, guid: 676f8e191a4e51d4d81e702fe0dd3fb8, type: 2}
  playerKnowsPurpose: 1
  evidenceIconLarge: {fileID: 21300000, guid: b934f0260d2f77241b0a68fd239bc587, type: 3}
  chanceOfNameSignHorizontal: 1
  horizontalSignOffset: {x: 0, y: 0, z: 0}
  signCharacterSet: []
  chanceOfNameSignVertical: 1
  possibleSigns: []
  specialItems:
  - {fileID: 11400000, guid: c4dce246b0ef12249ad89ce869a368ff, type: 2}
  chanceOfExternalSpareKey: 0.15
  airVentRange: {x: 1, y: 2}
  useOwnSecuritySystem: 0
  useOwnBreakerBox: 0
  alarmLocksDownFloor: 0
  overrideBuildingEnvironment: 0
  sceneProfile: 1
  entrancesLockedByDefault: 1
  leaveLightsOn: 0
  disableLockingUp: 0
  disableLocationInformationDisplay: 0
  forceCityDirectoryInclusion: 0
  overrideBuildingName: 0
  sameBuildingEmployeesAuthority: 0
  sameBuildingResidentsAuthority: 0
  minimumLandValue: 0
  maximumLandValue: 1
  disableThis: 0
