%YAML 1.1
%TAG !u! tag:unity3d.com,2011:
--- !u!114 &11400000
MonoBehaviour:
  m_ObjectHideFlags: 0
  m_CorrespondingSourceObject: {fileID: 0}
  m_PrefabInstance: {fileID: 0}
  m_PrefabAsset: {fileID: 0}
  m_GameObject: {fileID: 0}
  m_Enabled: 1
  m_EditorHideFlags: 0
  m_Script: {fileID: 11500000, guid: 448be6b3c4b5f14489a83188fef044ad, type: 3}
  m_Name: BlackmarketSyncClinic
  m_EditorClassIdentifier: 
  presetName: BlackmarketSyncClinic
  debug: 0
  fitsUnitSizeMin: 0
  fitsUnitSizeMax: 60
  hardSizeLimits: 0
  minMaxFloors: {x: -1, y: 999}
  important: 1
  maxInstances: 3
  baseScore: 3
  baseScoreFrequencyPenalty: 1
  idealFootfall: 0
  footfallMultiplier: 3
  addressRules: []
  limitToBuildings: []
  forcePick: 0
  ethnicityMatters: 0
  ethnicity: 15
  compatible:
  - {fileID: 11400000, guid: c3d8a38f3262afc4da4aa808ab71d57b, type: 2}
  roomConfig:
  - {fileID: 11400000, guid: 8e2cb75667ff86646889a5bece63e3fe, type: 2}
  - {fileID: 11400000, guid: 6f80cbcb2aab58b4b9360aec542e561f, type: 2}
  - {fileID: 11400000, guid: 87264d8ccfa2b0d44b0addc964ee9e7f, type: 2}
  access: 0
  canPassThrough: 0
  openHoursDicatedByAdjoiningCompany: 0
  needsPassword: 0
  dictionaryPasswordSources:
  - names.animals
  - names.colours
  - names.exciting
  - names.flowers
  minimumPasswordLength: 5
  company: {fileID: 11400000, guid: 154532c8d423a7244bcb2a57a8bd2d45, type: 2}
  residence: {fileID: 0}
  playerKnowsPurpose: 0
  evidenceIconLarge: {fileID: 21300000, guid: 0579c5b5dd22f86488ad3263b0f7436c, type: 3}
  chanceOfNameSignHorizontal: 0
  horizontalSignOffset: {x: 0, y: 0.6, z: 0.3}
  signCharacterSet: []
  chanceOfNameSignVertical: 0
  possibleSigns: []
  specialItems:
  - {fileID: 11400000, guid: ed3f9e5d64aa0594886e00847e261332, type: 2}
  - {fileID: 11400000, guid: a2cbee9272c438242ac89c0cd5b5fef5, type: 2}
  - {fileID: 11400000, guid: 46d39228ad6dd23498ff2f0247e23f9a, type: 2}
  - {fileID: 11400000, guid: 46d39228ad6dd23498ff2f0247e23f9a, type: 2}
  - {fileID: 11400000, guid: 3f13e0648ba1c7044bc516e276f5127f, type: 2}
  - {fileID: 11400000, guid: 3f13e0648ba1c7044bc516e276f5127f, type: 2}
  - {fileID: 11400000, guid: e143181145f87284993643292b8b42c6, type: 2}
  chanceOfExternalSpareKey: 0
  airVentRange: {x: 1, y: 2}
  useOwnSecuritySystem: 1
  useOwnBreakerBox: 1
  alarmLocksDownFloor: 0
  overrideBuildingEnvironment: 1
  sceneProfile: 2
  entrancesLockedByDefault: 1
  leaveLightsOn: 1
  disableLockingUp: 0
  disableLocationInformationDisplay: 0
  forceCityDirectoryInclusion: 0
  overrideBuildingName: 0
  sameBuildingEmployeesAuthority: 0
  sameBuildingResidentsAuthority: 0
  minimumLandValue: 0
  maximumLandValue: 0.053
  disableThis: 0
