%YAML 1.1
%TAG !u! tag:unity3d.com,2011:
--- !u!114 &11400000
MonoBehaviour:
  m_ObjectHideFlags: 0
  m_CorrespondingSourceObject: {fileID: 0}
  m_PrefabInstance: {fileID: 0}
  m_PrefabAsset: {fileID: 0}
  m_GameObject: {fileID: 0}
  m_Enabled: 1
  m_EditorHideFlags: 0
  m_Script: {fileID: 11500000, guid: 448be6b3c4b5f14489a83188fef044ad, type: 3}
  m_Name: ChineseEatery
  m_EditorClassIdentifier: 
  presetName: ChineseEatery
  debug: 0
  fitsUnitSizeMin: 0
  fitsUnitSizeMax: 225
  hardSizeLimits: 0
  minMaxFloors: {x: 0, y: 999}
  important: 0
  maxInstances: 99
  baseScore: 3
  baseScoreFrequencyPenalty: 1
  idealFootfall: 1
  footfallMultiplier: 3
  addressRules:
  - districtPreset: {fileID: 11400000, guid: e6754b574d1a94a4e9dda4275cdc772c, type: 2}
    scoreModifier: 3
  limitToBuildings: []
  forcePick: 0
  ethnicityMatters: 1
  ethnicity: 7
  compatible:
  - {fileID: 11400000, guid: 02e19e0a6435a9e419797fbdfa147422, type: 2}
  roomConfig:
  - {fileID: 11400000, guid: ec8f80d15b148484f80bed6626d4bc54, type: 2}
  - {fileID: 11400000, guid: a0dbcaa536093df44b8869b156561bf8, type: 2}
  - {fileID: 11400000, guid: ce26207b8e7f7634a836c3131d885664, type: 2}
  - {fileID: 11400000, guid: 5c526341ba51af24e9b5f2293b6fbecc, type: 2}
  access: 0
  canPassThrough: 0
  openHoursDicatedByAdjoiningCompany: 0
  needsPassword: 0
  dictionaryPasswordSources: []
  minimumPasswordLength: 5
  company: {fileID: 11400000, guid: 214aecf4be747c24e98c63227b045294, type: 2}
  residence: {fileID: 0}
  playerKnowsPurpose: 0
  evidenceIconLarge: {fileID: 21300000, guid: 3b07a04640d2f9e44818b1bee8d0e694, type: 3}
  chanceOfNameSignHorizontal: 1
  horizontalSignOffset: {x: 0, y: 0, z: 0}
  signCharacterSet:
  - {fileID: 11400000, guid: a7c289692559e8349be38182dc81f48d, type: 2}
  chanceOfNameSignVertical: 1
  possibleSigns:
  - {fileID: 6426811650783965671, guid: 255cf3691ba82df45b77255cea3031ad, type: 3}
  - {fileID: 8963834588817399532, guid: 2b219588b78bce247b552041c59cccad, type: 3}
  - {fileID: 8894194089447820173, guid: 852a66ed8708c0540bd0901af5da9df6, type: 3}
  specialItems:
  - {fileID: 11400000, guid: 0366ccf380754fc499460a30bf2be8f3, type: 2}
  - {fileID: 11400000, guid: 9d0cc4dc05e9f59449610f00a73612b4, type: 2}
  - {fileID: 11400000, guid: c82308c874af6dd48a9b70b6764828bf, type: 2}
  - {fileID: 11400000, guid: 751d7b68f8fd81745829332048a992c1, type: 2}
  - {fileID: 11400000, guid: 60df0efe33110b942a42688ee794a6d4, type: 2}
  - {fileID: 11400000, guid: 60df0efe33110b942a42688ee794a6d4, type: 2}
  - {fileID: 11400000, guid: 69b2cff2115de564caff9c4fb503b4aa, type: 2}
  - {fileID: 11400000, guid: 69b2cff2115de564caff9c4fb503b4aa, type: 2}
  - {fileID: 11400000, guid: 996aca1abee41d54fbac775f5a05f126, type: 2}
  - {fileID: 11400000, guid: 0dd4707e76485e54e9449c020ee9429b, type: 2}
  chanceOfExternalSpareKey: 0
  airVentRange: {x: 1, y: 2}
  useOwnSecuritySystem: 1
  useOwnBreakerBox: 1
  alarmLocksDownFloor: 0
  overrideBuildingEnvironment: 0
  sceneProfile: 1
  entrancesLockedByDefault: 1
  leaveLightsOn: 0
  disableLockingUp: 0
  disableLocationInformationDisplay: 0
  forceCityDirectoryInclusion: 0
  overrideBuildingName: 0
  sameBuildingEmployeesAuthority: 0
  sameBuildingResidentsAuthority: 0
  minimumLandValue: 0
  maximumLandValue: 1
  disableThis: 0
