%YAML 1.1
%TAG !u! tag:unity3d.com,2011:
--- !u!114 &11400000
MonoBehaviour:
  m_ObjectHideFlags: 0
  m_CorrespondingSourceObject: {fileID: 0}
  m_PrefabInstance: {fileID: 0}
  m_PrefabAsset: {fileID: 0}
  m_GameObject: {fileID: 0}
  m_Enabled: 1
  m_EditorHideFlags: 0
  m_Script: {fileID: 11500000, guid: 448be6b3c4b5f14489a83188fef044ad, type: 3}
  m_Name: GamblingDen
  m_EditorClassIdentifier: 
  presetName: GamblingDen
  debug: 0
  fitsUnitSizeMin: 0
  fitsUnitSizeMax: 60
  hardSizeLimits: 0
  minMaxFloors: {x: -1, y: 999}
  important: 0
  maxInstances: 3
  baseScore: 3
  baseScoreFrequencyPenalty: 1
  idealFootfall: 0
  footfallMultiplier: 3
  addressRules: []
  limitToBuildings: []
  forcePick: 0
  ethnicityMatters: 0
  ethnicity: 15
  compatible:
  - {fileID: 11400000, guid: c3d8a38f3262afc4da4aa808ab71d57b, type: 2}
  roomConfig:
  - {fileID: 11400000, guid: c925a09be8df4de4c874a2b739efd8fe, type: 2}
  - {fileID: 11400000, guid: 6f80cbcb2aab58b4b9360aec542e561f, type: 2}
  - {fileID: 11400000, guid: 87264d8ccfa2b0d44b0addc964ee9e7f, type: 2}
  access: 0
  canPassThrough: 0
  openHoursDicatedByAdjoiningCompany: 0
  needsPassword: 0
  dictionaryPasswordSources: []
  minimumPasswordLength: 5
  company: {fileID: 11400000, guid: 1869eade688420348989e4b523fdb05c, type: 2}
  residence: {fileID: 0}
  playerKnowsPurpose: 0
  evidenceIconLarge: {fileID: 21300000, guid: 31eaacc362f2aaf44a43ed7b292f71b1, type: 3}
  chanceOfNameSignHorizontal: 0
  horizontalSignOffset: {x: 0, y: 0.6, z: 0.3}
  signCharacterSet: []
  chanceOfNameSignVertical: 0
  possibleSigns: []
  specialItems:
  - {fileID: 11400000, guid: ed3f9e5d64aa0594886e00847e261332, type: 2}
  - {fileID: 11400000, guid: a2cbee9272c438242ac89c0cd5b5fef5, type: 2}
  - {fileID: 11400000, guid: 0129e61e577cd3c45906ae6acef21a7f, type: 2}
  - {fileID: 11400000, guid: 0129e61e577cd3c45906ae6acef21a7f, type: 2}
  - {fileID: 11400000, guid: 5b09b0ae8f48a0548b2995be708f9477, type: 2}
  - {fileID: 11400000, guid: 5b09b0ae8f48a0548b2995be708f9477, type: 2}
  - {fileID: 11400000, guid: 69b2cff2115de564caff9c4fb503b4aa, type: 2}
  - {fileID: 11400000, guid: be6e7721a79086e4bbe5181fc6fd0520, type: 2}
  - {fileID: 11400000, guid: be6e7721a79086e4bbe5181fc6fd0520, type: 2}
  - {fileID: 11400000, guid: 2d864ec6416729a4c8fc4d93e01e11c8, type: 2}
  chanceOfExternalSpareKey: 0
  airVentRange: {x: 1, y: 2}
  useOwnSecuritySystem: 1
  useOwnBreakerBox: 1
  alarmLocksDownFloor: 0
  overrideBuildingEnvironment: 1
  sceneProfile: 2
  entrancesLockedByDefault: 1
  leaveLightsOn: 1
  disableLockingUp: 0
  disableLocationInformationDisplay: 0
  forceCityDirectoryInclusion: 0
  overrideBuildingName: 0
  sameBuildingEmployeesAuthority: 0
  sameBuildingResidentsAuthority: 0
  minimumLandValue: 0
  maximumLandValue: 0.1
  disableThis: 0
