%YAML 1.1
%TAG !u! tag:unity3d.com,2011:
--- !u!114 &11400000
MonoBehaviour:
  m_ObjectHideFlags: 0
  m_CorrespondingSourceObject: {fileID: 0}
  m_PrefabInstance: {fileID: 0}
  m_PrefabAsset: {fileID: 0}
  m_GameObject: {fileID: 0}
  m_Enabled: 1
  m_EditorHideFlags: 0
  m_Script: {fileID: 11500000, guid: 448be6b3c4b5f14489a83188fef044ad, type: 3}
  m_Name: Slum
  m_EditorClassIdentifier: 
  presetName: Slum
  debug: 0
  fitsUnitSizeMin: 0
  fitsUnitSizeMax: 225
  hardSizeLimits: 0
  minMaxFloors: {x: -1, y: 999}
  important: 0
  maxInstances: 9999
  baseScore: 3
  baseScoreFrequencyPenalty: 0
  idealFootfall: 0
  footfallMultiplier: 3
  addressRules: []
  limitToBuildings: []
  forcePick: 0
  ethnicityMatters: 0
  ethnicity: 15
  compatible:
  - {fileID: 11400000, guid: c3d8a38f3262afc4da4aa808ab71d57b, type: 2}
  roomConfig:
  - {fileID: 11400000, guid: dd45c47f4e6f85c428b2546ae38dacca, type: 2}
  - {fileID: 11400000, guid: 2a974c64680969542bbfb47fbf1a7233, type: 2}
  - {fileID: 11400000, guid: 87264d8ccfa2b0d44b0addc964ee9e7f, type: 2}
  access: 1
  canPassThrough: 0
  openHoursDicatedByAdjoiningCompany: 0
  needsPassword: 0
  dictionaryPasswordSources: []
  minimumPasswordLength: 5
  company: {fileID: 0}
  residence: {fileID: 11400000, guid: 676f8e191a4e51d4d81e702fe0dd3fb8, type: 2}
  playerKnowsPurpose: 0
  evidenceIconLarge: {fileID: 0}
  chanceOfNameSignHorizontal: 0
  horizontalSignOffset: {x: 0, y: 0.6, z: 0.3}
  signCharacterSet: []
  chanceOfNameSignVertical: 0
  possibleSigns: []
  specialItems: []
  chanceOfExternalSpareKey: 0
  airVentRange: {x: 1, y: 2}
  useOwnSecuritySystem: 0
  useOwnBreakerBox: 0
  alarmLocksDownFloor: 0
  overrideBuildingEnvironment: 1
  sceneProfile: 2
  entrancesLockedByDefault: 1
  leaveLightsOn: 0
  disableLockingUp: 0
  disableLocationInformationDisplay: 0
  forceCityDirectoryInclusion: 0
  overrideBuildingName: 0
  sameBuildingEmployeesAuthority: 0
  sameBuildingResidentsAuthority: 0
  minimumLandValue: 0
  maximumLandValue: 0.1
  disableThis: 0
