%YAML 1.1
%TAG !u! tag:unity3d.com,2011:
--- !u!114 &11400000
MonoBehaviour:
  m_ObjectHideFlags: 0
  m_CorrespondingSourceObject: {fileID: 0}
  m_PrefabInstance: {fileID: 0}
  m_PrefabAsset: {fileID: 0}
  m_GameObject: {fileID: 0}
  m_Enabled: 1
  m_EditorHideFlags: 0
  m_Script: {fileID: 11500000, guid: 448be6b3c4b5f14489a83188fef044ad, type: 3}
  m_Name: WorkplaceCanteen
  m_EditorClassIdentifier: 
  presetName: WorkplaceCanteen
  debug: 0
  fitsUnitSizeMin: 0
  fitsUnitSizeMax: 225
  hardSizeLimits: 0
  minMaxFloors: {x: -1, y: 999}
  important: 0
  maxInstances: 99
  baseScore: 3
  baseScoreFrequencyPenalty: 1
  idealFootfall: 0
  footfallMultiplier: 3
  addressRules: []
  limitToBuildings: []
  forcePick: 0
  ethnicityMatters: 0
  ethnicity: 15
  compatible:
  - {fileID: 11400000, guid: 0eb12808986c1b04e9369a7e91fd3de6, type: 2}
  roomConfig:
  - {fileID: 11400000, guid: 996cb4d2b0b9af542bf14b47fc8bbed6, type: 2}
  access: 2
  canPassThrough: 1
  openHoursDicatedByAdjoiningCompany: 0
  needsPassword: 0
  dictionaryPasswordSources: []
  minimumPasswordLength: 5
  company: {fileID: 11400000, guid: fb429c4a16a67e7459815219d0046289, type: 2}
  residence: {fileID: 0}
  playerKnowsPurpose: 0
  evidenceIconLarge: {fileID: 21300000, guid: 5ea7e9599c7d4c045924dbfdb31b8dcd, type: 3}
  chanceOfNameSignHorizontal: 0
  horizontalSignOffset: {x: 0, y: 0, z: 0}
  signCharacterSet:
  - {fileID: 11400000, guid: db4508c8d66ba8a498c706f8cccd6375, type: 2}
  chanceOfNameSignVertical: 0
  possibleSigns: []
  specialItems:
  - {fileID: 11400000, guid: 0366ccf380754fc499460a30bf2be8f3, type: 2}
  - {fileID: 11400000, guid: c02454e1d3517404cb887ffebfbb63c3, type: 2}
  - {fileID: 11400000, guid: 5f98eb22d1d770241879488d39818cbc, type: 2}
  - {fileID: 11400000, guid: 5f98eb22d1d770241879488d39818cbc, type: 2}
  - {fileID: 11400000, guid: 0a91c30cc66b7f04d927c93d72b6c970, type: 2}
  chanceOfExternalSpareKey: 0
  airVentRange: {x: 1, y: 2}
  useOwnSecuritySystem: 1
  useOwnBreakerBox: 1
  alarmLocksDownFloor: 0
  overrideBuildingEnvironment: 0
  sceneProfile: 1
  entrancesLockedByDefault: 1
  leaveLightsOn: 0
  disableLockingUp: 0
  disableLocationInformationDisplay: 0
  forceCityDirectoryInclusion: 0
  overrideBuildingName: 0
  sameBuildingEmployeesAuthority: 1
  sameBuildingResidentsAuthority: 1
  minimumLandValue: 0
  maximumLandValue: 0.505
  disableThis: 0
