%YAML 1.1
%TAG !u! tag:unity3d.com,2011:
--- !u!114 &11400000
MonoBehaviour:
  m_ObjectHideFlags: 0
  m_CorrespondingSourceObject: {fileID: 0}
  m_PrefabInstance: {fileID: 0}
  m_PrefabAsset: {fileID: 0}
  m_GameObject: {fileID: 0}
  m_Enabled: 1
  m_EditorHideFlags: 0
  m_Script: {fileID: 11500000, guid: 448be6b3c4b5f14489a83188fef044ad, type: 3}
  m_Name: Yard
  m_EditorClassIdentifier: 
  presetName: Yard
  debug: 0
  fitsUnitSizeMin: 0
  fitsUnitSizeMax: 225
  hardSizeLimits: 0
  minMaxFloors: {x: -1, y: 999}
  important: 0
  maxInstances: 9999
  baseScore: 3
  baseScoreFrequencyPenalty: 1
  idealFootfall: 0
  footfallMultiplier: 3
  addressRules: []
  limitToBuildings: []
  forcePick: 0
  ethnicityMatters: 0
  ethnicity: 15
  compatible:
  - {fileID: 11400000, guid: 8cdb18f9851c3884d8b283798caa3d24, type: 2}
  roomConfig:
  - {fileID: 11400000, guid: 01838b5ca9d50d84ea4b2cebf1936158, type: 2}
  access: 0
  canPassThrough: 1
  openHoursDicatedByAdjoiningCompany: 0
  needsPassword: 0
  dictionaryPasswordSources: []
  minimumPasswordLength: 5
  company: {fileID: 0}
  residence: {fileID: 0}
  playerKnowsPurpose: 1
  evidenceIconLarge: {fileID: 21300000, guid: af55566cf2fd11345a7bb846c7f8203f, type: 3}
  chanceOfNameSignHorizontal: 0
  horizontalSignOffset: {x: 0, y: 0, z: 0}
  signCharacterSet: []
  chanceOfNameSignVertical: 0
  possibleSigns: []
  specialItems: []
  chanceOfExternalSpareKey: 0
  airVentRange: {x: 1, y: 2}
  useOwnSecuritySystem: 0
  useOwnBreakerBox: 0
  alarmLocksDownFloor: 0
  overrideBuildingEnvironment: 1
  sceneProfile: 0
  entrancesLockedByDefault: 1
  leaveLightsOn: 1
  disableLockingUp: 0
  disableLocationInformationDisplay: 0
  forceCityDirectoryInclusion: 0
  overrideBuildingName: 0
  sameBuildingEmployeesAuthority: 1
  sameBuildingResidentsAuthority: 1
  minimumLandValue: 0
  maximumLandValue: 1
  disableThis: 0
