%YAML 1.1
%TAG !u! tag:unity3d.com,2011:
--- !u!114 &11400000
MonoBehaviour:
  m_ObjectHideFlags: 0
  m_CorrespondingSourceObject: {fileID: 0}
  m_PrefabInstance: {fileID: 0}
  m_PrefabAsset: {fileID: 0}
  m_GameObject: {fileID: 0}
  m_Enabled: 1
  m_EditorHideFlags: 0
  m_Script: {fileID: 11500000, guid: 5b76c7375f325cb4984b590a2dad58fa, type: 3}
  m_Name: Atrium
  m_EditorClassIdentifier: 
  presetName: Atrium
  forceConfiguration: {fileID: 11400000, guid: 0bc487bf2a842cc459c87d005e351d32, type: 2}
  chance: 1
  minimumAddressSize: 0
  maximumRoomTypesPerAddress: 10
  cyclePriority: 3
  minimumRoomAreaShape: {x: 2, y: 2}
  maximumRoomAreaShape: {x: 2, y: 0}
  tesselationShape: {x: 2, y: 2}
  floorSpaceWeight: 1
  exteriorWallWeight: 1
  exteriorWindowWeight: 1
  entranceWeight: 0
  mustAdjoinRooms: []
  doorPriority: 5
  chanceOfNoDoor: 1
  maxDoors: 99
  forceNoDoors: 1
  doorSetting: 1
  allowRoomDividers: 1
  maxDividers: 99
  onlyAllowDividersAdjoining: []
  allowMainAddressEntrance: 0
  allowSecondaryAddressEntrance: 0
  preferMainAddressEntrance: 1
  mustConnectWithEntrance: 0
  overridable: 0
  overwriteWithPriorityUpTo: 10
  blockOverridesFromType: []
  overwriteLimit: 999
  expandIntoNull: 0
  expandIntoNullAdjacencyMinimum: 1
  shareFeaturesWithCommonAdjacent: 1
  allowCorridorReplacement: 0
  overrideFloorHeight: 0
  floorHeight: 0
  copyFrom: {fileID: 11400000, guid: 0bc487bf2a842cc459c87d005e351d32, type: 2}
