%YAML 1.1
%TAG !u! tag:unity3d.com,2011:
--- !u!114 &11400000
MonoBehaviour:
  m_ObjectHideFlags: 0
  m_CorrespondingSourceObject: {fileID: 0}
  m_PrefabInstance: {fileID: 0}
  m_PrefabAsset: {fileID: 0}
  m_GameObject: {fileID: 0}
  m_Enabled: 1
  m_EditorHideFlags: 0
  m_Script: {fileID: 11500000, guid: 5b76c7375f325cb4984b590a2dad58fa, type: 3}
  m_Name: Backstreet
  m_EditorClassIdentifier: 
  presetName: Backstreet
  forceConfiguration: {fileID: 0}
  chance: 1
  minimumAddressSize: 18
  maximumRoomTypesPerAddress: 1
  cyclePriority: 0
  minimumRoomAreaShape: {x: 1, y: 1}
  maximumRoomAreaShape: {x: 99, y: 99}
  tesselationShape: {x: 1, y: 1}
  floorSpaceWeight: 0
  exteriorWallWeight: 1
  exteriorWindowWeight: 0
  entranceWeight: 0
  mustAdjoinRooms: []
  doorPriority: 1
  chanceOfNoDoor: 0
  maxDoors: 99
  forceNoDoors: 0
  doorSetting: 1
  allowRoomDividers: 0
  maxDividers: 99
  onlyAllowDividersAdjoining: []
  allowMainAddressEntrance: 0
  allowSecondaryAddressEntrance: 0
  preferMainAddressEntrance: 1
  mustConnectWithEntrance: 0
  overridable: 1
  overwriteWithPriorityUpTo: 10
  blockOverridesFromType: []
  overwriteLimit: 999
  expandIntoNull: 0
  expandIntoNullAdjacencyMinimum: 2
  shareFeaturesWithCommonAdjacent: 0
  allowCorridorReplacement: 0
  overrideFloorHeight: 0
  floorHeight: 0
  copyFrom: {fileID: 11400000, guid: 34b76aae5a387a0449447f5d4611d0b4, type: 2}
