%YAML 1.1
%TAG !u! tag:unity3d.com,2011:
--- !u!114 &11400000
MonoBehaviour:
  m_ObjectHideFlags: 0
  m_CorrespondingSourceObject: {fileID: 0}
  m_PrefabInstance: {fileID: 0}
  m_PrefabAsset: {fileID: 0}
  m_GameObject: {fileID: 0}
  m_Enabled: 1
  m_EditorHideFlags: 0
  m_Script: {fileID: 11500000, guid: 5b76c7375f325cb4984b590a2dad58fa, type: 3}
  m_Name: Ballroom
  m_EditorClassIdentifier: 
  presetName: Ballroom
  forceConfiguration: {fileID: 0}
  chance: 1
  minimumAddressSize: 0
  maximumRoomTypesPerAddress: 1
  cyclePriority: 10
  minimumRoomAreaShape: {x: 11, y: 12}
  maximumRoomAreaShape: {x: 12, y: 12}
  tesselationShape: {x: 11, y: 12}
  floorSpaceWeight: 3
  exteriorWallWeight: 1
  exteriorWindowWeight: 1
  entranceWeight: 1
  mustAdjoinRooms: []
  doorPriority: 4
  chanceOfNoDoor: 0
  maxDoors: 7
  forceNoDoors: 0
  doorSetting: 0
  allowRoomDividers: 0
  maxDividers: 0
  onlyAllowDividersAdjoining: []
  allowMainAddressEntrance: 1
  allowSecondaryAddressEntrance: 1
  preferMainAddressEntrance: 1
  mustConnectWithEntrance: 0
  overridable: 1
  overwriteWithPriorityUpTo: 10
  blockOverridesFromType: []
  overwriteLimit: 999
  expandIntoNull: 0
  expandIntoNullAdjacencyMinimum: 2
  shareFeaturesWithCommonAdjacent: 0
  allowCorridorReplacement: 1
  overrideFloorHeight: 0
  floorHeight: 0
  copyFrom: {fileID: 11400000, guid: 78a655384e687844080702ff0fa2ff4d, type: 2}
