%YAML 1.1
%TAG !u! tag:unity3d.com,2011:
--- !u!114 &11400000
MonoBehaviour:
  m_ObjectHideFlags: 0
  m_CorrespondingSourceObject: {fileID: 0}
  m_PrefabInstance: {fileID: 0}
  m_PrefabAsset: {fileID: 0}
  m_GameObject: {fileID: 0}
  m_Enabled: 1
  m_EditorHideFlags: 0
  m_Script: {fileID: 11500000, guid: 5b76c7375f325cb4984b590a2dad58fa, type: 3}
  m_Name: PowerRoom
  m_EditorClassIdentifier: 
  presetName: PowerRoom
  forceConfiguration: {fileID: 0}
  chance: 1
  minimumAddressSize: 0
  maximumRoomTypesPerAddress: 1
  cyclePriority: 7
  minimumRoomAreaShape: {x: 2, y: 2}
  maximumRoomAreaShape: {x: 6, y: 6}
  tesselationShape: {x: 2, y: 2}
  floorSpaceWeight: 1
  exteriorWallWeight: 1
  exteriorWindowWeight: -2
  entranceWeight: 1
  mustAdjoinRooms: []
  doorPriority: 4
  chanceOfNoDoor: 0
  maxDoors: 3
  forceNoDoors: 0
  doorSetting: 1
  allowRoomDividers: 0
  maxDividers: 99
  onlyAllowDividersAdjoining: []
  allowMainAddressEntrance: 1
  allowSecondaryAddressEntrance: 1
  preferMainAddressEntrance: 1
  mustConnectWithEntrance: 0
  overridable: 1
  overwriteWithPriorityUpTo: 10
  blockOverridesFromType: []
  overwriteLimit: 999
  expandIntoNull: 1
  expandIntoNullAdjacencyMinimum: 1
  shareFeaturesWithCommonAdjacent: 0
  allowCorridorReplacement: 0
  overrideFloorHeight: 0
  floorHeight: 0
  copyFrom: {fileID: 11400000, guid: b2b134764286b8c45a9c50c9ddd6fad8, type: 2}
