%YAML 1.1
%TAG !u! tag:unity3d.com,2011:
--- !u!114 &11400000
MonoBehaviour:
  m_ObjectHideFlags: 0
  m_CorrespondingSourceObject: {fileID: 0}
  m_PrefabInstance: {fileID: 0}
  m_PrefabAsset: {fileID: 0}
  m_GameObject: {fileID: 0}
  m_Enabled: 1
  m_EditorHideFlags: 0
  m_Script: {fileID: 11500000, guid: 5b76c7375f325cb4984b590a2dad58fa, type: 3}
  m_Name: PrivateOffice
  m_EditorClassIdentifier: 
  presetName: PrivateOffice
  forceConfiguration: {fileID: 0}
  chance: 1
  minimumAddressSize: 0
  maximumRoomTypesPerAddress: 1
  cyclePriority: 8
  minimumRoomAreaShape: {x: 3, y: 2}
  maximumRoomAreaShape: {x: 3, y: 3}
  tesselationShape: {x: 2, y: 2}
  floorSpaceWeight: 2
  exteriorWallWeight: 1
  exteriorWindowWeight: 0
  entranceWeight: 1
  mustAdjoinRooms:
  - {fileID: 11400000, guid: b1bd13fe3ade5c349b22f8726ef91a8d, type: 2}
  - {fileID: 11400000, guid: b647e82e79374014a9fce7c9d6dc3123, type: 2}
  - {fileID: 11400000, guid: 83c0107228552b3448180bf7d4609c55, type: 2}
  - {fileID: 11400000, guid: 16e8bf2f69919d046859c0a65d9906f3, type: 2}
  - {fileID: 11400000, guid: 4f6ce0378601dbf4fbb96d1b3b813379, type: 2}
  - {fileID: 11400000, guid: b47abd604ab6d5e42928f8ec5308bbd8, type: 2}
  - {fileID: 11400000, guid: c14f5ed653041be4b839a894e7f8f424, type: 2}
  - {fileID: 11400000, guid: b28692e28e3320242904f113029ee117, type: 2}
  - {fileID: 11400000, guid: 8714f6a9cff06fc46937451e178910a2, type: 2}
  - {fileID: 11400000, guid: dd3ebc69b0302b54cad51aefbd0d5983, type: 2}
  - {fileID: 11400000, guid: aa8a0f7d6d4262345a07562915ec9317, type: 2}
  - {fileID: 11400000, guid: 3800e35cb6e87c540b1b8831d8d70236, type: 2}
  doorPriority: 4
  chanceOfNoDoor: 0
  maxDoors: 3
  forceNoDoors: 0
  doorSetting: 1
  allowRoomDividers: 0
  maxDividers: 1
  onlyAllowDividersAdjoining: []
  allowMainAddressEntrance: 0
  allowSecondaryAddressEntrance: 1
  preferMainAddressEntrance: 1
  mustConnectWithEntrance: 0
  overridable: 0
  overwriteWithPriorityUpTo: 10
  blockOverridesFromType: []
  overwriteLimit: 999
  expandIntoNull: 1
  expandIntoNullAdjacencyMinimum: 2
  shareFeaturesWithCommonAdjacent: 0
  allowCorridorReplacement: 0
  overrideFloorHeight: 0
  floorHeight: 0
  copyFrom: {fileID: 11400000, guid: 5c526341ba51af24e9b5f2293b6fbecc, type: 2}
