%YAML 1.1
%TAG !u! tag:unity3d.com,2011:
--- !u!114 &11400000
MonoBehaviour:
  m_ObjectHideFlags: 0
  m_CorrespondingSourceObject: {fileID: 0}
  m_PrefabInstance: {fileID: 0}
  m_PrefabAsset: {fileID: 0}
  m_GameObject: {fileID: 0}
  m_Enabled: 1
  m_EditorHideFlags: 0
  m_Script: {fileID: 11500000, guid: 5b76c7375f325cb4984b590a2dad58fa, type: 3}
  m_Name: Storeroom
  m_EditorClassIdentifier: 
  presetName: Storeroom
  forceConfiguration: {fileID: 0}
  chance: 1
  minimumAddressSize: 50
  maximumRoomTypesPerAddress: 1
  cyclePriority: 7
  minimumRoomAreaShape: {x: 2, y: 2}
  maximumRoomAreaShape: {x: 4, y: 3}
  tesselationShape: {x: 1, y: 1}
  floorSpaceWeight: 1
  exteriorWallWeight: 1
  exteriorWindowWeight: -2
  entranceWeight: 1
  mustAdjoinRooms:
  - {fileID: 11400000, guid: b647e82e79374014a9fce7c9d6dc3123, type: 2}
  - {fileID: 11400000, guid: 16e8bf2f69919d046859c0a65d9906f3, type: 2}
  - {fileID: 11400000, guid: af15f40da28854349be1498a3f03a714, type: 2}
  - {fileID: 11400000, guid: 4f6ce0378601dbf4fbb96d1b3b813379, type: 2}
  - {fileID: 11400000, guid: 83c0107228552b3448180bf7d4609c55, type: 2}
  - {fileID: 11400000, guid: b47abd604ab6d5e42928f8ec5308bbd8, type: 2}
  - {fileID: 11400000, guid: c14f5ed653041be4b839a894e7f8f424, type: 2}
  - {fileID: 11400000, guid: be374450bfe9c864180ed36641d2f3d7, type: 2}
  - {fileID: 11400000, guid: 8714f6a9cff06fc46937451e178910a2, type: 2}
  - {fileID: 11400000, guid: dd3ebc69b0302b54cad51aefbd0d5983, type: 2}
  - {fileID: 11400000, guid: b1bd13fe3ade5c349b22f8726ef91a8d, type: 2}
  - {fileID: 11400000, guid: 5d30536b30f9a6a4ab9e787f9b5ec9b8, type: 2}
  - {fileID: 11400000, guid: f1ca1af953f4b92439285d1cdca97d05, type: 2}
  - {fileID: 11400000}
  - {fileID: 11400000, guid: aa6a84d291f828e43ac00f72edb4d882, type: 2}
  - {fileID: 11400000, guid: 3800e35cb6e87c540b1b8831d8d70236, type: 2}
  doorPriority: 4
  chanceOfNoDoor: 0
  maxDoors: 3
  forceNoDoors: 0
  doorSetting: 1
  allowRoomDividers: 0
  maxDividers: 99
  onlyAllowDividersAdjoining: []
  allowMainAddressEntrance: 0
  allowSecondaryAddressEntrance: 1
  preferMainAddressEntrance: 0
  mustConnectWithEntrance: 0
  overridable: 1
  overwriteWithPriorityUpTo: 10
  blockOverridesFromType: []
  overwriteLimit: 999
  expandIntoNull: 1
  expandIntoNullAdjacencyMinimum: 1
  shareFeaturesWithCommonAdjacent: 0
  allowCorridorReplacement: 0
  overrideFloorHeight: 0
  floorHeight: 0
  copyFrom: {fileID: 11400000, guid: b2b134764286b8c45a9c50c9ddd6fad8, type: 2}
