%YAML 1.1
%TAG !u! tag:unity3d.com,2011:
--- !u!114 &11400000
MonoBehaviour:
  m_ObjectHideFlags: 0
  m_CorrespondingSourceObject: {fileID: 0}
  m_PrefabInstance: {fileID: 0}
  m_PrefabAsset: {fileID: 0}
  m_GameObject: {fileID: 0}
  m_Enabled: 1
  m_EditorHideFlags: 0
  m_Script: {fileID: 11500000, guid: 070402d0f52d680418a8e0ef2563a1f4, type: 3}
  m_Name: Job_AskStaffPhoto
  m_EditorClassIdentifier: 
  presetName: Job_AskStaffPhoto
  msgID: f94eae0b-f691-4577-9d20-fe9cf6ef0593
  defaultOption: 0
  telephoneCallOption: 0
  hospitalDecisionOption: 0
  tiedToKey: 1
  ranking: 11
  removeAfterSaying: 0
  dailyReplenish: 0
  isJobDetails: 0
  ignoreActiveJobRequirement: 0
  specialCase: 20
  cost: 0
  usePercentageCost: 0
  useAllWealthIfNotEnough: 0
  displayIfPasswordUnknown: 0
  inputBox: 0
  displayAsIllegal: 0
  preceedingSyntax: 
  followingSyntax: 
  useSuccessTest: 0
  requiresPassword: 0
  baseChance: 0
  affectChanceIfRestrained: 0
  modifySuccessChanceTraits: []
  responses:
  - dictionaryString: Recieve Info
    ddsMessageID: 428d043e-0db2-40a4-8404-4915b906544e
    isSuccessful: 1
    chance: 1
    useParsing: 1
    shout: 0
    interupt: 0
    onlyIfEnfocerOnDuty: 0
    onlyIfNotEnforcerOnDuty: 0
    mustFeatureTrait: []
    cantFeatureTrait: []
    tieKeys: 
    applyDiscovery: 
    endsDialog: 1
    jobHandIn: 0
  followUpDialogSuccess: []
  followUpDialogFail: []
  removeDialog: []
  removeDialogOnSuccess: []
  removeDialogOnFail: []
