%YAML 1.1
%TAG !u! tag:unity3d.com,2011:
--- !u!114 &11400000
MonoBehaviour:
  m_ObjectHideFlags: 0
  m_CorrespondingSourceObject: {fileID: 0}
  m_PrefabInstance: {fileID: 0}
  m_PrefabAsset: {fileID: 0}
  m_GameObject: {fileID: 0}
  m_Enabled: 1
  m_EditorHideFlags: 0
  m_Script: {fileID: 11500000, guid: 05c50b8a24558c04fb29c890553074fd, type: 3}
  m_Name: IndustrialKitchenSink
  m_EditorClassIdentifier: 
  presetName: IndustrialKitchenSink
  classes:
  - {fileID: 11400000, guid: 493738e9691a0c44684eb1bf93967448, type: 2}
  - {fileID: 11400000, guid: 829a35aab5853c14f93e079e6ef3e3c0, type: 2}
  prefab: {fileID: 7575024148051728130, guid: 518aec7e52f47164db2b4a21789cfa61, type: 3}
  allowStaticBatching: 0
  spawnRange: 3
  integratedInteractables:
  - preset: {fileID: 11400000, guid: a268099e1b3e28445b6293ed0cea5165, type: 2}
    pairToController: 0
    belongsTo: 0
  - preset: {fileID: 11400000, guid: 4b42015a311108b42bb3564eb5edaa4a, type: 2}
    pairToController: 1
    belongsTo: 0
  - preset: {fileID: 11400000, guid: a48d223c243580646aa267657c722359, type: 2}
    pairToController: 2
    belongsTo: 0
  - preset: {fileID: 11400000, guid: ae499061a0edecb448e2674c1a2096d8, type: 2}
    pairToController: 3
    belongsTo: 0
  universalDesignStyle: 1
  designStyles: []
  inheritColouringFromDecor: 0
  shareColours: 0
  inheritGrubFromDecor: 1
  variations: []
  furnitureGroup: 0
  groupID: 0
  concrete: 0
  plaster: 0
  wood: 0
  carpet: 0
  tile: 0
  metal: 1
  glass: 0
  fabric: 0
  minimumRoomSize: 4
  allowedInOpenPlan: 1
  onlyAllowInFollowing: 0
  allowedInAddressesOfType: []
  banInFollowing: 0
  bannedInAddressesOfType: []
  OnlyAllowInBuildings: 0
  allowedInBuildings: []
  banFromBuildings: 0
  notAllowedInBuildings: []
  OnlyAllowInDistricts: 0
  allowedInDistricts: []
  banFromDistricts: 0
  notAllowedInDistricts: []
  requiresGenderedInhabitants: 0
  enableIfGenderPresent: 
  allowedRoomFilters:
  - {fileID: 11400000, guid: d1bfa1c547db3f54fb3b2f087a1f031f, type: 2}
  minimumWealth: 0
  usePersonalityWeighting: 0
  modernity: 6
  cleanness: 8
  loudness: 2
  emotive: 5
  subObjects:
  - preset: {fileID: 11400000, guid: 93c4b1cb41af1dc4796a525d7b2da47b, type: 2}
    parent: 
    localPos: {x: 0.17, y: 1, z: -0.265}
    localRot: {x: -0, y: 0.76150686, z: 0}
    belongsTo: 0
    security: 0
  - preset: {fileID: 11400000, guid: 4e84b479f5bbc6f4f81821d28d1ceaa5, type: 2}
    parent: 
    localPos: {x: 0.48, y: 1, z: -0.316}
    localRot: {x: -0, y: 0.76150686, z: 0}
    belongsTo: 0
    security: 0
  - preset: {fileID: 11400000, guid: 8ffa9e02abfa27747b3bc82cfdf4cdaf, type: 2}
    parent: 
    localPos: {x: -0.014, y: 1, z: -0.527}
    localRot: {x: -0, y: 0.76150686, z: 0}
    belongsTo: 0
    security: 0
  - preset: {fileID: 11400000, guid: fdb12cdfbd43ee744b784e0cfee0762c, type: 2}
    parent: 
    localPos: {x: 0.129, y: 0.254, z: -0.3}
    localRot: {x: -0, y: 339.3858, z: 0}
    belongsTo: 0
    security: 0
  - preset: {fileID: 11400000, guid: 285a7f522047b4a4abbe1632b6a02a97, type: 2}
    parent: 
    localPos: {x: -0.603, y: 0.263, z: -0.087}
    localRot: {x: -0, y: 16.279634, z: 0}
    belongsTo: 0
    security: 0
  - preset: {fileID: 11400000, guid: 8ffa9e02abfa27747b3bc82cfdf4cdaf, type: 2}
    parent: 
    localPos: {x: -0.454, y: 0.861, z: -0.29}
    localRot: {x: -0, y: 21.637125, z: 0}
    belongsTo: 0
    security: 0
  - preset: {fileID: 11400000, guid: 285a7f522047b4a4abbe1632b6a02a97, type: 2}
    parent: 
    localPos: {x: 0.725, y: 1, z: -0.624}
    localRot: {x: -0, y: 346.9082, z: 0}
    belongsTo: 0
    security: 0
  - preset: {fileID: 11400000, guid: 8ffa9e02abfa27747b3bc82cfdf4cdaf, type: 2}
    parent: 
    localPos: {x: 0.327, y: 0.811, z: -0.44}
    localRot: {x: -0, y: 0.76150686, z: 0}
    belongsTo: 0
    security: 0
  - preset: {fileID: 11400000, guid: 85832f44c2db40b4db4066fd63cf32ad, type: 2}
    parent: 
    localPos: {x: 0.492, y: 0.25, z: -0.226}
    localRot: {x: -0, y: 0.76150686, z: 0}
    belongsTo: 0
    security: 0
  - preset: {fileID: 11400000, guid: 285a7f522047b4a4abbe1632b6a02a97, type: 2}
    parent: 
    localPos: {x: -0.087, y: 1, z: -0.198}
    localRot: {x: -0, y: 6.7268505, z: 0}
    belongsTo: 0
    security: 0
  - preset: {fileID: 11400000, guid: 94ecd56f625166b449047f5eee385c68, type: 2}
    parent: 
    localPos: {x: 0.7898, y: 1, z: -0.1968}
    localRot: {x: 0, y: 270.56293, z: 0}
    belongsTo: 0
    security: 0
  - preset: {fileID: 11400000, guid: 94ecd56f625166b449047f5eee385c68, type: 2}
    parent: 
    localPos: {x: -0.7, y: 0, z: -0.005}
    localRot: {x: -0, y: 346.2911, z: 0}
    belongsTo: 0
    security: 0
  - preset: {fileID: 11400000, guid: 94ecd56f625166b449047f5eee385c68, type: 2}
    parent: 
    localPos: {x: -0.382, y: 0, z: 0.01}
    localRot: {x: -0, y: 45.52968, z: 0}
    belongsTo: 0
    security: 0
  - preset: {fileID: 11400000, guid: 285a7f522047b4a4abbe1632b6a02a97, type: 2}
    parent: 
    localPos: {x: 0.566, y: 1, z: -0.625}
    localRot: {x: -0, y: 2.1647491, z: 0}
    belongsTo: 0
    security: 0
  - preset: {fileID: 11400000, guid: fdb12cdfbd43ee744b784e0cfee0762c, type: 2}
    parent: 
    localPos: {x: -0.067, y: 0.254, z: -0.256}
    localRot: {x: -0, y: 9.521721, z: 0}
    belongsTo: 0
    security: 0
  - preset: {fileID: 11400000, guid: 285a7f522047b4a4abbe1632b6a02a97, type: 2}
    parent: 
    localPos: {x: -0.611, y: 0.263, z: -0.409}
    localRot: {x: -0, y: 1.0835859, z: -0}
    belongsTo: 0
    security: 0
  - preset: {fileID: 11400000, guid: 285a7f522047b4a4abbe1632b6a02a97, type: 2}
    parent: 
    localPos: {x: -0.313, y: 0.263, z: -0.22}
    localRot: {x: -0, y: 338.3758, z: 0}
    belongsTo: 0
    security: 0
  testForModifiers: 2
  forcePublicIllegal: 1
  hidingEnterTransition: {fileID: 0}
  hidingExitTransition: {fileID: 0}
  hidingEnterTransition2: {fileID: 0}
  hidingExitTransition2: {fileID: 0}
  map: {fileID: 2800000, guid: 3a13db2a5ac9232419849fcf35508f5f, type: 3}
  drawUnderWalls: 1
  ignoreDirection: 0
  fingerprintsEnabled: 1
  printsSource: 1
  fingerprintDensity: 1
  alterAreaLighting: 0
  possibleColours: []
  lightOperation: 0
  lightAmount: 0.12
  brightnessModifier: 10
  purchasable: 1
  cost: 200
  decorClass: 1
  staticImage: {fileID: 21300000, guid: 8d621a3db84f99e49a52cd6c88a6145b, type: 3}
  imagePos: {x: 0, y: 0, z: 0}
  imageRot: {x: 0, y: 0, z: 0}
  imageScale: 1
  imagePrefabOverride: {fileID: 0}
  isJobBoard: 0
  isWorkPosition: 0
  isPlant: 0
  isArt: 0
  isSecurityCamera: 0
  artOrientation: 0
  createSelfEmployed: {fileID: 0}
  workPositionID: 0
  spawnObjectOnChance: 1
  spawnObjectsOnPlacement: []
