%YAML 1.1
%TAG !u! tag:unity3d.com,2011:
--- !u!114 &11400000
MonoBehaviour:
  m_ObjectHideFlags: 0
  m_CorrespondingSourceObject: {fileID: 0}
  m_PrefabInstance: {fileID: 0}
  m_PrefabAsset: {fileID: 0}
  m_GameObject: {fileID: 0}
  m_Enabled: 1
  m_EditorHideFlags: 0
  m_Script: {fileID: 11500000, guid: 05c50b8a24558c04fb29c890553074fd, type: 3}
  m_Name: KitchenCounterSmallNoDrawers
  m_EditorClassIdentifier: 
  presetName: KitchenCounterSmallNoDrawers
  classes:
  - {fileID: 11400000, guid: 04bb32c2187848241acfdcd95ae78b86, type: 2}
  prefab: {fileID: 4258384214542251241, guid: dbb68f3691012f046923974ac14a35ed, type: 3}
  allowStaticBatching: 0
  spawnRange: 3
  integratedInteractables: []
  universalDesignStyle: 0
  designStyles:
  - {fileID: 11400000, guid: e02dfc783e1042e48b87ceb703c8dc23, type: 2}
  - {fileID: 11400000, guid: fb5884c44b9167f4982a3fe7b4a798b4, type: 2}
  - {fileID: 11400000, guid: f7900e58d7b990840b8413d0629275ee, type: 2}
  - {fileID: 11400000, guid: e72ea046ed0da1e4fa8dc37cf23d4962, type: 2}
  - {fileID: 11400000, guid: 874a29f205e656345b6bf7e398fd3d8d, type: 2}
  inheritColouringFromDecor: 1
  shareColours: 3
  inheritGrubFromDecor: 1
  variations:
  - name: 
    main: 15
    colour1: 14
    colour2: 0
    colour3: 15
  - name: 
    main: 15
    colour1: 16
    colour2: 16
    colour3: 15
  - name: 
    main: 15
    colour1: 13
    colour2: 0
    colour3: 15
  furnitureGroup: 0
  groupID: 0
  concrete: 0
  plaster: 0
  wood: 1
  carpet: 0
  tile: 0
  metal: 0
  glass: 0
  fabric: 0
  minimumRoomSize: 4
  allowedInOpenPlan: 1
  onlyAllowInFollowing: 0
  allowedInAddressesOfType: []
  banInFollowing: 0
  bannedInAddressesOfType: []
  OnlyAllowInBuildings: 0
  allowedInBuildings: []
  banFromBuildings: 0
  notAllowedInBuildings: []
  OnlyAllowInDistricts: 0
  allowedInDistricts: []
  banFromDistricts: 0
  notAllowedInDistricts: []
  requiresGenderedInhabitants: 0
  enableIfGenderPresent: 
  allowedRoomFilters:
  - {fileID: 11400000, guid: f497bd916077c824f893f96b4dd9d439, type: 2}
  - {fileID: 11400000, guid: 770ee5c75af9aa1498dff6688591ec50, type: 2}
  minimumWealth: 0
  usePersonalityWeighting: 1
  modernity: 6
  cleanness: 8
  loudness: 2
  emotive: 5
  subObjects:
  - preset: {fileID: 11400000, guid: cdbc245f33f972b408cc829d72fd6bc6, type: 2}
    parent: 
    localPos: {x: -0.6899986, y: 1.0240002, z: -0.15800095}
    localRot: {x: 270, y: 350.22702, z: 0}
    belongsTo: 0
    security: 0
  - preset: {fileID: 11400000, guid: 93c4b1cb41af1dc4796a525d7b2da47b, type: 2}
    parent: 
    localPos: {x: -0.325, y: 1.006, z: -0.26}
    localRot: {x: -0, y: 1.1918184, z: -0}
    belongsTo: 0
    security: 0
  - preset: {fileID: 11400000, guid: 4e84b479f5bbc6f4f81821d28d1ceaa5, type: 2}
    parent: 
    localPos: {x: -0.5079994, y: 1.0060005, z: -0.5279999}
    localRot: {x: -0, y: 1.1918184, z: -0}
    belongsTo: 0
    security: 0
  - preset: {fileID: 11400000, guid: 94ecd56f625166b449047f5eee385c68, type: 2}
    parent: 
    localPos: {x: -0.26399994, y: 1.0060005, z: -0.6650009}
    localRot: {x: -0, y: 342.5345, z: 0}
    belongsTo: 0
    security: 0
  - preset: {fileID: 11400000, guid: 85832f44c2db40b4db4066fd63cf32ad, type: 2}
    parent: 
    localPos: {x: -0.447, y: 0.1996, z: -0.3566}
    localRot: {x: -0, y: 0, z: 0}
    belongsTo: 0
    security: 0
  testForModifiers: 2
  forcePublicIllegal: 1
  hidingEnterTransition: {fileID: 0}
  hidingExitTransition: {fileID: 0}
  hidingEnterTransition2: {fileID: 0}
  hidingExitTransition2: {fileID: 0}
  map: {fileID: 0}
  drawUnderWalls: 0
  ignoreDirection: 0
  fingerprintsEnabled: 1
  printsSource: 1
  fingerprintDensity: 1
  alterAreaLighting: 0
  possibleColours: []
  lightOperation: 0
  lightAmount: 0.12
  brightnessModifier: 10
  purchasable: 1
  cost: 65
  decorClass: 1
  staticImage: {fileID: 21300000, guid: 9650d043c82b9bb4d8e26cf234c509cf, type: 3}
  imagePos: {x: 0, y: 0, z: 0}
  imageRot: {x: 0, y: 0, z: 0}
  imageScale: 1
  imagePrefabOverride: {fileID: 0}
  isJobBoard: 0
  isWorkPosition: 0
  isPlant: 0
  isArt: 0
  isSecurityCamera: 0
  artOrientation: 0
  createSelfEmployed: {fileID: 0}
  workPositionID: 0
  spawnObjectOnChance: 1
  spawnObjectsOnPlacement: []
