%YAML 1.1
%TAG !u! tag:unity3d.com,2011:
--- !u!114 &11400000
MonoBehaviour:
  m_ObjectHideFlags: 0
  m_CorrespondingSourceObject: {fileID: 0}
  m_PrefabInstance: {fileID: 0}
  m_PrefabAsset: {fileID: 0}
  m_GameObject: {fileID: 0}
  m_Enabled: 1
  m_EditorHideFlags: 0
  m_Script: {fileID: 11500000, guid: 05c50b8a24558c04fb29c890553074fd, type: 3}
  m_Name: ShopCounter
  m_EditorClassIdentifier: 
  presetName: ShopCounter
  classes:
  - {fileID: 11400000, guid: 559720d523eb92645b6f20a6fe7b5862, type: 2}
  - {fileID: 11400000, guid: a99b7ac2f890a1d4e9c04c7852fe631e, type: 2}
  prefab: {fileID: 3990760335573414654, guid: bc133ea465e96a140a214b181b7ecef8, type: 3}
  allowStaticBatching: 1
  spawnRange: 3
  integratedInteractables:
  - preset: {fileID: 11400000, guid: 7eb3be2cf20995849a69c9318546c5af, type: 2}
    pairToController: 0
    belongsTo: 0
  universalDesignStyle: 1
  designStyles: []
  inheritColouringFromDecor: 1
  shareColours: 3
  inheritGrubFromDecor: 1
  variations:
  - name: Inherit
    main: 15
    colour1: 14
    colour2: 8
    colour3: 8
  furnitureGroup: 0
  groupID: 0
  concrete: 0
  plaster: 0
  wood: 1
  carpet: 0
  tile: 0
  metal: 0
  glass: 0
  fabric: 0
  minimumRoomSize: 4
  allowedInOpenPlan: 0
  onlyAllowInFollowing: 0
  allowedInAddressesOfType: []
  banInFollowing: 0
  bannedInAddressesOfType: []
  OnlyAllowInBuildings: 0
  allowedInBuildings: []
  banFromBuildings: 0
  notAllowedInBuildings: []
  OnlyAllowInDistricts: 0
  allowedInDistricts: []
  banFromDistricts: 0
  notAllowedInDistricts: []
  requiresGenderedInhabitants: 0
  enableIfGenderPresent: 
  allowedRoomFilters:
  - {fileID: 11400000, guid: d1bfa1c547db3f54fb3b2f087a1f031f, type: 2}
  - {fileID: 11400000, guid: 2b658dceab15cb5409a5f04ea7340fa3, type: 2}
  - {fileID: 11400000, guid: ff557ac56418edd48b07775301891788, type: 2}
  minimumWealth: 0
  usePersonalityWeighting: 0
  modernity: 5
  cleanness: 5
  loudness: 5
  emotive: 5
  subObjects:
  - preset: {fileID: 11400000, guid: e972d8346adcf1646b11cad1b3717a4d, type: 2}
    parent: 
    localPos: {x: 0, y: 1.05, z: 0.583}
    localRot: {x: -0, y: 180, z: 0}
    belongsTo: 1
    security: 0
  - preset: {fileID: 11400000, guid: 17394580b1f322f4bb3d9e2899b64a1c, type: 2}
    parent: 
    localPos: {x: 0.62, y: 1.05, z: 0.782}
    localRot: {x: -0, y: 353.61935, z: 0}
    belongsTo: 1
    security: 0
  - preset: {fileID: 11400000, guid: 17394580b1f322f4bb3d9e2899b64a1c, type: 2}
    parent: 
    localPos: {x: -0.607, y: 1.05, z: 0.782}
    localRot: {x: -0, y: 349.20312, z: 0}
    belongsTo: 1
    security: 0
  - preset: {fileID: 11400000, guid: 93c4b1cb41af1dc4796a525d7b2da47b, type: 2}
    parent: 
    localPos: {x: 0.723, y: 1.05, z: 0.429}
    localRot: {x: -0, y: 175.26132, z: 0}
    belongsTo: 1
    security: 0
  - preset: {fileID: 11400000, guid: 93c4b1cb41af1dc4796a525d7b2da47b, type: 2}
    parent: 
    localPos: {x: -0.704, y: 1.05, z: 0.464}
    localRot: {x: -0, y: 186.24977, z: 0}
    belongsTo: 1
    security: 0
  - preset: {fileID: 11400000, guid: bd2fb56d5263c7046aea4164e42e3182, type: 2}
    parent: 
    localPos: {x: -0.154, y: 1.05, z: 0.888}
    localRot: {x: -0, y: 350.64597, z: 0}
    belongsTo: 1
    security: 0
  - preset: {fileID: 11400000, guid: bd2fb56d5263c7046aea4164e42e3182, type: 2}
    parent: 
    localPos: {x: 0.318, y: 1.05, z: 0.866}
    localRot: {x: -0, y: 31.381117, z: -0}
    belongsTo: 1
    security: 0
  - preset: {fileID: 11400000, guid: 94ecd56f625166b449047f5eee385c68, type: 2}
    parent: 
    localPos: {x: -0.588, y: 0.354, z: 0.547}
    localRot: {x: -0, y: 186.24977, z: 0}
    belongsTo: 1
    security: 0
  - preset: {fileID: 11400000, guid: 58d35ae0305e7d541af98472310ee11c, type: 2}
    parent: 
    localPos: {x: 0.389, y: 0.354, z: 0.542}
    localRot: {x: -0, y: 178.06354, z: 0}
    belongsTo: 1
    security: 0
  - preset: {fileID: 11400000, guid: 94ecd56f625166b449047f5eee385c68, type: 2}
    parent: 
    localPos: {x: -0.35, y: 0.354, z: 0.691}
    localRot: {x: -0, y: 170.57097, z: -0}
    belongsTo: 1
    security: 0
  testForModifiers: 2
  forcePublicIllegal: 1
  hidingEnterTransition: {fileID: 0}
  hidingExitTransition: {fileID: 0}
  hidingEnterTransition2: {fileID: 0}
  hidingExitTransition2: {fileID: 0}
  map: {fileID: 2800000, guid: 408c32e884aa14e47a10f8852010052e, type: 3}
  drawUnderWalls: 1
  ignoreDirection: 0
  fingerprintsEnabled: 1
  printsSource: 1
  fingerprintDensity: 1
  alterAreaLighting: 0
  possibleColours: []
  lightOperation: 0
  lightAmount: 0.12
  brightnessModifier: 10
  purchasable: 0
  cost: 100
  decorClass: 5
  staticImage: {fileID: 0}
  imagePos: {x: 0, y: 0, z: 0}
  imageRot: {x: 0, y: 0, z: 0}
  imageScale: 1
  imagePrefabOverride: {fileID: 0}
  isJobBoard: 0
  isWorkPosition: 0
  isPlant: 0
  isArt: 0
  isSecurityCamera: 0
  artOrientation: 0
  createSelfEmployed: {fileID: 0}
  workPositionID: 0
  spawnObjectOnChance: 1
  spawnObjectsOnPlacement: []
