%YAML 1.1
%TAG !u! tag:unity3d.com,2011:
--- !u!114 &11400000
MonoBehaviour:
  m_ObjectHideFlags: 0
  m_CorrespondingSourceObject: {fileID: 0}
  m_PrefabInstance: {fileID: 0}
  m_PrefabAsset: {fileID: 0}
  m_GameObject: {fileID: 0}
  m_Enabled: 1
  m_EditorHideFlags: 0
  m_Script: {fileID: 11500000, guid: 05c50b8a24558c04fb29c890553074fd, type: 3}
  m_Name: VintageKitchenette
  m_EditorClassIdentifier: 
  presetName: VintageKitchenette
  classes:
  - {fileID: 11400000, guid: f44170b11db309349914b79f2abef18d, type: 2}
  prefab: {fileID: 8930696246240917724, guid: eca06bf976efb484c851df91e56686c6, type: 3}
  allowStaticBatching: 0
  spawnRange: 3
  integratedInteractables:
  - preset: {fileID: 11400000, guid: 7631c92aa95c1244f9fb1819aaf081b6, type: 2}
    pairToController: 0
    belongsTo: 0
  - preset: {fileID: 11400000, guid: 7631c92aa95c1244f9fb1819aaf081b6, type: 2}
    pairToController: 1
    belongsTo: 0
  - preset: {fileID: 11400000, guid: 4b42015a311108b42bb3564eb5edaa4a, type: 2}
    pairToController: 2
    belongsTo: 0
  - preset: {fileID: 11400000, guid: a48d223c243580646aa267657c722359, type: 2}
    pairToController: 3
    belongsTo: 0
  - preset: {fileID: 11400000, guid: ae499061a0edecb448e2674c1a2096d8, type: 2}
    pairToController: 4
    belongsTo: 0
  - preset: {fileID: 11400000, guid: 7c5ae8b5dec86f74e87c62063c7c8a4d, type: 2}
    pairToController: 5
    belongsTo: 0
  universalDesignStyle: 0
  designStyles:
  - {fileID: 11400000, guid: e02dfc783e1042e48b87ceb703c8dc23, type: 2}
  - {fileID: 11400000, guid: fb5884c44b9167f4982a3fe7b4a798b4, type: 2}
  inheritColouringFromDecor: 1
  shareColours: 3
  inheritGrubFromDecor: 1
  variations:
  - name: 
    main: 15
    colour1: 0
    colour2: 13
    colour3: 15
  - name: 
    main: 15
    colour1: 16
    colour2: 13
    colour3: 15
  furnitureGroup: 0
  groupID: 0
  concrete: 0
  plaster: 0
  wood: 0
  carpet: 0
  tile: 0
  metal: 1
  glass: 0
  fabric: 0
  minimumRoomSize: 0
  allowedInOpenPlan: 2
  onlyAllowInFollowing: 0
  allowedInAddressesOfType: []
  banInFollowing: 0
  bannedInAddressesOfType: []
  OnlyAllowInBuildings: 0
  allowedInBuildings: []
  banFromBuildings: 0
  notAllowedInBuildings: []
  OnlyAllowInDistricts: 0
  allowedInDistricts: []
  banFromDistricts: 0
  notAllowedInDistricts: []
  requiresGenderedInhabitants: 0
  enableIfGenderPresent: 
  allowedRoomFilters:
  - {fileID: 11400000, guid: 4c93faa19051f25409dcf49ed0916834, type: 2}
  minimumWealth: 0
  usePersonalityWeighting: 1
  modernity: 0
  cleanness: 7
  loudness: 1
  emotive: 5
  subObjects:
  - preset: {fileID: 11400000, guid: 285a7f522047b4a4abbe1632b6a02a97, type: 2}
    parent: 
    localPos: {x: 0.29, y: 1.2046, z: -0.6731}
    localRot: {x: -0, y: 0, z: 0}
    belongsTo: 0
    security: 0
  - preset: {fileID: 11400000, guid: 4e84b479f5bbc6f4f81821d28d1ceaa5, type: 2}
    parent: 
    localPos: {x: 0.015, y: 1.145, z: -0.392}
    localRot: {x: -0, y: 348.7952, z: 0}
    belongsTo: 0
    security: 0
  - preset: {fileID: 11400000, guid: 1ea276031c7d5584ea75618346316f59, type: 2}
    parent: 
    localPos: {x: 0.405, y: 1.198, z: -0.206}
    localRot: {x: -0, y: 90, z: 0}
    belongsTo: 0
    security: 0
  - preset: {fileID: 11400000, guid: 8ffa9e02abfa27747b3bc82cfdf4cdaf, type: 2}
    parent: 
    localPos: {x: -0.44, y: 1.007, z: -0.354}
    localRot: {x: -0, y: 34.06341, z: 0}
    belongsTo: 0
    security: 0
  - preset: {fileID: 11400000, guid: 94ecd56f625166b449047f5eee385c68, type: 2}
    parent: 
    localPos: {x: 0.15, y: 0.899, z: -0.169}
    localRot: {x: -0, y: 0, z: 0}
    belongsTo: 0
    security: 0
  - preset: {fileID: 11400000, guid: fdb12cdfbd43ee744b784e0cfee0762c, type: 2}
    parent: 
    localPos: {x: 0.612, y: 0.556, z: -0.169}
    localRot: {x: -0, y: 356.56717, z: 0}
    belongsTo: 0
    security: 0
  - preset: {fileID: 11400000, guid: fdb12cdfbd43ee744b784e0cfee0762c, type: 2}
    parent: 
    localPos: {x: 0.417, y: 0.556, z: -0.225}
    localRot: {x: 359.747, y: 9.056033, z: 0.6352431}
    belongsTo: 0
    security: 0
  - preset: {fileID: 11400000, guid: fdb12cdfbd43ee744b784e0cfee0762c, type: 2}
    parent: 
    localPos: {x: 0.198, y: 0.556, z: -0.211}
    localRot: {x: -0, y: 355.361, z: 0}
    belongsTo: 0
    security: 0
  - preset: {fileID: 11400000, guid: fdb12cdfbd43ee744b784e0cfee0762c, type: 2}
    parent: 
    localPos: {x: -0.165, y: 0.556, z: -0.169}
    localRot: {x: -0, y: 5.837969, z: 0}
    belongsTo: 0
    security: 0
  - preset: {fileID: 11400000, guid: fdb12cdfbd43ee744b784e0cfee0762c, type: 2}
    parent: 
    localPos: {x: -0.36, y: 0.556, z: -0.247}
    localRot: {x: -0, y: 350.72736, z: 0}
    belongsTo: 0
    security: 0
  - preset: {fileID: 11400000, guid: fdb12cdfbd43ee744b784e0cfee0762c, type: 2}
    parent: 
    localPos: {x: -0.6, y: 0.556, z: -0.169}
    localRot: {x: -0, y: 4.8322573, z: 0}
    belongsTo: 0
    security: 0
  - preset: {fileID: 11400000, guid: 285a7f522047b4a4abbe1632b6a02a97, type: 2}
    parent: 
    localPos: {x: -0.6, y: 0.098, z: -0.169}
    localRot: {x: -0, y: 9.9699, z: 0}
    belongsTo: 0
    security: 0
  - preset: {fileID: 11400000, guid: fdb12cdfbd43ee744b784e0cfee0762c, type: 2}
    parent: 
    localPos: {x: -0.41, y: 0.098, z: -0.238}
    localRot: {x: -0, y: 0, z: 0}
    belongsTo: 0
    security: 0
  - preset: {fileID: 11400000, guid: fdb12cdfbd43ee744b784e0cfee0762c, type: 2}
    parent: 
    localPos: {x: -0.162, y: 0.098, z: -0.169}
    localRot: {x: -0, y: 350.29907, z: 0}
    belongsTo: 0
    security: 0
  - preset: {fileID: 11400000, guid: fdb12cdfbd43ee744b784e0cfee0762c, type: 2}
    parent: 
    localPos: {x: 0.211, y: 0.098, z: -0.169}
    localRot: {x: -0, y: 353.07877, z: 0}
    belongsTo: 0
    security: 0
  - preset: {fileID: 11400000, guid: fdb12cdfbd43ee744b784e0cfee0762c, type: 2}
    parent: 
    localPos: {x: 0.589, y: 0.098, z: -0.169}
    localRot: {x: -0, y: 357.26834, z: 0}
    belongsTo: 0
    security: 0
  - preset: {fileID: 11400000, guid: fdb12cdfbd43ee744b784e0cfee0762c, type: 2}
    parent: 
    localPos: {x: 0.392, y: 0.098, z: -0.256}
    localRot: {x: -0, y: 5.2559075, z: 0}
    belongsTo: 0
    security: 0
  - preset: {fileID: 11400000, guid: 94ecd56f625166b449047f5eee385c68, type: 2}
    parent: 
    localPos: {x: 0.606, y: 1.2046, z: -0.627}
    localRot: {x: -0, y: 354.49832, z: 0}
    belongsTo: 0
    security: 0
  testForModifiers: 0
  forcePublicIllegal: 0
  hidingEnterTransition: {fileID: 0}
  hidingExitTransition: {fileID: 0}
  hidingEnterTransition2: {fileID: 0}
  hidingExitTransition2: {fileID: 0}
  map: {fileID: 2800000, guid: e28c45ad93fb47048903e470bd14fc21, type: 3}
  drawUnderWalls: 1
  ignoreDirection: 0
  fingerprintsEnabled: 1
  printsSource: 1
  fingerprintDensity: 1
  alterAreaLighting: 0
  possibleColours: []
  lightOperation: 0
  lightAmount: 0.12
  brightnessModifier: 10
  purchasable: 1
  cost: 110
  decorClass: 2
  staticImage: {fileID: 21300000, guid: a3b57db938737c54a8df0963d9c918d6, type: 3}
  imagePos: {x: 0, y: 0, z: 0}
  imageRot: {x: 0, y: 0, z: 0}
  imageScale: 1
  imagePrefabOverride: {fileID: 0}
  isJobBoard: 0
  isWorkPosition: 0
  isPlant: 0
  isArt: 0
  isSecurityCamera: 0
  artOrientation: 0
  createSelfEmployed: {fileID: 0}
  workPositionID: 0
  spawnObjectOnChance: 1
  spawnObjectsOnPlacement: []
