%YAML 1.1
%TAG !u! tag:unity3d.com,2011:
--- !u!114 &11400000
MonoBehaviour:
  m_ObjectHideFlags: 0
  m_CorrespondingSourceObject: {fileID: 0}
  m_PrefabInstance: {fileID: 0}
  m_PrefabAsset: {fileID: 0}
  m_GameObject: {fileID: 0}
  m_Enabled: 1
  m_EditorHideFlags: 0
  m_Script: {fileID: 11500000, guid: 3de37fdb9771ab84580279e8ed045c9f, type: 3}
  m_Name: BedEnter
  m_EditorClassIdentifier: 
  presetName: BedEnter
  transitionTime: 1.7
  retainMovementControl: 0
  controlCurve:
    serializedVersion: 2
    m_Curve:
    - serializedVersion: 3
      time: 0
      value: 0
      inSlope: 0
      outSlope: 0
      tangentMode: 0
      weightedMode: 0
      inWeight: 0.33333334
      outWeight: 0.33333334
    - serializedVersion: 3
      time: 1
      value: 0
      inSlope: 0
      outSlope: 0
      tangentMode: 0
      weightedMode: 0
      inWeight: 0.33333334
      outWeight: 0.33333334
    m_PreInfinity: 2
    m_PostInfinity: 2
    m_RotationOrder: 4
  mouseLookControlCurve:
    serializedVersion: 2
    m_Curve:
    - serializedVersion: 3
      time: 0
      value: 0
      inSlope: 0
      outSlope: 0
      tangentMode: 0
      weightedMode: 0
      inWeight: 0.33333334
      outWeight: 0.33333334
    - serializedVersion: 3
      time: 1
      value: 0
      inSlope: 0
      outSlope: 0
      tangentMode: 0
      weightedMode: 0
      inWeight: 0.33333334
      outWeight: 0.33333334
    m_PreInfinity: 2
    m_PostInfinity: 2
    m_RotationOrder: 4
  playerHeightMP: 0.26
  CamHeightMP: 0.2
  factorInCrouching: 0
  heightCurve:
    serializedVersion: 2
    m_Curve:
    - serializedVersion: 3
      time: 0
      value: 0
      inSlope: 0
      outSlope: 0
      tangentMode: 0
      weightedMode: 0
      inWeight: 0.33333334
      outWeight: 0.33333334
    - serializedVersion: 3
      time: 1
      value: 1
      inSlope: 0
      outSlope: 0
      tangentMode: 0
      weightedMode: 0
      inWeight: 0.33333334
      outWeight: 0.33333334
    m_PreInfinity: 2
    m_PostInfinity: 2
    m_RotationOrder: 4
  camHeightCurve:
    serializedVersion: 2
    m_Curve:
    - serializedVersion: 3
      time: 0
      value: 0
      inSlope: 0
      outSlope: 0
      tangentMode: 0
      weightedMode: 0
      inWeight: 0.33333334
      outWeight: 0.33333334
    - serializedVersion: 3
      time: 1
      value: 1
      inSlope: 0
      outSlope: 0
      tangentMode: 0
      weightedMode: 0
      inWeight: 0.33333334
      outWeight: 0.33333334
    m_PreInfinity: 2
    m_PostInfinity: 2
    m_RotationOrder: 4
  useXMovement: 1
  playerXCurve:
    serializedVersion: 2
    m_Curve:
    - serializedVersion: 3
      time: 0
      value: 0.55
      inSlope: 0
      outSlope: 0
      tangentMode: 0
      weightedMode: 0
      inWeight: 0.33333334
      outWeight: 0.33333334
    - serializedVersion: 3
      time: 1
      value: 0.000019073486
      inSlope: 0.06360127
      outSlope: 0.06360127
      tangentMode: 0
      weightedMode: 0
      inWeight: 0.04900205
      outWeight: 0.33333334
    m_PreInfinity: 2
    m_PostInfinity: 2
    m_RotationOrder: 4
  useYMovement: 0
  playerYCurve:
    serializedVersion: 2
    m_Curve:
    - serializedVersion: 3
      time: 0
      value: 0
      inSlope: 0
      outSlope: 0
      tangentMode: 0
      weightedMode: 0
      inWeight: 0.33333334
      outWeight: 0.33333334
    - serializedVersion: 3
      time: 1
      value: 0
      inSlope: 0
      outSlope: 0
      tangentMode: 0
      weightedMode: 0
      inWeight: 0.33333334
      outWeight: 0.33333334
    m_PreInfinity: 2
    m_PostInfinity: 2
    m_RotationOrder: 4
  useZMovement: 1
  playerZCurve:
    serializedVersion: 2
    m_Curve:
    - serializedVersion: 3
      time: 0
      value: 0
      inSlope: 0
      outSlope: 0
      tangentMode: 0
      weightedMode: 0
      inWeight: 0.33333334
      outWeight: 0.33333334
    - serializedVersion: 3
      time: 0.6854438
      value: -0.064817026
      inSlope: -0.6535163
      outSlope: -0.6535163
      tangentMode: 0
      weightedMode: 0
      inWeight: 0.048135024
      outWeight: 0.110336
    - serializedVersion: 3
      time: 1
      value: -0.46
      inSlope: 0.54548717
      outSlope: 0.54548717
      tangentMode: 0
      weightedMode: 0
      inWeight: 0.14485757
      outWeight: 0.33333334
    m_PreInfinity: 2
    m_PostInfinity: 2
    m_RotationOrder: 4
  transitionRelativity: 0
  disableWriteReturnPosition: 0
  transitionToSavedReturnPosition: 0
  transitionFromExistingPosition: 1
  positionTransitionCurve:
    serializedVersion: 2
    m_Curve:
    - serializedVersion: 3
      time: 0
      value: 0
      inSlope: 3.9095726
      outSlope: 3.9095726
      tangentMode: 0
      weightedMode: 0
      inWeight: 0.33333334
      outWeight: 0.033505507
    - serializedVersion: 3
      time: 0.65
      value: 1
      inSlope: 0.032186836
      outSlope: 0.005177089
      tangentMode: 65
      weightedMode: 0
      inWeight: 0.089236915
      outWeight: 0.1449305
    - serializedVersion: 3
      time: 1
      value: 1.001812
      inSlope: Infinity
      outSlope: 0
      tangentMode: 7
      weightedMode: 0
      inWeight: 0.101449326
      outWeight: 0.33333334
    m_PreInfinity: 2
    m_PostInfinity: 2
    m_RotationOrder: 4
  invertXPositionBasedOnRelativePlayerX: 1
  invertYPositionBasedOnRelativePlayerY: 0
  invertZPositionBasedOnRelativePlayerZ: 0
  raycastCheck: 0
  onFailUse: {fileID: 0}
  allowMovementOnEnd: 0
  restoreNormalMovementSpeed: 1
  customMovementSpeed: 0.3
  disableGravity: 0
  disableHeadBob: 0
  useXLook: 1
  playerXLookCurve:
    serializedVersion: 2
    m_Curve:
    - serializedVersion: 3
      time: 0
      value: 1.0000194
      inSlope: 0
      outSlope: 0
      tangentMode: 0
      weightedMode: 0
      inWeight: 0.33333334
      outWeight: 0.33333334
    - serializedVersion: 3
      time: 1
      value: 0.000019073486
      inSlope: 0
      outSlope: 0
      tangentMode: 0
      weightedMode: 0
      inWeight: 0.33333334
      outWeight: 0.33333334
    m_PreInfinity: 2
    m_PostInfinity: 2
    m_RotationOrder: 4
  useYLook: 0
  playerYLookCurve:
    serializedVersion: 2
    m_Curve:
    - serializedVersion: 3
      time: 0
      value: 0
      inSlope: 0
      outSlope: 0
      tangentMode: 0
      weightedMode: 0
      inWeight: 0.33333334
      outWeight: 0.33333334
    - serializedVersion: 3
      time: 1
      value: 0
      inSlope: 0
      outSlope: 0
      tangentMode: 0
      weightedMode: 0
      inWeight: 0.33333334
      outWeight: 0.33333334
    m_PreInfinity: 2
    m_PostInfinity: 2
    m_RotationOrder: 4
  useZLook: 1
  playerZLookCurve:
    serializedVersion: 2
    m_Curve:
    - serializedVersion: 3
      time: 0
      value: 1
      inSlope: 0
      outSlope: 0
      tangentMode: 0
      weightedMode: 0
      inWeight: 0.33333334
      outWeight: 0.33333334
    - serializedVersion: 3
      time: 1
      value: 1
      inSlope: 0
      outSlope: 0
      tangentMode: 0
      weightedMode: 0
      inWeight: 0.33333334
      outWeight: 0.33333334
    m_PreInfinity: 2
    m_PostInfinity: 2
    m_RotationOrder: 4
  lookRelativity: 0
  forwardPositionModifier: 1
  lookMovementMultiplier: 1
  applyCameraRoll: 1
  cameraRoll:
    serializedVersion: 2
    m_Curve:
    - serializedVersion: 3
      time: 0
      value: 0
      inSlope: 0
      outSlope: 0
      tangentMode: 0
      weightedMode: 0
      inWeight: 0.33333334
      outWeight: 0.33333334
    - serializedVersion: 3
      time: 0.24050093
      value: -0.08846283
      inSlope: 1.5009387
      outSlope: 1.5009387
      tangentMode: 0
      weightedMode: 0
      inWeight: 0.33333334
      outWeight: 0.33333334
    - serializedVersion: 3
      time: 0.5733795
      value: 0.3431673
      inSlope: 0.0027017354
      outSlope: 0.0027017354
      tangentMode: 0
      weightedMode: 0
      inWeight: 0.33333334
      outWeight: 0.33333334
    - serializedVersion: 3
      time: 0.99731445
      value: 0.0018081665
      inSlope: 0
      outSlope: 0
      tangentMode: 0
      weightedMode: 0
      inWeight: 0.33333334
      outWeight: 0.33333334
    m_PreInfinity: 2
    m_PostInfinity: 2
    m_RotationOrder: 4
  rollMultiplier: 45
  resetCameraRoll: 1
  transitionFromExistingMouse: 1
  mouseTransitionCurve:
    serializedVersion: 2
    m_Curve:
    - serializedVersion: 3
      time: 0
      value: 0
      inSlope: 6.3154774
      outSlope: 6.3154774
      tangentMode: 0
      weightedMode: 0
      inWeight: 0.33333334
      outWeight: 0.048522927
    - serializedVersion: 3
      time: 0.43647707
      value: 1
      inSlope: 0.12361032
      outSlope: 0.0032154524
      tangentMode: 65
      weightedMode: 0
      inWeight: 0.11181945
      outWeight: 0.1449305
    - serializedVersion: 3
      time: 1
      value: 1.001812
      inSlope: Infinity
      outSlope: 0
      tangentMode: 7
      weightedMode: 0
      inWeight: 0.101449326
      outWeight: 0.33333334
    m_PreInfinity: 2
    m_PostInfinity: 2
    m_RotationOrder: 4
  useChromaticAberration: 0
  chromaticAberrationCurve:
    serializedVersion: 2
    m_Curve: []
    m_PreInfinity: 2
    m_PostInfinity: 2
    m_RotationOrder: 4
  useGain: 0
  gainCurve:
    serializedVersion: 2
    m_Curve: []
    m_PreInfinity: 2
    m_PostInfinity: 2
    m_RotationOrder: 4
  sfx: []
  forceHolsterOnTransition: 1
  restoreHolsterOnTransitionEnd: 0
  allowWeaponSwitchingAfterTransition: 0
  playerXRecoilLookCurve:
    serializedVersion: 2
    m_Curve: []
    m_PreInfinity: 2
    m_PostInfinity: 2
    m_RotationOrder: 4
  playerYRecoilLookCurve:
    serializedVersion: 2
    m_Curve: []
    m_PreInfinity: 2
    m_PostInfinity: 2
    m_RotationOrder: 4
  playerZRecoilLookCurve:
    serializedVersion: 2
    m_Curve: []
    m_PreInfinity: 2
    m_PostInfinity: 2
    m_RotationOrder: 4
  useCustomReturnPosition: 0
  returnPostion: {x: 0, y: 0, z: 0}
