%YAML 1.1
%TAG !u! tag:unity3d.com,2011:
--- !u!114 &11400000
MonoBehaviour:
  m_ObjectHideFlags: 0
  m_CorrespondingSourceObject: {fileID: 0}
  m_PrefabInstance: {fileID: 0}
  m_PrefabAsset: {fileID: 0}
  m_GameObject: {fileID: 0}
  m_Enabled: 1
  m_EditorHideFlags: 0
  m_Script: {fileID: 11500000, guid: 3de37fdb9771ab84580279e8ed045c9f, type: 3}
  m_Name: Counter
  m_EditorClassIdentifier: 
  presetName: Counter
  transitionTime: 0.8
  retainMovementControl: 1
  controlCurve:
    serializedVersion: 2
    m_Curve:
    - serializedVersion: 3
      time: 0
      value: 1
      inSlope: -2.2419262
      outSlope: -2.2419262
      tangentMode: 34
      weightedMode: 0
      inWeight: 0
      outWeight: 0.33333334
    - serializedVersion: 3
      time: 0.29929277
      value: 0.3290077
      inSlope: -1.0454177
      outSlope: -1.0454177
      tangentMode: 34
      weightedMode: 0
      inWeight: 0.33333334
      outWeight: 0.33333334
    - serializedVersion: 3
      time: 0.5798445
      value: 0.37139648
      inSlope: 1.4120499
      outSlope: 1.4120499
      tangentMode: 34
      weightedMode: 0
      inWeight: 0.33333334
      outWeight: 0.33333334
    - serializedVersion: 3
      time: 0.79530585
      value: 0.94732666
      inSlope: -0.2425915
      outSlope: -0.2425915
      tangentMode: 34
      weightedMode: 0
      inWeight: 0.33333334
      outWeight: 0.33333334
    - serializedVersion: 3
      time: 0.9233731
      value: 0.5428657
      inSlope: 1.403762
      outSlope: 1.403762
      tangentMode: 34
      weightedMode: 0
      inWeight: 0.33333334
      outWeight: 0.33333334
    - serializedVersion: 3
      time: 1
      value: 1
      inSlope: 5.965716
      outSlope: 5.965716
      tangentMode: 34
      weightedMode: 0
      inWeight: 0.33333334
      outWeight: 0
    m_PreInfinity: 2
    m_PostInfinity: 2
    m_RotationOrder: 4
  mouseLookControlCurve:
    serializedVersion: 2
    m_Curve:
    - serializedVersion: 3
      time: 0
      value: 1
      inSlope: 0
      outSlope: 0
      tangentMode: 34
      weightedMode: 0
      inWeight: 0
      outWeight: 0
    - serializedVersion: 3
      time: 1
      value: 1
      inSlope: 0
      outSlope: 0
      tangentMode: 34
      weightedMode: 0
      inWeight: 0
      outWeight: 0
    m_PreInfinity: 2
    m_PostInfinity: 2
    m_RotationOrder: 4
  playerHeightMP: 1
  CamHeightMP: 1
  factorInCrouching: 0
  heightCurve:
    serializedVersion: 2
    m_Curve: []
    m_PreInfinity: 2
    m_PostInfinity: 2
    m_RotationOrder: 4
  camHeightCurve:
    serializedVersion: 2
    m_Curve: []
    m_PreInfinity: 2
    m_PostInfinity: 2
    m_RotationOrder: 4
  useXMovement: 0
  playerXCurve:
    serializedVersion: 2
    m_Curve:
    - serializedVersion: 3
      time: 0
      value: 0
      inSlope: 0
      outSlope: 0
      tangentMode: 0
      weightedMode: 0
      inWeight: 0.33333334
      outWeight: 0.33333334
    - serializedVersion: 3
      time: 1
      value: 1
      inSlope: 2
      outSlope: 2
      tangentMode: 0
      weightedMode: 0
      inWeight: 0.33333334
      outWeight: 0.33333334
    m_PreInfinity: 2
    m_PostInfinity: 2
    m_RotationOrder: 4
  useYMovement: 0
  playerYCurve:
    serializedVersion: 2
    m_Curve:
    - serializedVersion: 3
      time: 0
      value: 1.0013428
      inSlope: 0
      outSlope: 0
      tangentMode: 0
      weightedMode: 0
      inWeight: 0.33333334
      outWeight: 0.33333334
    - serializedVersion: 3
      time: 0.23683855
      value: 0.84365994
      inSlope: -2.4190545
      outSlope: -2.4190545
      tangentMode: 0
      weightedMode: 0
      inWeight: 0.33333334
      outWeight: 0.33333334
    - serializedVersion: 3
      time: 0.49961513
      value: 0.19984418
      inSlope: -0.0023841858
      outSlope: -0.0023841858
      tangentMode: 0
      weightedMode: 0
      inWeight: 0.33333334
      outWeight: 0.33333334
    - serializedVersion: 3
      time: 0.7612681
      value: 0.81553334
      inSlope: 2.3710728
      outSlope: 2.3710728
      tangentMode: 0
      weightedMode: 0
      inWeight: 0.33333334
      outWeight: 0.33333334
    - serializedVersion: 3
      time: 0.9984662
      value: 1.0013542
      inSlope: 0
      outSlope: 0
      tangentMode: 0
      weightedMode: 0
      inWeight: 0.33333334
      outWeight: 0.33333334
    m_PreInfinity: 2
    m_PostInfinity: 2
    m_RotationOrder: 4
  useZMovement: 0
  playerZCurve:
    serializedVersion: 2
    m_Curve:
    - serializedVersion: 3
      time: 0
      value: 0
      inSlope: -0.15489727
      outSlope: -0.15489727
      tangentMode: 34
      weightedMode: 0
      inWeight: 0
      outWeight: 0.33333334
    - serializedVersion: 3
      time: 0.3659628
      value: -0.05668664
      inSlope: 0.37671417
      outSlope: 0.37671417
      tangentMode: 34
      weightedMode: 0
      inWeight: 0.33333334
      outWeight: 0.33333334
    - serializedVersion: 3
      time: 0.78875875
      value: 0.32734975
      inSlope: -0.32066163
      outSlope: -0.32066163
      tangentMode: 34
      weightedMode: 0
      inWeight: 0.33333334
      outWeight: 0.33333334
    - serializedVersion: 3
      time: 1
      value: 0
      inSlope: 0.0031706418
      outSlope: 0.0031706418
      tangentMode: 0
      weightedMode: 0
      inWeight: 0.4900747
      outWeight: 0
    m_PreInfinity: 2
    m_PostInfinity: 2
    m_RotationOrder: 4
  transitionRelativity: 1
  disableWriteReturnPosition: 0
  transitionToSavedReturnPosition: 0
  transitionFromExistingPosition: 0
  positionTransitionCurve:
    serializedVersion: 2
    m_Curve: []
    m_PreInfinity: 2
    m_PostInfinity: 2
    m_RotationOrder: 4
  invertXPositionBasedOnRelativePlayerX: 0
  invertYPositionBasedOnRelativePlayerY: 0
  invertZPositionBasedOnRelativePlayerZ: 0
  raycastCheck: 0
  onFailUse: {fileID: 0}
  allowMovementOnEnd: 1
  restoreNormalMovementSpeed: 1
  customMovementSpeed: 1
  disableGravity: 0
  disableHeadBob: 0
  useXLook: 1
  playerXLookCurve:
    serializedVersion: 2
    m_Curve:
    - serializedVersion: 3
      time: 0
      value: 0
      inSlope: -3.9718466
      outSlope: -3.9718466
      tangentMode: 34
      weightedMode: 0
      inWeight: 0
      outWeight: 0.33333334
    - serializedVersion: 3
      time: 0.28711236
      value: -1.1403662
      inSlope: -0.70915556
      outSlope: -0.70915556
      tangentMode: 34
      weightedMode: 0
      inWeight: 0.33333334
      outWeight: 0.33333334
    - serializedVersion: 3
      time: 0.7435286
      value: 0.025108919
      inSlope: 1.227817
      outSlope: 1.227817
      tangentMode: 34
      weightedMode: 0
      inWeight: 0.33333334
      outWeight: 0.33333334
    - serializedVersion: 3
      time: 1
      value: 0
      inSlope: 0.046407137
      outSlope: 0.046407137
      tangentMode: 0
      weightedMode: 0
      inWeight: 0.11446067
      outWeight: 0
    m_PreInfinity: 2
    m_PostInfinity: 2
    m_RotationOrder: 4
  useYLook: 1
  playerYLookCurve:
    serializedVersion: 2
    m_Curve:
    - serializedVersion: 3
      time: 0
      value: 0.00045776367
      inSlope: -0.51786524
      outSlope: -0.51786524
      tangentMode: 0
      weightedMode: 0
      inWeight: 0
      outWeight: 0.29573905
    - serializedVersion: 3
      time: 0.71100014
      value: 0.024259903
      inSlope: 0.46254233
      outSlope: 0.46254233
      tangentMode: 0
      weightedMode: 0
      inWeight: 0.106049635
      outWeight: 0.33333334
    - serializedVersion: 3
      time: 1
      value: 0
      inSlope: 0
      outSlope: 0
      tangentMode: 0
      weightedMode: 0
      inWeight: 0
      outWeight: 0
    m_PreInfinity: 2
    m_PostInfinity: 2
    m_RotationOrder: 4
  useZLook: 0
  playerZLookCurve:
    serializedVersion: 2
    m_Curve: []
    m_PreInfinity: 2
    m_PostInfinity: 2
    m_RotationOrder: 4
  lookRelativity: 1
  forwardPositionModifier: 5
  lookMovementMultiplier: 5
  applyCameraRoll: 1
  cameraRoll:
    serializedVersion: 2
    m_Curve:
    - serializedVersion: 3
      time: 0
      value: 1
      inSlope: -6.4096675
      outSlope: -6.4096675
      tangentMode: 0
      weightedMode: 0
      inWeight: 0.33333334
      outWeight: 0.33333334
    - serializedVersion: 3
      time: 0.63472897
      value: 0.9797964
      inSlope: 2.133029
      outSlope: 2.133029
      tangentMode: 0
      weightedMode: 0
      inWeight: 0.33333334
      outWeight: 0.33333334
    - serializedVersion: 3
      time: 0.99713135
      value: 1.2539978
      inSlope: 0
      outSlope: 0
      tangentMode: 0
      weightedMode: 0
      inWeight: 0.33333334
      outWeight: 0.33333334
    m_PreInfinity: 2
    m_PostInfinity: 2
    m_RotationOrder: 4
  rollMultiplier: 20
  resetCameraRoll: 1
  transitionFromExistingMouse: 0
  mouseTransitionCurve:
    serializedVersion: 2
    m_Curve: []
    m_PreInfinity: 2
    m_PostInfinity: 2
    m_RotationOrder: 4
  useChromaticAberration: 0
  chromaticAberrationCurve:
    serializedVersion: 2
    m_Curve: []
    m_PreInfinity: 2
    m_PostInfinity: 2
    m_RotationOrder: 4
  useGain: 0
  gainCurve:
    serializedVersion: 2
    m_Curve: []
    m_PreInfinity: 2
    m_PostInfinity: 2
    m_RotationOrder: 4
  sfx:
  - soundEvent: {fileID: 11400000, guid: 92f4c4f670f56584fac9708432aacc4a, type: 2}
    atProgress: 0
  - soundEvent: {fileID: 11400000, guid: 95a504209dcdfaf4f905ff44b817a54a, type: 2}
    atProgress: 0.4
  forceHolsterOnTransition: 0
  restoreHolsterOnTransitionEnd: 0
  allowWeaponSwitchingAfterTransition: 1
  playerXRecoilLookCurve:
    serializedVersion: 2
    m_Curve:
    - serializedVersion: 3
      time: 0
      value: 0
      inSlope: 0
      outSlope: 0
      tangentMode: 0
      weightedMode: 0
      inWeight: 0.33333334
      outWeight: 0.33333334
    - serializedVersion: 3
      time: 0.60101557
      value: 0
      inSlope: -0.0049555483
      outSlope: -0.0049555483
      tangentMode: 0
      weightedMode: 0
      inWeight: 0.120321065
      outWeight: 0.33333334
    - serializedVersion: 3
      time: 0.79784495
      value: 0.3
      inSlope: 0
      outSlope: 0
      tangentMode: 0
      weightedMode: 0
      inWeight: 0.33333334
      outWeight: 0.33333334
    - serializedVersion: 3
      time: 1
      value: 0
      inSlope: 0
      outSlope: 0
      tangentMode: 0
      weightedMode: 0
      inWeight: 0.33333334
      outWeight: 0.33333334
    m_PreInfinity: 2
    m_PostInfinity: 2
    m_RotationOrder: 4
  playerYRecoilLookCurve:
    serializedVersion: 2
    m_Curve:
    - serializedVersion: 3
      time: 0
      value: 0
      inSlope: 0
      outSlope: 0
      tangentMode: 0
      weightedMode: 0
      inWeight: 0.33333334
      outWeight: 0.33333334
    - serializedVersion: 3
      time: 0.60101557
      value: 0
      inSlope: -0.0049555483
      outSlope: -0.0049555483
      tangentMode: 0
      weightedMode: 0
      inWeight: 0.120321065
      outWeight: 0.33333334
    - serializedVersion: 3
      time: 0.80309397
      value: 0.13075638
      inSlope: 0
      outSlope: 0
      tangentMode: 0
      weightedMode: 0
      inWeight: 0.33333334
      outWeight: 0.33333334
    - serializedVersion: 3
      time: 1
      value: 0
      inSlope: 0
      outSlope: 0
      tangentMode: 0
      weightedMode: 0
      inWeight: 0.33333334
      outWeight: 0.33333334
    m_PreInfinity: 2
    m_PostInfinity: 2
    m_RotationOrder: 4
  playerZRecoilLookCurve:
    serializedVersion: 2
    m_Curve:
    - serializedVersion: 3
      time: 0
      value: 0
      inSlope: 0
      outSlope: 0
      tangentMode: 0
      weightedMode: 0
      inWeight: 0.33333334
      outWeight: 0.33333334
    - serializedVersion: 3
      time: 1
      value: 0
      inSlope: 0
      outSlope: 0
      tangentMode: 0
      weightedMode: 0
      inWeight: 0.33333334
      outWeight: 0.33333334
    m_PreInfinity: 2
    m_PostInfinity: 2
    m_RotationOrder: 4
  useCustomReturnPosition: 0
  returnPostion: {x: 0, y: 0, z: 0}
