%YAML 1.1
%TAG !u! tag:unity3d.com,2011:
--- !u!114 &11400000
MonoBehaviour:
  m_ObjectHideFlags: 0
  m_CorrespondingSourceObject: {fileID: 0}
  m_PrefabInstance: {fileID: 0}
  m_PrefabAsset: {fileID: 0}
  m_GameObject: {fileID: 0}
  m_Enabled: 1
  m_EditorHideFlags: 0
  m_Script: {fileID: 11500000, guid: 3de37fdb9771ab84580279e8ed045c9f, type: 3}
  m_Name: DinerBoothExitFarB
  m_EditorClassIdentifier: 
  presetName: DinerBoothExitFarB
  transitionTime: 1
  retainMovementControl: 0
  controlCurve:
    serializedVersion: 2
    m_Curve:
    - serializedVersion: 3
      time: 0
      value: 0
      inSlope: 0
      outSlope: 0
      tangentMode: 0
      weightedMode: 0
      inWeight: 0.33333334
      outWeight: 0.33333334
    - serializedVersion: 3
      time: 1
      value: 0
      inSlope: 0
      outSlope: 0
      tangentMode: 0
      weightedMode: 0
      inWeight: 0.33333334
      outWeight: 0.33333334
    m_PreInfinity: 2
    m_PostInfinity: 2
    m_RotationOrder: 4
  mouseLookControlCurve:
    serializedVersion: 2
    m_Curve:
    - serializedVersion: 3
      time: 0
      value: 1
      inSlope: 0
      outSlope: 0
      tangentMode: 0
      weightedMode: 0
      inWeight: 0.33333334
      outWeight: 0.33333334
    - serializedVersion: 3
      time: 1
      value: 1
      inSlope: 0
      outSlope: 0
      tangentMode: 0
      weightedMode: 0
      inWeight: 0.33333334
      outWeight: 0.33333334
    m_PreInfinity: 2
    m_PostInfinity: 2
    m_RotationOrder: 4
  playerHeightMP: 1
  CamHeightMP: 1
  factorInCrouching: 1
  heightCurve:
    serializedVersion: 2
    m_Curve:
    - serializedVersion: 3
      time: 0
      value: 0
      inSlope: 0
      outSlope: 0
      tangentMode: 0
      weightedMode: 0
      inWeight: 0.33333334
      outWeight: 0.33333334
    - serializedVersion: 3
      time: 1
      value: 1
      inSlope: -0.062272415
      outSlope: -0.062272415
      tangentMode: 0
      weightedMode: 0
      inWeight: 0.02903831
      outWeight: 0.33333334
    m_PreInfinity: 2
    m_PostInfinity: 2
    m_RotationOrder: 4
  camHeightCurve:
    serializedVersion: 2
    m_Curve:
    - serializedVersion: 3
      time: 0
      value: 0
      inSlope: 0
      outSlope: 0
      tangentMode: 0
      weightedMode: 0
      inWeight: 0.33333334
      outWeight: 0.33333334
    - serializedVersion: 3
      time: 1
      value: 1
      inSlope: 2
      outSlope: 2
      tangentMode: 0
      weightedMode: 0
      inWeight: 0.33333334
      outWeight: 0.33333334
    m_PreInfinity: 2
    m_PostInfinity: 2
    m_RotationOrder: 4
  useXMovement: 1
  playerXCurve:
    serializedVersion: 2
    m_Curve:
    - serializedVersion: 3
      time: 0
      value: 0
      inSlope: 0
      outSlope: 0
      tangentMode: 0
      weightedMode: 0
      inWeight: 0.33333334
      outWeight: 0.33333334
    - serializedVersion: 3
      time: 0.47310558
      value: -0.4340137
      inSlope: -1.9996254
      outSlope: -1.9996254
      tangentMode: 0
      weightedMode: 0
      inWeight: 0.33333334
      outWeight: 0.1918816
    - serializedVersion: 3
      time: 0.7148427
      value: -1.111744
      inSlope: -3.133989
      outSlope: -3.133989
      tangentMode: 0
      weightedMode: 0
      inWeight: 0.33333334
      outWeight: 0.15795526
    - serializedVersion: 3
      time: 1
      value: -1.5
      inSlope: 0.69441783
      outSlope: 0.69441783
      tangentMode: 0
      weightedMode: 0
      inWeight: 0.17785865
      outWeight: 0.33333334
    m_PreInfinity: 2
    m_PostInfinity: 2
    m_RotationOrder: 4
  useYMovement: 1
  playerYCurve:
    serializedVersion: 2
    m_Curve:
    - serializedVersion: 3
      time: 0
      value: 0
      inSlope: 0
      outSlope: 0
      tangentMode: 0
      weightedMode: 0
      inWeight: 0.33333334
      outWeight: 0.33333334
    - serializedVersion: 3
      time: 1
      value: 0.1
      inSlope: 0.3153772
      outSlope: 0.3153772
      tangentMode: 0
      weightedMode: 0
      inWeight: 0.076711655
      outWeight: 0.33333334
    m_PreInfinity: 2
    m_PostInfinity: 2
    m_RotationOrder: 4
  useZMovement: 0
  playerZCurve:
    serializedVersion: 2
    m_Curve:
    - serializedVersion: 3
      time: 0
      value: 0
      inSlope: 1
      outSlope: 1
      tangentMode: 0
      weightedMode: 0
      inWeight: 0.33333334
      outWeight: 0.33333334
    - serializedVersion: 3
      time: 1
      value: 0.5
      inSlope: 1.0495201
      outSlope: 1.0495201
      tangentMode: 0
      weightedMode: 0
      inWeight: 0.06805831
      outWeight: 0.33333334
    m_PreInfinity: 2
    m_PostInfinity: 2
    m_RotationOrder: 4
  transitionRelativity: 0
  disableWriteReturnPosition: 0
  transitionToSavedReturnPosition: 0
  transitionFromExistingPosition: 0
  positionTransitionCurve:
    serializedVersion: 2
    m_Curve: []
    m_PreInfinity: 2
    m_PostInfinity: 2
    m_RotationOrder: 4
  invertXPositionBasedOnRelativePlayerX: 0
  invertYPositionBasedOnRelativePlayerY: 0
  invertZPositionBasedOnRelativePlayerZ: 0
  raycastCheck: 0
  onFailUse: {fileID: 0}
  allowMovementOnEnd: 1
  restoreNormalMovementSpeed: 1
  customMovementSpeed: 0.3
  disableGravity: 0
  disableHeadBob: 0
  useXLook: 1
  playerXLookCurve:
    serializedVersion: 2
    m_Curve:
    - serializedVersion: 3
      time: 0
      value: 0
      inSlope: 0.5
      outSlope: 0.5
      tangentMode: 34
      weightedMode: 0
      inWeight: 0
      outWeight: 0.33333334
    - serializedVersion: 3
      time: 1
      value: 0.5
      inSlope: 0.5
      outSlope: 0.5
      tangentMode: 34
      weightedMode: 0
      inWeight: 0.33333334
      outWeight: 0
    m_PreInfinity: 2
    m_PostInfinity: 2
    m_RotationOrder: 4
  useYLook: 0
  playerYLookCurve:
    serializedVersion: 2
    m_Curve: []
    m_PreInfinity: 2
    m_PostInfinity: 2
    m_RotationOrder: 4
  useZLook: 1
  playerZLookCurve:
    serializedVersion: 2
    m_Curve:
    - serializedVersion: 3
      time: 0
      value: 1
      inSlope: 0
      outSlope: 0
      tangentMode: 0
      weightedMode: 0
      inWeight: 0.33333334
      outWeight: 0.33333334
    - serializedVersion: 3
      time: 1
      value: 1
      inSlope: 0
      outSlope: 0
      tangentMode: 0
      weightedMode: 0
      inWeight: 0.33333334
      outWeight: 0.33333334
    m_PreInfinity: 2
    m_PostInfinity: 2
    m_RotationOrder: 4
  lookRelativity: 1
  forwardPositionModifier: 1
  lookMovementMultiplier: 1
  applyCameraRoll: 1
  cameraRoll:
    serializedVersion: 2
    m_Curve:
    - serializedVersion: 3
      time: 0
      value: 0
      inSlope: 0
      outSlope: 0
      tangentMode: 0
      weightedMode: 0
      inWeight: 0.33333334
      outWeight: 0.33333334
    - serializedVersion: 3
      time: 0.22759199
      value: 0.00022125244
      inSlope: 1.5009387
      outSlope: 1.5009387
      tangentMode: 0
      weightedMode: 0
      inWeight: 0.33333334
      outWeight: 0.33333334
    - serializedVersion: 3
      time: 0.55537415
      value: 0.21564198
      inSlope: 0.0027017354
      outSlope: 0.0027017354
      tangentMode: 0
      weightedMode: 0
      inWeight: 0.33333334
      outWeight: 0.33333334
    - serializedVersion: 3
      time: 0.99731445
      value: 0.0018081665
      inSlope: 0
      outSlope: 0
      tangentMode: 0
      weightedMode: 0
      inWeight: 0.33333334
      outWeight: 0.33333334
    m_PreInfinity: 2
    m_PostInfinity: 2
    m_RotationOrder: 4
  rollMultiplier: 27.5
  resetCameraRoll: 1
  transitionFromExistingMouse: 1
  mouseTransitionCurve:
    serializedVersion: 2
    m_Curve:
    - serializedVersion: 3
      time: 0
      value: 0
      inSlope: 6.3154774
      outSlope: 6.3154774
      tangentMode: 0
      weightedMode: 0
      inWeight: 0.33333334
      outWeight: 0.048522927
    - serializedVersion: 3
      time: 0.43647707
      value: 1
      inSlope: 0.12361032
      outSlope: 0.0032154524
      tangentMode: 65
      weightedMode: 0
      inWeight: 0.11181945
      outWeight: 0.1449305
    - serializedVersion: 3
      time: 1
      value: 1.001812
      inSlope: Infinity
      outSlope: 0
      tangentMode: 7
      weightedMode: 0
      inWeight: 0.101449326
      outWeight: 0.33333334
    m_PreInfinity: 2
    m_PostInfinity: 2
    m_RotationOrder: 4
  useChromaticAberration: 0
  chromaticAberrationCurve:
    serializedVersion: 2
    m_Curve: []
    m_PreInfinity: 2
    m_PostInfinity: 2
    m_RotationOrder: 4
  useGain: 0
  gainCurve:
    serializedVersion: 2
    m_Curve: []
    m_PreInfinity: 2
    m_PostInfinity: 2
    m_RotationOrder: 4
  sfx: []
  forceHolsterOnTransition: 1
  restoreHolsterOnTransitionEnd: 1
  allowWeaponSwitchingAfterTransition: 1
  playerXRecoilLookCurve:
    serializedVersion: 2
    m_Curve: []
    m_PreInfinity: 2
    m_PostInfinity: 2
    m_RotationOrder: 4
  playerYRecoilLookCurve:
    serializedVersion: 2
    m_Curve: []
    m_PreInfinity: 2
    m_PostInfinity: 2
    m_RotationOrder: 4
  playerZRecoilLookCurve:
    serializedVersion: 2
    m_Curve: []
    m_PreInfinity: 2
    m_PostInfinity: 2
    m_RotationOrder: 4
  useCustomReturnPosition: 0
  returnPostion: {x: 0, y: 0, z: 0}
