%YAML 1.1
%TAG !u! tag:unity3d.com,2011:
--- !u!114 &11400000
MonoBehaviour:
  m_ObjectHideFlags: 0
  m_CorrespondingSourceObject: {fileID: 0}
  m_PrefabInstance: {fileID: 0}
  m_PrefabAsset: {fileID: 0}
  m_GameObject: {fileID: 0}
  m_Enabled: 1
  m_EditorHideFlags: 0
  m_Script: {fileID: 11500000, guid: 0da14b35f8d566c4fb57d76d13c3a1da, type: 3}
  m_Name: ExitWound
  m_EditorClassIdentifier: 
  presetName: ExitWound
  subClass: Wound
  windowStyle: {fileID: 11400000, guid: 9ab7c23d1b0116f4da1d39bfec7f96a3, type: 2}
  useDataKeys: 0
  validKeys: []
  passiveTies: []
  notifyOfTies: 0
  useBelongsToInName: 0
  isSingleton: 0
  disableHistory: 0
  allowCustomNames: 1
  markAsDiscoveredOnAnyInteraction: 0
  forceWorldInteraction: 0
  useWindowFocusMode: 0
  iconSpriteLarge: {fileID: 21300000, guid: d89f249384f1c2b4594de01d7d4004f9, type: 3}
  defaultNullImage: {fileID: 2800000, guid: 7f376da0ae2817a419c9e2d07e159be2, type: 3}
  useInGamePhoto: 0
  useWriter: 0
  relativeCamPhotoPos: {x: -0.075, y: 0.25, z: 0.2}
  relativeCamPhotoEuler: {x: 45, y: 155, z: 0}
  captureRules: 2
  changeTimeOfDay: 0
  captureTimeOfDay: 9.5
  useCaptureLight: 1
  useSurveillanceCapture: 0
  itemOwner: 0
  itemWriter: 0
  itemReceiver: 0
  factSetup:
  - preset: {fileID: 11400000, guid: a4bf661ae36a3a243ba868e091cb308b, type: 2}
    link: 1
    onlyIfInOwnedPosition: 0
    createOnDiscovery: 1
    forceDiscoveryOnCreation: 0
    switchFindingFactToFrom: 0
  addFactLinks: []
  discoverOnCreate: 0
  keyMergeOnDiscovery: []
  discoveryTriggers: 
  applicationOnDiscover: []
  ddsDocumentID: 4ec965fb-6724-49b2-844e-0667c587b5ba
  isMatchParent: 0
  matchTypes:
  - {fileID: 11400000, guid: 6918e53bc9a45674eade63175da3cb8b, type: 2}
  enableSummary: 1
  enableFacts: 1
  pinnedStyle: 0
  pinnedBackgroundColour: {r: 1, g: 1, b: 1, a: 1}
