%YAML 1.1
%TAG !u! tag:unity3d.com,2011:
--- !u!114 &11400000
MonoBehaviour:
  m_ObjectHideFlags: 0
  m_CorrespondingSourceObject: {fileID: 0}
  m_PrefabInstance: {fileID: 0}
  m_PrefabAsset: {fileID: 0}
  m_GameObject: {fileID: 0}
  m_Enabled: 1
  m_EditorHideFlags: 0
  m_Script: {fileID: 11500000, guid: f646ba347aa078c478bb96e8936c7631, type: 3}
  m_Name: Candor-PublicService
  m_EditorClassIdentifier: 
  presetName: Candor-PublicService
  disabled: 0
  syncDiskNumber: 15
  interactable: {fileID: 11400000, guid: e4636cb739ddfaa41988cf2c26fd5b1c, type: 2}
  rarity: 1
  manufacturer: 4
  canBeSideJobReward: 0
  mainEffect1Name: Food Hygeine Inspector
  mainEffect1Description: Earn up to |city.currency||value| for photographs of restaurant
    kitchens. Value decreases with hygeine level, max 1 photo per company per day.
  mainEffect1: 48
  mainEffect1Value: 40
  mainEffect1Icon: {fileID: 21300000, guid: 5ea7e9599c7d4c045924dbfdb31b8dcd, type: 3}
  mainEffect2Name: Sanitary Hygeine Inspector
  mainEffect2Description: Earn up to |city.currency||value| for photographs of business
    bathrooms. Value decreases with hygeine level, max 1 photo per company per day.
  mainEffect2: 49
  mainEffect2Value: 40
  mainEffect2Icon: {fileID: 21300000, guid: 5e30d328bfa790f47ac6ca48b8386549, type: 3}
  mainEffect3Name: 
  mainEffect3Description: 
  mainEffect3: 0
  mainEffect3Value: 0
  mainEffect3Icon: {fileID: 0}
  option1UpgradeNameReferences:
  - Increase max cash gained by |city.currency||upgradevalue|
  - Increase max cash gained by |city.currency||upgradevalue|
  - Increase max cash gained by |city.currency||upgradevalue|
  option1UpgradeEffects: 300000003000000030000000
  option1UpgradeValues:
  - 20
  - 20
  - 20
  option2UpgradeNameReferences:
  - Increase max cash gained by |city.currency||upgradevalue|
  - Increase max cash gained by |city.currency||upgradevalue|
  - Increase max cash gained by |city.currency||upgradevalue|
  option2UpgradeEffects: 310000003100000031000000
  option2UpgradeValues:
  - 20
  - 20
  - 20
  option3UpgradeNameReferences: []
  option3UpgradeEffects: 
  option3UpgradeValues: []
  sideEffectDescription: 
  sideEffect: 0
  sideEffectValue: 0
  price: 500
  uninstallCost: 0
  minimumWealthLevel: 0.43
  traitWeight: 1
  traits:
  - rule: 0
    traitList:
    - {fileID: 11400000, guid: 545463d0aee0a0f418654d4114480a1f, type: 2}
    - {fileID: 11400000, guid: 4bf97c046f833c9459819491727309e8, type: 2}
    - {fileID: 11400000, guid: 8714ad7a8a3ea0a4d80671a48f2caa75, type: 2}
    - {fileID: 11400000, guid: ef7d9797fb38e484ab75e7f23bfebe34, type: 2}
    - {fileID: 11400000, guid: cbc18401bc0b6e744b0b69b6ffa67ab7, type: 2}
    mustPassForApplication: 0
    appliedFrequency: 1
  occupationWeight: 1
  occupation: []
  copyFrom: {fileID: 0}
