%YAML 1.1
%TAG !u! tag:unity3d.com,2011:
--- !u!114 &11400000
MonoBehaviour:
  m_ObjectHideFlags: 0
  m_CorrespondingSourceObject: {fileID: 0}
  m_PrefabInstance: {fileID: 0}
  m_PrefabAsset: {fileID: 0}
  m_GameObject: {fileID: 0}
  m_Enabled: 1
  m_EditorHideFlags: 0
  m_Script: {fileID: 11500000, guid: f646ba347aa078c478bb96e8936c7631, type: 3}
  m_Name: ElGen-Frame
  m_EditorClassIdentifier: 
  presetName: ElGen-Frame
  disabled: 0
  syncDiskNumber: 3
  interactable: {fileID: 11400000, guid: e4636cb739ddfaa41988cf2c26fd5b1c, type: 2}
  rarity: 2
  manufacturer: 0
  canBeSideJobReward: 1
  mainEffect1Name: Statuesque
  mainEffect1Description: Alter height by |value%|%
  mainEffect1: 51
  mainEffect1Value: 0.15
  mainEffect1Icon: {fileID: 21300000, guid: 2aa37625a11ac2641b9fd87f378ddb77, type: 3}
  mainEffect2Name: Compact
  mainEffect2Description: Alter height by |value%|%
  mainEffect2: 51
  mainEffect2Value: -0.15
  mainEffect2Icon: {fileID: 21300000, guid: 2aa37625a11ac2641b9fd87f378ddb77, type: 3}
  mainEffect3Name: 
  mainEffect3Description: 
  mainEffect3: 0
  mainEffect3Value: 0
  mainEffect3Icon: {fileID: 0}
  option1UpgradeNameReferences:
  - Alter height by a further |upgradevalue%|%
  - Alter height by a further |upgradevalue%|%
  option1UpgradeEffects: 3300000033000000
  option1UpgradeValues:
  - 0.15
  - 0.15
  option2UpgradeNameReferences:
  - Alter height by a further |upgradevalue%|%
  - Alter height by a further |upgradevalue%|%
  option2UpgradeEffects: 3300000033000000
  option2UpgradeValues:
  - -0.15
  - -0.15
  option3UpgradeNameReferences: []
  option3UpgradeEffects: 
  option3UpgradeValues: []
  sideEffectDescription: 
  sideEffect: 0
  sideEffectValue: 0
  price: 1000
  uninstallCost: 0
  minimumWealthLevel: 0.707
  traitWeight: 1
  traits:
  - rule: 0
    traitList:
    - {fileID: 11400000, guid: 2a06a6c0c3094a74584ef66fdc4eebde, type: 2}
    - {fileID: 11400000, guid: 1724ce531b753804da0f62f76137f8db, type: 2}
    - {fileID: 11400000, guid: 75306d9a7e7f9b94fb18d50c858f12db, type: 2}
    mustPassForApplication: 0
    appliedFrequency: 1
  occupationWeight: 1
  occupation:
  - {fileID: 11400000, guid: 5d19499963559814bad05f534c5aefed, type: 2}
  - {fileID: 11400000, guid: 3f7bd69eee333964b8086d831b6284ff, type: 2}
  copyFrom: {fileID: 0}
