%YAML 1.1
%TAG !u! tag:unity3d.com,2011:
--- !u!114 &11400000
MonoBehaviour:
  m_ObjectHideFlags: 0
  m_CorrespondingSourceObject: {fileID: 0}
  m_PrefabInstance: {fileID: 0}
  m_PrefabAsset: {fileID: 0}
  m_GameObject: {fileID: 0}
  m_Enabled: 1
  m_EditorHideFlags: 0
  m_Script: {fileID: 11500000, guid: 070402d0f52d680418a8e0ef2563a1f4, type: 3}
  m_Name: RoomQuery
  m_EditorClassIdentifier: 
  presetName: RoomQuery
  msgID: af9962a1-0526-460b-8fb0-00cee66ebe19
  defaultOption: 0
  telephoneCallOption: 0
  hospitalDecisionOption: 0
  tiedToKey: 1
  ranking: 8
  removeAfterSaying: 0
  dailyReplenish: 0
  isJobDetails: 0
  ignoreActiveJobRequirement: 0
  specialCase: 26
  cost: 0
  usePercentageCost: 0
  useAllWealthIfNotEnough: 0
  displayIfPasswordUnknown: 0
  inputBox: 0
  displayAsIllegal: 0
  preceedingSyntax: 
  followingSyntax: 
  useSuccessTest: 0
  requiresPassword: 0
  baseChance: 1
  affectChanceIfRestrained: 0
  modifySuccessChanceTraits: []
  responses:
  - dictionaryString: Room Query
    ddsMessageID: feb286ef-dd30-4633-a715-74b5e5909579
    isSuccessful: 1
    chance: 1
    useParsing: 1
    shout: 0
    interupt: 0
    onlyIfEnfocerOnDuty: 0
    onlyIfNotEnforcerOnDuty: 0
    mustFeatureTrait: []
    cantFeatureTrait: []
    tieKeys: 
    applyDiscovery: 
    endsDialog: 0
    jobHandIn: 0
  followUpDialogSuccess: []
  followUpDialogFail: []
  removeDialog: []
  removeDialogOnSuccess: []
  removeDialogOnFail: []
