%YAML 1.1
%TAG !u! tag:unity3d.com,2011:
--- !u!114 &11400000
MonoBehaviour:
  m_ObjectHideFlags: 0
  m_CorrespondingSourceObject: {fileID: 0}
  m_PrefabInstance: {fileID: 0}
  m_PrefabAsset: {fileID: 0}
  m_GameObject: {fileID: 0}
  m_Enabled: 1
  m_EditorHideFlags: 0
  m_Script: {fileID: 11500000, guid: 05c50b8a24558c04fb29c890553074fd, type: 3}
  m_Name: SupermarketCounterRight
  m_EditorClassIdentifier: 
  presetName: SupermarketCounterRight
  classes:
  - {fileID: 11400000, guid: 82c965f50d13a864f89cc3107c9f81be, type: 2}
  prefab: {fileID: 7803195002628550386, guid: a0304984198c0a540a4b21cb2789a251, type: 3}
  allowStaticBatching: 0
  spawnRange: 3
  integratedInteractables: []
  universalDesignStyle: 1
  designStyles: []
  inheritColouringFromDecor: 0
  shareColours: 0
  inheritGrubFromDecor: 1
  variations: []
  furnitureGroup: 0
  groupID: 0
  concrete: 0
  plaster: 0
  wood: 0
  carpet: 0
  tile: 0
  metal: 1
  glass: 0
  fabric: 0
  minimumRoomSize: 4
  allowedInOpenPlan: 1
  onlyAllowInFollowing: 0
  allowedInAddressesOfType: []
  banInFollowing: 0
  bannedInAddressesOfType: []
  OnlyAllowInBuildings: 0
  allowedInBuildings: []
  banFromBuildings: 0
  notAllowedInBuildings: []
  OnlyAllowInDistricts: 0
  allowedInDistricts: []
  banFromDistricts: 0
  notAllowedInDistricts: []
  requiresGenderedInhabitants: 0
  enableIfGenderPresent: 
  allowedRoomFilters:
  - {fileID: 11400000, guid: 4f96b2731360146449a2b03734e1f951, type: 2}
  minimumWealth: 0
  usePersonalityWeighting: 0
  modernity: 3
  cleanness: 9
  loudness: 5
  emotive: 5
  subObjects:
  - preset: {fileID: 11400000, guid: e972d8346adcf1646b11cad1b3717a4d, type: 2}
    parent: 
    localPos: {x: -1.507, y: 1.204, z: 0.525}
    localRot: {x: -0, y: 180, z: 0}
    belongsTo: 0
    security: 0
  - preset: {fileID: 11400000, guid: d25e4c954ca5f9342b3d19a414807e4e, type: 2}
    parent: 
    localPos: {x: -2.1, y: 1.204, z: 0.525}
    localRot: {x: -0, y: 180, z: 0}
    belongsTo: 0
    security: 0
  - preset: {fileID: 11400000, guid: 94ecd56f625166b449047f5eee385c68, type: 2}
    parent: 
    localPos: {x: -1.123, y: 1.204, z: 1.139}
    localRot: {x: -0, y: 180, z: 0}
    belongsTo: 0
    security: 0
  - preset: {fileID: 11400000, guid: 58d35ae0305e7d541af98472310ee11c, type: 2}
    parent: 
    localPos: {x: -1.892, y: 0, z: 0.629}
    localRot: {x: -0, y: 90, z: 0}
    belongsTo: 0
    security: 0
  - preset: {fileID: 11400000, guid: 58d35ae0305e7d541af98472310ee11c, type: 2}
    parent: 
    localPos: {x: -0.761, y: 0, z: 0.728}
    localRot: {x: -0, y: 180.58432, z: 0}
    belongsTo: 0
    security: 0
  - preset: {fileID: 11400000, guid: 94ecd56f625166b449047f5eee385c68, type: 2}
    parent: 
    localPos: {x: -0.388, y: 1.204, z: 0.515}
    localRot: {x: -0, y: 294.44476, z: 0}
    belongsTo: 0
    security: 0
  - preset: {fileID: 11400000, guid: cdbc245f33f972b408cc829d72fd6bc6, type: 2}
    parent: 
    localPos: {x: -0.57, y: 1.866, z: 0.746999}
    localRot: {x: 90, y: 180, z: 0}
    belongsTo: 0
    security: 0
  - preset: {fileID: 11400000, guid: cdbc245f33f972b408cc829d72fd6bc6, type: 2}
    parent: 
    localPos: {x: -1.217, y: 1.806, z: 0.746999}
    localRot: {x: 90, y: 180, z: 0}
    belongsTo: 0
    security: 0
  - preset: {fileID: 11400000, guid: cdbc245f33f972b408cc829d72fd6bc6, type: 2}
    parent: 
    localPos: {x: -1.422, y: 1.939, z: 0.747}
    localRot: {x: 90, y: 180, z: 0}
    belongsTo: 0
    security: 0
  - preset: {fileID: 11400000, guid: cdbc245f33f972b408cc829d72fd6bc6, type: 2}
    parent: 
    localPos: {x: -0.293, y: 1.857, z: 0.746999}
    localRot: {x: 90, y: 180, z: 0}
    belongsTo: 0
    security: 0
  - preset: {fileID: 11400000, guid: ad94ec4caa37bcd44879ed6bea2a0f1a, type: 2}
    parent: 
    localPos: {x: -1.037, y: 1.204, z: 0.516}
    localRot: {x: -0, y: 162.26012, z: 0}
    belongsTo: 0
    security: 0
  testForModifiers: 0
  forcePublicIllegal: 1
  hidingEnterTransition: {fileID: 0}
  hidingExitTransition: {fileID: 0}
  hidingEnterTransition2: {fileID: 0}
  hidingExitTransition2: {fileID: 0}
  map: {fileID: 2800000, guid: b3bc49a2fb151e246921a7aa455e2462, type: 3}
  drawUnderWalls: 0
  ignoreDirection: 0
  fingerprintsEnabled: 1
  printsSource: 7
  fingerprintDensity: 1
  alterAreaLighting: 0
  possibleColours: []
  lightOperation: 0
  lightAmount: 0.12
  brightnessModifier: 10
  purchasable: 0
  cost: 100
  decorClass: 5
  staticImage: {fileID: 0}
  imagePos: {x: 0, y: 0, z: 0}
  imageRot: {x: 0, y: 0, z: 0}
  imageScale: 1
  imagePrefabOverride: {fileID: 0}
  isJobBoard: 0
  isWorkPosition: 0
  isPlant: 0
  isArt: 0
  isSecurityCamera: 0
  artOrientation: 0
  createSelfEmployed: {fileID: 0}
  workPositionID: 0
  spawnObjectOnChance: 1
  spawnObjectsOnPlacement: []
