%YAML 1.1
%TAG !u! tag:unity3d.com,2011:
--- !u!114 &11400000
MonoBehaviour:
  m_ObjectHideFlags: 0
  m_CorrespondingSourceObject: {fileID: 0}
  m_PrefabInstance: {fileID: 0}
  m_PrefabAsset: {fileID: 0}
  m_GameObject: {fileID: 0}
  m_Enabled: 1
  m_EditorHideFlags: 0
  m_Script: {fileID: 11500000, guid: 9d757e97b11d4064db60cf985a2a0d9e, type: 3}
  m_Name: 128x128_0037_Layer 47
  m_EditorClassIdentifier: 
  presetName: 128x128_0037_Layer 47
  disable: 0
  texturePreview: {fileID: 2800000, guid: 869e73f8c5548d342aef50e3c44ace8a, type: 3}
  material: {fileID: 2100000, guid: 5ce994e2fc50a624db100301b290a2ca, type: 2}
  orientationCompatibility: 00000000
  pixelScaleMultiplier: 0.025
  allowInResidential: 1
  allowInCommerical: 1
  allowInLobby: 1
  allowOnStreet: 0
  basePriority: 0
  colourMatching:
  - {r: 0.6901961, g: 0.3764706, b: 0.35686275, a: 1}
  - {r: 0.6666667, g: 0.25882354, b: 0, a: 1}
  - {r: 0.8352941, g: 0.7607843, b: 0.6784314, a: 1}
  - {r: 1, g: 0.80784315, b: 0.67058825, a: 1}
  - {r: 0.8392157, g: 0.70980394, b: 0.33333334, a: 1}
  colourMatchingScale: 5
  minimumWealth: 0
  maximumWealth: 1
  roomMatchingScale: 5
  modernity: 7
  cleanness: 1
  loudness: 3
  emotive: 5
  mustRequireTraitFromBelow: 0
  traitModifiers: []
  useDynamicText: 0
  dynamicTextSource: 0
  textFont: {fileID: 0}
  textColour: {r: 1, g: 1, b: 1, a: 1}
  textSize: 24
