%YAML 1.1
%TAG !u! tag:unity3d.com,2011:
--- !u!114 &11400000
MonoBehaviour:
  m_ObjectHideFlags: 0
  m_CorrespondingSourceObject: {fileID: 0}
  m_PrefabInstance: {fileID: 0}
  m_PrefabAsset: {fileID: 0}
  m_GameObject: {fileID: 0}
  m_Enabled: 1
  m_EditorHideFlags: 0
  m_Script: {fileID: 11500000, guid: 9d757e97b11d4064db60cf985a2a0d9e, type: 3}
  m_Name: 128x128_0062_Layer 22
  m_EditorClassIdentifier: 
  presetName: 128x128_0062_Layer 22
  disable: 0
  texturePreview: {fileID: 2800000, guid: c3cb1828401260745914aa1d6d5a804f, type: 3}
  material: {fileID: 2100000, guid: 088872bfbae6efc4aba9f0f30d762333, type: 2}
  orientationCompatibility: 01000000
  pixelScaleMultiplier: 0.025
  allowInResidential: 1
  allowInCommerical: 1
  allowInLobby: 1
  allowOnStreet: 0
  basePriority: 0
  colourMatching:
  - {r: 0.24313726, g: 0.3254902, b: 0.25490198, a: 1}
  - {r: 0.5176471, g: 0.25882354, b: 0, a: 1}
  - {r: 0.6745098, g: 0.54509807, b: 0.60784316, a: 1}
  - {r: 0.16078432, g: 0.22352941, b: 0.3529412, a: 1}
  - {r: 0.6666667, g: 0.4862745, b: 0.29803923, a: 1}
  colourMatchingScale: 5
  minimumWealth: 0
  maximumWealth: 1
  roomMatchingScale: 5
  modernity: 10
  cleanness: 1
  loudness: 6
  emotive: 5
  mustRequireTraitFromBelow: 0
  traitModifiers: []
  useDynamicText: 0
  dynamicTextSource: 0
  textFont: {fileID: 0}
  textColour: {r: 1, g: 1, b: 1, a: 1}
  textSize: 24
