%YAML 1.1
%TAG !u! tag:unity3d.com,2011:
--- !u!114 &11400000
MonoBehaviour:
  m_ObjectHideFlags: 0
  m_CorrespondingSourceObject: {fileID: 0}
  m_PrefabInstance: {fileID: 0}
  m_PrefabAsset: {fileID: 0}
  m_GameObject: {fileID: 0}
  m_Enabled: 1
  m_EditorHideFlags: 0
  m_Script: {fileID: 11500000, guid: 9d757e97b11d4064db60cf985a2a0d9e, type: 3}
  m_Name: 128x128_0078_Layer 6
  m_EditorClassIdentifier: 
  presetName: 128x128_0078_Layer 6
  disable: 0
  texturePreview: {fileID: 2800000, guid: 985cc73a5d5a8e248947c2a226d38d97, type: 3}
  material: {fileID: 2100000, guid: a327a4b7c85bff749b1d39f1ae6e9a58, type: 2}
  orientationCompatibility: 01000000
  pixelScaleMultiplier: 0.025
  allowInResidential: 1
  allowInCommerical: 1
  allowInLobby: 1
  allowOnStreet: 0
  basePriority: 0
  colourMatching:
  - {r: 0.4862745, g: 0.015686275, b: 0, a: 1}
  - {r: 0.49411765, g: 0.50980395, b: 0.3372549, a: 1}
  - {r: 0.43529412, g: 0.18039216, b: 0, a: 1}
  - {r: 0.16470589, g: 0.09411765, b: 0, a: 1}
  - {r: 0.49019608, g: 0.3882353, b: 0.34117648, a: 1}
  colourMatchingScale: 5
  minimumWealth: 0
  maximumWealth: 1
  roomMatchingScale: 5
  modernity: 10
  cleanness: 4
  loudness: 10
  emotive: 10
  mustRequireTraitFromBelow: 0
  traitModifiers: []
  useDynamicText: 0
  dynamicTextSource: 0
  textFont: {fileID: 0}
  textColour: {r: 1, g: 1, b: 1, a: 1}
  textSize: 24
