%YAML 1.1
%TAG !u! tag:unity3d.com,2011:
--- !u!114 &11400000
MonoBehaviour:
  m_ObjectHideFlags: 0
  m_CorrespondingSourceObject: {fileID: 0}
  m_PrefabInstance: {fileID: 0}
  m_PrefabAsset: {fileID: 0}
  m_GameObject: {fileID: 0}
  m_Enabled: 1
  m_EditorHideFlags: 0
  m_Script: {fileID: 11500000, guid: 9d757e97b11d4064db60cf985a2a0d9e, type: 3}
  m_Name: 128x128_0077_Layer 7
  m_EditorClassIdentifier: 
  presetName: 128x128_0077_Layer 7
  disable: 0
  texturePreview: {fileID: 2800000, guid: d88b799f13f6a714a9733d39c7e7af90, type: 3}
  material: {fileID: 2100000, guid: db63187dfc752e84590ecf0e3760e4f8, type: 2}
  orientationCompatibility: 01000000
  pixelScaleMultiplier: 0.025
  allowInResidential: 1
  allowInCommerical: 1
  allowInLobby: 1
  allowOnStreet: 0
  basePriority: 0
  colourMatching:
  - {r: 0.5058824, g: 0.5058824, b: 0.5058824, a: 1}
  - {r: 0.48235294, g: 0.48235294, b: 0.5058824, a: 1}
  - {r: 1, g: 0.8392157, b: 0.6666667, a: 1}
  - {r: 0.5176471, g: 0.3882353, b: 0.32156864, a: 1}
  - {r: 0.48235294, g: 0.48235294, b: 0.5176471, a: 1}
  colourMatchingScale: 5
  minimumWealth: 0
  maximumWealth: 1
  roomMatchingScale: 5
  modernity: 10
  cleanness: 6
  loudness: 5
  emotive: 8
  mustRequireTraitFromBelow: 0
  traitModifiers: []
  useDynamicText: 0
  dynamicTextSource: 0
  textFont: {fileID: 0}
  textColour: {r: 1, g: 1, b: 1, a: 1}
  textSize: 24
