%YAML 1.1
%TAG !u! tag:unity3d.com,2011:
--- !u!114 &11400000
MonoBehaviour:
  m_ObjectHideFlags: 0
  m_CorrespondingSourceObject: {fileID: 0}
  m_PrefabInstance: {fileID: 0}
  m_PrefabAsset: {fileID: 0}
  m_GameObject: {fileID: 0}
  m_Enabled: 1
  m_EditorHideFlags: 0
  m_Script: {fileID: 11500000, guid: d96a006abd1ee29418b0676cae72d236, type: 3}
  m_Name: Bathrooms
  m_EditorClassIdentifier: 
  presetName: Bathrooms
  roomClasses:
  - {fileID: 11400000, guid: 0eb1a6d2e207abb45aeaefcf5c8fa41b, type: 2}
  - {fileID: 11400000, guid: b1036a11ead5b324dbda75d8041a7221, type: 2}
