%YAML 1.1
%TAG !u! tag:unity3d.com,2011:
--- !u!114 &11400000
MonoBehaviour:
  m_ObjectHideFlags: 0
  m_CorrespondingSourceObject: {fileID: 0}
  m_PrefabInstance: {fileID: 0}
  m_PrefabAsset: {fileID: 0}
  m_GameObject: {fileID: 0}
  m_Enabled: 1
  m_EditorHideFlags: 0
  m_Script: {fileID: 11500000, guid: d96a006abd1ee29418b0676cae72d236, type: 3}
  m_Name: ConcreteFloor
  m_EditorClassIdentifier: 
  presetName: ConcreteFloor
  roomClasses:
  - {fileID: 11400000, guid: f65ac58067a728942a1835d03df5fec3, type: 2}
  - {fileID: 11400000, guid: 0aedcb9e59649b7409bd55bb1bc4f910, type: 2}
  - {fileID: 11400000, guid: ee026ee16d811a34481faf1a73368cc1, type: 2}
  - {fileID: 11400000, guid: 0ec454bfab5d30540b9e80fb7195b4fe, type: 2}
  - {fileID: 11400000, guid: b54c7f30879f24c44ac34df3aed13aa7, type: 2}
  - {fileID: 11400000, guid: d2a4545ebb96bfe4bb87ce10a31bffb4, type: 2}
  - {fileID: 11400000, guid: 522363e7263a1fa4ea0208ae3ba25766, type: 2}
  - {fileID: 11400000, guid: 8de2a9e301069bf47b4732e74b5b04e3, type: 2}
