%YAML 1.1
%TAG !u! tag:unity3d.com,2011:
--- !u!114 &11400000
MonoBehaviour:
  m_ObjectHideFlags: 0
  m_CorrespondingSourceObject: {fileID: 0}
  m_PrefabInstance: {fileID: 0}
  m_PrefabAsset: {fileID: 0}
  m_GameObject: {fileID: 0}
  m_Enabled: 1
  m_EditorHideFlags: 0
  m_Script: {fileID: 11500000, guid: d96a006abd1ee29418b0676cae72d236, type: 3}
  m_Name: Desk
  m_EditorClassIdentifier: 
  presetName: Desk
  roomClasses:
  - {fileID: 11400000, guid: 8259f809397b438479ce236bc6c8b833, type: 2}
  - {fileID: 11400000, guid: dcba1deb6b41d6a45991f7d9036610de, type: 2}
  - {fileID: 11400000, guid: 7b3e9dbc3f70a304b91491ed1533588e, type: 2}
  - {fileID: 11400000, guid: 20d0aa868e2fdc44bbeba2ed3aacb72e, type: 2}
  - {fileID: 11400000, guid: d79a409300f6baf45bf06a75ca2b0166, type: 2}
  - {fileID: 11400000, guid: e46cae2caf2abbd4eab2549c8d28e3f9, type: 2}
  - {fileID: 11400000, guid: d15492a29401bba42bc047c5671065d1, type: 2}
  - {fileID: 11400000, guid: e6ec2a564b6500645b64ed7bb5556d00, type: 2}
  - {fileID: 11400000, guid: 424d1065f4f4f934cbbf045c101c366f, type: 2}
  - {fileID: 11400000, guid: fa2c61de643e36f4d8dba181b8baa3c7, type: 2}
  - {fileID: 11400000, guid: 73d0e61b4b0056a4182aef4db6d25203, type: 2}
  - {fileID: 11400000, guid: f5065b8dcc5f80a408f9b08e52d52ce4, type: 2}
