%YAML 1.1
%TAG !u! tag:unity3d.com,2011:
--- !u!114 &11400000
MonoBehaviour:
  m_ObjectHideFlags: 0
  m_CorrespondingSourceObject: {fileID: 0}
  m_PrefabInstance: {fileID: 0}
  m_PrefabAsset: {fileID: 0}
  m_GameObject: {fileID: 0}
  m_Enabled: 1
  m_EditorHideFlags: 0
  m_Script: {fileID: 11500000, guid: d96a006abd1ee29418b0676cae72d236, type: 3}
  m_Name: Eateries
  m_EditorClassIdentifier: 
  presetName: Eateries
  roomClasses:
  - {fileID: 11400000, guid: 70f9ce711109e204088fb38fedc7246b, type: 2}
  - {fileID: 11400000, guid: 8740b6b9735a6874a9ab2d842bebf399, type: 2}
  - {fileID: 11400000, guid: 5f67f1d7a391f4f49852bcab476a993a, type: 2}
  - {fileID: 11400000, guid: 1095fe89fe245ff428a31e2e16d186cf, type: 2}
