%YAML 1.1
%TAG !u! tag:unity3d.com,2011:
--- !u!114 &11400000
MonoBehaviour:
  m_ObjectHideFlags: 0
  m_CorrespondingSourceObject: {fileID: 0}
  m_PrefabInstance: {fileID: 0}
  m_PrefabAsset: {fileID: 0}
  m_GameObject: {fileID: 0}
  m_Enabled: 1
  m_EditorHideFlags: 0
  m_Script: {fileID: 11500000, guid: d96a006abd1ee29418b0676cae72d236, type: 3}
  m_Name: GasReleaseResidential
  m_EditorClassIdentifier: 
  presetName: GasReleaseResidential
  roomClasses:
  - {fileID: 11400000, guid: a7de19c73d051d940a203ff744ad9a3f, type: 2}
  - {fileID: 11400000, guid: 4f10ae5f7a02a0246a6bfc48e88f27cb, type: 2}
