%YAML 1.1
%TAG !u! tag:unity3d.com,2011:
--- !u!114 &11400000
MonoBehaviour:
  m_ObjectHideFlags: 0
  m_CorrespondingSourceObject: {fileID: 0}
  m_PrefabInstance: {fileID: 0}
  m_PrefabAsset: {fileID: 0}
  m_GameObject: {fileID: 0}
  m_Enabled: 1
  m_EditorHideFlags: 0
  m_Script: {fileID: 11500000, guid: d96a006abd1ee29418b0676cae72d236, type: 3}
  m_Name: GeneralFurnishing
  m_EditorClassIdentifier: 
  presetName: GeneralFurnishing
  roomClasses:
  - {fileID: 11400000, guid: 20d0aa868e2fdc44bbeba2ed3aacb72e, type: 2}
  - {fileID: 11400000, guid: 7b3e9dbc3f70a304b91491ed1533588e, type: 2}
  - {fileID: 11400000, guid: dcba1deb6b41d6a45991f7d9036610de, type: 2}
  - {fileID: 11400000, guid: 603bcaea092102c449b75670f3b64cb4, type: 2}
  - {fileID: 11400000, guid: d79a409300f6baf45bf06a75ca2b0166, type: 2}
  - {fileID: 11400000, guid: 294a3f484566ee8408898882731f5f84, type: 2}
