%YAML 1.1
%TAG !u! tag:unity3d.com,2011:
--- !u!114 &11400000
MonoBehaviour:
  m_ObjectHideFlags: 0
  m_CorrespondingSourceObject: {fileID: 0}
  m_PrefabInstance: {fileID: 0}
  m_PrefabAsset: {fileID: 0}
  m_GameObject: {fileID: 0}
  m_Enabled: 1
  m_EditorHideFlags: 0
  m_Script: {fileID: 11500000, guid: d96a006abd1ee29418b0676cae72d236, type: 3}
  m_Name: LargeRug
  m_EditorClassIdentifier: 
  presetName: LargeRug
  roomClasses:
  - {fileID: 11400000, guid: 7b3e9dbc3f70a304b91491ed1533588e, type: 2}
  - {fileID: 11400000, guid: 20d0aa868e2fdc44bbeba2ed3aacb72e, type: 2}
  - {fileID: 11400000, guid: 8259f809397b438479ce236bc6c8b833, type: 2}
  - {fileID: 11400000, guid: dcba1deb6b41d6a45991f7d9036610de, type: 2}
  - {fileID: 11400000, guid: d79a409300f6baf45bf06a75ca2b0166, type: 2}
  - {fileID: 11400000, guid: 5f67f1d7a391f4f49852bcab476a993a, type: 2}
  - {fileID: 11400000, guid: 02842d5112e31fb428fbb62d12db735b, type: 2}
