%YAML 1.1
%TAG !u! tag:unity3d.com,2011:
--- !u!114 &11400000
MonoBehaviour:
  m_ObjectHideFlags: 0
  m_CorrespondingSourceObject: {fileID: 0}
  m_PrefabInstance: {fileID: 0}
  m_PrefabAsset: {fileID: 0}
  m_GameObject: {fileID: 0}
  m_Enabled: 1
  m_EditorHideFlags: 0
  m_Script: {fileID: 11500000, guid: d96a006abd1ee29418b0676cae72d236, type: 3}
  m_Name: Lino
  m_EditorClassIdentifier: 
  presetName: Lino
  roomClasses:
  - {fileID: 11400000, guid: 0eb1a6d2e207abb45aeaefcf5c8fa41b, type: 2}
  - {fileID: 11400000, guid: b1036a11ead5b324dbda75d8041a7221, type: 2}
  - {fileID: 11400000, guid: caf1ea98c50664a47870c9336c54e5c0, type: 2}
  - {fileID: 11400000, guid: 8740b6b9735a6874a9ab2d842bebf399, type: 2}
  - {fileID: 11400000, guid: de2869e4fc257f243b21048af80432b4, type: 2}
  - {fileID: 11400000, guid: 5dde288b87b76b14fb32aa6093edc29b, type: 2}
  - {fileID: 11400000, guid: a6fe3d5b94d786944bfca40e6ca15ae0, type: 2}
  - {fileID: 11400000, guid: f2a0fedfcef39c440a1c984dc309ddcd, type: 2}
  - {fileID: 11400000, guid: 3fe4d379412a2854094b5dd7f2ee0fef, type: 2}
  - {fileID: 11400000, guid: e427edf7fb31b784cafdefb142ffd9d9, type: 2}
  - {fileID: 11400000, guid: 6ff73182006a2d141847998f9eed39ec, type: 2}
  - {fileID: 11400000, guid: fa2c61de643e36f4d8dba181b8baa3c7, type: 2}
  - {fileID: 11400000, guid: 73d0e61b4b0056a4182aef4db6d25203, type: 2}
  - {fileID: 11400000, guid: 1095fe89fe245ff428a31e2e16d186cf, type: 2}
  - {fileID: 11400000, guid: 592a6139675570641a1c503ef239b03d, type: 2}
