%YAML 1.1
%TAG !u! tag:unity3d.com,2011:
--- !u!114 &11400000
MonoBehaviour:
  m_ObjectHideFlags: 0
  m_CorrespondingSourceObject: {fileID: 0}
  m_PrefabInstance: {fileID: 0}
  m_PrefabAsset: {fileID: 0}
  m_GameObject: {fileID: 0}
  m_Enabled: 1
  m_EditorHideFlags: 0
  m_Script: {fileID: 11500000, guid: d96a006abd1ee29418b0676cae72d236, type: 3}
  m_Name: RooftopBar
  m_EditorClassIdentifier: 
  presetName: RooftopBar
  roomClasses:
  - {fileID: 11400000, guid: 396900545e62b294c9872f9fdae5784c, type: 2}
