%YAML 1.1
%TAG !u! tag:unity3d.com,2011:
--- !u!114 &11400000
MonoBehaviour:
  m_ObjectHideFlags: 0
  m_CorrespondingSourceObject: {fileID: 0}
  m_PrefabInstance: {fileID: 0}
  m_PrefabAsset: {fileID: 0}
  m_GameObject: {fileID: 0}
  m_Enabled: 1
  m_EditorHideFlags: 0
  m_Script: {fileID: 11500000, guid: d96a006abd1ee29418b0676cae72d236, type: 3}
  m_Name: VendingMachine
  m_EditorClassIdentifier: 
  presetName: VendingMachine
  roomClasses:
  - {fileID: 11400000, guid: d15492a29401bba42bc047c5671065d1, type: 2}
  - {fileID: 11400000, guid: a6fe3d5b94d786944bfca40e6ca15ae0, type: 2}
  - {fileID: 11400000, guid: 14898fa403f9c99429304c5ef617a14b, type: 2}
  - {fileID: 11400000, guid: f2a0fedfcef39c440a1c984dc309ddcd, type: 2}
  - {fileID: 11400000, guid: 0e61c90955417b442b4415a828e8d858, type: 2}
  - {fileID: 11400000, guid: 02842d5112e31fb428fbb62d12db735b, type: 2}
  - {fileID: 11400000, guid: 592a6139675570641a1c503ef239b03d, type: 2}
  - {fileID: 11400000, guid: 0ee85e485a7eacd418ffc20aba1484c7, type: 2}
