%YAML 1.1
%TAG !u! tag:unity3d.com,2011:
--- !u!114 &11400000
MonoBehaviour:
  m_ObjectHideFlags: 0
  m_CorrespondingSourceObject: {fileID: 0}
  m_PrefabInstance: {fileID: 0}
  m_PrefabAsset: {fileID: 0}
  m_GameObject: {fileID: 0}
  m_Enabled: 1
  m_EditorHideFlags: 0
  m_Script: {fileID: 11500000, guid: d96a006abd1ee29418b0676cae72d236, type: 3}
  m_Name: WallPoster
  m_EditorClassIdentifier: 
  presetName: WallPoster
  roomClasses:
  - {fileID: 11400000, guid: 70f9ce711109e204088fb38fedc7246b, type: 2}
  - {fileID: 11400000, guid: 20d0aa868e2fdc44bbeba2ed3aacb72e, type: 2}
  - {fileID: 11400000, guid: 8740b6b9735a6874a9ab2d842bebf399, type: 2}
  - {fileID: 11400000, guid: d79a409300f6baf45bf06a75ca2b0166, type: 2}
  - {fileID: 11400000, guid: 603bcaea092102c449b75670f3b64cb4, type: 2}
  - {fileID: 11400000, guid: caf1ea98c50664a47870c9336c54e5c0, type: 2}
  - {fileID: 11400000, guid: 7b3e9dbc3f70a304b91491ed1533588e, type: 2}
  - {fileID: 11400000, guid: a7de19c73d051d940a203ff744ad9a3f, type: 2}
  - {fileID: 11400000, guid: 8094af501e2934441bd1fba670099c94, type: 2}
  - {fileID: 11400000, guid: 8259f809397b438479ce236bc6c8b833, type: 2}
  - {fileID: 11400000, guid: d15492a29401bba42bc047c5671065d1, type: 2}
  - {fileID: 11400000, guid: dcba1deb6b41d6a45991f7d9036610de, type: 2}
  - {fileID: 11400000, guid: f2a0fedfcef39c440a1c984dc309ddcd, type: 2}
  - {fileID: 11400000, guid: a6fe3d5b94d786944bfca40e6ca15ae0, type: 2}
  - {fileID: 11400000, guid: 54862c6ef0315264b903848b9d7d629c, type: 2}
  - {fileID: 11400000, guid: 294a3f484566ee8408898882731f5f84, type: 2}
  - {fileID: 11400000, guid: 1095fe89fe245ff428a31e2e16d186cf, type: 2}
  - {fileID: 11400000, guid: 592a6139675570641a1c503ef239b03d, type: 2}
  - {fileID: 11400000, guid: e427edf7fb31b784cafdefb142ffd9d9, type: 2}
  - {fileID: 11400000, guid: 6ff73182006a2d141847998f9eed39ec, type: 2}
