%YAML 1.1
%TAG !u! tag:unity3d.com,2011:
--- !u!114 &11400000
MonoBehaviour:
  m_ObjectHideFlags: 0
  m_CorrespondingSourceObject: {fileID: 0}
  m_PrefabInstance: {fileID: 0}
  m_PrefabAsset: {fileID: 0}
  m_GameObject: {fileID: 0}
  m_Enabled: 1
  m_EditorHideFlags: 0
  m_Script: {fileID: 11500000, guid: d96a006abd1ee29418b0676cae72d236, type: 3}
  m_Name: WallClock
  m_EditorClassIdentifier: 
  presetName: WallClock
  roomClasses:
  - {fileID: 11400000, guid: 70f9ce711109e204088fb38fedc7246b, type: 2}
  - {fileID: 11400000, guid: e46cae2caf2abbd4eab2549c8d28e3f9, type: 2}
  - {fileID: 11400000, guid: 8740b6b9735a6874a9ab2d842bebf399, type: 2}
  - {fileID: 11400000, guid: d79a409300f6baf45bf06a75ca2b0166, type: 2}
  - {fileID: 11400000, guid: 603bcaea092102c449b75670f3b64cb4, type: 2}
  - {fileID: 11400000, guid: caf1ea98c50664a47870c9336c54e5c0, type: 2}
  - {fileID: 11400000, guid: 8094af501e2934441bd1fba670099c94, type: 2}
  - {fileID: 11400000, guid: 8259f809397b438479ce236bc6c8b833, type: 2}
  - {fileID: 11400000, guid: d15492a29401bba42bc047c5671065d1, type: 2}
  - {fileID: 11400000, guid: dcba1deb6b41d6a45991f7d9036610de, type: 2}
  - {fileID: 11400000, guid: 0d51993b54fbd9949b0149fb5f074fd5, type: 2}
  - {fileID: 11400000, guid: de2869e4fc257f243b21048af80432b4, type: 2}
  - {fileID: 11400000, guid: 7b3e9dbc3f70a304b91491ed1533588e, type: 2}
  - {fileID: 11400000, guid: a6fe3d5b94d786944bfca40e6ca15ae0, type: 2}
  - {fileID: 11400000, guid: 14898fa403f9c99429304c5ef617a14b, type: 2}
  - {fileID: 11400000, guid: 5f67f1d7a391f4f49852bcab476a993a, type: 2}
  - {fileID: 11400000, guid: 54862c6ef0315264b903848b9d7d629c, type: 2}
  - {fileID: 11400000, guid: 0e61c90955417b442b4415a828e8d858, type: 2}
  - {fileID: 11400000, guid: c02e8618aa35235459c34552a1de8071, type: 2}
  - {fileID: 11400000, guid: fa2c61de643e36f4d8dba181b8baa3c7, type: 2}
  - {fileID: 11400000, guid: 73d0e61b4b0056a4182aef4db6d25203, type: 2}
  - {fileID: 11400000, guid: f5065b8dcc5f80a408f9b08e52d52ce4, type: 2}
  - {fileID: 11400000, guid: 424d1065f4f4f934cbbf045c101c366f, type: 2}
  - {fileID: 11400000, guid: 294a3f484566ee8408898882731f5f84, type: 2}
  - {fileID: 11400000, guid: 592a6139675570641a1c503ef239b03d, type: 2}
