%YAML 1.1
%TAG !u! tag:unity3d.com,2011:
--- !u!114 &11400000
MonoBehaviour:
  m_ObjectHideFlags: 0
  m_CorrespondingSourceObject: {fileID: 0}
  m_PrefabInstance: {fileID: 0}
  m_PrefabAsset: {fileID: 0}
  m_GameObject: {fileID: 0}
  m_Enabled: 1
  m_EditorHideFlags: 0
  m_Script: {fileID: 11500000, guid: d96a006abd1ee29418b0676cae72d236, type: 3}
  m_Name: Yard
  m_EditorClassIdentifier: 
  presetName: Yard
  roomClasses:
  - {fileID: 11400000, guid: ee026ee16d811a34481faf1a73368cc1, type: 2}
  - {fileID: 11400000, guid: c22e240a7baf25e4ab7e1421087485ee, type: 2}
