%YAML 1.1
%TAG !u! tag:unity3d.com,2011:
--- !u!114 &11400000
MonoBehaviour:
  m_ObjectHideFlags: 0
  m_CorrespondingSourceObject: {fileID: 0}
  m_PrefabInstance: {fileID: 0}
  m_PrefabAsset: {fileID: 0}
  m_GameObject: {fileID: 0}
  m_Enabled: 1
  m_EditorHideFlags: 0
  m_Script: {fileID: 11500000, guid: d443cbdeef5bffe4c8a79d948b962d6f, type: 3}
  m_Name: DinerEntrance
  m_EditorClassIdentifier: 
  presetName: DinerEntrance
  gameObject: {fileID: 1153092977280457023, guid: ab79452647d048642a0505be7f85b1bf,
    type: 3}
  allowStaticBatching: 1
  isRainyWindow: 0
  regularGlass: {fileID: 0}
  rainyGlass: {fileID: 0}
  universalDesignStyle: 1
  designStyles: []
  inheritColouringFromDecor: 0
  shareColours: 2
  variations:
  - name: 
    main: 16
    colour1: 15
    colour2: 15
    colour3: 15
  integratedInteractables: []
  classes:
  - {fileID: 11400000, guid: 3f25908a3eebf5c45a16ab283df66d20, type: 2}
