%YAML 1.1
%TAG !u! tag:unity3d.com,2011:
--- !u!114 &11400000
MonoBehaviour:
  m_ObjectHideFlags: 0
  m_CorrespondingSourceObject: {fileID: 0}
  m_PrefabInstance: {fileID: 0}
  m_PrefabAsset: {fileID: 0}
  m_GameObject: {fileID: 0}
  m_Enabled: 1
  m_EditorHideFlags: 0
  m_Script: {fileID: 11500000, guid: d443cbdeef5bffe4c8a79d948b962d6f, type: 3}
  m_Name: DinerWall
  m_EditorClassIdentifier: 
  presetName: DinerWall
  gameObject: {fileID: 8329451345120248413, guid: e9f1dd7b0d38ff740ad9ac3307f560a8,
    type: 3}
  allowStaticBatching: 1
  isRainyWindow: 0
  regularGlass: {fileID: 0}
  rainyGlass: {fileID: 0}
  universalDesignStyle: 1
  designStyles: []
  inheritColouringFromDecor: 0
  shareColours: 2
  variations:
  - name: 
    main: 16
    colour1: 15
    colour2: 15
    colour3: 15
  integratedInteractables: []
  classes:
  - {fileID: 11400000, guid: 2c39fb7eb9a07fa4fa1be3bfeef7a5d7, type: 2}
