%YAML 1.1
%TAG !u! tag:unity3d.com,2011:
--- !u!114 &11400000
MonoBehaviour:
  m_ObjectHideFlags: 0
  m_CorrespondingSourceObject: {fileID: 0}
  m_PrefabInstance: {fileID: 0}
  m_PrefabAsset: {fileID: 0}
  m_GameObject: {fileID: 0}
  m_Enabled: 1
  m_EditorHideFlags: 0
  m_Script: {fileID: 11500000, guid: d443cbdeef5bffe4c8a79d948b962d6f, type: 3}
  m_Name: LargeRectangleWindowCurtains
  m_EditorClassIdentifier: 
  presetName: LargeRectangleWindowCurtains
  gameObject: {fileID: 2335584554994561848, guid: 72c18b092b81ae94ebd985ab824d9e45,
    type: 3}
  allowStaticBatching: 1
  isRainyWindow: 1
  regularGlass: {fileID: 2100000, guid: d050c16b8c8d38f46b34baf9e343c333, type: 2}
  rainyGlass: {fileID: 2100000, guid: 138519ffebec85e45b9ddf918582b5b3, type: 2}
  universalDesignStyle: 1
  designStyles: []
  inheritColouringFromDecor: 0
  shareColours: 0
  variations: []
  integratedInteractables: []
  classes:
  - {fileID: 11400000, guid: 87f80f31721f49543a6559ea2363ced1, type: 2}
