%YAML 1.1
%TAG !u! tag:unity3d.com,2011:
--- !u!114 &11400000
MonoBehaviour:
  m_ObjectHideFlags: 0
  m_CorrespondingSourceObject: {fileID: 0}
  m_PrefabInstance: {fileID: 0}
  m_PrefabAsset: {fileID: 0}
  m_GameObject: {fileID: 0}
  m_Enabled: 1
  m_EditorHideFlags: 0
  m_Script: {fileID: 11500000, guid: 9d757e97b11d4064db60cf985a2a0d9e, type: 3}
  m_Name: MossyWall
  m_EditorClassIdentifier: 
  presetName: MossyWall
  disable: 0
  texturePreview: {fileID: 0}
  material: {fileID: 2100000, guid: 605f96347db20694a8f548dda79b45f2, type: 2}
  orientationCompatibility: 06000000
  pixelScaleMultiplier: 0.025
  allowInResidential: 1
  allowInCommerical: 1
  allowInLobby: 1
  allowOnStreet: 0
  basePriority: 1
  colourMatching: []
  colourMatchingScale: 5
  minimumWealth: 0
  maximumWealth: 1
  roomMatchingScale: 5
  modernity: 0
  cleanness: 0
  loudness: 0
  emotive: 0
  mustRequireTraitFromBelow: 0
  traitModifiers: []
  useDynamicText: 0
  dynamicTextSource: 0
  textFont: {fileID: 0}
  textColour: {r: 1, g: 1, b: 1, a: 1}
  textSize: 24
