%YAML 1.1
%TAG !u! tag:unity3d.com,2011:
--- !u!114 &11400000
MonoBehaviour:
  m_ObjectHideFlags: 0
  m_CorrespondingSourceObject: {fileID: 0}
  m_PrefabInstance: {fileID: 0}
  m_PrefabAsset: {fileID: 0}
  m_GameObject: {fileID: 0}
  m_Enabled: 1
  m_EditorHideFlags: 0
  m_Script: {fileID: 11500000, guid: bb9ed8324cc49a34b83a9c923c730080, type: 3}
  m_Name: HiredKiller
  m_EditorClassIdentifier: 
  presetName: HiredKiller
  collar: 8
  work: 9
  tags: 
  jobFillPriority: 4
  workOutfit: []
  selfEmployed: 1
  receptionist: 0
  canAskAboutJob: 1
  janitor: 0
  security: 0
  isCriminal: 1
  isPublicFacing: 0
  minimumPerCity: 1
  societalClass: 0.66
  skewPersonalityTowardsJobFit: 0.8
  skewHumility: 1
  humility: 0
  skewEmotionality: 1
  emotionality: 0
  skewExtraversion: 0
  extraversion: 0
  skewAgreeableness: 0
  agreeableness: 0
  skewConscientiousness: 1
  conscientiousness: 1
  skewCreativity: 0
  creativity: 0
  shiftTimeIsImportant: 0
  shiftType: 3
  countsTowardsOpenHoursCoverage: 1
  lunchBreakAllowed: 0
  jobAIPosition: 2
  bannedRooms: []
  actionSetup: []
  jobPostion: 0
  ownsWorkPosition: 0
  preferredRooms: []
  potterFrequency: {x: 0, y: 0}
  onlyPotterIfSomebodyElseWorking: 0
  potterActions: []
  namePlacard: 0
  employeePhoto: 0
  businessCards: 0
  workRota: 0
  employmentContract: 0
  jobItems:
  - {fileID: 11400000, guid: 71279e4de0c05e84a8e829b6b0fc5af7, type: 2}
  - {fileID: 11400000, guid: d7ae2d1d91ff2b94e9de619b173c8d7d, type: 2}
  - {fileID: 11400000, guid: fef95bd0fe3b93f4d83277f2abc0eae6, type: 2}
  - {fileID: 11400000, guid: 865244354cd5aeb4192bb7cbee3366fc, type: 2}
  inventoryItems:
  - {fileID: 11400000, guid: 71279e4de0c05e84a8e829b6b0fc5af7, type: 2}
  joinGroups:
  - {fileID: 11400000, guid: 3da62c9af8a34db4aa8a410d9d139423, type: 2}
  - {fileID: 11400000, guid: 40d283b3732da4649bfe520123984490, type: 2}
  - {fileID: 11400000, guid: 82d123df73bf6914d850808970735a0c, type: 2}
  addDialog: []
  selectedPreset: {fileID: 0}
