%YAML 1.1
%TAG !u! tag:unity3d.com,2011:
--- !u!114 &11400000
MonoBehaviour:
  m_ObjectHideFlags: 0
  m_CorrespondingSourceObject: {fileID: 0}
  m_PrefabInstance: {fileID: 0}
  m_PrefabAsset: {fileID: 0}
  m_GameObject: {fileID: 0}
  m_Enabled: 1
  m_EditorHideFlags: 0
  m_Script: {fileID: 11500000, guid: 1c384b6c6e63f9c4eacf72a1396f408f, type: 3}
  m_Name: CityDirectory
  m_EditorClassIdentifier: 
  presetName: CityDirectory
  closable: 1
  pinnable: 0
  forceWorldInteraction: 1
  useWindowFocusMode: 0
  resizable: 1
  defaultSize: {x: 500, y: 654}
  minSize: {x: 500, y: 654}
  maxSize: {x: 1000, y: 1000}
  DDSadditionalSize: {x: 172, y: 176}
  overrideIcon: {fileID: 21300000, guid: c60da283d8205954bae342633f048cc9, type: 3}
  tabs:
  - {fileID: 11400000, guid: 8a8d41eeed89cc948a027a62e5260654, type: 2}
  - {fileID: 11400000, guid: 94b7bb3610f84ce45a00b144b2fdb2fa, type: 2}
  - {fileID: 11400000, guid: 0708aa6da388e464b88e2a2b53c1094c, type: 2}
  - {fileID: 11400000, guid: eae8bef423534274d8f409615901a6de, type: 2}
  - {fileID: 11400000, guid: cb25421b35c785f44b16b36bb863cf91, type: 2}
  - {fileID: 11400000, guid: 44ebe3bc24ca03c41abc9f29079b75dd, type: 2}
  - {fileID: 11400000, guid: 663231e3895ee32428e9f590fe15596e, type: 2}
  - {fileID: 11400000, guid: 2e0f19099193ae8409aec84f25247cc5, type: 2}
  - {fileID: 11400000, guid: f27a468cceccae44684bf87fffd93d3e, type: 2}
