%YAML 1.1
%TAG !u! tag:unity3d.com,2011:
--- !u!114 &11400000
MonoBehaviour:
  m_ObjectHideFlags: 0
  m_CorrespondingSourceObject: {fileID: 0}
  m_PrefabInstance: {fileID: 0}
  m_PrefabAsset: {fileID: 0}
  m_GameObject: {fileID: 0}
  m_Enabled: 1
  m_EditorHideFlags: 0
  m_Script: {fileID: 11500000, guid: 1c384b6c6e63f9c4eacf72a1396f408f, type: 3}
  m_Name: ColourPicker
  m_EditorClassIdentifier: 
  presetName: ColourPicker
  closable: 1
  pinnable: 0
  forceWorldInteraction: 0
  useWindowFocusMode: 1
  resizable: 1
  defaultSize: {x: 514, y: 658}
  minSize: {x: 514, y: 514}
  maxSize: {x: 1000, y: 1000}
  DDSadditionalSize: {x: 172, y: 176}
  overrideIcon: {fileID: 21300000, guid: 36791c81ed77bd3488e148eb830c22de, type: 3}
  tabs:
  - {fileID: 11400000, guid: 442b58457dc78db47908fd5b0aec92d7, type: 2}
