%YAML 1.1
%TAG !u! tag:unity3d.com,2011:
--- !u!114 &11400000
MonoBehaviour:
  m_ObjectHideFlags: 0
  m_CorrespondingSourceObject: {fileID: 0}
  m_PrefabInstance: {fileID: 0}
  m_PrefabAsset: {fileID: 0}
  m_GameObject: {fileID: 0}
  m_Enabled: 1
  m_EditorHideFlags: 0
  m_Script: {fileID: 11500000, guid: 1c384b6c6e63f9c4eacf72a1396f408f, type: 3}
  m_Name: Evidence
  m_EditorClassIdentifier: 
  presetName: Evidence
  closable: 1
  pinnable: 1
  forceWorldInteraction: 0
  useWindowFocusMode: 0
  resizable: 1
  defaultSize: {x: 514, y: 658}
  minSize: {x: 514, y: 514}
  maxSize: {x: 1000, y: 1000}
  DDSadditionalSize: {x: 172, y: 176}
  overrideIcon: {fileID: 0}
  tabs:
  - {fileID: 11400000, guid: e017eddaf8f3ab743bfb096739ee86a9, type: 2}
  - {fileID: 11400000, guid: d15c3ab7bc97c454780894c4c68c9013, type: 2}
