%YAML 1.1
%TAG !u! tag:unity3d.com,2011:
--- !u!114 &11400000
MonoBehaviour:
  m_ObjectHideFlags: 0
  m_CorrespondingSourceObject: {fileID: 0}
  m_PrefabInstance: {fileID: 0}
  m_PrefabAsset: {fileID: 0}
  m_GameObject: {fileID: 0}
  m_Enabled: 1
  m_EditorHideFlags: 0
  m_Script: {fileID: 11500000, guid: 1c384b6c6e63f9c4eacf72a1396f408f, type: 3}
  m_Name: MaterialKey
  m_EditorClassIdentifier: 
  presetName: MaterialKey
  closable: 1
  pinnable: 0
  forceWorldInteraction: 0
  useWindowFocusMode: 1
  resizable: 1
  defaultSize: {x: 800, y: 520}
  minSize: {x: 800, y: 520}
  maxSize: {x: 800, y: 520}
  DDSadditionalSize: {x: 172, y: 176}
  overrideIcon: {fileID: 21300000, guid: 36791c81ed77bd3488e148eb830c22de, type: 3}
  tabs:
  - {fileID: 11400000, guid: 87e4fc2e914c38647ab8b77c7319ab9a, type: 2}
