%YAML 1.1
%TAG !u! tag:unity3d.com,2011:
--- !u!114 &11400000
MonoBehaviour:
  m_ObjectHideFlags: 0
  m_CorrespondingSourceObject: {fileID: 0}
  m_PrefabInstance: {fileID: 0}
  m_PrefabAsset: {fileID: 0}
  m_GameObject: {fileID: 0}
  m_Enabled: 1
  m_EditorHideFlags: 0
  m_Script: {fileID: 11500000, guid: 070402d0f52d680418a8e0ef2563a1f4, type: 3}
  m_Name: Escape
  m_EditorClassIdentifier: 
  presetName: Escape
  msgID: 17bba270-1793-400d-a464-53edef9adc30
  defaultOption: 1
  telephoneCallOption: 0
  hospitalDecisionOption: 1
  tiedToKey: 1
  ranking: 4
  removeAfterSaying: 0
  dailyReplenish: 0
  isJobDetails: 0
  ignoreActiveJobRequirement: 0
  specialCase: 0
  cost: 0
  usePercentageCost: 0
  useAllWealthIfNotEnough: 0
  displayIfPasswordUnknown: 0
  inputBox: 0
  displayAsIllegal: 1
  preceedingSyntax: 
  followingSyntax: 
  useSuccessTest: 0
  requiresPassword: 0
  baseChance: 0.3
  affectChanceIfRestrained: 0
  modifySuccessChanceTraits: []
  responses: []
  followUpDialogSuccess: []
  followUpDialogFail: []
  removeDialog: []
  removeDialogOnSuccess: []
  removeDialogOnFail: []
