%YAML 1.1
%TAG !u! tag:unity3d.com,2011:
--- !u!114 &11400000
MonoBehaviour:
  m_ObjectHideFlags: 0
  m_CorrespondingSourceObject: {fileID: 0}
  m_PrefabInstance: {fileID: 0}
  m_PrefabAsset: {fileID: 0}
  m_GameObject: {fileID: 0}
  m_Enabled: 1
  m_EditorHideFlags: 0
  m_Script: {fileID: 11500000, guid: 05c50b8a24558c04fb29c890553074fd, type: 3}
  m_Name: Shelf
  m_EditorClassIdentifier: 
  presetName: Shelf
  classes:
  - {fileID: 11400000, guid: 17be3bbff7d892f43972023f4755383b, type: 2}
  prefab: {fileID: 4153823260605998377, guid: 6b929e8d9c0405d4fa8b39311425e888, type: 3}
  allowStaticBatching: 0
  spawnRange: 3
  integratedInteractables: []
  universalDesignStyle: 1
  designStyles: []
  inheritColouringFromDecor: 1
  shareColours: 2
  inheritGrubFromDecor: 1
  variations:
  - name: Primary or Secondary
    main: 16
    colour1: 15
    colour2: 15
    colour3: 15
  furnitureGroup: 0
  groupID: 0
  concrete: 0
  plaster: 0
  wood: 1
  carpet: 0
  tile: 0
  metal: 0
  glass: 0
  fabric: 0
  minimumRoomSize: 4
  allowedInOpenPlan: 0
  onlyAllowInFollowing: 0
  allowedInAddressesOfType: []
  banInFollowing: 0
  bannedInAddressesOfType: []
  OnlyAllowInBuildings: 0
  allowedInBuildings: []
  banFromBuildings: 0
  notAllowedInBuildings: []
  OnlyAllowInDistricts: 0
  allowedInDistricts: []
  banFromDistricts: 0
  notAllowedInDistricts: []
  requiresGenderedInhabitants: 0
  enableIfGenderPresent: 
  allowedRoomFilters:
  - {fileID: 11400000, guid: f37d2edb5f16b2e4fb13c4a52ac4b0d4, type: 2}
  - {fileID: 11400000, guid: 092ea676885428c4491725f0b55893eb, type: 2}
  - {fileID: 11400000, guid: d1bfa1c547db3f54fb3b2f087a1f031f, type: 2}
  - {fileID: 11400000, guid: 6080839717a0605418fa96c55bc4aa63, type: 2}
  minimumWealth: 0
  usePersonalityWeighting: 0
  modernity: 5
  cleanness: 5
  loudness: 5
  emotive: 5
  subObjects:
  - preset: {fileID: 11400000, guid: 1344b73ecd802f244b155b2bea6cb649, type: 2}
    parent: 
    localPos: {x: 0.448, y: 1.6020001, z: -0.632}
    localRot: {x: -0, y: 0, z: 0}
    belongsTo: 0
    security: 0
  - preset: {fileID: 11400000, guid: 1344b73ecd802f244b155b2bea6cb649, type: 2}
    parent: 
    localPos: {x: 0.077, y: 1.6020001, z: -0.639}
    localRot: {x: -0, y: 350.26505, z: 0}
    belongsTo: 0
    security: 0
  - preset: {fileID: 11400000, guid: 94ecd56f625166b449047f5eee385c68, type: 2}
    parent: 
    localPos: {x: -0.114, y: 1.6020002, z: -0.632}
    localRot: {x: -0, y: 12.502571, z: 0}
    belongsTo: 0
    security: 0
  - preset: {fileID: 11400000, guid: 1344b73ecd802f244b155b2bea6cb649, type: 2}
    parent: 
    localPos: {x: -0.402, y: 1.602, z: -0.632}
    localRot: {x: -0, y: 332.99255, z: 0}
    belongsTo: 0
    security: 0
  - preset: {fileID: 11400000, guid: 94ecd56f625166b449047f5eee385c68, type: 2}
    parent: 
    localPos: {x: 0.28, y: 1.6020001, z: -0.574}
    localRot: {x: -0, y: 10.361868, z: 0}
    belongsTo: 0
    security: 0
  testForModifiers: 0
  forcePublicIllegal: 0
  hidingEnterTransition: {fileID: 0}
  hidingExitTransition: {fileID: 0}
  hidingEnterTransition2: {fileID: 0}
  hidingExitTransition2: {fileID: 0}
  map: {fileID: 0}
  drawUnderWalls: 0
  ignoreDirection: 0
  fingerprintsEnabled: 1
  printsSource: 1
  fingerprintDensity: 1
  alterAreaLighting: 0
  possibleColours: []
  lightOperation: 0
  lightAmount: 0.12
  brightnessModifier: 10
  purchasable: 1
  cost: 20
  decorClass: 5
  staticImage: {fileID: 21300000, guid: 70b91c6ecd7789c46ba28e26635cf6fc, type: 3}
  imagePos: {x: 0, y: 0, z: 0}
  imageRot: {x: 0, y: 0, z: 0}
  imageScale: 1
  imagePrefabOverride: {fileID: 0}
  isJobBoard: 0
  isWorkPosition: 0
  isPlant: 0
  isArt: 0
  isSecurityCamera: 0
  artOrientation: 2
  createSelfEmployed: {fileID: 0}
  workPositionID: 0
  spawnObjectOnChance: 1
  spawnObjectsOnPlacement: []
