%YAML 1.1
%TAG !u! tag:unity3d.com,2011:
--- !u!114 &11400000
MonoBehaviour:
  m_ObjectHideFlags: 0
  m_CorrespondingSourceObject: {fileID: 0}
  m_PrefabInstance: {fileID: 0}
  m_PrefabAsset: {fileID: 0}
  m_GameObject: {fileID: 0}
  m_Enabled: 1
  m_EditorHideFlags: 0
  m_Script: {fileID: 11500000, guid: 43d64c2f98410b5498c0fa6ba14d5dcf, type: 3}
  m_Name: Park
  m_EditorClassIdentifier: 
  presetName: Park
  mainEvent: {fileID: 11400000, guid: 4a25864121041744d81b03253387a320, type: 2}
  useOcclusion: 0
  maxRange: 10
  canPenetrateClosedDoors: 0
  overrideOcclusionModifier: 0
  occlusionUnitVolumeModifier: -0.1
  isAirDuctAmbience: 0
  passTimeOfDay: 1
  passWalla: 0
  passPlayerInVent: 1
  passPlayerVentExtInt: 0
  passDistanceToVent: 0
  passRain: 0
  passBasement: 0
  passHeightWindSpeed: 0
  maxWallaRange: 10
  maxWallaCrowd: 10
