%YAML 1.1
%TAG !u! tag:unity3d.com,2011:
--- !u!114 &11400000
MonoBehaviour:
  m_ObjectHideFlags: 0
  m_CorrespondingSourceObject: {fileID: 0}
  m_PrefabInstance: {fileID: 0}
  m_PrefabAsset: {fileID: 0}
  m_GameObject: {fileID: 0}
  m_Enabled: 1
  m_EditorHideFlags: 0
  m_Script: {fileID: 11500000, guid: f164eb24f42f9e74c8ccdb85e8d6f300, type: 3}
  m_Name: doorCloseActionWooden
  m_EditorClassIdentifier: 
  guid: 50968d22-dfe2-425c-8315-0136522553c0
  disableOcclusion: 0
  canPenetrateWalls: 0
  canPenetrateFloors: 0
  canPenetrateCeilings: 0
  overrideOcclusionModifier: 0
  occlusionUnitVolumeModifier: -0.1
  canBeSuspicious: 1
  alwaysSuspicious: 0
  suspiciousIfTresspassing: 1
  onlySuspiciousIfEmptyAddress: 1
  urgentResponse: 0
  audioFocus: 0.8
  forceOutlineForLoopIfPlayerTrespassing: 0
  actualSoundRange: 0
  hearingRange: 5
  stealthModeModifier: 0
  runModifier: 0
  masterVolumeScale: 1
  modifyBasedOnSurface: 0
  concreteHearingRangeModifier: 0
  woodHearingRangeModifier: 0
  carpetHearingRangeModifier: 0
  tileHearingRangeModifier: 0
  plasterHearingRangeModifier: 0
  fabricHearingRangeModifier: 0
  metalHearingRangeModifier: 0
  glassHearingRangeModifier: 0
  affectMusicLevel: 0
  musicLevelMultiplier: 1
