%YAML 1.1
%TAG !u! tag:unity3d.com,2011:
--- !u!114 &11400000
MonoBehaviour:
  m_ObjectHideFlags: 0
  m_CorrespondingSourceObject: {fileID: 0}
  m_PrefabInstance: {fileID: 0}
  m_PrefabAsset: {fileID: 0}
  m_GameObject: {fileID: 0}
  m_Enabled: 1
  m_EditorHideFlags: 0
  m_Script: {fileID: 11500000, guid: 7559a64a9e831bf4cacd0fc9e5cb79a5, type: 3}
  m_Name: ToiletCubiclesX1
  m_EditorClassIdentifier: 
  presetName: ToiletCubiclesX1
  disable: 0
  clusterElements:
  - onlyValidIfPreviousObjectPlaced: 0
    placements:
    - {x: 0, y: 0}
    furnitureClass: {fileID: 11400000, guid: 3de9efbd33e07494ba240012462e7013, type: 2}
    facing: 0
    importantToCluster: 1
    chanceOfPlacementAttempt: 1
    placementScoreBoost: 0
    useFovBlock: 1
    blockDirection: {x: 0, y: 1}
    maxFOVBlockDistance: 1
    localScale: {x: 1, y: 1, z: 1}
    positionOffset: {x: 0, y: 0, z: 0}
  - onlyValidIfPreviousObjectPlaced: 1
    placements:
    - {x: 0, y: 0}
    furnitureClass: {fileID: 11400000, guid: d385a75f0702efd499dd65b3b23e6a59, type: 2}
    facing: 0
    importantToCluster: 1
    chanceOfPlacementAttempt: 1
    placementScoreBoost: 0
    useFovBlock: 0
    blockDirection: {x: 0, y: 1}
    maxFOVBlockDistance: 1
    localScale: {x: 1, y: 1, z: 1}
    positionOffset: {x: 0, y: 0, z: 0}
  placementChance: 1
  roomPriority: 10
  modifyPriorityTraits: []
  modifyPlacementChanceTraits: []
  essentialFurniture: 1
  updatePreCalculated: 0
  calculatedMinRoomSize: 2
  minimumZeroNodeWallCount: 1
  maximumZeroNodeWallCount: 3
  zeroNodeClasses:
  - {fileID: 11400000, guid: 3de9efbd33e07494ba240012462e7013, type: 2}
  - {fileID: 11400000, guid: d385a75f0702efd499dd65b3b23e6a59, type: 2}
  minimumRoomSize: 2
  useMaximumRoomSize: 1
  maximumRoomSize: 99
  useCustomZeroNodeMinWallCount: 0
  customZeroNodeMinWallCount: 0
  useCustomZeroNodeMaxWallCount: 0
  customZeroNodeMaxWallCount: 0
  zeroNodeWallRules: []
  allowedInOpenPlan: 1
  allowInResidential: 0
  allowInCompanies: 1
  allowOnStreets: 0
  coastalOnly: 0
  limitToDistricts: 0
  allowedInDistricts: []
  banFromDistricts: 0
  notAllowedInDistricts: []
  skipIfNoAddressInhabitants: 0
  onlySkipNoInhabitantsIfResidenceOrCompany: 1
  dontSkipNoInhabitantsIfIn: []
  allowedRoomFilters:
  - {fileID: 11400000, guid: b03b1754c3f762b42ad91c6b782be469, type: 2}
  limitPerRoom: 1
  maximumPerRoom: 1
  limitPerAddress: 0
  maximumPerAddress: 1
  limitToFloor: 0
  allowedOnFloor: 0
  limitToFloorRange: 1
  allowedOnFloorRange: {x: -1, y: 99}
  wealthLimit: 0
  minimumWealth: 0
  maximumWealth: 1
  useRoomGrub: 0
  minimumGrub: 0
  maximumGrub: 1
  useBuildingResidences: 0
  minimumResidences: 0
  maximumResidences: 40
  addClustersOnSuccess: []
  removeClustersOnSuccess: []
  removeClustersOnFail: []
  securityDoor: 0
  isBreakerBox: 0
  enableDebug: 0
