%YAML 1.1
%TAG !u! tag:unity3d.com,2011:
--- !u!114 &11400000
MonoBehaviour:
  m_ObjectHideFlags: 0
  m_CorrespondingSourceObject: {fileID: 0}
  m_PrefabInstance: {fileID: 0}
  m_PrefabAsset: {fileID: 0}
  m_GameObject: {fileID: 0}
  m_Enabled: 1
  m_EditorHideFlags: 0
  m_Script: {fileID: 11500000, guid: 070402d0f52d680418a8e0ef2563a1f4, type: 3}
  m_Name: Help
  m_EditorClassIdentifier: 
  presetName: Help
  msgID: 6ab7c550-d795-4408-9cb5-4208f79355a0
  defaultOption: 0
  telephoneCallOption: 0
  hospitalDecisionOption: 0
  tiedToKey: 4
  ranking: 11
  removeAfterSaying: 0
  dailyReplenish: 0
  isJobDetails: 0
  ignoreActiveJobRequirement: 0
  specialCase: 3
  cost: 0
  usePercentageCost: 0
  useAllWealthIfNotEnough: 0
  displayIfPasswordUnknown: 0
  inputBox: 0
  displayAsIllegal: 0
  preceedingSyntax: 
  followingSyntax: 
  useSuccessTest: 0
  requiresPassword: 0
  baseChance: 0
  affectChanceIfRestrained: 0
  modifySuccessChanceTraits: []
  responses:
  - dictionaryString: Ask Guest Pass
    ddsMessageID: 6e550aec-7efb-4df5-a5ba-e3220fbd7b0b
    isSuccessful: 1
    chance: 1
    useParsing: 1
    shout: 0
    interupt: 0
    onlyIfEnfocerOnDuty: 0
    onlyIfNotEnforcerOnDuty: 0
    mustFeatureTrait: []
    cantFeatureTrait: []
    tieKeys: 
    applyDiscovery: 
    endsDialog: 0
    jobHandIn: 0
  followUpDialogSuccess: []
  followUpDialogFail: []
  removeDialog: []
  removeDialogOnSuccess: []
  removeDialogOnFail: []
