%YAML 1.1
%TAG !u! tag:unity3d.com,2011:
--- !u!114 &11400000
MonoBehaviour:
  m_ObjectHideFlags: 0
  m_CorrespondingSourceObject: {fileID: 0}
  m_PrefabInstance: {fileID: 0}
  m_PrefabAsset: {fileID: 0}
  m_GameObject: {fileID: 0}
  m_Enabled: 1
  m_EditorHideFlags: 0
  m_Script: {fileID: 11500000, guid: 3f919a38bda07a046a96d2a335329b22, type: 3}
  m_Name: Ballroom
  m_EditorClassIdentifier: 
  presetName: Ballroom
  companyCategories: 06000000
  isIllegal: 0
  useBuildingOverrideName: 0
  overrideSuffixList: []
  useStreetNameChance: 0
  useDistrictNameChance: 0.132
  useOwnerFirstNameChance: 0
  useOwnerSurNameChance: 0.182
  useCompanyNameListChance: 0.587
  aliterationWeight: 2
  prefixChance: 0.2
  prefixList:
  - extravagant
  mainChance: 1
  mainNamingList:
  - flowers
  - luxury
  suffixList:
  - company.suffix.hotel
  theRules:
  - component: 1
    exists: 1
    chanceModifier: 1
  minimumSalary: 3
  topSalary: 6
  payGradeCurve:
    serializedVersion: 2
    m_Curve:
    - serializedVersion: 3
      time: 0
      value: 0
      inSlope: 0
      outSlope: 1
      tangentMode: 0
      weightedMode: 0
      inWeight: 0.33333334
      outWeight: 0.33333334
    - serializedVersion: 3
      time: 1
      value: 1
      inSlope: 1
      outSlope: 0
      tangentMode: 0
      weightedMode: 0
      inWeight: 0.33333334
      outWeight: 0.33333334
    m_PreInfinity: 2
    m_PostInfinity: 2
    m_RotationOrder: 4
  publicFacing: 1
  isSelfEmployed: 0
  autoCreate: 0
  priority: 5
  cityPopRatio: 0.03
  minimumNumber: 2
  maximumNumber: 10
  menus:
  - {fileID: 11400000, guid: 57002cbd01691dd4abe50332aa8ce58c, type: 2}
  recordSalesData: 1
  previousFakeSalesRecords: 5
  requiredTraits:
  - {fileID: 11400000, guid: f2037028d1fa29048b35a7d1941cbe74, type: 2}
  - {fileID: 11400000, guid: 4223e688fe88f084baa8e103d1438331, type: 2}
  - {fileID: 11400000, guid: b9ef68c8a197fe64cb0202922ea36431, type: 2}
  enableSelling: 0
  enableSellingOfIllegalItems: 0
  sellValueMultiplier: 0.5
  possibleUniformColours:
  - {r: 0.8490566, g: 0.27767882, b: 0.27767882, a: 1}
  - {r: 0.322772, g: 0.55543846, b: 0.8018868, a: 1}
  workHours: {fileID: 11400000, guid: d438cabd4f517e943a312b09be888474, type: 2}
  structure: {fileID: 11400000, guid: fc62d642bc45a734bb87746d8dfbaca7, type: 2}
  controlsBuildingSurveillance: 1
  isHotel: 1
