%YAML 1.1
%TAG !u! tag:unity3d.com,2011:
--- !u!114 &11400000
MonoBehaviour:
  m_ObjectHideFlags: 0
  m_CorrespondingSourceObject: {fileID: 0}
  m_PrefabInstance: {fileID: 0}
  m_PrefabAsset: {fileID: 0}
  m_GameObject: {fileID: 0}
  m_Enabled: 1
  m_EditorHideFlags: 0
  m_Script: {fileID: 11500000, guid: 3f919a38bda07a046a96d2a335329b22, type: 3}
  m_Name: WorkplaceCanteen
  m_EditorClassIdentifier: 
  presetName: WorkplaceCanteen
  companyCategories: 000000000100000002000000
  isIllegal: 0
  useBuildingOverrideName: 1
  overrideSuffixList:
  - company.suffix.canteen
  useStreetNameChance: 0.1
  useDistrictNameChance: 0
  useOwnerFirstNameChance: 0.1
  useOwnerSurNameChance: 0
  useCompanyNameListChance: 1
  aliterationWeight: 6
  prefixChance: 0
  prefixList: []
  mainChance: 1
  mainNamingList:
  - animals
  - people
  suffixList:
  - company.suffix.canteen
  theRules: []
  minimumSalary: 1
  topSalary: 2
  payGradeCurve:
    serializedVersion: 2
    m_Curve:
    - serializedVersion: 3
      time: 0
      value: 0
      inSlope: 0
      outSlope: 1
      tangentMode: 0
      weightedMode: 0
      inWeight: 0.33333334
      outWeight: 0.33333334
    - serializedVersion: 3
      time: 1
      value: 1
      inSlope: 1
      outSlope: 0
      tangentMode: 0
      weightedMode: 0
      inWeight: 0.33333334
      outWeight: 0.33333334
    m_PreInfinity: 2
    m_PostInfinity: 2
    m_RotationOrder: 4
  publicFacing: 0
  isSelfEmployed: 0
  autoCreate: 0
  priority: 5
  cityPopRatio: 0.03
  minimumNumber: 2
  maximumNumber: 10
  menus:
  - {fileID: 11400000, guid: e77f2ddaa236108438bf059b8ee3883d, type: 2}
  recordSalesData: 0
  previousFakeSalesRecords: 5
  requiredTraits:
  - {fileID: 0}
  enableSelling: 0
  enableSellingOfIllegalItems: 0
  sellValueMultiplier: 0.5
  possibleUniformColours: []
  workHours: {fileID: 11400000, guid: b8596e20c53998544962ea8ed36d1b95, type: 2}
  structure: {fileID: 11400000, guid: 0d70bd5a65f60e7479a5c55c925353d2, type: 2}
  controlsBuildingSurveillance: 0
