%YAML 1.1
%TAG !u! tag:unity3d.com,2011:
--- !u!114 &11400000
MonoBehaviour:
  m_ObjectHideFlags: 0
  m_CorrespondingSourceObject: {fileID: 0}
  m_PrefabInstance: {fileID: 0}
  m_PrefabAsset: {fileID: 0}
  m_GameObject: {fileID: 0}
  m_Enabled: 1
  m_EditorHideFlags: 0
  m_Script: {fileID: 11500000, guid: 4e76f46ebf9155347b09055f719c0526, type: 3}
  m_Name: DomedCeilingLightDim
  m_EditorClassIdentifier: 
  presetName: DomedCeilingLightDim
  disable: 0
  lightObjects:
  - {fileID: 11400000, guid: aa6a581dd7600594a9d634f7ad76e7b9, type: 2}
  lightingPreset: {fileID: 11400000, guid: 1f41d9b2286488846b2eda408be40f67, type: 2}
  roomCompatibility:
  - {fileID: 11400000, guid: 78a655384e687844080702ff0fa2ff4d, type: 2}
  - {fileID: 11400000, guid: 0775f594d4985dd4d9f4f3a0d671ae22, type: 2}
  - {fileID: 11400000, guid: 47ada036769223c4eb23638069dd6f4f, type: 2}
  - {fileID: 11400000, guid: 2a4efe91cdea3d845b03b8a96432d1a5, type: 2}
  - {fileID: 11400000, guid: ec8f80d15b148484f80bed6626d4bc54, type: 2}
  - {fileID: 11400000, guid: eaed1f20c026db04b83bb651fc9ee5b6, type: 2}
  minimumRoomSize: 1
  maximumRoomSize: 9999
  onlyAllowInBuildings: []
  banFromBuildings: []
  stairwellRule: 0
  designStyleCompatibility:
  - {fileID: 11400000, guid: f7900e58d7b990840b8413d0629275ee, type: 2}
  - {fileID: 11400000, guid: e72ea046ed0da1e4fa8dc37cf23d4962, type: 2}
  - {fileID: 11400000, guid: 874a29f205e656345b6bf7e398fd3d8d, type: 2}
  - {fileID: 11400000, guid: e02dfc783e1042e48b87ceb703c8dc23, type: 2}
  - {fileID: 11400000, guid: 238eb7f62296f3149bd39ce3b7506276, type: 2}
  - {fileID: 11400000, guid: fb5884c44b9167f4982a3fe7b4a798b4, type: 2}
  - {fileID: 11400000, guid: 748ca6bfa273c674187dcd4ec18a224a, type: 2}
  ceilingFans:
  - {fileID: 3612251895354961931, guid: 60039413d9aeb6f4eb2dbe63930f16f5, type: 3}
  frequency: 1
