%YAML 1.1
%TAG !u! tag:unity3d.com,2011:
--- !u!114 &11400000
MonoBehaviour:
  m_ObjectHideFlags: 0
  m_CorrespondingSourceObject: {fileID: 0}
  m_PrefabInstance: {fileID: 0}
  m_PrefabAsset: {fileID: 0}
  m_GameObject: {fileID: 0}
  m_Enabled: 1
  m_EditorHideFlags: 0
  m_Script: {fileID: 11500000, guid: 4e76f46ebf9155347b09055f719c0526, type: 3}
  m_Name: PaperCeilingLightBright
  m_EditorClassIdentifier: 
  presetName: PaperCeilingLightBright
  disable: 0
  lightObjects:
  - {fileID: 11400000, guid: e4f561ed8ad56ae4d875b99c576fe2aa, type: 2}
  lightingPreset: {fileID: 11400000, guid: 934f55da7260f7d4a8d3a453808327f3, type: 2}
  roomCompatibility:
  - {fileID: 11400000, guid: 91d227b1bc12dae409ca721fa70e280a, type: 2}
  - {fileID: 11400000, guid: 89c8e5cd9aa214d48959831b6101edd9, type: 2}
  - {fileID: 11400000, guid: 7258ac6062427a3489664cff155995f4, type: 2}
  - {fileID: 11400000, guid: 892c3ba3269338f4486ae13645adea13, type: 2}
  - {fileID: 11400000, guid: 9fada49678284e447ab27cb3bd2d3a18, type: 2}
  - {fileID: 11400000, guid: fd4ce24eb00b8d441a684e68d20041f7, type: 2}
  - {fileID: 11400000, guid: e2a6646f888496f4b92134d55b2e232c, type: 2}
  - {fileID: 11400000, guid: ccd885e6adbab9e4c9cc1c7a806b7281, type: 2}
  - {fileID: 11400000, guid: 5418deaba9454004abf1edb0e4ca0a1b, type: 2}
  - {fileID: 11400000, guid: a0dbcaa536093df44b8869b156561bf8, type: 2}
  - {fileID: 11400000, guid: 334fc7e770ad0c047ac03a35af283e78, type: 2}
  - {fileID: 11400000, guid: fd6369975a877c741821c5246f758a94, type: 2}
  - {fileID: 11400000, guid: 0bc487bf2a842cc459c87d005e351d32, type: 2}
  - {fileID: 11400000, guid: 4feaa49c940ecd84b94179e8c973e38c, type: 2}
  - {fileID: 11400000, guid: 3c770f3de5be6914ab2f54c81ab9fbb2, type: 2}
  minimumRoomSize: 1
  maximumRoomSize: 9999
  banFromBuildings: []
  stairwellRule: 0
  designStyleCompatibility:
  - {fileID: 11400000, guid: f7900e58d7b990840b8413d0629275ee, type: 2}
  - {fileID: 11400000, guid: e72ea046ed0da1e4fa8dc37cf23d4962, type: 2}
  - {fileID: 11400000, guid: 874a29f205e656345b6bf7e398fd3d8d, type: 2}
  - {fileID: 11400000, guid: e02dfc783e1042e48b87ceb703c8dc23, type: 2}
  - {fileID: 11400000, guid: 238eb7f62296f3149bd39ce3b7506276, type: 2}
  - {fileID: 11400000, guid: 748ca6bfa273c674187dcd4ec18a224a, type: 2}
  ceilingFans: []
  frequency: 1
