%YAML 1.1
%TAG !u! tag:unity3d.com,2011:
--- !u!114 &11400000
MonoBehaviour:
  m_ObjectHideFlags: 0
  m_CorrespondingSourceObject: {fileID: 0}
  m_PrefabInstance: {fileID: 0}
  m_PrefabAsset: {fileID: 0}
  m_GameObject: {fileID: 0}
  m_Enabled: 1
  m_EditorHideFlags: 0
  m_Script: {fileID: 11500000, guid: 4e76f46ebf9155347b09055f719c0526, type: 3}
  m_Name: SyncClinicLight
  m_EditorClassIdentifier: 
  presetName: SyncClinicLight
  disable: 0
  lightObjects:
  - {fileID: 11400000, guid: d89258e42ccae1941bb0be4924f836bf, type: 2}
  lightingPreset: {fileID: 11400000, guid: f4e0e480de919da48be39ea9d624929a, type: 2}
  roomCompatibility:
  - {fileID: 11400000, guid: 76ce64adc1fa5a146828e1245b88953d, type: 2}
  - {fileID: 11400000, guid: 0409b8b5d69eefc4ebee317d2eac3259, type: 2}
  minimumRoomSize: 1
  maximumRoomSize: 9999
  banFromBuildings: []
  stairwellRule: 0
  designStyleCompatibility:
  - {fileID: 11400000, guid: f7900e58d7b990840b8413d0629275ee, type: 2}
  - {fileID: 11400000, guid: e72ea046ed0da1e4fa8dc37cf23d4962, type: 2}
  - {fileID: 11400000, guid: 874a29f205e656345b6bf7e398fd3d8d, type: 2}
  - {fileID: 11400000, guid: e02dfc783e1042e48b87ceb703c8dc23, type: 2}
  - {fileID: 11400000, guid: 238eb7f62296f3149bd39ce3b7506276, type: 2}
  - {fileID: 11400000, guid: fb5884c44b9167f4982a3fe7b4a798b4, type: 2}
  - {fileID: 11400000, guid: 748ca6bfa273c674187dcd4ec18a224a, type: 2}
  ceilingFans: []
  frequency: 1
