%YAML 1.1
%TAG !u! tag:unity3d.com,2011:
--- !u!114 &11400000
MonoBehaviour:
  m_ObjectHideFlags: 0
  m_CorrespondingSourceObject: {fileID: 0}
  m_PrefabInstance: {fileID: 0}
  m_PrefabAsset: {fileID: 0}
  m_GameObject: {fileID: 0}
  m_Enabled: 1
  m_EditorHideFlags: 0
  m_Script: {fileID: 11500000, guid: 511f963db79952e489abe985cd86c180, type: 3}
  m_Name: BoundaryCoastal01
  m_EditorClassIdentifier: 
  presetName: BoundaryCoastal01
  disable: 0
  prefab: {fileID: 7219059674738901903, guid: 92298b38bb781cc4b8078584676593d5, type: 3}
  emissionMapUnlit: {fileID: 0}
  emissionMapLit: {fileID: 0}
  buildingHeight: 2
  lightningRodLocalPos: {x: 9.79, y: 22.21, z: 11.26}
  defaultExteriorWallMaterial: []
  exteriorKey:
    baseMaterial: {fileID: 0}
    mainColour: {r: 0, g: 0, b: 0, a: 0}
    colour1: {r: 0, g: 0, b: 0, a: 0}
    colour2: {r: 0, g: 0, b: 0, a: 0}
    colour3: {r: 0, g: 0, b: 0, a: 0}
    grubiness: 0
  enableAlleywayWalls: 0
  enableExteriorQuoins: 0
  overrideEvidencePhotoSettings: 0
  relativeCamPhotoPos: {x: -5, y: 3, z: 19}
  relativeCamPhotoEuler: {x: -43, y: 158, z: 0}
  overrideDistrictEnvironment: 0
  sceneProfile: 1
  floorLayouts: []
  basementLayouts: []
  controlRoomRange: {x: 0, y: 0}
  forceBuildingDesignStyles: []
  stairwellRegular: {fileID: 0}
  stairwellLarge: {fileID: 0}
  overrideGrubiness: 0
  grubinessOverride: 0
  displayedZone: 4
  allowedInAllDistricts: 1
  allowedInDistricts: []
  densityMinimum: 0
  densityMaximum: 3
  landValueMinimum: 0
  landValueMaximum: 4
  minimum: 0
  featureImportance: 4
  hardLimit: 99
  desiredRatio: 0.05
  modernity: 1
  lobbyPreset: {fileID: 11400000, guid: 036439706eb3bef4c85ad1fb45a84430, type: 2}
  nonEnterable: 1
  boundary: 1
  boundaryCorner: 0
  overrideNaming: 0
  possibleNames: []
  customDrawOnMap: 1
  tex: {fileID: 2800000, guid: 8756a08fe5ee1fd4db5ff33a5d997bc1, type: 3}
  captureMesh: {fileID: 0}
  windowMap: {fileID: 0}
  addonMap: {fileID: 0}
  sortedWindows: []
  floorCount: 0
  meshHeight: 0
  cableLinkPoints: []
  cableSpawnChanceOverHeight:
    serializedVersion: 2
    m_Curve:
    - serializedVersion: 3
      time: 0
      value: 1
      inSlope: 0
      outSlope: -0.6
      tangentMode: 0
      weightedMode: 0
      inWeight: 0
      outWeight: 0
    - serializedVersion: 3
      time: 1
      value: 0.4
      inSlope: -0.6
      outSlope: 0
      tangentMode: 0
      weightedMode: 0
      inWeight: 0
      outWeight: 0
    m_PreInfinity: 2
    m_PostInfinity: 2
    m_RotationOrder: 4
  sideSignPoints: []
  possibleNeonSigns: []
  signsPerBuildingRange: {x: 0, y: 3}
  horizontalSignOffset: {x: 0, y: 4.046, z: 0}
  featuresSmokestack: 0
  spawnInterval: {x: 0.1, y: 0.33}
  spritePrefab: {fileID: 0}
  spawnOffset: {x: 0, y: 0, z: 0}
