%YAML 1.1
%TAG !u! tag:unity3d.com,2011:
--- !u!114 &11400000
MonoBehaviour:
  m_ObjectHideFlags: 0
  m_CorrespondingSourceObject: {fileID: 0}
  m_PrefabInstance: {fileID: 0}
  m_PrefabAsset: {fileID: 0}
  m_GameObject: {fileID: 0}
  m_Enabled: 1
  m_EditorHideFlags: 0
  m_Script: {fileID: 11500000, guid: 7559a64a9e831bf4cacd0fc9e5cb79a5, type: 3}
  m_Name: HangingBasket3
  m_EditorClassIdentifier: 
  disable: 0
  presetName: HangingBasket3
  clusterElements:
  - onlyValidIfPreviousObjectPlaced: 0
    placements:
    - {x: 0, y: 0}
    furnitureClass: {fileID: 11400000, guid: 5b88efb7ebec00d4193aab727e42fef9, type: 2}
    facing: 0
    importantToCluster: 1
    chanceOfPlacementAttempt: 1
    placementScoreBoost: 0
    useFovBlock: 0
    blockDirection: {x: 0, y: 0}
    maxFOVBlockDistance: 0
    localScale: {x: 0.8, y: 0.85, z: 0.8}
    positionOffset: {x: 0, y: 0, z: 0}
  placementChance: 0
  roomPriority: 5
  modifyPriorityTraits: []
  modifyPlacementChanceTraits:
  - rule: 0
    traitList:
    - {fileID: 11400000, guid: f44cd0270d824ef47b04bb9a202476bc, type: 2}
    mustPassForApplication: 0
    baseChance: 0.25
    reasonChance: 0
  essentialFurniture: 0
  updatePreCalculated: 0
  calculatedMinRoomSize: 1
  minimumZeroNodeWallCount: 1
  maximumZeroNodeWallCount: 3
  zeroNodeClasses:
  - {fileID: 11400000, guid: 5b88efb7ebec00d4193aab727e42fef9, type: 2}
  minimumRoomSize: 4
  useMaximumRoomSize: 1
  maximumRoomSize: 99
  useMinimumTesselation: 0
  nodesMustBeUnoccupied: 1
  minimumTesselation: {x: 1, y: 1}
  allowedInOpenPlan: 0
  allowInResidential: 1
  allowInCompanies: 0
  allowOnStreets: 0
  coastalOnly: 0
  limitToDistricts: 0
  allowedInDistricts: []
  banFromDistricts: 0
  notAllowedInDistricts: []
  skipIfNoAddressInhabitants: 1
  allowedRoomFilters:
  - {fileID: 11400000, guid: 84b0aff968b5cbe4e9c5bda257227d0a, type: 2}
  limitPerRoom: 1
  maximumPerRoom: 20
  limitPerAddress: 0
  maximumPerAddress: 1
  limitToFloor: 0
  allowedOnFloor: 0
  limitPerBuilding: 0
  maximumPerBuilding: 1
  limitPerCity: 0
  maximumPerCity: 1
  wealthLimit: 0
  minimumWealth: 0
  maximumWealth: 1
  useRoomGrub: 0
  minimumGrub: 0
  maximumGrub: 1
  useBuildingResidences: 0
  minimumResidences: 0
  maximumResidences: 40
  removeClustersOnSuccess: []
  removeClustersOnFail: []
  securityDoor: 0
  isBreakerBox: 0
  enableDebug: 0
