%YAML 1.1
%TAG !u! tag:unity3d.com,2011:
--- !u!114 &11400000
MonoBehaviour:
  m_ObjectHideFlags: 0
  m_CorrespondingSourceObject: {fileID: 0}
  m_PrefabInstance: {fileID: 0}
  m_PrefabAsset: {fileID: 0}
  m_GameObject: {fileID: 0}
  m_Enabled: 1
  m_EditorHideFlags: 0
  m_Script: {fileID: 11500000, guid: 0da14b35f8d566c4fb57d76d13c3a1da, type: 3}
  m_Name: TimeOfDeath
  m_EditorClassIdentifier: 
  presetName: TimeOfDeath
  subClass: Time
  windowStyle: {fileID: 11400000, guid: 9ab7c23d1b0116f4da1d39bfec7f96a3, type: 2}
  useDataKeys: 0
  validKeys: []
  passiveTies: []
  notifyOfTies: 0
  useBelongsToInName: 0
  isSingleton: 0
  disableHistory: 0
  allowCustomNames: 0
  markAsDiscoveredOnAnyInteraction: 1
  forceWorldInteraction: 0
  useWindowFocusMode: 0
  iconSpriteLarge: {fileID: 21300000, guid: bc257b3435418e74784b0cf5519be52c, type: 3}
  defaultNullImage: {fileID: 2800000, guid: 21d2571c01195454ea4640f78ae9b2ee, type: 3}
  useInGamePhoto: 0
  useWriter: 0
  relativeCamPhotoPos: {x: 0, y: 0, z: 0}
  relativeCamPhotoEuler: {x: 0, y: 0, z: 0}
  captureRules: 0
  changeTimeOfDay: 0
  captureTimeOfDay: 12
  useCaptureLight: 0
  useSurveillanceCapture: 0
  itemOwner: 0
  itemWriter: 0
  itemReceiver: 0
  factSetup:
  - preset: {fileID: 11400000, guid: 15e80edf5b4c2a0448305fc4455f9d65, type: 2}
    link: 1
    onlyIfInOwnedPosition: 0
    createOnDiscovery: 1
    forceDiscoveryOnCreation: 1
    switchFindingFactToFrom: 1
  addFactLinks: []
  discoverOnCreate: 0
  keyMergeOnDiscovery:
  - link: 1
    mergeKeys: 010000000c000000
  discoveryTriggers: 
  applicationOnDiscover:
  - link: 0
    applyDiscoveryTrigger: 15
  ddsDocumentID: 82de88ad-eb48-4ca8-af4d-74200a749586
  isMatchParent: 0
  matchTypes: []
  enableSummary: 1
  enableFacts: 1
  pinnedStyle: 0
  pinnedBackgroundColour: {r: 1, g: 1, b: 1, a: 1}
