%YAML 1.1
%TAG !u! tag:unity3d.com,2011:
--- !u!114 &11400000
MonoBehaviour:
  m_ObjectHideFlags: 0
  m_CorrespondingSourceObject: {fileID: 0}
  m_PrefabInstance: {fileID: 0}
  m_PrefabAsset: {fileID: 0}
  m_GameObject: {fileID: 0}
  m_Enabled: 1
  m_EditorHideFlags: 0
  m_Script: {fileID: 11500000, guid: 7559a64a9e831bf4cacd0fc9e5cb79a5, type: 3}
  m_Name: DinerBooth
  m_EditorClassIdentifier: 
  presetName: DinerBooth
  disable: 0
  clusterElements:
  - onlyValidIfPreviousObjectPlaced: 0
    placements:
    - {x: 0, y: 0}
    furnitureClass: {fileID: 11400000, guid: 81f33de8f4c96b64f85eea1caeaf6ec9, type: 2}
    facing: 0
    importantToCluster: 1
    chanceOfPlacementAttempt: 1
    placementScoreBoost: 0
    useFovBlock: 0
    blockDirection: {x: 0, y: 0}
    maxFOVBlockDistance: 0
    localScale: {x: 1, y: 1, z: 1}
    positionOffset: {x: 0, y: 0, z: 0}
  - onlyValidIfPreviousObjectPlaced: 1
    placements:
    - {x: 0, y: 0}
    furnitureClass: {fileID: 11400000, guid: 9d77a2237ba4dbf43b47e3dff63bd4ed, type: 2}
    facing: 2
    importantToCluster: 1
    chanceOfPlacementAttempt: 1
    placementScoreBoost: 0
    useFovBlock: 0
    blockDirection: {x: 0, y: 0}
    maxFOVBlockDistance: 0
    localScale: {x: 1, y: 1, z: 1}
    positionOffset: {x: 0, y: 0, z: 0}
  - onlyValidIfPreviousObjectPlaced: 1
    placements:
    - {x: 0, y: 0}
    furnitureClass: {fileID: 11400000, guid: 785e5a4b121af084fa11624bf61e4e59, type: 2}
    facing: 3
    importantToCluster: 1
    chanceOfPlacementAttempt: 1
    placementScoreBoost: 0
    useFovBlock: 0
    blockDirection: {x: 0, y: 0}
    maxFOVBlockDistance: 0
    localScale: {x: 1, y: 1, z: 1}
    positionOffset: {x: 0, y: 0, z: 0}
  - onlyValidIfPreviousObjectPlaced: 0
    placements:
    - {x: 1, y: 0}
    furnitureClass: {fileID: 11400000, guid: 81f33de8f4c96b64f85eea1caeaf6ec9, type: 2}
    facing: 0
    importantToCluster: 0
    chanceOfPlacementAttempt: 1
    placementScoreBoost: 0
    useFovBlock: 0
    blockDirection: {x: 0, y: 0}
    maxFOVBlockDistance: 0
    localScale: {x: 1, y: 1, z: 1}
    positionOffset: {x: 0, y: 0, z: 0}
  - onlyValidIfPreviousObjectPlaced: 1
    placements:
    - {x: 1, y: 0}
    furnitureClass: {fileID: 11400000, guid: 9d77a2237ba4dbf43b47e3dff63bd4ed, type: 2}
    facing: 2
    importantToCluster: 0
    chanceOfPlacementAttempt: 1
    placementScoreBoost: 0
    useFovBlock: 0
    blockDirection: {x: 0, y: 0}
    maxFOVBlockDistance: 0
    localScale: {x: 1, y: 1, z: 1}
    positionOffset: {x: 0, y: 0, z: 0}
  - onlyValidIfPreviousObjectPlaced: 1
    placements:
    - {x: 1, y: 0}
    furnitureClass: {fileID: 11400000, guid: 785e5a4b121af084fa11624bf61e4e59, type: 2}
    facing: 3
    importantToCluster: 0
    chanceOfPlacementAttempt: 1
    placementScoreBoost: 0
    useFovBlock: 0
    blockDirection: {x: 0, y: 0}
    maxFOVBlockDistance: 0
    localScale: {x: 1, y: 1, z: 1}
    positionOffset: {x: 0, y: 0, z: 0}
  - onlyValidIfPreviousObjectPlaced: 0
    placements:
    - {x: -1, y: 0}
    furnitureClass: {fileID: 11400000, guid: 81f33de8f4c96b64f85eea1caeaf6ec9, type: 2}
    facing: 0
    importantToCluster: 0
    chanceOfPlacementAttempt: 1
    placementScoreBoost: 0
    useFovBlock: 0
    blockDirection: {x: 0, y: 0}
    maxFOVBlockDistance: 0
    localScale: {x: 1, y: 1, z: 1}
    positionOffset: {x: 0, y: 0, z: 0}
  - onlyValidIfPreviousObjectPlaced: 1
    placements:
    - {x: -1, y: 0}
    furnitureClass: {fileID: 11400000, guid: 9d77a2237ba4dbf43b47e3dff63bd4ed, type: 2}
    facing: 2
    importantToCluster: 0
    chanceOfPlacementAttempt: 1
    placementScoreBoost: 0
    useFovBlock: 0
    blockDirection: {x: 0, y: 0}
    maxFOVBlockDistance: 0
    localScale: {x: 1, y: 1, z: 1}
    positionOffset: {x: 0, y: 0, z: 0}
  - onlyValidIfPreviousObjectPlaced: 1
    placements:
    - {x: -1, y: 0}
    furnitureClass: {fileID: 11400000, guid: 785e5a4b121af084fa11624bf61e4e59, type: 2}
    facing: 3
    importantToCluster: 0
    chanceOfPlacementAttempt: 1
    placementScoreBoost: 0
    useFovBlock: 0
    blockDirection: {x: 0, y: 0}
    maxFOVBlockDistance: 0
    localScale: {x: 1, y: 1, z: 1}
    positionOffset: {x: 0, y: 0, z: 0}
  - onlyValidIfPreviousObjectPlaced: 0
    placements:
    - {x: 2, y: 0}
    furnitureClass: {fileID: 11400000, guid: 81f33de8f4c96b64f85eea1caeaf6ec9, type: 2}
    facing: 0
    importantToCluster: 0
    chanceOfPlacementAttempt: 1
    placementScoreBoost: 0
    useFovBlock: 0
    blockDirection: {x: 0, y: 0}
    maxFOVBlockDistance: 0
    localScale: {x: 1, y: 1, z: 1}
    positionOffset: {x: 0, y: 0, z: 0}
  - onlyValidIfPreviousObjectPlaced: 1
    placements:
    - {x: 2, y: 0}
    furnitureClass: {fileID: 11400000, guid: 9d77a2237ba4dbf43b47e3dff63bd4ed, type: 2}
    facing: 2
    importantToCluster: 0
    chanceOfPlacementAttempt: 1
    placementScoreBoost: 0
    useFovBlock: 0
    blockDirection: {x: 0, y: 0}
    maxFOVBlockDistance: 0
    localScale: {x: 1, y: 1, z: 1}
    positionOffset: {x: 0, y: 0, z: 0}
  - onlyValidIfPreviousObjectPlaced: 1
    placements:
    - {x: 2, y: 0}
    furnitureClass: {fileID: 11400000, guid: 785e5a4b121af084fa11624bf61e4e59, type: 2}
    facing: 3
    importantToCluster: 0
    chanceOfPlacementAttempt: 1
    placementScoreBoost: 0
    useFovBlock: 0
    blockDirection: {x: 0, y: 0}
    maxFOVBlockDistance: 0
    localScale: {x: 1, y: 1, z: 1}
    positionOffset: {x: 0, y: 0, z: 0}
  placementChance: 1
  roomPriority: 8
  modifyPriorityTraits: []
  modifyPlacementChanceTraits: []
  essentialFurniture: 0
  updatePreCalculated: 0
  calculatedMinRoomSize: 1
  minimumZeroNodeWallCount: 1
  maximumZeroNodeWallCount: 3
  zeroNodeClasses:
  - {fileID: 11400000, guid: 81f33de8f4c96b64f85eea1caeaf6ec9, type: 2}
  - {fileID: 11400000, guid: 9d77a2237ba4dbf43b47e3dff63bd4ed, type: 2}
  - {fileID: 11400000, guid: 785e5a4b121af084fa11624bf61e4e59, type: 2}
  minimumRoomSize: 4
  useMaximumRoomSize: 0
  maximumRoomSize: 99
  useCustomZeroNodeMinWallCount: 0
  customZeroNodeMinWallCount: 0
  useCustomZeroNodeMaxWallCount: 0
  customZeroNodeMaxWallCount: 0
  zeroNodeWallRules: []
  allowedInOpenPlan: 0
  allowInResidential: 0
  allowInCompanies: 1
  allowOnStreets: 0
  coastalOnly: 0
  limitToDistricts: 0
  allowedInDistricts: []
  banFromDistricts: 0
  notAllowedInDistricts: []
  skipIfNoAddressInhabitants: 0
  allowedRoomFilters:
  - {fileID: 11400000, guid: e8fe249cc754fec45a111a55edce2ee1, type: 2}
  - {fileID: 11400000, guid: 2b658dceab15cb5409a5f04ea7340fa3, type: 2}
  limitPerRoom: 1
  maximumPerRoom: 12
  limitPerAddress: 0
  maximumPerAddress: 1
  limitToFloor: 0
  allowedOnFloor: 0
  wealthLimit: 0
  minimumWealth: 0
  maximumWealth: 1
  useRoomGrub: 0
  minimumGrub: 0
  maximumGrub: 1
  useBuildingResidences: 0
  minimumResidences: 0
  maximumResidences: 40
  addClustersOnSuccess: []
  removeClustersOnSuccess: []
  removeClustersOnFail: []
  securityDoor: 0
  isBreakerBox: 0
  enableDebug: 0
