%YAML 1.1
%TAG !u! tag:unity3d.com,2011:
--- !u!114 &11400000
MonoBehaviour:
  m_ObjectHideFlags: 0
  m_CorrespondingSourceObject: {fileID: 0}
  m_PrefabInstance: {fileID: 0}
  m_PrefabAsset: {fileID: 0}
  m_GameObject: {fileID: 0}
  m_Enabled: 1
  m_EditorHideFlags: 0
  m_Script: {fileID: 11500000, guid: f164eb24f42f9e74c8ccdb85e8d6f300, type: 3}
  m_Name: IncapacitatorDetonation
  m_EditorClassIdentifier: 
  guid: a58d8e6b-0aa4-48c3-a6c4-9fd2015ff63a
  disableOcclusion: 0
  debug: 0
  isDummyEvent: 0
  isLicensed: 0
  disabled: 0
  canPenetrateWalls: 1
  canPenetrateFloors: 1
  canPenetrateCeilings: 1
  overrideMaximumLoops: 1
  overriddenMaxLoops: 120
  overrideOcclusionModifier: 0
  occlusionUnitVolumeModifier: -0.1
  overrideOpenDoorOcclusion: 0
  openDoorOcclusionUnits: 1
  overrideClosedDoorOcclusion: 0
  closedDoorOcclusionUnits: 5
  overrideWindowOcclusion: 0
  windowOcclusionUnits: 4
  overrideWallOcclusion: 0
  wallOcclusionUnits: 7
  overrideCeilingOcclusion: 0
  ceilingOcclusionUnits: 8
  overrideFloorOcclusion: 0
  floorOcclusionUnits: 8
  forceVolumeLevelFadeTime: 0
  volumeLevelFadeTime: 0.5
  canBeSuspicious: 1
  alwaysSuspicious: 1
  suspiciousIfTresspassing: 0
  onlySuspiciousIfEmptyAddress: 0
  suspiciousIfCitizenCount: 0
  urgentResponse: 1
  audioFocus: 1
  forceOutlineForLoopIfPlayerTrespassing: 0
  citizenMemoryTag: 1
  spookValue: 1
  noSpookIfEnforcer: 1
  awakenChance: 1
  actualSoundRange: 0
  hearingRange: 20
  stealthModeModifier: 0
  runModifier: 0
  canDanceTo: 0
  masterVolumeScale: 1
  modifyBasedOnSurface: 0
  concreteHearingRangeModifier: 0
  woodHearingRangeModifier: 0
  carpetHearingRangeModifier: 0
  tileHearingRangeModifier: 0
  plasterHearingRangeModifier: 0
  fabricHearingRangeModifier: 0
  metalHearingRangeModifier: 0
  glassHearingRangeModifier: 0
