"Game Reference Key","Notes","Displayed Text","Alternate Text","Frequency","Requires Suffix","Misc."
"[The key used by the game to find strings]","[Not loaded into the game, for explanation only]","[The displayed string in-game]","[Alternate displayed string, eg. Nickname]","[For lists]","[Does this require a suffix for naming?]","[Miscellaneous]"
"— ","— ","— ","— ","— ","— ","— "
"profile","","Profil","",,"","10:31 01/12/2022"
"from","","De","",,"","10:31 01/12/2022"
"to","","À","",,"","10:31 01/12/2022"
"salesrecords","","Registres des ventes","",,"","10:31 01/12/2022"
"sales records","","Registres des ventes","",,"","9:32 12/04/2023"
"surveillance","","Surveillance","",,"","10:31 01/12/2022"
"sabotage","","Saboter","",,"","10:31 01/12/2022"
"exit","","Quitter","",,"","9:32 12/04/2023"
"off","","Désactivé","",,"","10:31 01/12/2022"
"on","","Activé","",,"","10:31 01/12/2022"
"bootstart","","Initialisation du démarrage","",,"","10:31 01/12/2022"
"vmail","","V-mail","",,"","10:31 01/12/2022"
"re:","","RE:","",,"","10:31 01/12/2022"
"you","","Vous","",,"","10:31 01/12/2022"
"re","","RE","",,"","10:31 01/12/2022"
"print","","Imprimer","",,"","10:31 01/12/2022"
"cam","","Caméra","",,"","10:31 01/12/2022"
"sentry","","Sentinelle","",,"","10:31 01/12/2022"
"noreplyvmail","","<Inconnu>","",,"","10:31 01/12/2022"
"pestcontrol","","Extermination de nuisibles","",,"","10:31 01/12/2022"
"flairquotes","","Citations distinguées","",,"","10:31 01/12/2022"
"randomspamvmail","","<Sans réponse>","",,"","10:31 01/12/2022"
"corpkaizen","","Kaizen6","",,"","10:31 01/12/2022"
"login","","Déconnexion","",,"","10:31 01/12/2022"
"bookgrubs","","Festin de bouquins","",,"","10:31 01/12/2022"
"corpelgen","","El-Gen","",,"","10:31 01/12/2022"
"corpstarch","","Starch Kola","",,"","10:31 01/12/2022"
"corpdove","","V-Love","",,"","10:31 01/12/2022"
"corpindigo","","Kensington Indigo","",,"","10:31 01/12/2022"
"corpcandor","","Candor","",,"","10:31 01/12/2022"
"database","","Base de données","",,"","10:31 01/12/2022"
"database search","","Recherche dans la base de données","",,"","10:31 01/12/2022"
"employeedatabase","","Base de données du personnel","",,"","10:31 01/12/2022"
"employee database","","Base de données du personnel","",,"","9:32 12/04/2023"
"govdatabase","","Base de données du gouvernement","",,"","10:31 01/12/2022"
"resdientsdatabase","","Base de données des résidents","",,"","10:31 01/12/2022"
"security","","Sécurité","",,"","10:31 01/12/2022"
"security systems","","Systèmes de sécurité","",,"","10:31 01/12/2022"
"illegalactivities","","Activités illégales","",,"","10:31 01/12/2022"
"nobody","","personne","",,"","10:31 01/12/2022"
"everybody","","tout le monde","",,"","10:31 01/12/2022"
"nonresidents","","Non-résidents","",,"","10:31 01/12/2022"
"notplayer","","Non-joueur","",,"","10:31 01/12/2022"
"yesterday","","Hier","",,"","10:31 01/12/2022"
"today","","Aujourd'hui","",,"","10:31 01/12/2022"
"displaying page","","Page d'affichage","",,"","10:31 01/12/2022"
"vacuum mail","","Vacuum Mail","",,"","9:32 12/04/2023"
"corpkeylog v7","","CorpKeyLog V7","",,"","10:31 01/12/2022"
"save to tape","","Enregistrer sur la cassette","",,"","9:32 12/04/2023"
"select user","","Sélectionner un utilisateur","",,"","9:32 12/04/2023"
"enter passcode","","Entrer le code","",,"","9:32 12/04/2023"
"system profile","","Profil du système","",,"","9:32 12/04/2023"
"unknown","","Inconnu","",,"","9:32 12/04/2023"
