"Game Reference Key","Notes","Displayed Text","Alternate Text","Frequency","Requires Suffix","Misc."
"[The key used by the game to find strings]","[Not loaded into the game, for explanation only]","[The displayed string in-game]","[Alternate displayed string, eg. Nickname]","[For lists]","[Does this require a suffix for naming?]","[Miscellaneous]"
"— ","— ","— ","— ","— ","— ","— "
"basementgenericden","","Inconnu","",,"","9:32 12/04/2023"
"emptyden","","Inconnu","",,"","9:32 12/04/2023"
"den","","Inconnu","",,"","9:32 12/04/2023"
"lobby","","Vestibule","",,"","9:32 12/04/2023"
"corporatelobby","","Vestibule","",,"","9:32 12/04/2023"
"retailinformal","","Magasin","",,"","9:32 12/04/2023"
"privateoffice","","Bureau privé","",,"","9:32 12/04/2023"
"kitchen","","Cuisine","",,"","9:32 12/04/2023"
"apartmentkitchen","","Cuisine","",,"","9:32 12/04/2023"
"eaterykitchen","","Cuisine","",,"","9:32 12/04/2023"
"bathroom","","Salle de bain","",,"","9:32 12/04/2023"
"apartmentbathroom","","Salle de bain","",,"","9:32 12/04/2023"
"bathroomunisex","","Salle de bain","",,"","9:32 12/04/2023"
"bathroommale","","Salle de bain","",,"","9:32 12/04/2023"
"bathroomfemale","","Salle de bain","",,"","9:32 12/04/2023"
"buildingbathroommale","","Salle de bain","",,"","9:32 12/04/2023"
"buildingbathroomfemale","","Salle de bain","",,"","9:32 12/04/2023"
"bathroomemployees","","Salle de bain","",,"","9:32 12/04/2023"
"bathroomunisexeatery","","Salle de bain","",,"","9:32 12/04/2023"
"basementgenericbathroom","","Salle de bain","",,"","9:32 12/04/2023"
"officespace","","Bureau","",,"","9:32 12/04/2023"
"office","","Bureau","",,"","9:32 12/04/2023"
"mediumoffice","","Bureau","",,"","9:32 12/04/2023"
"highriseoffice","","Bureau","",,"","9:32 12/04/2023"
"reception","","Réception","",,"","9:32 12/04/2023"
"apartmentreceptionroom","","Réception","",,"","9:32 12/04/2023"
"livingroom","","Salon","",,"","9:32 12/04/2023"
"apartmentlivingroom","","Salon","",,"","9:32 12/04/2023"
"hallway","","Entrée","",,"","9:32 12/04/2023"
"bedroom","","Chambre","",,"","9:32 12/04/2023"
"apartmentmasterbedroom","","Chambre","",,"","9:32 12/04/2023"
"apartmentsecondbedroom","","Chambre","",,"","9:32 12/04/2023"
"apartmentthirdbedroom","","Chambre","",,"","9:32 12/04/2023"
"cupboard","","Placard","",,"","9:32 12/04/2023"
"study","","Bureau","",,"","9:32 12/04/2023"
"apartmentstudy","","Bureau","",,"","9:32 12/04/2023"
"utility","","Salle de service","",,"","9:32 12/04/2023"
"apartmentutilityroom","","Salle de service","",,"","9:32 12/04/2023"
"showerroom","","Salle d'eau","",,"","9:32 12/04/2023"
"apartmentshowerroom","","Salle d'eau","",,"","9:32 12/04/2023"
"diningroom","","Salle à manger","",,"","9:32 12/04/2023"
"apartmentdiningroom","","Salle à manger","",,"","9:32 12/04/2023"
"asiandiningroom","","Salle à manger","",,"","9:32 12/04/2023"
"backstreet","","Ruelle","",,"","9:32 12/04/2023"
"storeroom","","Débarras","",,"","9:32 12/04/2023"
"businessstoreroom","","Débarras","",,"","9:32 12/04/2023"
"industrialstoreroom","","Débarras","",,"","9:32 12/04/2023"
"yard","","Cour","",,"","9:32 12/04/2023"
"diner","","Diner","",,"","9:32 12/04/2023"
"americandiner","","Diner","",,"","9:32 12/04/2023"
"bar","","Bar","",,"","9:32 12/04/2023"
"eaterydiningroom","","Bar","",,"","9:32 12/04/2023"
"bardiningroom","","Bar","",,"","9:32 12/04/2023"
"industrial","","industriel","",,"","9:32 12/04/2023"
"apartmentcloset","","Placard","",,"","9:32 12/04/2023"
"street","","Rue","",,"","9:32 12/04/2023"
"housefrontage","","Rue","",,"","9:32 12/04/2023"
"informal","","informel","",,"","9:32 12/04/2023"
"informal_F","","informelle","",,"","9:32 12/04/2023"
"atrium","","Atrium","",,"","9:32 12/04/2023"
"rooftop","","Toit","",,"","9:32 12/04/2023"
"ventedrooftop","","Toit","",,"","9:32 12/04/2023"
"controlroom","","Salle de contrôle","",,"","9:32 12/04/2023"
"park","","Parc","",,"","9:32 12/04/2023"
"path","","Chemin","",,"","9:32 12/04/2023"
"businessbackroom","","Arrière-salle","",,"","9:32 12/04/2023"
"breakroom","","Salle de pause","",,"","9:32 12/04/2023"
"alley","","Allée","",,"","9:32 12/04/2023"
"workplacecanteen","","Cantine","",,"","9:32 12/04/2023"
"industrialfloor","","Étage industriel","",,"","9:32 12/04/2023"
"launderette","","Laverie","",,"","9:32 12/04/2023"
"corporatecorridoor","","Couloir","",,"","9:32 12/04/2023"
"utilitycupboardcommon","","Placard à balais","",,"","9:32 12/04/2023"
"utilitycupboardrare","","Placard à balais","",,"","9:32 12/04/2023"
"industrialoffice","","Bureau industriel","",,"","9:32 12/04/2023"
"powerroom","","Salle d'alimentation en énergie","",,"","9:32 12/04/2023"
"rooftopvent","","Conduit","",,"","9:32 12/04/2023"
"streetfrontage","","Trottoir","",,"","9:32 12/04/2023"
"syncclinic","","Clinique Sync","",,"","9:32 12/04/2023"
"pawnshop","","Prêteur sur gages","",,"","9:32 12/04/2023"
"supermarket","","Supermarché","",,"","9:32 12/04/2023"
"enforceroffice","","Bureau d'exécuteur","",,"","9:32 12/04/2023"
"hospitalward","","Service hospitalier","",,"","9:32 12/04/2023"
"apartment","","Appartement","",,"","9:32 12/04/2023"
"floor_-2","","Sous-sol -2","",,"","9:32 12/04/2023"
"floor_-1","","Sous-sol -1","",,"","9:32 12/04/2023"
"floor_0","","Rez-de-chaussée","",,"","9:32 12/04/2023"
"floor_1","","1er étage","",,"","9:32 12/04/2023"
"floor_2","","2e étage","",,"","9:32 12/04/2023"
"floor_3","","3e étage","",,"","9:32 12/04/2023"
"floor_4","","4e étage","",,"","9:32 12/04/2023"
"floor_5","","5e étage","",,"","9:32 12/04/2023"
"floor_6","","6e étage","",,"","9:32 12/04/2023"
"floor_7","","7e étage","",,"","9:32 12/04/2023"
"floor_8","","8e étage","",,"","9:32 12/04/2023"
"floor_9","","9e étage","",,"","9:32 12/04/2023"
"floor_10","","10e étage","",,"","9:32 12/04/2023"
"floor_11","","11e étage","",,"","9:32 12/04/2023"
"floor_12","","12e étage","",,"","9:32 12/04/2023"
"floor_13","","13e étage","",,"","9:32 12/04/2023"
"floor_14","","14e étage","",,"","9:32 12/04/2023"
"floor_15","","15e étage","",,"","9:32 12/04/2023"
"floor_16","","16e étage","",,"","9:32 12/04/2023"
"floor_17","","17e étage","",,"","9:32 12/04/2023"
"floor_18","","18e étage","",,"","9:32 12/04/2023"
"floor_19","","19e étage","",,"","9:32 12/04/2023"
"floor_20","","20e étage","",,"","9:32 12/04/2023"
"studio","","Studio","",,"","9:32 12/04/2023"
"bedrooms","","Chambres","",,"","9:32 12/04/2023"
"weaponsdealer","","Vendeur d'armes","",,"","9:32 12/04/2023"
"industrialplant","","Usine industrielle","",,"","9:32 12/04/2023"
"ballroom","","Salle de bal","",,"","9:32 12/04/2023"
"blackmarketsyncclinic","","Clinique Sync de marché noir","",,"","9:32 12/04/2023"
"gamblingden","","Tripot","",,"","9:32 12/04/2023"
"loanshark","","Usurier","",,"","9:32 12/04/2023"
"blackmarkettrader","","Vendeur au marché noir","",,"","9:32 12/04/2023"
"slummainroom","","Salon de bidonville des Bas-fonds","",,"","9:32 12/04/2023"
"slumbathroom","","Salle de bain de bidonville des Bas-fonds","",,"","9:32 12/04/2023"
"slum","","Bidonville des Bas-fonds","",,"","9:32 12/04/2023"
"basementlobby","","Couloir de sous-sol","",,"","9:32 12/04/2023"
"basement","","Sous-sol","",,"","9:32 12/04/2023"
"outside","","Extérieur","",,"","9:32 12/04/2023"
"buildingbathrooms","","Toilettes publiques","",,"","9:32 12/04/2023"
"industriallobby","","Vestibule industriel","",,"","9:32 12/04/2023"
"fastfooddiningroom","","Restaurant de fast-food","",,"","9:32 12/04/2023"
"fastfood","","Restaurant de fast-food","",,"","9:32 12/04/2023"
"chemist","","Pharmacie","",,"","9:32 12/04/2023"
"hardwarestore","","Quincaillerie","",,"","9:32 12/04/2023"
"chineseeatery","","Restaurant asiatique","",,"","9:32 12/04/2023"
"cityhalllobby","","Mairie","",,"","9:32 12/04/2023"
"cityhall","","Mairie","",,"","9:32 12/04/2023"
"onefifthave","","Tour d'appartements","",,"","9:32 12/04/2023"
"brandynetherland","","Tour d'appartements","",,"","9:32 12/04/2023"
"chemicalplant","","Usine chimique","",,"","9:32 12/04/2023"
"townhouse","","Maison de ville","",,"","9:32 12/04/2023"
"townhouseshops","","Maison de ville","",,"","9:32 12/04/2023"
"edentower","","Tour commerciale","",,"","9:32 12/04/2023"
"boundarycoastal01","","Promenade","",,"","9:32 12/04/2023"
"boundarycoastal02","","Promenade","",,"","9:32 12/04/2023"
"boundarycorner01","","Promenade","",,"","9:32 12/04/2023"
"hotel","","Hôtel","",,"","9:32 12/04/2023"
"eatery","","Restaurant","",,"","14:25 11/09/2023"
"retail","","Détail","",,"","14:25 11/09/2023"
"hotellobby","","Hall d'hôtel","",,"","14:25 11/09/2023"
"hotelroom","","Chambre d'hôtel","",,"","14:25 11/09/2023"
"rooftopbar","","Bar sur le toit","",,"","14:25 11/09/2023"
