"Game Reference Key","Notes","Displayed Text","Alternate Text","Frequency","Requires Suffix","Misc."
"[The key used by the game to find strings]","[Not loaded into the game, for explanation only]","[The displayed string in-game]","[Alternate displayed string, eg. Nickname]","[For lists]","[Does this require a suffix for naming?]","[Miscellaneous]"
"— ","— ","— ","— ","— ","— ","— "
"cold","","Froid","",,"","10:31 01/12/2022"
"cold_F","","Froide","",,"","10:31 01/12/2022"
"vandalism_description","","Vandalisme","",,"","10:31 01/12/2022"
"theft_description","","Vol","",,"","10:31 01/12/2022"
"illegalaction","","Action illégale","",,"","10:31 01/12/2022"
"trespassing","","Intrusion","",,"","10:31 01/12/2022"
"trespassing_description","","Intrusion","",,"","10:31 01/12/2022"
"tampering_description","","Dégradation","",,"","10:31 01/12/2022"
"breakingandentering_description","","Entrer par effraction","",,"","10:31 01/12/2022"
"assault_description","","Agression","",,"","10:31 01/12/2022"
"trespassing_description_trespassmajor","","Si on vous trouve, vous risquez une arrestation, une amende ou pire !","",,"","10:31 01/12/2022"
"illegalaction_description","","Si on vous trouve, vous risquez une arrestation, une amende ou pire !","",,"","10:31 01/12/2022"
"trespassing_description_trespassminor","","On vous demandera de partir. Si vous refusez, il y aura des conséquences...","",,"","10:31 01/12/2022"
"capturerisk","","Amendes potentielles","",,"","9:32 12/04/2023"
"capturerisk_description","","Si vous vous faites prendre, vous devrez payer. Semez vos témoins. Si c'est souligné, vous vous êtes fait repérer et vous devez fuir l'immeuble.","",,"","10:31 01/12/2022"
"stinky","","Puanteur","",,"","10:31 01/12/2022"
"stinky_description","","Les gens risquent de vous sentir avant de vous voir ! Prenez une douche.","",,"","10:31 01/12/2022"
"cold_description","","Attendez-vous à des frissons et un lent déclin de votre santé. Faites quelque chose ou allez dans un endroit plus chaud.","",,"","10:31 01/12/2022"
"tired","","Fatigue","",,"","10:31 01/12/2022"
"tired_description","","Pénalité de la vitesse de déplacement. Si vous vous asseyez ou vous allongez, vous vous endormirez. Prenez de la caféine ou reposez-vous.","",,"","10:31 01/12/2022"
"wet","","Trempé.e","",,"","10:31 01/12/2022"
"wet_description","","Ne courez pas sur des surfaces glissantes ! Ceci disparaîtra tout seul, vous pouvez aussi trouver une serviette.","",,"","10:31 01/12/2022"
"headache","","Mal de tête","",,"","10:31 01/12/2022"
"headache_description","","Pénalité de vitesse de déplacement. Courir empire cet effet ! Ceci disparaitra tout seul, vous pouvez aussi trouver des antidouleurs.","",,"","10:31 01/12/2022"
"hungry","","Faim","",,"","10:31 01/12/2022"
"hungry_description","","La récupération de santé est inactive. Mangez quelque chose.","",,"","10:31 01/12/2022"
"thirsty","","Soif","",,"","10:31 01/12/2022"
"thirsty_description","","La récupération de santé est inactive. Buvez quelque chose.","",,"","10:31 01/12/2022"
"drunk","","Ivre","",,"","10:31 01/12/2022"
"drunk_description","","Vous êtes ivre ! Pénalité de vitesse de déplacement et de contrôle. Ceci disparaitra tout seul.","",,"","10:31 01/12/2022"
"sick","","Nausée","",,"","10:31 01/12/2022"
"sick_description","","Pénalité de vitesse de déplacement et de contrôle. Ceci disparaitra tout seul, vous pouvez aussi trouver un endroit où vomir.","",,"","10:31 01/12/2022"
"pursued","","Poursuite","",,"","10:31 01/12/2022"
"pursued_description","","Quelqu'un vous poursuit !","",,"","10:31 01/12/2022"
"hydrated","","Hydratation","",,"","10:31 01/12/2022"
"hydrated_description","","Booste la santé et la régénération de santé au max.","",,"","10:31 01/12/2022"
"energized_description","","Booste la santé et la régénération de santé au max.","",,"","10:31 01/12/2022"
"energized","","Énergique","",,"","10:31 01/12/2022"
"focused","","Concentration","",,"","10:31 01/12/2022"
"focused_description","","Booste la vitesse de déplacement.","",,"","10:31 01/12/2022"
"brokenleg","","Jambe cassée","",,"","10:31 01/12/2022"
"brokenleg_description","","Pénalité de vitesse de déplacement. Trouvez une attelle pour vous soigner.","",,"","10:31 01/12/2022"
"blackeye","","Coquard","",,"","10:31 01/12/2022"
"blackeye_description","","Pénalité de vision. Ceci disparaitra tout seul, mais des antidouleurs accélèreront le rétablissement.","",,"","10:31 01/12/2022"
"bruised","","Hématomes","",,"","10:31 01/12/2022"
"bruised_description","","Les dégâts subis augmentent. Ceci disparaitra tout seul, mais des antidouleurs accélèreront le rétablissement.","",,"","10:31 01/12/2022"
"numb","","Engourdissement","",,"","10:31 01/12/2022"
"numb_description","","Les dégâts subis et causés baissent. Ceci disparaitra tout seul.","",,"","10:31 01/12/2022"
"bleeding","","Saignement","",,"","10:31 01/12/2022"
"bleeding_description","","Lent déclin de la santé. Ceci disparaitra tout seul, mais vous pourriez perdre connaissance d'abord ! Trouvez un bandage.","",,"","15:12 06/02/2023"
"detained","","Détention","",,"","10:31 01/12/2022"
"detained_description","","Vous vous êtes fait arrêter, la sécurité vous ciblera si vous tentez de fuir. Payez les frais ou réussissez votre évasion.","",,"","10:31 01/12/2022"
"wellrested","","En forme","",,"","10:31 01/12/2022"
"wellrested_description","","Booste la vitesse de déplacement, santé et régénération de santé au max.","",,"","10:31 01/12/2022"
"wanted","","Menace de sécurité !","",,"","10:31 01/12/2022"
"wanted_description","","Les systèmes d'alarme vous cibleront, assurez-vous de les éviter.","",,"","10:31 01/12/2022"
"hiding","","Se cache","",,"","10:31 01/12/2022"
"hiding_description","","Si personne ne vous voit vous cacher, vous serez en sécurité.","",,"","10:31 01/12/2022"
"starchaddiction","","Addiction au Starch Kola","",,"","10:31 01/12/2022"
"starchaddiction_description","","Consommez un produit Starch Kola pour satisfaire ce besoin.","",,"","10:31 01/12/2022"
"syncdiskinstall","","Installation d'un disque Sync...","",,"","10:31 01/12/2022"
"syncdiskinstall_description","","Vous pourrez avoir une légère sensation de désorientation.","",,"","10:31 01/12/2022"
"poisoned","","Empoisonnement","",,"","10:31 01/12/2022"
"poisoned_description","","Votre santé déclinera rapidement ! Trouvez des comprimés de charbon actif pour vous purger.","",,"","10:31 01/12/2022"
"toxicgas","","Gaz toxique","",,"","10:31 01/12/2022"
"toxicgas_description","","Cette pièce contient un gaz toxique, partez immédiatement !","",,"","10:31 01/12/2022"
"alarmactive","","Alarme active","",,"","10:31 01/12/2022"
"blinded","","Aveuglement","",,"","10:31 01/12/2022"
"blinded_description","","Aveuglement","",,"","10:31 01/12/2022"
"guestpass","","Badge de visite","",,"","9:32 12/04/2023"
"guestpass_description","","Vous avez l'autorisation d'explorer","",,"","9:32 12/04/2023"
