%YAML 1.1
%TAG !u! tag:unity3d.com,2011:
--- !u!114 &11400000
MonoBehaviour:
  m_ObjectHideFlags: 0
  m_CorrespondingSourceObject: {fileID: 0}
  m_PrefabInstance: {fileID: 0}
  m_PrefabAsset: {fileID: 0}
  m_GameObject: {fileID: 0}
  m_Enabled: 1
  m_EditorHideFlags: 0
  m_Script: {fileID: 11500000, guid: 7559a64a9e831bf4cacd0fc9e5cb79a5, type: 3}
  m_Name: BookcaseLargeDouble
  m_EditorClassIdentifier: 
  presetName: BookcaseLargeDouble
  disable: 0
  clusterElements:
  - onlyValidIfPreviousObjectPlaced: 0
    placements:
    - {x: 0, y: 0}
    furnitureClass: {fileID: 11400000, guid: 85cc3b56b70ffce43bd257b56552edf0, type: 2}
    facing: 0
    importantToCluster: 1
    chanceOfPlacementAttempt: 1
    placementScoreBoost: 1
    useFovBlock: 0
    blockDirection: {x: 0, y: 0}
    maxFOVBlockDistance: 0
    localScale: {x: 1, y: 1, z: 1}
    positionOffset: {x: 0, y: 0, z: 0}
  - onlyValidIfPreviousObjectPlaced: 0
    placements:
    - {x: 1, y: 0}
    furnitureClass: {fileID: 11400000, guid: 85cc3b56b70ffce43bd257b56552edf0, type: 2}
    facing: 0
    importantToCluster: 0
    chanceOfPlacementAttempt: 1
    placementScoreBoost: 1
    useFovBlock: 0
    blockDirection: {x: 0, y: 0}
    maxFOVBlockDistance: 0
    localScale: {x: 1, y: 1, z: 1}
    positionOffset: {x: 0, y: 0, z: 0}
  placementChance: 1
  roomPriority: 6.3
  modifyPriorityTraits:
  - rule: 0
    traitList:
    - {fileID: 11400000, guid: 083cc78edcdb88f4496f507ec9741bd8, type: 2}
    - {fileID: 11400000, guid: fc9f82b822d38354ab006975b2264ff2, type: 2}
    - {fileID: 11400000, guid: c4a1ea6c4f67c7048a533afba7bce0ea, type: 2}
    - {fileID: 11400000, guid: 72d4b3330c73b654fbb3ec3793d388ba, type: 2}
    - {fileID: 11400000, guid: d03cdf0e1164cde49862e355cd74398d, type: 2}
    - {fileID: 11400000, guid: 86f882c0b0c15614085195bba8366a68, type: 2}
    mustPassForApplication: 0
    baseChance: 0.3
    reasonChance: 0
  modifyPlacementChanceTraits:
  - rule: 2
    traitList:
    - {fileID: 11400000, guid: bc693e8731ed92b4aa5338b665878879, type: 2}
    mustPassForApplication: 0
    baseChance: 0.4
    reasonChance: 0
  - rule: 0
    traitList:
    - {fileID: 11400000, guid: 083cc78edcdb88f4496f507ec9741bd8, type: 2}
    - {fileID: 11400000, guid: fc9f82b822d38354ab006975b2264ff2, type: 2}
    - {fileID: 11400000, guid: c4a1ea6c4f67c7048a533afba7bce0ea, type: 2}
    - {fileID: 11400000, guid: 72d4b3330c73b654fbb3ec3793d388ba, type: 2}
    - {fileID: 11400000, guid: d03cdf0e1164cde49862e355cd74398d, type: 2}
    - {fileID: 11400000, guid: 86f882c0b0c15614085195bba8366a68, type: 2}
    mustPassForApplication: 0
    baseChance: 0.6
    reasonChance: 0
  essentialFurniture: 0
  updatePreCalculated: 0
  calculatedMinRoomSize: 1
  minimumZeroNodeWallCount: 1
  maximumZeroNodeWallCount: 3
  zeroNodeClasses:
  - {fileID: 11400000, guid: 85cc3b56b70ffce43bd257b56552edf0, type: 2}
  minimumRoomSize: 16
  useMaximumRoomSize: 1
  maximumRoomSize: 99
  useCustomZeroNodeMinWallCount: 0
  customZeroNodeMinWallCount: 0
  useCustomZeroNodeMaxWallCount: 0
  customZeroNodeMaxWallCount: 0
  zeroNodeWallRules: []
  allowedInOpenPlan: 0
  allowInResidential: 1
  allowInCompanies: 1
  allowOnStreets: 0
  coastalOnly: 0
  limitToDistricts: 0
  allowedInDistricts: []
  banFromDistricts: 0
  notAllowedInDistricts: []
  skipIfNoAddressInhabitants: 1
  onlySkipNoInhabitantsIfResidenceOrCompany: 1
  dontSkipNoInhabitantsIfIn: []
  allowedRoomFilters:
  - {fileID: 11400000, guid: 480874ff50736bf4b8f7af0e7a1ce5f1, type: 2}
  - {fileID: 11400000, guid: 785fce3774cdb2f419c1f33450437410, type: 2}
  - {fileID: 11400000, guid: 80d01ce3b3cef21478293a5e64391ba6, type: 2}
  - {fileID: 11400000, guid: 1ae06a672d6e9d243841cbf18341df81, type: 2}
  limitPerRoom: 1
  maximumPerRoom: 2
  limitPerAddress: 0
  maximumPerAddress: 1
  limitToFloor: 0
  allowedOnFloor: 0
  limitToFloorRange: 1
  allowedOnFloorRange: {x: -1, y: 99}
  wealthLimit: 0
  minimumWealth: 0
  maximumWealth: 1
  useRoomGrub: 0
  minimumGrub: 0
  maximumGrub: 1
  useBuildingResidences: 0
  minimumResidences: 0
  maximumResidences: 40
  addClustersOnSuccess: []
  removeClustersOnSuccess: []
  removeClustersOnFail: []
  securityDoor: 0
  isBreakerBox: 0
  enableDebug: 0
