%YAML 1.1
%TAG !u! tag:unity3d.com,2011:
--- !u!114 &11400000
MonoBehaviour:
  m_ObjectHideFlags: 0
  m_CorrespondingSourceObject: {fileID: 0}
  m_PrefabInstance: {fileID: 0}
  m_PrefabAsset: {fileID: 0}
  m_GameObject: {fileID: 0}
  m_Enabled: 1
  m_EditorHideFlags: 0
  m_Script: {fileID: 11500000, guid: 9322e5f717d569e48b5f7712a4f835fa, type: 3}
  m_Name: AtriumHangingClock
  m_EditorClassIdentifier: 
  presetName: AtriumHangingClock
  coolColours:
  - colourOne: {r: 1, g: 1, b: 1, a: 1}
    colourTwo: {r: 0.85577554, g: 0.8443396, b: 1, a: 1}
  warmColours:
  - colourOne: {r: 1, g: 1, b: 1, a: 1}
    colourTwo: {r: 0.8443396, g: 0.9814195, b: 1, a: 1}
  defaultIntensity: 4500
  defaultRange: 8
  intensityRoomSizeMultiplier: 1
  intensityRange: {x: 4500, y: 4500}
  useInstancedEmissive: 0
  useOnMaterial: {fileID: 0}
  emissionMultiplier: 1
  fadeOnOff: 1
  fadeSpeed: 10
  onByDefault: 1
  fadeDistance: 20
  cullMode: 0
  enableExteriorLight: 0
  isAtriumLight: 1
  cablePrefab: {fileID: 7486234556706207775, guid: 7f46a9af304bf8d4b90982ffa22b2f09,
    type: 3}
  bulbPrefab: {fileID: 2614918841443700519, guid: 2cf537c271e4f5d49b31be21349909fc,
    type: 3}
  endBulbPrefab: {fileID: 7486234556706207775, guid: 6dc4825e5c015cb4ab19f95be2015126,
    type: 3}
  heightInterval: 5
  enableVolumetrics: 1
  atmosphereMultiplier: 1
  enableShadows: 1
  shadowMode: 0
  resolution: 1
  shadowFadeDistance: 16
  chanceOfFlicker: 0
  flickerMultiplierRange: {x: 0.1, y: 0.95}
  flickerPulseRange: {x: 20, y: 22}
  flickerIntervalRange: {x: 0.25, y: 2}
  flickerNormalityIntervalRange: {x: 0.1, y: 10}
