%YAML 1.1
%TAG !u! tag:unity3d.com,2011:
--- !u!114 &11400000
MonoBehaviour:
  m_ObjectHideFlags: 0
  m_CorrespondingSourceObject: {fileID: 0}
  m_PrefabInstance: {fileID: 0}
  m_PrefabAsset: {fileID: 0}
  m_GameObject: {fileID: 0}
  m_Enabled: 1
  m_EditorHideFlags: 0
  m_Script: {fileID: 11500000, guid: 9322e5f717d569e48b5f7712a4f835fa, type: 3}
  m_Name: BedsideLamp
  m_EditorClassIdentifier: 
  presetName: BedsideLamp
  coolColours:
  - colourOne: {r: 1, g: 1, b: 1, a: 1}
    colourTwo: {r: 0.8, g: 0.8479611, b: 1, a: 1}
  warmColours:
  - colourOne: {r: 1, g: 1, b: 1, a: 1}
    colourTwo: {r: 1, g: 0.8849911, b: 0.5801887, a: 1}
  - colourOne: {r: 1, g: 1, b: 1, a: 1}
    colourTwo: {r: 1, g: 0.752399, b: 0.5801887, a: 1}
  defaultIntensity: 150
  defaultRange: 11
  intensityRoomSizeMultiplier: 1
  intensityRange: {x: 150, y: 170}
  fadeOnOff: 1
  fadeSpeed: 10
  onByDefault: 0
  fadeDistance: 16
  cullMode: 0
  useOnMaterial: {fileID: 2100000, guid: e22795eceda729a4293507392ece5ed6, type: 2}
  useInstancedEmissive: 0
  emissionMultiplier: 1
  enableExteriorLight: 0
  isAtriumLight: 0
  cablePrefab: {fileID: 0}
  bulbPrefab: {fileID: 0}
  endBulbPrefab: {fileID: 0}
  heightInterval: 8
  enableVolumetrics: 0
  atmosphereMultiplier: 1
  enableShadows: 1
  shadowMode: 0
  resolution: 0
  shadowFadeDistance: 10
  chanceOfFlicker: 0
  flickerMultiplierRange: {x: 0, y: 0.2}
  flickerPulseRange: {x: 1, y: 1.1}
  flickerIntervalRange: {x: 0.25, y: 2}
  flickerNormalityIntervalRange: {x: 0.1, y: 10}
