%YAML 1.1
%TAG !u! tag:unity3d.com,2011:
--- !u!114 &11400000
MonoBehaviour:
  m_ObjectHideFlags: 0
  m_CorrespondingSourceObject: {fileID: 0}
  m_PrefabInstance: {fileID: 0}
  m_PrefabAsset: {fileID: 0}
  m_GameObject: {fileID: 0}
  m_Enabled: 1
  m_EditorHideFlags: 0
  m_Script: {fileID: 11500000, guid: 9322e5f717d569e48b5f7712a4f835fa, type: 3}
  m_Name: Computer
  m_EditorClassIdentifier: 
  presetName: Computer
  coolColours:
  - colourOne: {r: 0.33333334, g: 0.8, b: 1, a: 1}
    colourTwo: {r: 0.33333334, g: 0.8, b: 1, a: 1}
  warmColours:
  - colourOne: {r: 0.33333334, g: 0.8, b: 1, a: 1}
    colourTwo: {r: 0.33333334, g: 0.8, b: 1, a: 1}
  defaultIntensity: 20
  defaultRange: 2
  intensityRoomSizeMultiplier: 1
  intensityRange: {x: 20, y: 20}
  useInstancedEmissive: 0
  useOnMaterial: {fileID: 0}
  emissionMultiplier: 1
  fadeOnOff: 1
  fadeSpeed: 10
  onByDefault: 1
  fadeDistance: 8
  cullMode: 0
  enableExteriorLight: 0
  isAtriumLight: 0
  cablePrefab: {fileID: 0}
  bulbPrefab: {fileID: 0}
  endBulbPrefab: {fileID: 0}
  heightInterval: 8
  enableVolumetrics: 1
  atmosphereMultiplier: 1
  enableShadows: 1
  shadowMode: 0
  resolution: 0
  shadowFadeDistance: 8
  chanceOfFlicker: 1
  flickerMultiplierRange: {x: 0.9, y: 1}
  flickerPulseRange: {x: 5, y: 10}
  flickerIntervalRange: {x: 0.25, y: 1}
  flickerNormalityIntervalRange: {x: 0.1, y: 3}
