%YAML 1.1
%TAG !u! tag:unity3d.com,2011:
--- !u!114 &11400000
MonoBehaviour:
  m_ObjectHideFlags: 0
  m_CorrespondingSourceObject: {fileID: 0}
  m_PrefabInstance: {fileID: 0}
  m_PrefabAsset: {fileID: 0}
  m_GameObject: {fileID: 0}
  m_Enabled: 1
  m_EditorHideFlags: 0
  m_Script: {fileID: 11500000, guid: 9322e5f717d569e48b5f7712a4f835fa, type: 3}
  m_Name: Fire
  m_EditorClassIdentifier: 
  presetName: Fire
  coolColours:
  - colourOne: {r: 1, g: 0.5803922, b: 0.30588236, a: 1}
    colourTwo: {r: 1, g: 0.46666667, b: 0.24313726, a: 1}
  warmColours:
  - colourOne: {r: 1, g: 0.5803922, b: 0.3137255, a: 1}
    colourTwo: {r: 1, g: 0.46598217, b: 0.24056602, a: 1}
  defaultIntensity: 600
  defaultRange: 12
  intensityRoomSizeMultiplier: 1
  intensityRange: {x: 600, y: 600}
  useInstancedEmissive: 0
  useOnMaterial: {fileID: 0}
  emissionMultiplier: 1
  fadeOnOff: 1
  fadeSpeed: 10
  onByDefault: 1
  fadeDistance: 16
  cullMode: 0
  enableExteriorLight: 0
  isAtriumLight: 0
  cablePrefab: {fileID: 0}
  bulbPrefab: {fileID: 0}
  endBulbPrefab: {fileID: 0}
  heightInterval: 8
  enableVolumetrics: 1
  atmosphereMultiplier: 1
  enableShadows: 1
  shadowMode: 0
  resolution: 0
  shadowFadeDistance: 10
  chanceOfFlicker: 1
  flickerMultiplierRange: {x: 0.8, y: 1}
  flickerPulseRange: {x: 7, y: 12}
  flickerIntervalRange: {x: 1, y: 3}
  flickerNormalityIntervalRange: {x: 0.1, y: 0.2}
