%YAML 1.1
%TAG !u! tag:unity3d.com,2011:
--- !u!114 &11400000
MonoBehaviour:
  m_ObjectHideFlags: 0
  m_CorrespondingSourceObject: {fileID: 0}
  m_PrefabInstance: {fileID: 0}
  m_PrefabAsset: {fileID: 0}
  m_GameObject: {fileID: 0}
  m_Enabled: 1
  m_EditorHideFlags: 0
  m_Script: {fileID: 11500000, guid: 9322e5f717d569e48b5f7712a4f835fa, type: 3}
  m_Name: Lightning
  m_EditorClassIdentifier: 
  presetName: Lightning
  coolColours:
  - colourOne: {r: 1, g: 1, b: 1, a: 1}
    colourTwo: {r: 0.8, g: 0.8479611, b: 1, a: 1}
  - colourOne: {r: 0.9575472, g: 1, b: 1, a: 1}
    colourTwo: {r: 0.87723434, g: 0.6839622, b: 1, a: 1}
  warmColours:
  - colourOne: {r: 0.8443396, g: 0.9814195, b: 1, a: 1}
    colourTwo: {r: 0.87723434, g: 0.6839622, b: 1, a: 1}
  - colourOne: {r: 1, g: 1, b: 1, a: 1}
    colourTwo: {r: 0.7122642, g: 0.77996665, b: 1, a: 1}
  defaultIntensity: 2000000
  defaultRange: 10000
  intensityRoomSizeMultiplier: 1
  intensityRange: {x: 2000000, y: 2000000}
  useInstancedEmissive: 0
  useOnMaterial: {fileID: 0}
  emissionMultiplier: 1
  fadeOnOff: 1
  fadeSpeed: 16
  onByDefault: 1
  fadeDistance: 1000
  cullMode: 0
  enableExteriorLight: 0
  isAtriumLight: 0
  cablePrefab: {fileID: 0}
  bulbPrefab: {fileID: 0}
  endBulbPrefab: {fileID: 0}
  heightInterval: 8
  enableVolumetrics: 0
  atmosphereMultiplier: 1
  enableShadows: 0
  shadowMode: 0
  resolution: 1
  shadowFadeDistance: 10000
  chanceOfFlicker: 1
  flickerMultiplierRange: {x: 0.1, y: 1}
  flickerPulseRange: {x: 20, y: 22}
  flickerIntervalRange: {x: 0.1, y: 0.3}
  flickerNormalityIntervalRange: {x: 0.05, y: 0.1}
