%YAML 1.1
%TAG !u! tag:unity3d.com,2011:
--- !u!114 &11400000
MonoBehaviour:
  m_ObjectHideFlags: 0
  m_CorrespondingSourceObject: {fileID: 0}
  m_PrefabInstance: {fileID: 0}
  m_PrefabAsset: {fileID: 0}
  m_GameObject: {fileID: 0}
  m_Enabled: 1
  m_EditorHideFlags: 0
  m_Script: {fileID: 11500000, guid: 9322e5f717d569e48b5f7712a4f835fa, type: 3}
  m_Name: NoodleStandLight
  m_EditorClassIdentifier: 
  presetName: NoodleStandLight
  coolColours:
  - colourOne: {r: 1, g: 0.62995917, b: 0.4669811, a: 1}
    colourTwo: {r: 1, g: 0.62995917, b: 0.4669811, a: 1}
  warmColours:
  - colourOne: {r: 1, g: 0.62995917, b: 0.4669811, a: 1}
    colourTwo: {r: 1, g: 0.5716024, b: 0.29411763, a: 1}
  defaultIntensity: 50
  defaultRange: 10
  intensityRoomSizeMultiplier: 0
  intensityRange: {x: 50, y: 50}
  useInstancedEmissive: 0
  useOnMaterial: {fileID: 0}
  emissionMultiplier: 1
  fadeOnOff: 1
  fadeSpeed: 10
  onByDefault: 1
  fadeDistance: 10
  cullMode: 0
  enableExteriorLight: 0
  isAtriumLight: 0
  cablePrefab: {fileID: 0}
  bulbPrefab: {fileID: 0}
  endBulbPrefab: {fileID: 0}
  heightInterval: 8
  enableVolumetrics: 1
  atmosphereMultiplier: 0.33
  enableShadows: 1
  shadowMode: 0
  resolution: 0
  shadowFadeDistance: 10
  chanceOfFlicker: 0
  flickerMultiplierRange: {x: 0.1, y: 0.95}
  flickerPulseRange: {x: 20, y: 22}
  flickerIntervalRange: {x: 0.25, y: 2}
  flickerNormalityIntervalRange: {x: 0.1, y: 10}
