%YAML 1.1
%TAG !u! tag:unity3d.com,2011:
--- !u!114 &11400000
MonoBehaviour:
  m_ObjectHideFlags: 0
  m_CorrespondingSourceObject: {fileID: 0}
  m_PrefabInstance: {fileID: 0}
  m_PrefabAsset: {fileID: 0}
  m_GameObject: {fileID: 0}
  m_Enabled: 1
  m_EditorHideFlags: 0
  m_Script: {fileID: 11500000, guid: 9322e5f717d569e48b5f7712a4f835fa, type: 3}
  m_Name: OfficeLight
  m_EditorClassIdentifier: 
  presetName: OfficeLight
  coolColours:
  - colourOne: {r: 1, g: 1, b: 1, a: 1}
    colourTwo: {r: 0.8, g: 0.8479611, b: 1, a: 1}
  - colourOne: {r: 0.9575472, g: 1, b: 1, a: 1}
    colourTwo: {r: 0.8, g: 0.8479611, b: 1, a: 1}
  warmColours:
  - colourOne: {r: 1, g: 0.9893694, b: 0.9198113, a: 1}
    colourTwo: {r: 1, g: 0.900296, b: 0.6367924, a: 1}
  - colourOne: {r: 1, g: 0.9893694, b: 0.9198113, a: 1}
    colourTwo: {r: 1, g: 0.6856302, b: 0.4669811, a: 1}
  - colourOne: {r: 1, g: 0.9893694, b: 0.9198113, a: 1}
    colourTwo: {r: 1, g: 0.6839622, b: 0.71323377, a: 1}
  defaultIntensity: 500
  defaultRange: 20
  intensityRoomSizeMultiplier: 0.76
  intensityRange: {x: 100, y: 1600}
  fadeOnOff: 1
  fadeSpeed: 10
  onByDefault: 1
  fadeDistance: 16
  cullMode: 0
  useOnMaterial: {fileID: 0}
  useInstancedEmissive: 0
  emissionMultiplier: 1
  enableExteriorLight: 0
  isAtriumLight: 0
  cablePrefab: {fileID: 0}
  bulbPrefab: {fileID: 0}
  endBulbPrefab: {fileID: 0}
  heightInterval: 8
  enableVolumetrics: 1
  atmosphereMultiplier: 0.85
  enableShadows: 1
  shadowMode: 0
  resolution: 1
  shadowFadeDistance: 16
  chanceOfFlicker: 0.01
  flickerMultiplierRange: {x: 0.1, y: 0.95}
  flickerPulseRange: {x: 20, y: 22}
  flickerIntervalRange: {x: 0.25, y: 2}
  flickerNormalityIntervalRange: {x: 0.1, y: 10}
