%YAML 1.1
%TAG !u! tag:unity3d.com,2011:
--- !u!114 &11400000
MonoBehaviour:
  m_ObjectHideFlags: 0
  m_CorrespondingSourceObject: {fileID: 0}
  m_PrefabInstance: {fileID: 0}
  m_PrefabAsset: {fileID: 0}
  m_GameObject: {fileID: 0}
  m_Enabled: 1
  m_EditorHideFlags: 0
  m_Script: {fileID: 11500000, guid: 9322e5f717d569e48b5f7712a4f835fa, type: 3}
  m_Name: OverwatchHangingLight
  m_EditorClassIdentifier: 
  presetName: OverwatchHangingLight
  coolColours:
  - colourOne: {r: 1, g: 0.90235144, b: 0.6556604, a: 1}
    colourTwo: {r: 1, g: 0.80527383, b: 0.29411763, a: 1}
  - colourOne: {r: 1, g: 0.844762, b: 0.7028302, a: 1}
    colourTwo: {r: 0.87723434, g: 0.6839622, b: 1, a: 1}
  - colourOne: {r: 1, g: 0.9893694, b: 0.9198113, a: 1}
    colourTwo: {r: 1, g: 0.3351617, b: 0.2688679, a: 1}
  warmColours:
  - colourOne: {r: 1, g: 0.90235144, b: 0.6556604, a: 1}
    colourTwo: {r: 1, g: 0.80527383, b: 0.29411763, a: 1}
  - colourOne: {r: 1, g: 0.844762, b: 0.7028302, a: 1}
    colourTwo: {r: 1, g: 0.5716024, b: 0.29411763, a: 1}
  - colourOne: {r: 1, g: 0.9893694, b: 0.9198113, a: 1}
    colourTwo: {r: 1, g: 0.3351617, b: 0.2688679, a: 1}
  defaultIntensity: 4200
  defaultRange: 27
  intensityRoomSizeMultiplier: 1
  intensityRange: {x: 4000, y: 4200}
  useInstancedEmissive: 0
  useOnMaterial: {fileID: 0}
  emissionMultiplier: 1
  fadeOnOff: 0
  fadeSpeed: 10
  onByDefault: 1
  fadeDistance: 32
  cullMode: 0
  enableExteriorLight: 0
  isAtriumLight: 0
  cablePrefab: {fileID: 0}
  bulbPrefab: {fileID: 0}
  endBulbPrefab: {fileID: 0}
  heightInterval: 8
  enableVolumetrics: 1
  atmosphereMultiplier: 1
  enableShadows: 1
  shadowMode: 0
  resolution: 1
  shadowFadeDistance: 18
  chanceOfFlicker: 0
  flickerMultiplierRange: {x: 0.1, y: 0.95}
  flickerPulseRange: {x: 20, y: 22}
  flickerIntervalRange: {x: 0.25, y: 2}
  flickerNormalityIntervalRange: {x: 0.1, y: 10}
