%YAML 1.1
%TAG !u! tag:unity3d.com,2011:
--- !u!114 &11400000
MonoBehaviour:
  m_ObjectHideFlags: 0
  m_CorrespondingSourceObject: {fileID: 0}
  m_PrefabInstance: {fileID: 0}
  m_PrefabAsset: {fileID: 0}
  m_GameObject: {fileID: 0}
  m_Enabled: 1
  m_EditorHideFlags: 0
  m_Script: {fileID: 11500000, guid: 7559a64a9e831bf4cacd0fc9e5cb79a5, type: 3}
  m_Name: 1_SmallBathroom_D
  m_EditorClassIdentifier: 
  disable: 0
  presetName: 1_SmallBathroom_D
  clusterElements:
  - onlyValidIfPreviousObjectPlaced: 0
    placements:
    - {x: 0, y: 0}
    furnitureClass: {fileID: 11400000, guid: d385a75f0702efd499dd65b3b23e6a59, type: 2}
    facing: 3
    importantToCluster: 1
    chanceOfPlacementAttempt: 1
    placementScoreBoost: 1
    useFovBlock: 0
    blockDirection: {x: 0, y: 1}
    maxFOVBlockDistance: 5
    localScale: {x: 1, y: 1, z: 1}
    positionOffset: {x: 0, y: 0, z: 0}
  - onlyValidIfPreviousObjectPlaced: 0
    placements:
    - {x: 0, y: -1}
    furnitureClass: {fileID: 11400000, guid: 013e82e7560cdc741ba5bec905b29593, type: 2}
    facing: 3
    importantToCluster: 1
    chanceOfPlacementAttempt: 1
    placementScoreBoost: 1
    useFovBlock: 0
    blockDirection: {x: 0, y: 1}
    maxFOVBlockDistance: 5
    localScale: {x: -1, y: 1, z: 1}
    positionOffset: {x: 0, y: 0, z: 0}
  - onlyValidIfPreviousObjectPlaced: 0
    placements:
    - {x: 1, y: 0}
    furnitureClass: {fileID: 11400000, guid: 0aef8843054e0554f89b6931a7566b1a, type: 2}
    facing: 0
    importantToCluster: 1
    chanceOfPlacementAttempt: 1
    placementScoreBoost: 1
    useFovBlock: 0
    blockDirection: {x: 0, y: 1}
    maxFOVBlockDistance: 5
    localScale: {x: 1, y: 1, z: 1}
    positionOffset: {x: 0, y: 0, z: 0}
  - onlyValidIfPreviousObjectPlaced: 0
    placements:
    - {x: 1, y: 0}
    furnitureClass: {fileID: 11400000, guid: 44e27aca04f971e458f2d41f00d38bbc, type: 2}
    facing: 0
    importantToCluster: 0
    chanceOfPlacementAttempt: 1
    placementScoreBoost: 1
    useFovBlock: 0
    blockDirection: {x: 0, y: 1}
    maxFOVBlockDistance: 5
    localScale: {x: 1, y: 1, z: 1}
    positionOffset: {x: 0, y: 0, z: 0}
  - onlyValidIfPreviousObjectPlaced: 0
    placements:
    - {x: 1, y: -1}
    furnitureClass: {fileID: 11400000, guid: ce42d03e38cc14646955b46954535c18, type: 2}
    facing: 1
    importantToCluster: 0
    chanceOfPlacementAttempt: 1
    placementScoreBoost: 1
    useFovBlock: 0
    blockDirection: {x: 0, y: 1}
    maxFOVBlockDistance: 5
    localScale: {x: 1, y: 1, z: 1}
    positionOffset: {x: 0, y: 0, z: 0}
  - onlyValidIfPreviousObjectPlaced: 0
    placements:
    - {x: 1, y: -1}
    furnitureClass: {fileID: 11400000, guid: 89a5ba647f856d74aaedd3c325b26d32, type: 2}
    facing: 3
    importantToCluster: 0
    chanceOfPlacementAttempt: 1
    placementScoreBoost: 1
    useFovBlock: 0
    blockDirection: {x: 0, y: 1}
    maxFOVBlockDistance: 5
    localScale: {x: 1, y: 1, z: 1}
    positionOffset: {x: 0, y: 0, z: 0}
  placementChance: 1
  roomPriority: 10.01
  modifyPriorityTraits: []
  modifyPlacementChanceTraits: []
  essentialFurniture: 1
  updatePreCalculated: 0
  calculatedMinRoomSize: 3
  minimumZeroNodeWallCount: 1
  maximumZeroNodeWallCount: 3
  zeroNodeClasses:
  - {fileID: 11400000, guid: d385a75f0702efd499dd65b3b23e6a59, type: 2}
  minimumRoomSize: 4
  useMaximumRoomSize: 1
  maximumRoomSize: 4
  useMinimumTesselation: 0
  nodesMustBeUnoccupied: 1
  minimumTesselation: {x: 1, y: 1}
  allowedInOpenPlan: 1
  allowInResidential: 1
  allowInCompanies: 0
  allowOnStreets: 0
  coastalOnly: 0
  limitToDistricts: 0
  allowedInDistricts: []
  banFromDistricts: 0
  notAllowedInDistricts: []
  skipIfNoAddressInhabitants: 0
  allowedRoomFilters:
  - {fileID: 11400000, guid: b03b1754c3f762b42ad91c6b782be469, type: 2}
  limitPerRoom: 1
  maximumPerRoom: 1
  limitPerAddress: 0
  maximumPerAddress: 1
  limitToFloor: 0
  allowedOnFloor: 0
  limitPerBuilding: 0
  maximumPerBuilding: 1
  limitPerCity: 0
  maximumPerCity: 1
  wealthLimit: 0
  minimumWealth: 0
  maximumWealth: 1
  useRoomGrub: 0
  minimumGrub: 0
  maximumGrub: 1
  useBuildingResidences: 0
  minimumResidences: 0
  maximumResidences: 40
  removeClustersOnSuccess:
  - {fileID: 11400000, guid: f4ce6476b08f2c540be0c66a33d41019, type: 2}
  - {fileID: 11400000, guid: 34ac2719eb3bb9347b29e3c03076f0c3, type: 2}
  - {fileID: 11400000, guid: 5f1333c1bc17be742988ceb62a62324e, type: 2}
  - {fileID: 11400000, guid: ecd7a8c1604da3e4f8dfa98f9f355b97, type: 2}
  - {fileID: 11400000, guid: 9dd3f7058c789ad488431ee14ac57cf6, type: 2}
  removeClustersOnFail: []
  securityDoor: 0
  isBreakerBox: 0
  enableDebug: 0
