%YAML 1.1
%TAG !u! tag:unity3d.com,2011:
--- !u!114 &11400000
MonoBehaviour:
  m_ObjectHideFlags: 0
  m_CorrespondingSourceObject: {fileID: 0}
  m_PrefabInstance: {fileID: 0}
  m_PrefabAsset: {fileID: 0}
  m_GameObject: {fileID: 0}
  m_Enabled: 1
  m_EditorHideFlags: 0
  m_Script: {fileID: 11500000, guid: 05c50b8a24558c04fb29c890553074fd, type: 3}
  m_Name: IndustrialCooker
  m_EditorClassIdentifier: 
  presetName: IndustrialCooker
  classes:
  - {fileID: 11400000, guid: 739844a8d31a8fc4ea443e1c7949adce, type: 2}
  - {fileID: 11400000, guid: 829a35aab5853c14f93e079e6ef3e3c0, type: 2}
  prefab: {fileID: 1958219908326622753, guid: f67de465ce7534e40a0a75c7ba6652fe, type: 3}
  allowStaticBatching: 0
  spawnRange: 3
  integratedInteractables:
  - preset: {fileID: 11400000, guid: d4c62b75aef777542a0f38bcc078dde3, type: 2}
    pairToController: 0
    belongsTo: 0
  - preset: {fileID: 11400000, guid: 5ddfcb397e02e774c9684b3e3d377ecd, type: 2}
    pairToController: 1
    belongsTo: 0
  universalDesignStyle: 1
  designStyles: []
  inheritColouringFromDecor: 0
  shareColours: 0
  inheritGrubFromDecor: 1
  variations: []
  furnitureGroup: 0
  groupID: 0
  concrete: 0
  plaster: 0
  wood: 0
  carpet: 0
  tile: 0
  metal: 1
  glass: 0
  fabric: 0
  minimumRoomSize: 0
  allowedInOpenPlan: 1
  onlyAllowInFollowing: 0
  allowedInAddressesOfType: []
  banInFollowing: 0
  bannedInAddressesOfType: []
  OnlyAllowInBuildings: 0
  allowedInBuildings: []
  banFromBuildings: 0
  notAllowedInBuildings: []
  OnlyAllowInDistricts: 0
  allowedInDistricts: []
  banFromDistricts: 0
  notAllowedInDistricts: []
  requiresGenderedInhabitants: 0
  enableIfGenderPresent: 
  allowedRoomFilters:
  - {fileID: 11400000, guid: d1bfa1c547db3f54fb3b2f087a1f031f, type: 2}
  minimumWealth: 0
  usePersonalityWeighting: 0
  modernity: 0
  cleanness: 7
  loudness: 1
  emotive: 5
  subObjects:
  - preset: {fileID: 11400000, guid: 9f0cdc9c9dae80a448dfe5ec71150874, type: 2}
    parent: 
    localPos: {x: -0.595, y: 1.056, z: -0.02}
    localRot: {x: -0, y: 150.30481, z: -0}
    belongsTo: 0
    security: 0
  - preset: {fileID: 11400000, guid: 9f0cdc9c9dae80a448dfe5ec71150874, type: 2}
    parent: 
    localPos: {x: -0.089, y: 1.05, z: -0.122}
    localRot: {x: -0, y: 26.408966, z: 0}
    belongsTo: 0
    security: 0
  - preset: {fileID: 11400000, guid: 9f0cdc9c9dae80a448dfe5ec71150874, type: 2}
    parent: 
    localPos: {x: 0.436, y: 1.063, z: -0.218}
    localRot: {x: -0, y: 358.59814, z: 0}
    belongsTo: 0
    security: 0
  - preset: {fileID: 11400000, guid: 1ea276031c7d5584ea75618346316f59, type: 2}
    parent: 
    localPos: {x: 0.004, y: 1, z: -0.132}
    localRot: {x: -0, y: 90, z: 0}
    belongsTo: 0
    security: 0
  testForModifiers: 0
  forcePublicIllegal: 1
  hidingEnterTransition: {fileID: 0}
  hidingExitTransition: {fileID: 0}
  hidingEnterTransition2: {fileID: 0}
  hidingExitTransition2: {fileID: 0}
  map: {fileID: 2800000, guid: e28c45ad93fb47048903e470bd14fc21, type: 3}
  drawUnderWalls: 1
  ignoreDirection: 0
  fingerprintsEnabled: 1
  printsSource: 1
  fingerprintDensity: 1
  alterAreaLighting: 0
  possibleColours: []
  lightOperation: 0
  lightAmount: 0.12
  brightnessModifier: 10
  purchasable: 1
  cost: 700
  decorClass: 3
  staticImage: {fileID: 21300000, guid: b024b22a47819fe4596e0582f70f76ea, type: 3}
  imagePos: {x: 0, y: 0, z: 0}
  imageRot: {x: 0, y: 0, z: 0}
  imageScale: 1
  imagePrefabOverride: {fileID: 0}
  isJobBoard: 0
  isWorkPosition: 0
  isPlant: 0
  isArt: 0
  isSecurityCamera: 0
  artOrientation: 0
  createSelfEmployed: {fileID: 0}
  workPositionID: 0
  spawnObjectOnChance: 1
  spawnObjectsOnPlacement: []
