%YAML 1.1
%TAG !u! tag:unity3d.com,2011:
--- !u!1 &2173009511438589585
GameObject:
  m_ObjectHideFlags: 0
  m_CorrespondingSourceObject: {fileID: 0}
  m_PrefabInstance: {fileID: 0}
  m_PrefabAsset: {fileID: 0}
  serializedVersion: 6
  m_Component:
  - component: {fileID: 2173009511438589584}
  - component: {fileID: 2173009511438589587}
  m_Layer: 0
  m_Name: BloodDecal64
  m_TagString: Untagged
  m_Icon: {fileID: 0}
  m_NavMeshLayer: 0
  m_StaticEditorFlags: 0
  m_IsActive: 1
--- !u!4 &2173009511438589584
Transform:
  m_ObjectHideFlags: 0
  m_CorrespondingSourceObject: {fileID: 0}
  m_PrefabInstance: {fileID: 0}
  m_PrefabAsset: {fileID: 0}
  m_GameObject: {fileID: 2173009511438589585}
  m_LocalRotation: {x: 0, y: 0, z: 0, w: 1}
  m_LocalPosition: {x: -65.398, y: -11.971, z: -54.433}
  m_LocalScale: {x: 1, y: 1, z: 1}
  m_Children: []
  m_Father: {fileID: 0}
  m_RootOrder: 0
  m_LocalEulerAnglesHint: {x: 0, y: 0, z: 0}
--- !u!114 &2173009511438589587
MonoBehaviour:
  m_ObjectHideFlags: 0
  m_CorrespondingSourceObject: {fileID: 0}
  m_PrefabInstance: {fileID: 0}
  m_PrefabAsset: {fileID: 0}
  m_GameObject: {fileID: 2173009511438589585}
  m_Enabled: 1
  m_EditorHideFlags: 0
  m_Script: {fileID: 11500000, guid: f19d9143a39eb3b46bc4563e9889cfbd, type: 3}
  m_Name: 
  m_EditorClassIdentifier: 
  m_Material: {fileID: 2100000, guid: e2f53cae92ad45441bf2fda35c46420f, type: 2}
  m_DrawDistance: 25
  m_FadeScale: 0.9
  m_UVScale: {x: 1, y: 1}
  m_UVBias: {x: 0, y: 0}
  m_AffectsTransparency: 1
  m_Offset: {x: 0, y: 0, z: 0}
  m_Size: {x: 1.6, y: 1.6, z: 1.6}
  m_IsCropModeEnabled: 0
