%YAML 1.1
%TAG !u! tag:unity3d.com,2011:
--- !u!114 &11400000
MonoBehaviour:
  m_ObjectHideFlags: 0
  m_CorrespondingSourceObject: {fileID: 0}
  m_PrefabInstance: {fileID: 0}
  m_PrefabAsset: {fileID: 0}
  m_GameObject: {fileID: 0}
  m_Enabled: 1
  m_EditorHideFlags: 0
  m_Script: {fileID: 11500000, guid: 03e3cf37e69bd2346a8d46c4dba1bc56, type: 3}
  m_Name: MarbleStairwellElevatorInverted
  m_EditorClassIdentifier: 
  presetName: MarbleStairwellElevatorInverted
  spawnObject: {fileID: 7115664211157023730, guid: 14782a8dbfd81f249ac44552073c5bc8,
    type: 3}
  objectTop: {fileID: 2838068099772743313, guid: a2038ee7fb392c74fad3299e429428f9,
    type: 3}
  centralSteps: {fileID: 0}
  featuresElevator: 1
  elevatorObject: {fileID: 8979332434017162976, guid: 4aa8ae834afbe69459a7741b39867e73,
    type: 3}
  elevatorMaxSpeed: 3.5
  elevatorAcceleration: 0.9
  accelerateWhileThisFarAway: 3.5
  liftDelay: 4.5
  movementDelay: 1
