%YAML 1.1
%TAG !u! tag:unity3d.com,2011:
--- !u!114 &11400000
MonoBehaviour:
  m_ObjectHideFlags: 0
  m_CorrespondingSourceObject: {fileID: 0}
  m_PrefabInstance: {fileID: 0}
  m_PrefabAsset: {fileID: 0}
  m_GameObject: {fileID: 0}
  m_Enabled: 1
  m_EditorHideFlags: 0
  m_Script: {fileID: 11500000, guid: dd13811bc8f15774b8ea0aa60c4e5c81, type: 3}
  m_Name: Asparagus-CinnamonSatin
  m_EditorClassIdentifier: 
  presetName: Asparagus-CinnamonSatin
  primary1: {r: 0.59235686, g: 0.6698113, b: 0.40125483, a: 1}
  secondary1: {r: 0.7045986, g: 0.764151, b: 0.5586953, a: 1}
  neutral: {r: 0.9150943, g: 0.9096342, b: 0.7812834, a: 1}
  secondary2: {r: 0.5019608, g: 0.2784314, b: 0.36862746, a: 1}
  primary2: {r: 0.8, g: 0.3529412, b: 0.44313726, a: 1}
  modernity: 6
  cleanness: 2
  loudness: 7
  emotive: 8
