%YAML 1.1
%TAG !u! tag:unity3d.com,2011:
--- !u!114 &11400000
MonoBehaviour:
  m_ObjectHideFlags: 0
  m_CorrespondingSourceObject: {fileID: 0}
  m_PrefabInstance: {fileID: 0}
  m_PrefabAsset: {fileID: 0}
  m_GameObject: {fileID: 0}
  m_Enabled: 1
  m_EditorHideFlags: 0
  m_Script: {fileID: 11500000, guid: dd13811bc8f15774b8ea0aa60c4e5c81, type: 3}
  m_Name: Cerulean-OxfordBlue
  m_EditorClassIdentifier: 
  presetName: Cerulean-OxfordBlue
  primary1: {r: 0.16687433, g: 0.30702323, b: 0.4716981, a: 1}
  secondary1: {r: 0.30949628, g: 0.438947, b: 0.6132076, a: 1}
  neutral: {r: 0.7411765, g: 0.73333335, b: 0.6901961, a: 1}
  secondary2: {r: 0.60929155, g: 0.7025373, b: 0.7924528, a: 1}
  primary2: {r: 0.18102525, g: 0.25212058, b: 0.33962262, a: 1}
  modernity: 5
  cleanness: 8
  loudness: 6
  emotive: 1
