%YAML 1.1
%TAG !u! tag:unity3d.com,2011:
--- !u!114 &11400000
MonoBehaviour:
  m_ObjectHideFlags: 0
  m_CorrespondingSourceObject: {fileID: 0}
  m_PrefabInstance: {fileID: 0}
  m_PrefabAsset: {fileID: 0}
  m_GameObject: {fileID: 0}
  m_Enabled: 1
  m_EditorHideFlags: 0
  m_Script: {fileID: 11500000, guid: dd13811bc8f15774b8ea0aa60c4e5c81, type: 3}
  m_Name: DarkSeaGreen-OldRose
  m_EditorClassIdentifier: 
  presetName: DarkSeaGreen-OldRose
  primary1: {r: 0.5137255, g: 0.6862745, b: 0.60784316, a: 1}
  secondary1: {r: 0.6603774, g: 0.4765931, b: 0.48558518, a: 1}
  neutral: {r: 0.8113208, g: 0.8113208, b: 0.6697223, a: 1}
  secondary2: {r: 0.47843137, g: 0.3647059, b: 0.39607844, a: 1}
  primary2: {r: 0.84313726, g: 0.654902, b: 0.64705884, a: 1}
  modernity: 5
  cleanness: 4
  loudness: 6
  emotive: 6
