%YAML 1.1
%TAG !u! tag:unity3d.com,2011:
--- !u!114 &11400000
MonoBehaviour:
  m_ObjectHideFlags: 0
  m_CorrespondingSourceObject: {fileID: 0}
  m_PrefabInstance: {fileID: 0}
  m_PrefabAsset: {fileID: 0}
  m_GameObject: {fileID: 0}
  m_Enabled: 1
  m_EditorHideFlags: 0
  m_Script: {fileID: 11500000, guid: dd13811bc8f15774b8ea0aa60c4e5c81, type: 3}
  m_Name: HookersGreen-DarkBlueGrey
  m_EditorClassIdentifier: 
  presetName: HookersGreen-DarkBlueGrey
  primary1: {r: 0.2901961, g: 0.47843137, b: 0.39607844, a: 1}
  secondary1: {r: 0.4433962, g: 0.31989864, b: 0.2488875, a: 1}
  neutral: {r: 0.9411765, g: 0.9490196, b: 0.92156863, a: 1}
  secondary2: {r: 0.7411765, g: 0.73333335, b: 0.6901961, a: 1}
  primary2: {r: 0.40392157, g: 0.39607844, b: 0.5882353, a: 1}
  modernity: 6
  cleanness: 3
  loudness: 2
  emotive: 0
