%YAML 1.1
%TAG !u! tag:unity3d.com,2011:
--- !u!114 &11400000
MonoBehaviour:
  m_ObjectHideFlags: 0
  m_CorrespondingSourceObject: {fileID: 0}
  m_PrefabInstance: {fileID: 0}
  m_PrefabAsset: {fileID: 0}
  m_GameObject: {fileID: 0}
  m_Enabled: 1
  m_EditorHideFlags: 0
  m_Script: {fileID: 11500000, guid: dd13811bc8f15774b8ea0aa60c4e5c81, type: 3}
  m_Name: Innocence-Forever
  m_EditorClassIdentifier: 
  presetName: Innocence-Forever
  primary1: {r: 0.8679245, g: 0.81596243, b: 0.68369526, a: 1}
  secondary1: {r: 0.5943396, g: 0.560336, b: 0.46257564, a: 1}
  neutral: {r: 0.81394625, g: 0.8584906, b: 0.83374375, a: 1}
  secondary2: {r: 0.4716981, g: 0.41419065, b: 0.33152366, a: 1}
  primary2: {r: 0.56198823, g: 0.66756403, b: 0.6886792, a: 1}
  modernity: 8
  cleanness: 8
  loudness: 1
  emotive: 1
