%YAML 1.1
%TAG !u! tag:unity3d.com,2011:
--- !u!114 &11400000
MonoBehaviour:
  m_ObjectHideFlags: 0
  m_CorrespondingSourceObject: {fileID: 0}
  m_PrefabInstance: {fileID: 0}
  m_PrefabAsset: {fileID: 0}
  m_GameObject: {fileID: 0}
  m_Enabled: 1
  m_EditorHideFlags: 0
  m_Script: {fileID: 11500000, guid: dd13811bc8f15774b8ea0aa60c4e5c81, type: 3}
  m_Name: Kobicha-OldLavender
  m_EditorClassIdentifier: 
  presetName: Kobicha-OldLavender
  primary1: {r: 0.4392157, g: 0.28627452, b: 0.14901961, a: 1}
  secondary1: {r: 0.67058825, g: 0.39607844, b: 0.003921569, a: 1}
  neutral: {r: 0.8679245, g: 0.81596243, b: 0.68369526, a: 1}
  secondary2: {r: 0.7490196, g: 0.5803922, b: 0.44705883, a: 1}
  primary2: {r: 0.47843137, g: 0.42745098, b: 0.45490196, a: 1}
  modernity: 4
  cleanness: 2
  loudness: 3
  emotive: 2
