%YAML 1.1
%TAG !u! tag:unity3d.com,2011:
--- !u!114 &11400000
MonoBehaviour:
  m_ObjectHideFlags: 0
  m_CorrespondingSourceObject: {fileID: 0}
  m_PrefabInstance: {fileID: 0}
  m_PrefabAsset: {fileID: 0}
  m_GameObject: {fileID: 0}
  m_Enabled: 1
  m_EditorHideFlags: 0
  m_Script: {fileID: 11500000, guid: dd13811bc8f15774b8ea0aa60c4e5c81, type: 3}
  m_Name: Ochre-Black
  m_EditorClassIdentifier: 
  presetName: Ochre-Black
  primary1: {r: 0.8584906, g: 0.47493768, b: 0.14983091, a: 1}
  secondary1: {r: 0.9056604, g: 0.73053145, b: 0.32894266, a: 1}
  neutral: {r: 0.78431374, g: 0.78431374, b: 0.6627451, a: 1}
  secondary2: {r: 0.39607844, g: 0.4392157, b: 0.2901961, a: 1}
  primary2: {r: 0.13541298, g: 0.14637296, b: 0.16037738, a: 1}
  modernity: 8
  cleanness: 4
  loudness: 8
  emotive: 5
