%YAML 1.1
%TAG !u! tag:unity3d.com,2011:
--- !u!114 &11400000
MonoBehaviour:
  m_ObjectHideFlags: 0
  m_CorrespondingSourceObject: {fileID: 0}
  m_PrefabInstance: {fileID: 0}
  m_PrefabAsset: {fileID: 0}
  m_GameObject: {fileID: 0}
  m_Enabled: 1
  m_EditorHideFlags: 0
  m_Script: {fileID: 11500000, guid: dd13811bc8f15774b8ea0aa60c4e5c81, type: 3}
  m_Name: YankeesBlue-Coconut
  m_EditorClassIdentifier: 
  presetName: YankeesBlue-Coconut
  primary1: {r: 0.16687433, g: 0.30702323, b: 0.4716981, a: 1}
  secondary1: {r: 0.47843137, g: 0.42745098, b: 0.45490196, a: 1}
  neutral: {r: 0.7411765, g: 0.73333335, b: 0.6901961, a: 1}
  secondary2: {r: 0.47843137, g: 0.3647059, b: 0.39607844, a: 1}
  primary2: {r: 0.2509804, g: 0.18039216, b: 0.18431373, a: 1}
  modernity: 7
  cleanness: 7
  loudness: 4
  emotive: 0
