%YAML 1.1
%TAG !u! tag:unity3d.com,2011:
--- !u!114 &11400000
MonoBehaviour:
  m_ObjectHideFlags: 0
  m_CorrespondingSourceObject: {fileID: 0}
  m_PrefabInstance: {fileID: 0}
  m_PrefabAsset: {fileID: 0}
  m_GameObject: {fileID: 0}
  m_Enabled: 1
  m_EditorHideFlags: 0
  m_Script: {fileID: 11500000, guid: dd13811bc8f15774b8ea0aa60c4e5c81, type: 3}
  m_Name: YellowsGradient
  m_EditorClassIdentifier: 
  presetName: YellowsGradient
  primary1: {r: 0.8773585, g: 0.6593645, b: 0.21933962, a: 1}
  secondary1: {r: 0.9056604, g: 0.73053145, b: 0.32894266, a: 1}
  neutral: {r: 0.98039216, g: 0.92941177, b: 0.7921569, a: 1}
  secondary2: {r: 0.9056604, g: 0.7253267, b: 0.46564615, a: 1}
  primary2: {r: 0.74509805, g: 0.43137255, b: 0.27450982, a: 1}
  modernity: 6
  cleanness: 7
  loudness: 8
  emotive: 7
