%YAML 1.1
%TAG !u! tag:unity3d.com,2011:
--- !u!114 &11400000
MonoBehaviour:
  m_ObjectHideFlags: 0
  m_CorrespondingSourceObject: {fileID: 0}
  m_PrefabInstance: {fileID: 0}
  m_PrefabAsset: {fileID: 0}
  m_GameObject: {fileID: 0}
  m_Enabled: 1
  m_EditorHideFlags: 0
  m_Script: {fileID: 11500000, guid: bb9ed8324cc49a34b83a9c923c730080, type: 3}
  m_Name: ShopAssistant
  m_EditorClassIdentifier: 
  presetName: ShopAssistant
  collar: 2
  work: 5
  tags: 
  jobFillPriority: 1
  workOutfit: []
  selfEmployed: 0
  receptionist: 0
  canAskAboutJob: 1
  janitor: 0
  security: 0
  isCriminal: 0
  isPublicFacing: 1
  minimumPerCity: 0
  societalClass: 0.5
  skewPersonalityTowardsJobFit: 0.4
  skewHumility: 0
  humility: 0
  skewEmotionality: 0
  emotionality: 0
  skewExtraversion: 0
  extraversion: 0
  skewAgreeableness: 0
  agreeableness: 0
  skewConscientiousness: 0
  conscientiousness: 0
  skewCreativity: 0
  creativity: 0
  shiftTimeIsImportant: 0
  shiftType: 1
  countsTowardsOpenHoursCoverage: 1
  lunchBreakAllowed: 0
  jobAIPosition: 1
  bannedRooms: []
  actionSetup:
  - actions:
    - {fileID: 11400000, guid: 22dfa81011283264ba907a5e24d7733e, type: 2}
    condition: 0
    chance: 1
    traitModifiers: []
    statusModifiers: []
  - actions:
    - {fileID: 11400000, guid: a5b1e47e87cb6bb4db8e18da45f58143, type: 2}
    condition: 0
    chance: 1
    traitModifiers: []
    statusModifiers: []
  jobPostion: 0
  ownsWorkPosition: 0
  preferredRooms:
  - {fileID: 11400000, guid: c547d6744fbbbb8459d8569660caa1b6, type: 2}
  - {fileID: 11400000, guid: 47ada036769223c4eb23638069dd6f4f, type: 2}
  potterFrequency: {x: 0.5, y: 1}
  onlyPotterIfSomebodyElseWorking: 1
  potterActions: []
  namePlacard: 0
  employeePhoto: 1
  businessCards: 0
  workRota: 1
  employmentContract: 1
  jobItems: []
  inventoryItems:
  - {fileID: 11400000, guid: f5da78867ff1fde41bf286bde105b7c9, type: 2}
  joinGroups: []
  addDialog:
  - {fileID: 11400000, guid: f677310cf46ff6540a4dce1c6f85f442, type: 2}
  - {fileID: 11400000, guid: cb238d20ae27e3f48b3eb90e61000a26, type: 2}
  selectedPreset: {fileID: 0}
