%YAML 1.1
%TAG !u! tag:unity3d.com,2011:
--- !u!114 &11400000
MonoBehaviour:
  m_ObjectHideFlags: 0
  m_CorrespondingSourceObject: {fileID: 0}
  m_PrefabInstance: {fileID: 0}
  m_PrefabAsset: {fileID: 0}
  m_GameObject: {fileID: 0}
  m_Enabled: 1
  m_EditorHideFlags: 0
  m_Script: {fileID: 11500000, guid: e512325a7823fa2428f27f48fedbb6af, type: 3}
  m_Name: GlassesAviator
  m_EditorClassIdentifier: 
  presetName: GlassesAviator
  covers: 12000000
  outfitCategories: 06000000
  suitableForGenders: 000000000100000002000000
  suitableForBuilds: 00000000010000000200000003000000
  tags: 
  enableFacialFeatureSetup: 0
  suitableForHairstyle: 
  isHead: 0
  pupilsOffset: {x: 0, y: 0.15, z: 0.1205}
  eyebrowsOffset: {x: 0, y: 0.1719, z: 0.133}
  mouthOffset: {x: 0, y: 0.045, z: 0.151}
  hatRenderCompatible: 0
  excludeHats: []
  hairRenderMode: 0
  setFootwear: 0
  footwear: 3
  priority: 2
  onlyChooseIfAllModelPartsAreAvailable: 0
  incompatibility: []
  useWealthValues: 1
  minimumWealth: 0.15
  maximumWealth: 1
  baseColourSource: 3
  colourBase: []
  colour1Source: 1
  colour1:
  - {fileID: 11400000, guid: 89788b7491e57224f80da5012810b06a, type: 2}
  colour2Source: 0
  colour2: []
  colour3Source: 0
  colour3: []
  includeInPersonalityMatching: 1
  baseChance: 0
  useHEXACO: 0
  hexaco:
    outputMin: 1
    outputMax: 10
    enableFeminineMasculine: 0
    feminineMasculine: 0
    enableHumility: 0
    humility: 0
    enableEmotionality: 0
    emotionality: 0
    enableExtraversion: 0
    extraversion: 0
    enableAgreeableness: 0
    agreeableness: 0
    enableConscientiousness: 0
    conscientiousness: 0
    enableCreativity: 0
    creativity: 0
  useTraits: 1
  characterTraits:
  - rule: 0
    traitList:
    - {fileID: 11400000, guid: 3091a2731f313e8498d1abab32d17316, type: 2}
    - {fileID: 11400000, guid: 2d395e24b8e80af41a7d0e7666102c59, type: 2}
    mustPassForApplication: 1
    addChance: 1
  models:
  - prefab: {fileID: 7840789848801706085, guid: c8ea2ddaf7363414192378570986df8e,
      type: 3}
    anchor: 18
    offsetPosition: {x: 0, y: -0.015, z: 0.09}
    offsetEuler: {x: -0, y: -0, z: -0}
    exclusiveAnchorModel: 1
