%YAML 1.1
%TAG !u! tag:unity3d.com,2011:
--- !u!114 &11400000
MonoBehaviour:
  m_ObjectHideFlags: 0
  m_CorrespondingSourceObject: {fileID: 0}
  m_PrefabInstance: {fileID: 0}
  m_PrefabAsset: {fileID: 0}
  m_GameObject: {fileID: 0}
  m_Enabled: 1
  m_EditorHideFlags: 0
  m_Script: {fileID: 11500000, guid: 05c50b8a24558c04fb29c890553074fd, type: 3}
  m_Name: GrandfatherClock
  m_EditorClassIdentifier: 
  presetName: GrandfatherClock
  classes:
  - {fileID: 11400000, guid: 47bde52e75972e74a9fa49ac304f6e0a, type: 2}
  prefab: {fileID: 6571904462189004795, guid: 1a76acf315fe9a64db1d0b598665d8ba, type: 3}
  allowStaticBatching: 0
  spawnRange: 3
  integratedInteractables:
  - preset: {fileID: 11400000, guid: 0cfafc59aff1e8a4182af817b7e32d42, type: 2}
    pairToController: 0
    belongsTo: 0
  universalDesignStyle: 0
  designStyles:
  - {fileID: 11400000, guid: e02dfc783e1042e48b87ceb703c8dc23, type: 2}
  - {fileID: 11400000, guid: fb5884c44b9167f4982a3fe7b4a798b4, type: 2}
  - {fileID: 11400000, guid: f7900e58d7b990840b8413d0629275ee, type: 2}
  - {fileID: 11400000, guid: e72ea046ed0da1e4fa8dc37cf23d4962, type: 2}
  inheritColouringFromDecor: 1
  shareColours: 7
  inheritGrubFromDecor: 1
  variations:
  - name: 
    main: 15
    colour1: 14
    colour2: 14
    colour3: 14
  furnitureGroup: 0
  groupID: 0
  concrete: 0
  plaster: 0
  wood: 1
  carpet: 0
  tile: 0
  metal: 0
  glass: 0
  fabric: 0
  minimumRoomSize: 4
  allowedInOpenPlan: 0
  onlyAllowInFollowing: 0
  allowedInAddressesOfType: []
  banInFollowing: 0
  bannedInAddressesOfType: []
  OnlyAllowInBuildings: 0
  allowedInBuildings: []
  banFromBuildings: 0
  notAllowedInBuildings: []
  OnlyAllowInDistricts: 0
  allowedInDistricts: []
  banFromDistricts: 0
  notAllowedInDistricts: []
  requiresGenderedInhabitants: 0
  enableIfGenderPresent: 
  allowedRoomFilters:
  - {fileID: 11400000, guid: f37d2edb5f16b2e4fb13c4a52ac4b0d4, type: 2}
  - {fileID: 11400000, guid: 2b658dceab15cb5409a5f04ea7340fa3, type: 2}
  - {fileID: 11400000, guid: 1ae06a672d6e9d243841cbf18341df81, type: 2}
  - {fileID: 11400000, guid: 426d81320b88fef47b1183c90f3304a1, type: 2}
  minimumWealth: 0
  usePersonalityWeighting: 1
  modernity: 1
  cleanness: 2
  loudness: 2
  emotive: 9
  subObjects: []
  testForModifiers: 1
  forcePublicIllegal: 0
  hidingEnterTransition: {fileID: 0}
  hidingExitTransition: {fileID: 0}
  hidingEnterTransition2: {fileID: 0}
  hidingExitTransition2: {fileID: 0}
  map: {fileID: 2800000, guid: 52e5628b6b5d23546b993bd6b4010a10, type: 3}
  drawUnderWalls: 0
  ignoreDirection: 0
  fingerprintsEnabled: 1
  printsSource: 1
  fingerprintDensity: 1
  alterAreaLighting: 0
  possibleColours: []
  lightOperation: 0
  lightAmount: 0.12
  brightnessModifier: 10
  purchasable: 1
  cost: 150
  decorClass: 3
  staticImage: {fileID: 21300000, guid: 3db68861c4832e7489b28f1d9eb69b3e, type: 3}
  imagePos: {x: 0, y: 0, z: 0}
  imageRot: {x: 0, y: 0, z: 0}
  imageScale: 1
  imagePrefabOverride: {fileID: 0}
  isJobBoard: 0
  isWorkPosition: 0
  isPlant: 0
  isArt: 0
  isSecurityCamera: 0
  artOrientation: 0
  createSelfEmployed: {fileID: 0}
  workPositionID: 0
  spawnObjectOnChance: 1
  spawnObjectsOnPlacement: []
