%YAML 1.1
%TAG !u! tag:unity3d.com,2011:
--- !u!114 &11400000
MonoBehaviour:
  m_ObjectHideFlags: 0
  m_CorrespondingSourceObject: {fileID: 0}
  m_PrefabInstance: {fileID: 0}
  m_PrefabAsset: {fileID: 0}
  m_GameObject: {fileID: 0}
  m_Enabled: 1
  m_EditorHideFlags: 0
  m_Script: {fileID: 11500000, guid: 05c50b8a24558c04fb29c890553074fd, type: 3}
  m_Name: WashingMachines
  m_EditorClassIdentifier: 
  presetName: WashingMachines
  classes:
  - {fileID: 11400000, guid: 45209ae5a9d7b50499b97a445e0e453d, type: 2}
  - {fileID: 11400000, guid: b53853623494b5844a594d729634fe58, type: 2}
  prefab: {fileID: 7177908160569388283, guid: aa03cb5a97081fd42892dee20fefafed, type: 3}
  allowStaticBatching: 1
  spawnRange: 3
  integratedInteractables:
  - preset: {fileID: 11400000, guid: 33b3b27e45cc8a44d844eb4c01bc594e, type: 2}
    pairToController: 0
    belongsTo: 0
  - preset: {fileID: 11400000, guid: 33b3b27e45cc8a44d844eb4c01bc594e, type: 2}
    pairToController: 1
    belongsTo: 0
  universalDesignStyle: 1
  designStyles: []
  inheritColouringFromDecor: 1
  shareColours: 3
  inheritGrubFromDecor: 1
  variations:
  - name: 
    main: 15
    colour1: 0
    colour2: 16
    colour3: 13
  - name: 
    main: 15
    colour1: 16
    colour2: 16
    colour3: 13
  - name: 
    main: 15
    colour1: 13
    colour2: 0
    colour3: 13
  furnitureGroup: 0
  groupID: 0
  concrete: 0
  plaster: 0
  wood: 0
  carpet: 0
  tile: 0
  metal: 1
  glass: 0
  fabric: 0
  minimumRoomSize: 4
  allowedInOpenPlan: 1
  onlyAllowInFollowing: 0
  allowedInAddressesOfType: []
  banInFollowing: 0
  bannedInAddressesOfType: []
  OnlyAllowInBuildings: 0
  allowedInBuildings: []
  banFromBuildings: 0
  notAllowedInBuildings: []
  OnlyAllowInDistricts: 0
  allowedInDistricts: []
  banFromDistricts: 0
  notAllowedInDistricts: []
  requiresGenderedInhabitants: 0
  enableIfGenderPresent: 
  allowedRoomFilters:
  - {fileID: 11400000, guid: f497bd916077c824f893f96b4dd9d439, type: 2}
  - {fileID: 11400000, guid: 6080839717a0605418fa96c55bc4aa63, type: 2}
  minimumWealth: 0
  usePersonalityWeighting: 0
  modernity: 8
  cleanness: 9
  loudness: 2
  emotive: 4
  subObjects:
  - preset: {fileID: 11400000, guid: 285a7f522047b4a4abbe1632b6a02a97, type: 2}
    parent: 
    localPos: {x: -0.574, y: 1.5500002, z: -0.595}
    localRot: {x: -0, y: 352.14822, z: 0}
    belongsTo: 0
    security: 0
  - preset: {fileID: 11400000, guid: 285a7f522047b4a4abbe1632b6a02a97, type: 2}
    parent: 
    localPos: {x: 0.616, y: 1.5500002, z: -0.595}
    localRot: {x: -0, y: 21.980038, z: 0}
    belongsTo: 0
    security: 0
  - preset: {fileID: 11400000, guid: 94ecd56f625166b449047f5eee385c68, type: 2}
    parent: 
    localPos: {x: -0.113, y: 1.5500002, z: -0.674}
    localRot: {x: -0, y: 352.14822, z: 0}
    belongsTo: 0
    security: 0
  - preset: {fileID: 11400000, guid: 94ecd56f625166b449047f5eee385c68, type: 2}
    parent: 
    localPos: {x: 0.326, y: 1.5500002, z: -0.261}
    localRot: {x: -0, y: 12.617228, z: 0}
    belongsTo: 0
    security: 0
  - preset: {fileID: 11400000, guid: 58d35ae0305e7d541af98472310ee11c, type: 2}
    parent: 
    localPos: {x: -0.02, y: 0, z: 0.208}
    localRot: {x: -0, y: 12.617228, z: 0}
    belongsTo: 0
    security: 0
  - preset: {fileID: 11400000, guid: cdbc245f33f972b408cc829d72fd6bc6, type: 2}
    parent: 
    localPos: {x: -0.049, y: 1.377, z: -0.092}
    localRot: {x: 90, y: 0, z: 0}
    belongsTo: 0
    security: 0
  testForModifiers: 0
  forcePublicIllegal: 0
  hidingEnterTransition: {fileID: 0}
  hidingExitTransition: {fileID: 0}
  hidingEnterTransition2: {fileID: 0}
  hidingExitTransition2: {fileID: 0}
  map: {fileID: 2800000, guid: a44d8ecc4998ede4498a6bc6dd461c0e, type: 3}
  drawUnderWalls: 1
  ignoreDirection: 0
  fingerprintsEnabled: 1
  printsSource: 7
  fingerprintDensity: 1
  alterAreaLighting: 0
  possibleColours: []
  lightOperation: 0
  lightAmount: 0.12
  brightnessModifier: 10
  purchasable: 0
  cost: 100
  decorClass: 5
  staticImage: {fileID: 0}
  imagePos: {x: 0, y: 0, z: 0}
  imageRot: {x: 0, y: 0, z: 0}
  imageScale: 1
  imagePrefabOverride: {fileID: 0}
  isJobBoard: 0
  isWorkPosition: 0
  isPlant: 0
  isArt: 0
  isSecurityCamera: 0
  artOrientation: 0
  createSelfEmployed: {fileID: 0}
  workPositionID: 0
  spawnObjectOnChance: 1
  spawnObjectsOnPlacement: []
