%YAML 1.1
%TAG !u! tag:unity3d.com,2011:
--- !u!114 &11400000
MonoBehaviour:
  m_ObjectHideFlags: 0
  m_CorrespondingSourceObject: {fileID: 0}
  m_PrefabInstance: {fileID: 0}
  m_PrefabAsset: {fileID: 0}
  m_GameObject: {fileID: 0}
  m_Enabled: 1
  m_EditorHideFlags: 0
  m_Script: {fileID: 11500000, guid: 05c50b8a24558c04fb29c890553074fd, type: 3}
  m_Name: WelcomeMat
  m_EditorClassIdentifier: 
  presetName: WelcomeMat
  classes:
  - {fileID: 11400000, guid: 41b1819dd41fb4a40bc5fdf39419b426, type: 2}
  prefab: {fileID: 4217369037047003850, guid: 81546148364a6954a9def1ef310b990c, type: 3}
  allowStaticBatching: 0
  spawnRange: 3
  integratedInteractables:
  - preset: {fileID: 11400000, guid: 17815a698d455804081406bb1087f13f, type: 2}
    pairToController: 0
    belongsTo: 0
  universalDesignStyle: 0
  designStyles:
  - {fileID: 11400000, guid: f7900e58d7b990840b8413d0629275ee, type: 2}
  - {fileID: 11400000, guid: e72ea046ed0da1e4fa8dc37cf23d4962, type: 2}
  - {fileID: 11400000, guid: e02dfc783e1042e48b87ceb703c8dc23, type: 2}
  - {fileID: 11400000, guid: fb5884c44b9167f4982a3fe7b4a798b4, type: 2}
  inheritColouringFromDecor: 0
  shareColours: 0
  inheritGrubFromDecor: 1
  variations: []
  furnitureGroup: 0
  groupID: 0
  concrete: 0
  plaster: 0
  wood: 0
  carpet: 1
  tile: 0
  metal: 0
  glass: 0
  fabric: 0
  minimumRoomSize: 0
  allowedInOpenPlan: 0
  onlyAllowInFollowing: 0
  allowedInAddressesOfType: []
  banInFollowing: 0
  bannedInAddressesOfType: []
  OnlyAllowInBuildings: 0
  allowedInBuildings: []
  banFromBuildings: 0
  notAllowedInBuildings: []
  OnlyAllowInDistricts: 0
  allowedInDistricts: []
  banFromDistricts: 0
  notAllowedInDistricts: []
  requiresGenderedInhabitants: 0
  enableIfGenderPresent: 
  allowedRoomFilters:
  - {fileID: 11400000, guid: 74981c17227ed2845addd1c8d229b797, type: 2}
  - {fileID: 11400000, guid: 7a14d10fff6542d4d90a385b2e592c91, type: 2}
  - {fileID: 11400000, guid: 426d81320b88fef47b1183c90f3304a1, type: 2}
  minimumWealth: 0
  usePersonalityWeighting: 0
  modernity: 0
  cleanness: 0
  loudness: 0
  emotive: 0
  subObjects:
  - preset: {fileID: 11400000, guid: 1971af4a26b2ac944a98c163c292f904, type: 2}
    parent: 
    localPos: {x: 0.307, y: -0.0014, z: -0.074}
    localRot: {x: -0, y: 8.098759, z: -0}
    belongsTo: 0
    security: 0
  - preset: {fileID: 11400000, guid: 1971af4a26b2ac944a98c163c292f904, type: 2}
    parent: 
    localPos: {x: -0.013, y: -0.0014, z: -0.221}
    localRot: {x: -0, y: 349.71857, z: 0}
    belongsTo: 0
    security: 0
  - preset: {fileID: 11400000, guid: 1971af4a26b2ac944a98c163c292f904, type: 2}
    parent: 
    localPos: {x: 0.029, y: -0.0014, z: 0.055}
    localRot: {x: -0, y: 10.4046755, z: -0}
    belongsTo: 0
    security: 0
  - preset: {fileID: 11400000, guid: 1971af4a26b2ac944a98c163c292f904, type: 2}
    parent: 
    localPos: {x: -0.287, y: -0.0014, z: -0.064}
    localRot: {x: -0, y: 354.6959, z: 0}
    belongsTo: 0
    security: 0
  testForModifiers: 0
  forcePublicIllegal: 0
  hidingEnterTransition: {fileID: 0}
  hidingExitTransition: {fileID: 0}
  hidingEnterTransition2: {fileID: 0}
  hidingExitTransition2: {fileID: 0}
  map: {fileID: 0}
  drawUnderWalls: 0
  ignoreDirection: 0
  fingerprintsEnabled: 1
  printsSource: 1
  fingerprintDensity: 1
  alterAreaLighting: 0
  possibleColours: []
  lightOperation: 0
  lightAmount: 0.12
  brightnessModifier: 10
  purchasable: 1
  cost: 10
  decorClass: 6
  staticImage: {fileID: 21300000, guid: 94074576ffef9424cb19c496cd6b9c87, type: 3}
  imagePos: {x: 0, y: 0, z: 0}
  imageRot: {x: 0, y: 0, z: 0}
  imageScale: 1
  imagePrefabOverride: {fileID: 0}
  isJobBoard: 0
  isWorkPosition: 0
  isPlant: 0
  isArt: 0
  isSecurityCamera: 0
  artOrientation: 0
  createSelfEmployed: {fileID: 0}
  workPositionID: 0
  spawnObjectOnChance: 1
  spawnObjectsOnPlacement: []
