%YAML 1.1
%TAG !u! tag:unity3d.com,2011:
--- !u!114 &11400000
MonoBehaviour:
  m_ObjectHideFlags: 0
  m_CorrespondingSourceObject: {fileID: 0}
  m_PrefabInstance: {fileID: 0}
  m_PrefabAsset: {fileID: 0}
  m_GameObject: {fileID: 0}
  m_Enabled: 1
  m_EditorHideFlags: 0
  m_Script: {fileID: 11500000, guid: bb9ed8324cc49a34b83a9c923c730080, type: 3}
  m_Name: BuildingJanitor
  m_EditorClassIdentifier: 
  presetName: BuildingJanitor
  collar: 0
  work: 3
  tags: 
  jobFillPriority: 0
  workOutfit:
  - {fileID: 11400000, guid: aa4ca11de5608674399d85d881f0d16e, type: 2}
  - {fileID: 11400000, guid: 32d57d4523bb9534b97f7ce37f3ff52f, type: 2}
  - {fileID: 11400000, guid: b343128b3ee476e46920a5a743c05a25, type: 2}
  - {fileID: 11400000, guid: d8d5988337e6791479f6f031ff0b415a, type: 2}
  - {fileID: 11400000, guid: ea7088996a5ae2f4d8408ba6eb83658c, type: 2}
  selfEmployed: 0
  receptionist: 0
  canAskAboutJob: 1
  janitor: 1
  security: 0
  isCriminal: 0
  isPublicFacing: 0
  minimumPerCity: 0
  societalClass: 0.5
  skewPersonalityTowardsJobFit: 0.4
  skewHumility: 0
  humility: 0
  skewEmotionality: 0
  emotionality: 0
  skewExtraversion: 0
  extraversion: 0
  skewAgreeableness: 0
  agreeableness: 0
  skewConscientiousness: 0
  conscientiousness: 0
  skewCreativity: 0
  creativity: 0
  shiftTimeIsImportant: 1
  shiftType: 0
  countsTowardsOpenHoursCoverage: 1
  lunchBreakAllowed: 1
  jobAIPosition: 2
  bannedRooms: []
  actionSetup:
  - actions:
    - {fileID: 11400000, guid: 22dfa81011283264ba907a5e24d7733e, type: 2}
    condition: 0
    chance: 1
    traitModifiers: []
    statusModifiers: []
  jobPostion: 0
  ownsWorkPosition: 0
  preferredRooms: []
  potterFrequency: {x: 0.5, y: 1}
  onlyPotterIfSomebodyElseWorking: 0
  potterActions: []
  namePlacard: 0
  employeePhoto: 1
  businessCards: 0
  workRota: 1
  employmentContract: 1
  jobItems: []
  inventoryItems:
  - {fileID: 11400000, guid: f5da78867ff1fde41bf286bde105b7c9, type: 2}
  joinGroups: []
  addDialog: []
  selectedPreset: {fileID: 0}
