%YAML 1.1
%TAG !u! tag:unity3d.com,2011:
--- !u!114 &11400000
MonoBehaviour:
  m_ObjectHideFlags: 0
  m_CorrespondingSourceObject: {fileID: 0}
  m_PrefabInstance: {fileID: 0}
  m_PrefabAsset: {fileID: 0}
  m_GameObject: {fileID: 0}
  m_Enabled: 1
  m_EditorHideFlags: 0
  m_Script: {fileID: 11500000, guid: bb9ed8324cc49a34b83a9c923c730080, type: 3}
  m_Name: SecurityGuard
  m_EditorClassIdentifier: 
  presetName: SecurityGuard
  collar: 0
  work: 0
  tags: 
  jobFillPriority: 1
  workOutfit:
  - {fileID: 11400000, guid: 2a784f428c825ac4fa8aa3854ca43400, type: 2}
  - {fileID: 11400000, guid: 4aa5819ada313db4d9b827685440045b, type: 2}
  - {fileID: 11400000, guid: 55e48d05a7b0dea49bb915712d62b41b, type: 2}
  - {fileID: 11400000, guid: cf05b43dccea579469e978499602532d, type: 2}
  - {fileID: 11400000, guid: 3376268afbbd72c4b882d0d4fa390940, type: 2}
  - {fileID: 11400000, guid: 4b1398165e7269d4d82858aa4c5e145c, type: 2}
  selfEmployed: 0
  receptionist: 0
  canAskAboutJob: 1
  janitor: 0
  security: 1
  isCriminal: 0
  isPublicFacing: 0
  minimumPerCity: 0
  societalClass: 0.5
  skewPersonalityTowardsJobFit: 0.4
  skewHumility: 0
  humility: 0
  skewEmotionality: 0
  emotionality: 0
  skewExtraversion: 0
  extraversion: 0
  skewAgreeableness: 0
  agreeableness: 0
  skewConscientiousness: 0
  conscientiousness: 0
  skewCreativity: 0
  creativity: 0
  shiftTimeIsImportant: 1
  shiftType: 3
  countsTowardsOpenHoursCoverage: 1
  lunchBreakAllowed: 1
  jobAIPosition: 1
  bannedRooms: []
  actionSetup:
  - actions:
    - {fileID: 11400000, guid: bf8f310c501eeb640a63e5d7be3a059a, type: 2}
    condition: 0
    chance: 1
    traitModifiers: []
    statusModifiers: []
  jobPostion: 0
  ownsWorkPosition: 0
  preferredRooms: []
  potterFrequency: {x: 0.5, y: 1}
  onlyPotterIfSomebodyElseWorking: 0
  potterActions: []
  namePlacard: 0
  employeePhoto: 1
  businessCards: 0
  workRota: 1
  employmentContract: 1
  jobItems: []
  inventoryItems:
  - {fileID: 11400000, guid: f5da78867ff1fde41bf286bde105b7c9, type: 2}
  joinGroups: []
  addDialog: []
  selectedPreset: {fileID: 0}
