%YAML 1.1
%TAG !u! tag:unity3d.com,2011:
--- !u!114 &11400000
MonoBehaviour:
  m_ObjectHideFlags: 0
  m_CorrespondingSourceObject: {fileID: 0}
  m_PrefabInstance: {fileID: 0}
  m_PrefabAsset: {fileID: 0}
  m_GameObject: {fileID: 0}
  m_Enabled: 1
  m_EditorHideFlags: 0
  m_Script: {fileID: 11500000, guid: a4c412706c630874d98b170eab28573d, type: 3}
  m_Name: TimeAndLocation
  m_EditorClassIdentifier: 
  presetName: TimeAndLocation
  canOnlyBeMatchedWith: 0
  matchConditions: 02000000
  onlyMatchWithMatchParents: 1
  canMatchWithItself: 0
  onlyMatchWithThis: {fileID: 0}
  linkFromKeys: 01000000
  linkToKeys: 01000000
