%YAML 1.1
%TAG !u! tag:unity3d.com,2011:
--- !u!114 &11400000
MonoBehaviour:
  m_ObjectHideFlags: 0
  m_CorrespondingSourceObject: {fileID: 0}
  m_PrefabInstance: {fileID: 0}
  m_PrefabAsset: {fileID: 0}
  m_GameObject: {fileID: 0}
  m_Enabled: 1
  m_EditorHideFlags: 0
  m_Script: {fileID: 11500000, guid: 2c88572fda533074eaa69ed43a30fd8c, type: 3}
  m_Name: WellRested
  m_EditorClassIdentifier: 
  presetName: WellRested
  color: {r: 0.6380325, g: 1, b: 0.3897059, a: 1}
  alternateColour: {r: 1, g: 1, b: 1, a: 1}
  icon: {fileID: 21300000, guid: 1791abd0109954b44807ecd4147e8fab, type: 3}
  alternateIcon: {fileID: 0}
  minimizeToIcon: 1
  pulseBackground: 0
  pulseIcon: 0
  pulseIconAdditiveColour: {r: 0.227451, g: 0.23529413, b: 0.25490198, a: 1}
  includeDescription: 1
  instancingType: 0
  autoNotificationMessage: 0
  priority: 2
  fadeToWhite: 1
  enableProgressBar: 0
  barTracking: 0
  useCustomMethod: 1
  onAcquire: {fileID: 11400000, guid: 71bad01320f36984a91f61e4829c819a, type: 2}
  onRemove: {fileID: 11400000, guid: 652b05adb66318847bc1cc698419c3b8, type: 2}
  countType: 0
  overrrideColorWithCount: 0
  displayCountCountsInMainText: 0
  replaceDescriptionBasedOnCounts: 0
  displayAddressInDetailText: 0
  displayBuildingInDetailText: 0
  listCountsInDetailText: 0
  displayFineTotalInMainText: 0
  alertWhenNewCountIsAdded: 0
  displayTotalFineWhenMinimized: 0
  countConfig:
  - name: Well Rested
    icon: {fileID: 0}
    colour: {r: 0, g: 0, b: 0, a: 0}
    penaltyRule: 0
    penalty: 0
    onAcquire: {fileID: 0}
  stopsRecovery: 0
  stopsSprint: 0
  stopsJump: 0
  recoveryRatePlusMP: 0.5
  maxHealthPlusMP: 0.2
  movementSpeedPlusMP: 0.1
  temperatureGainPlusMP: 0
  damageIncomingPlusMP: 0
  damageOutgoingPlusMP: 0
  drunkControls: 0
  tripChanceWet: 0
  tripChanceDrunk: 0
  affectHeadBob: 0
  headBob:
    serializedVersion: 2
    m_Curve: []
    m_PreInfinity: 2
    m_PostInfinity: 2
    m_RotationOrder: 4
  drunkVision: 0
  shiverVision: 0
  drunkLensDistort: 0
  headacheVision: 0
  bloomIntensityPlusMP: 0
  motionBlurPlusMP: 0
  chromaticAbberationAmount: 0
  vignetteAmount: 0
  expsosure: 0
  useChannelMixer: 0
  redR: 0
  redG: 0
  redB: 0
  greenR: 0
  greenG: 0
  greenB: 0
  blueR: 0
  blueG: 0
  blueB: 0
