%YAML 1.1
%TAG !u! tag:unity3d.com,2011:
--- !u!114 &11400000
MonoBehaviour:
  m_ObjectHideFlags: 0
  m_CorrespondingSourceObject: {fileID: 0}
  m_PrefabInstance: {fileID: 0}
  m_PrefabAsset: {fileID: 0}
  m_GameObject: {fileID: 0}
  m_Enabled: 1
  m_EditorHideFlags: 0
  m_Script: {fileID: 11500000, guid: 7559a64a9e831bf4cacd0fc9e5cb79a5, type: 3}
  m_Name: Mailboxes40
  m_EditorClassIdentifier: 
  disable: 1
  presetName: Mailboxes40
  clusterElements:
  - onlyValidIfPreviousObjectPlaced: 0
    placements:
    - {x: 0, y: 0}
    furnitureClass: {fileID: 11400000, guid: ba0d0857c9589014f9fe388b5af614f0, type: 2}
    facing: 0
    importantToCluster: 1
    chanceOfPlacementAttempt: 1
    placementScoreBoost: 0
    useFovBlock: 0
    blockDirection: {x: 0, y: 0}
    maxFOVBlockDistance: 0
    localScale: {x: 1, y: 1, z: 1}
    positionOffset: {x: 0, y: 0, z: 0}
  - onlyValidIfPreviousObjectPlaced: 0
    placements:
    - {x: 1, y: 0}
    furnitureClass: {fileID: 11400000, guid: d451d223f2010314993ac642982ba491, type: 2}
    facing: 0
    importantToCluster: 1
    chanceOfPlacementAttempt: 1
    placementScoreBoost: 0
    useFovBlock: 0
    blockDirection: {x: 0, y: 0}
    maxFOVBlockDistance: 0
    localScale: {x: 1, y: 1, z: 1}
    positionOffset: {x: 0, y: 0, z: 0}
  placementChance: 1
  roomPriority: 11
  modifyPriorityTraits: []
  modifyPlacementChanceTraits: []
  essentialFurniture: 1
  updatePreCalculated: 0
  calculatedMinRoomSize: 1
  minimumZeroNodeWallCount: 1
  maximumZeroNodeWallCount: 3
  zeroNodeClasses:
  - {fileID: 11400000, guid: ba0d0857c9589014f9fe388b5af614f0, type: 2}
  minimumRoomSize: 1
  useMaximumRoomSize: 0
  maximumRoomSize: 99
  useCustomZeroNodeMinWallCount: 0
  customZeroNodeMinWallCount: 0
  useCustomZeroNodeMaxWallCount: 0
  customZeroNodeMaxWallCount: 0
  zeroNodeWallRules: []
  allowedInOpenPlan: 0
  allowInResidential: 0
  allowInCompanies: 0
  allowOnStreets: 0
  coastalOnly: 0
  limitToDistricts: 0
  allowedInDistricts: []
  banFromDistricts: 0
  notAllowedInDistricts: []
  skipIfNoAddressInhabitants: 0
  allowedRoomFilters:
  - {fileID: 11400000, guid: 74981c17227ed2845addd1c8d229b797, type: 2}
  - {fileID: 11400000, guid: 7a14d10fff6542d4d90a385b2e592c91, type: 2}
  limitPerRoom: 0
  maximumPerRoom: 1
  limitPerAddress: 1
  maximumPerAddress: 1
  limitToFloor: 1
  allowedOnFloor: 0
  wealthLimit: 0
  minimumWealth: 0
  maximumWealth: 1
  useRoomGrub: 0
  minimumGrub: 0
  maximumGrub: 1
  useBuildingResidences: 1
  minimumResidences: 31
  maximumResidences: 40
  addClustersOnSuccess: []
  removeClustersOnSuccess:
  - {fileID: 11400000, guid: 82e5950d4ccc08144b4f587e63148dd1, type: 2}
  - {fileID: 11400000, guid: 95069436d7e4cf94283df232740ffff4, type: 2}
  - {fileID: 11400000, guid: 52e06b41e74278240a751d9799cf99dd, type: 2}
  - {fileID: 11400000}
  - {fileID: 11400000, guid: 81330419acaea864db561819b7c2d34d, type: 2}
  - {fileID: 11400000, guid: 527fb701c765b6842b40af50fa31d091, type: 2}
  - {fileID: 11400000, guid: e89745f72841f354294052ea60421e2f, type: 2}
  - {fileID: 11400000, guid: 0f986a92a1752364cb959091e3253d29, type: 2}
  removeClustersOnFail: []
  securityDoor: 0
  isBreakerBox: 0
  enableDebug: 0
