%YAML 1.1
%TAG !u! tag:unity3d.com,2011:
--- !u!114 &11400000
MonoBehaviour:
  m_ObjectHideFlags: 0
  m_CorrespondingSourceObject: {fileID: 0}
  m_PrefabInstance: {fileID: 0}
  m_PrefabAsset: {fileID: 0}
  m_GameObject: {fileID: 0}
  m_Enabled: 1
  m_EditorHideFlags: 0
  m_Script: {fileID: 11500000, guid: bb9ed8324cc49a34b83a9c923c730080, type: 3}
  m_Name: HeadOfHR
  m_EditorClassIdentifier: 
  presetName: HeadOfHR
  collar: 1
  work: 1
  tags: 
  jobFillPriority: 3
  workOutfit:
  - {fileID: 11400000, guid: 2e65e2c91ac3b154d91fd54c53a41f79, type: 2}
  - {fileID: 11400000, guid: a4ffb6d3a052b2340a758140c81a22d9, type: 2}
  - {fileID: 11400000, guid: cdc2c31d02bd2434f81819b45d220987, type: 2}
  - {fileID: 11400000, guid: 4aaf07581b0ab654d82c9e73f202793a, type: 2}
  - {fileID: 11400000, guid: fb0d48d1265878046a183b971832a23e, type: 2}
  selfEmployed: 0
  receptionist: 0
  canAskAboutJob: 1
  janitor: 0
  security: 0
  isCriminal: 0
  isPublicFacing: 0
  minimumPerCity: 0
  societalClass: 0.5
  skewPersonalityTowardsJobFit: 0.4
  skewHumility: 0
  humility: 0
  skewEmotionality: 0
  emotionality: 0
  skewExtraversion: 0
  extraversion: 0
  skewAgreeableness: 0
  agreeableness: 0
  skewConscientiousness: 0
  conscientiousness: 0
  skewCreativity: 0
  creativity: 0
  shiftTimeIsImportant: 1
  shiftType: 1
  countsTowardsOpenHoursCoverage: 1
  lunchBreakAllowed: 1
  jobAIPosition: 0
  bannedRooms: []
  actionSetup:
  - actions:
    - {fileID: 11400000, guid: 35cee639bc26e834094bfaf417c1bf58, type: 2}
    condition: 0
    chance: 1
    traitModifiers: []
    statusModifiers: []
  jobPostion: 2
  ownsWorkPosition: 1
  preferredRooms:
  - {fileID: 11400000, guid: cf2ce02e92e0f2d46bfa574bfceeab2a, type: 2}
  - {fileID: 11400000, guid: 547b5bad4ded3504a9f616ff6cda7af8, type: 2}
  potterFrequency: {x: 0.5, y: 1}
  onlyPotterIfSomebodyElseWorking: 0
  potterActions: []
  namePlacard: 1
  employeePhoto: 1
  businessCards: 1
  workRota: 1
  employmentContract: 1
  jobItems:
  - {fileID: 11400000, guid: a53d2f8a65cfa9b47ae8adf4a6c8b437, type: 2}
  - {fileID: 11400000, guid: 22ad827f31c9d454ab0351e0fb5f23c5, type: 2}
  - {fileID: 11400000, guid: 22ad827f31c9d454ab0351e0fb5f23c5, type: 2}
  - {fileID: 11400000, guid: 22ad827f31c9d454ab0351e0fb5f23c5, type: 2}
  - {fileID: 11400000, guid: 22ad827f31c9d454ab0351e0fb5f23c5, type: 2}
  inventoryItems:
  - {fileID: 11400000, guid: f5da78867ff1fde41bf286bde105b7c9, type: 2}
  joinGroups: []
  addDialog: []
  selectedPreset: {fileID: 11400000, guid: edc7fa80b0e301d46b171567d3edfdc9, type: 2}
