%YAML 1.1
%TAG !u! tag:unity3d.com,2011:
--- !u!114 &11400000
MonoBehaviour:
  m_ObjectHideFlags: 0
  m_CorrespondingSourceObject: {fileID: 0}
  m_PrefabInstance: {fileID: 0}
  m_PrefabAsset: {fileID: 0}
  m_GameObject: {fileID: 0}
  m_Enabled: 1
  m_EditorHideFlags: 0
  m_Script: {fileID: 11500000, guid: 0da14b35f8d566c4fb57d76d13c3a1da, type: 3}
  m_Name: RetailItemSingleton
  m_EditorClassIdentifier: 
  presetName: RetailItemSingleton
  subClass: RetailItem
  windowStyle: {fileID: 11400000, guid: 9ab7c23d1b0116f4da1d39bfec7f96a3, type: 2}
  useDataKeys: 0
  validKeys: []
  passiveTies: []
  notifyOfTies: 0
  useBelongsToInName: 0
  isSingleton: 0
  disableHistory: 0
  allowCustomNames: 1
  markAsDiscoveredOnAnyInteraction: 1
  forceWorldInteraction: 0
  useWindowFocusMode: 0
  iconSpriteLarge: {fileID: 21300000, guid: 6c2b5019e1744b3459fe4546f690c412, type: 3}
  defaultNullImage: {fileID: 2800000, guid: cd27e3ecf95414646aee61c2cc3cdc6f, type: 3}
  useInGamePhoto: 0
  useWriter: 0
  relativeCamPhotoPos: {x: 0, y: 0, z: 0}
  relativeCamPhotoEuler: {x: 0, y: 0, z: 0}
  captureRules: 0
  changeTimeOfDay: 0
  captureTimeOfDay: 12
  useCaptureLight: 1
  useSurveillanceCapture: 0
  itemOwner: 0
  itemWriter: 0
  itemReceiver: 0
  factSetup: []
  addFactLinks: []
  discoverOnCreate: 1
  keyMergeOnDiscovery: []
  discoveryTriggers: 
  applicationOnDiscover: []
  ddsDocumentID: 715b743b-ee3e-4d93-99c5-fc5b1882b2f0
  isMatchParent: 1
  matchTypes:
  - {fileID: 11400000, guid: 5c60dd8556c9c9f46bc3b8740bb69b3b, type: 2}
  enableSummary: 1
  enableFacts: 1
  pinnedStyle: 0
  pinnedBackgroundColour: {r: 1, g: 1, b: 1, a: 1}
