%YAML 1.1
%TAG !u! tag:unity3d.com,2011:
--- !u!114 &11400000
MonoBehaviour:
  m_ObjectHideFlags: 0
  m_CorrespondingSourceObject: {fileID: 0}
  m_PrefabInstance: {fileID: 0}
  m_PrefabAsset: {fileID: 0}
  m_GameObject: {fileID: 0}
  m_Enabled: 1
  m_EditorHideFlags: 0
  m_Script: {fileID: 11500000, guid: e512325a7823fa2428f27f48fedbb6af, type: 3}
  m_Name: FemaleSkinnyUnderwearShortsAndBra
  m_EditorClassIdentifier: 
  presetName: FemaleSkinnyUnderwearShortsAndBra
  covers: 01000000000000000a0000000b000000
  outfitCategories: 0700000008000000
  suitableForGenders: 0100000002000000
  suitableForBuilds: 00000000
  tags: 
  enableFacialFeatureSetup: 0
  suitableForHairstyle: 
  isHead: 0
  pupilsOffset: {x: 0, y: 0.15, z: 0.1205}
  eyebrowsOffset: {x: 0, y: 0.1719, z: 0.133}
  mouthOffset: {x: 0, y: 0.045, z: 0.151}
  hatRenderCompatible: 0
  excludeHats: []
  hairRenderMode: 0
  setFootwear: 0
  footwear: 3
  priority: 2
  onlyChooseIfAllModelPartsAreAvailable: 0
  incompatibility: []
  useWealthValues: 0
  minimumWealth: 0
  maximumWealth: 1
  baseColourSource: 3
  colourBase: []
  colour1Source: 2
  colour1: []
  colour2Source: 1
  colour2:
  - {fileID: 11400000, guid: 3680d0cae54422247931ac46552a04e2, type: 2}
  - {fileID: 11400000, guid: b02afa79cd7df394b8745dcf293d8221, type: 2}
  - {fileID: 11400000, guid: c0dadb8990475f746acdc0b6c9f1f8c2, type: 2}
  - {fileID: 11400000, guid: e72fd4181c5ab214392aa28773624bb5, type: 2}
  - {fileID: 11400000, guid: 623af1cb486750b4a9e1572bf7c99f00, type: 2}
  - {fileID: 11400000, guid: 03f85804621d0cc4eb64a9b11f1e076b, type: 2}
  colour3Source: 0
  colour3: []
  includeInPersonalityMatching: 1
  baseChance: 1
  useHEXACO: 0
  hexaco:
    outputMin: 1
    outputMax: 10
    enableFeminineMasculine: 0
    feminineMasculine: 0
    enableHumility: 0
    humility: 0
    enableEmotionality: 0
    emotionality: 0
    enableExtraversion: 0
    extraversion: 0
    enableAgreeableness: 0
    agreeableness: 0
    enableConscientiousness: 0
    conscientiousness: 0
    enableCreativity: 0
    creativity: 0
  useTraits: 0
  characterTraits: []
  models:
  - prefab: {fileID: 3520787646737229456, guid: ae118f4705672c94890aeafb4d11f96e,
      type: 3}
    anchor: 0
    offsetPosition: {x: 0, y: 0, z: 0}
    offsetEuler: {x: 0, y: 0, z: 0}
    exclusiveAnchorModel: 1
  - prefab: {fileID: 5921585362017363674, guid: b01b53259af5bc24c956330e8a337e73,
      type: 3}
    anchor: 10
    offsetPosition: {x: 0, y: 0, z: 0}
    offsetEuler: {x: 0, y: 0, z: 0}
    exclusiveAnchorModel: 1
  - prefab: {fileID: 5921585362017363674, guid: b01b53259af5bc24c956330e8a337e73,
      type: 3}
    anchor: 11
    offsetPosition: {x: 0, y: 0, z: 0}
    offsetEuler: {x: 0, y: 0, z: 0}
    exclusiveAnchorModel: 1
  - prefab: {fileID: 848706218541806885, guid: d9d6f59f43221f0449d07052906c2ec9, type: 3}
    anchor: 1
    offsetPosition: {x: 0, y: 0, z: 0}
    offsetEuler: {x: 0, y: 0, z: 0}
    exclusiveAnchorModel: 1
