%YAML 1.1
%TAG !u! tag:unity3d.com,2011:
--- !u!114 &11400000
MonoBehaviour:
  m_ObjectHideFlags: 0
  m_CorrespondingSourceObject: {fileID: 0}
  m_PrefabInstance: {fileID: 0}
  m_PrefabAsset: {fileID: 0}
  m_GameObject: {fileID: 0}
  m_Enabled: 1
  m_EditorHideFlags: 0
  m_Script: {fileID: 11500000, guid: a4297aa2cd604254b9ff3ad39191d95f, type: 3}
  m_Name: fingerptintScanner
  m_EditorClassIdentifier: 
  presetName: fingerptintScanner
  slotPriority: -3
  modelActive: 1
  idleClip: {fileID: 7400000, guid: 9b5bd967488ddca4d9d57c35d4c2277f, type: 2}
  selectionIcon: {fileID: 21300000, guid: 8122b4f1bd7a5e5499ed729618fda635, type: 3}
  summaryMsgID: fbbcf357-b77e-41bd-99fb-d97a87ddae40
  triggerTutorial: 
  disableBracketDisplayName: 0
  drawSpeed: 1.8
  holsterSpeed: 1
  leftHandObject: {fileID: 0}
  rightHandObject: {fileID: 7463767865939834379, guid: 0b111f50d7459594e83b69d89d339eb3,
    type: 3}
  spawnScale: {x: 0.7, y: 0.7, z: 0.7}
  useFoodSlotItem: 0
  useAlternateTrashObjects: 0
  leftHandObjectTrash: {fileID: 0}
  rightHandObjectTrash: {fileID: 0}
  actions: []
  drawnNerveModifier: 0
  barkTriggerChance: 0
  bark: 34
  compatibleWithLockedIn: 1
  compatibleWithHidden: 1
  equipSoundDelay: 1.75
  equipEvent: {fileID: 11400000, guid: d4681af84ff032745aa3f5f6ba1781ca, type: 2}
  holsterSoundDelay: 0
  holsterEvent: {fileID: 11400000, guid: 0ef401e6bb661584faf775bd7fae4e0c, type: 2}
  activeLoop: {fileID: 11400000, guid: e7e3bec128915f54594c38b6294abe7a, type: 2}
