%YAML 1.1
%TAG !u! tag:unity3d.com,2011:
--- !u!114 &11400000
MonoBehaviour:
  m_ObjectHideFlags: 0
  m_CorrespondingSourceObject: {fileID: 0}
  m_PrefabInstance: {fileID: 0}
  m_PrefabAsset: {fileID: 0}
  m_GameObject: {fileID: 0}
  m_Enabled: 1
  m_EditorHideFlags: 0
  m_Script: {fileID: 11500000, guid: a4297aa2cd604254b9ff3ad39191d95f, type: 3}
  m_Name: fists
  m_EditorClassIdentifier: 
  presetName: fists
  slotPriority: 1
  modelActive: 1
  idleClip: {fileID: 7400000, guid: c35c715e3af89e3419829ae76ba7566c, type: 2}
  selectionIcon: {fileID: 21300000, guid: 9d2523d00c945824aaf411a0e37788d4, type: 3}
  summaryMsgID: 30feea68-0df9-4c6d-bfa3-b861142e624e
  triggerTutorial: 
  disableBracketDisplayName: 0
  drawSpeed: 2
  holsterSpeed: 2.5
  leftHandObject: {fileID: 0}
  rightHandObject: {fileID: 0}
  spawnScale: {x: 1, y: 1, z: 1}
  useFoodSlotItem: 0
  useAlternateTrashObjects: 0
  leftHandObjectTrash: {fileID: 0}
  rightHandObjectTrash: {fileID: 0}
  actions:
  - interactionName: Counter
    action: {fileID: 11400000, guid: 45e0d52c5ac7042499018b316f9cae5a, type: 2}
    useDefaultKeySetting: 0
    keyOverride: 2
    specialCase: 0
    usableByAI: 0
    aiUsageDelay: 0
    effectSwitchStates: []
    onlyActiveIf: []
    actionIsIllegal: 0
    availableWhileIllegal: 1
    availableWhileWitnessesToIllegal: 0
    availableWhileLockedIn: 0
    availableWhileJumping: 1
    actionCost: 0
    useStrikethrough: 0
    isHidingPlace: 0
    onlyHidingPlaceIfPublic: 0
    soundEvent: {fileID: 0}
    playOnTrigger: 1
    availability: 1
    attackMainSpeed: 2
    attackTrasition: {fileID: 0}
    attackDelay: 0.5
    mainSpecialAction: 1
    mainUseSpecialColour: 1
    mainSpecialColour: {r: 0.30588236, g: 0.73333335, b: 0.9725491, a: 1}
    attackEvent: {fileID: 0}
    useCameraJolt: 0
    joltXRange: {x: 0, y: 0}
    joltYRange: {x: 0, y: 0}
    joltZRange: {x: 0, y: 0}
    joltAmplitude: 1
    joltSpeed: 1
  - interactionName: Punch
    action: {fileID: 11400000, guid: 45e0d52c5ac7042499018b316f9cae5a, type: 2}
    useDefaultKeySetting: 1
    keyOverride: 0
    specialCase: 0
    usableByAI: 0
    aiUsageDelay: 0
    effectSwitchStates: []
    onlyActiveIf: []
    actionIsIllegal: 1
    availableWhileIllegal: 1
    availableWhileWitnessesToIllegal: 0
    availableWhileLockedIn: 0
    availableWhileJumping: 1
    actionCost: 0
    useStrikethrough: 0
    isHidingPlace: 0
    onlyHidingPlaceIfPublic: 0
    soundEvent: {fileID: 0}
    playOnTrigger: 1
    availability: 1
    attackMainSpeed: 1.4
    attackTrasition: {fileID: 11400000, guid: db19c3b165cd03745aaa9c07956e40e9, type: 2}
    attackDelay: 0.8
    mainSpecialAction: 4
    mainUseSpecialColour: 0
    mainSpecialColour: {r: 0, g: 0, b: 0, a: 0}
    attackEvent: {fileID: 11400000, guid: 95a504209dcdfaf4f905ff44b817a54a, type: 2}
    useCameraJolt: 1
    joltXRange: {x: 0, y: 0.1}
    joltYRange: {x: 0.85, y: 1}
    joltZRange: {x: 0, y: 0}
    joltAmplitude: 3
    joltSpeed: 1
  drawnNerveModifier: -0.2
  barkTriggerChance: 0.75
  bark: 35
  compatibleWithLockedIn: 0
  compatibleWithHidden: 0
  equipSoundDelay: 0
  equipEvent: {fileID: 0}
  holsterSoundDelay: 0
  holsterEvent: {fileID: 0}
  activeLoop: {fileID: 0}
