{
    "cityName": "Fairchild District",
    "build": "33.08",
    "shareCode": "Fairchild District.1.3304.mTYyt9ScB6SP196n",
    "citySize": {
        "x": 6.0,
        "y": 5.0
    },
    "population": 440
}