%YAML 1.1
%TAG !u! tag:unity3d.com,2011:
--- !u!74 &7400000
AnimationClip:
  m_ObjectHideFlags: 0
  m_PrefabParentObject: {fileID: 0}
  m_PrefabInternal: {fileID: 0}
  m_Name: 10
  serializedVersion: 6
  m_Legacy: 0
  m_Compressed: 0
  m_UseHighQualityCurve: 1
  m_RotationCurves: []
  m_CompressedRotationCurves: []
  m_EulerCurves: []
  m_PositionCurves: []
  m_ScaleCurves: []
  m_FloatCurves: []
  m_PPtrCurves:
  - curve:
    - time: 0
      value: {fileID: 21300000, guid: f8f535e7f689fd94787791d735046f3d, type: 3}
    - time: 0.016666668
      value: {fileID: 21300002, guid: f8f535e7f689fd94787791d735046f3d, type: 3}
    - time: 0.033333335
      value: {fileID: 21300004, guid: f8f535e7f689fd94787791d735046f3d, type: 3}
    - time: 0.05
      value: {fileID: 21300006, guid: f8f535e7f689fd94787791d735046f3d, type: 3}
    - time: 0.06666667
      value: {fileID: 21300008, guid: f8f535e7f689fd94787791d735046f3d, type: 3}
    - time: 0.083333336
      value: {fileID: 21300010, guid: f8f535e7f689fd94787791d735046f3d, type: 3}
    - time: 0.1
      value: {fileID: 21300012, guid: f8f535e7f689fd94787791d735046f3d, type: 3}
    - time: 0.11666667
      value: {fileID: 21300014, guid: f8f535e7f689fd94787791d735046f3d, type: 3}
    - time: 0.13333334
      value: {fileID: 21300016, guid: f8f535e7f689fd94787791d735046f3d, type: 3}
    - time: 0.15
      value: {fileID: 21300018, guid: f8f535e7f689fd94787791d735046f3d, type: 3}
    - time: 0.16666667
      value: {fileID: 21300020, guid: f8f535e7f689fd94787791d735046f3d, type: 3}
    - time: 0.18333334
      value: {fileID: 21300022, guid: f8f535e7f689fd94787791d735046f3d, type: 3}
    - time: 0.2
      value: {fileID: 21300024, guid: f8f535e7f689fd94787791d735046f3d, type: 3}
    - time: 0.21666667
      value: {fileID: 21300026, guid: f8f535e7f689fd94787791d735046f3d, type: 3}
    - time: 0.23333333
      value: {fileID: 21300028, guid: f8f535e7f689fd94787791d735046f3d, type: 3}
    - time: 0.25
      value: {fileID: 21300030, guid: f8f535e7f689fd94787791d735046f3d, type: 3}
    - time: 0.26666668
      value: {fileID: 21300032, guid: f8f535e7f689fd94787791d735046f3d, type: 3}
    - time: 0.28333336
      value: {fileID: 21300034, guid: f8f535e7f689fd94787791d735046f3d, type: 3}
    - time: 0.30000004
      value: {fileID: 21300036, guid: f8f535e7f689fd94787791d735046f3d, type: 3}
    - time: 0.31666672
      value: {fileID: 21300038, guid: f8f535e7f689fd94787791d735046f3d, type: 3}
    - time: 0.3333334
      value: {fileID: 21300040, guid: f8f535e7f689fd94787791d735046f3d, type: 3}
    - time: 0.35000008
      value: {fileID: 21300042, guid: f8f535e7f689fd94787791d735046f3d, type: 3}
    - time: 0.36666676
      value: {fileID: 21300044, guid: f8f535e7f689fd94787791d735046f3d, type: 3}
    - time: 0.38333344
      value: {fileID: 21300046, guid: f8f535e7f689fd94787791d735046f3d, type: 3}
    - time: 0.40000013
      value: {fileID: 21300048, guid: f8f535e7f689fd94787791d735046f3d, type: 3}
    - time: 0.4166668
      value: {fileID: 21300050, guid: f8f535e7f689fd94787791d735046f3d, type: 3}
    - time: 0.4333335
      value: {fileID: 21300052, guid: f8f535e7f689fd94787791d735046f3d, type: 3}
    - time: 0.45000017
      value: {fileID: 21300054, guid: f8f535e7f689fd94787791d735046f3d, type: 3}
    - time: 0.46666685
      value: {fileID: 21300056, guid: f8f535e7f689fd94787791d735046f3d, type: 3}
    - time: 0.48333353
      value: {fileID: 21300058, guid: f8f535e7f689fd94787791d735046f3d, type: 3}
    - time: 0.5000002
      value: {fileID: 21300060, guid: f8f535e7f689fd94787791d735046f3d, type: 3}
    - time: 0.5166668
      value: {fileID: 21300062, guid: f8f535e7f689fd94787791d735046f3d, type: 3}
    - time: 0.5333335
      value: {fileID: 21300064, guid: f8f535e7f689fd94787791d735046f3d, type: 3}
    - time: 0.55000013
      value: {fileID: 21300066, guid: f8f535e7f689fd94787791d735046f3d, type: 3}
    - time: 0.5666668
      value: {fileID: 21300068, guid: f8f535e7f689fd94787791d735046f3d, type: 3}
    - time: 0.58333343
      value: {fileID: 21300070, guid: f8f535e7f689fd94787791d735046f3d, type: 3}
    - time: 0.6000001
      value: {fileID: 21300072, guid: f8f535e7f689fd94787791d735046f3d, type: 3}
    - time: 0.61666673
      value: {fileID: 21300074, guid: f8f535e7f689fd94787791d735046f3d, type: 3}
    - time: 0.6333334
      value: {fileID: 21300076, guid: f8f535e7f689fd94787791d735046f3d, type: 3}
    - time: 0.65000004
      value: {fileID: 21300078, guid: f8f535e7f689fd94787791d735046f3d, type: 3}
    - time: 0.6666667
      value: {fileID: 21300080, guid: f8f535e7f689fd94787791d735046f3d, type: 3}
    - time: 0.68333334
      value: {fileID: 21300082, guid: f8f535e7f689fd94787791d735046f3d, type: 3}
    - time: 0.7
      value: {fileID: 21300084, guid: f8f535e7f689fd94787791d735046f3d, type: 3}
    - time: 0.71666664
      value: {fileID: 21300086, guid: f8f535e7f689fd94787791d735046f3d, type: 3}
    - time: 0.7333333
      value: {fileID: 21300088, guid: f8f535e7f689fd94787791d735046f3d, type: 3}
    - time: 0.74999994
      value: {fileID: 21300090, guid: f8f535e7f689fd94787791d735046f3d, type: 3}
    - time: 0.7666666
      value: {fileID: 21300092, guid: f8f535e7f689fd94787791d735046f3d, type: 3}
    - time: 0.78333324
      value: {fileID: 21300094, guid: f8f535e7f689fd94787791d735046f3d, type: 3}
    - time: 0.7999999
      value: {fileID: 21300096, guid: f8f535e7f689fd94787791d735046f3d, type: 3}
    - time: 0.81666654
      value: {fileID: 21300098, guid: f8f535e7f689fd94787791d735046f3d, type: 3}
    - time: 0.8333332
      value: {fileID: 21300100, guid: f8f535e7f689fd94787791d735046f3d, type: 3}
    - time: 0.84999985
      value: {fileID: 21300102, guid: f8f535e7f689fd94787791d735046f3d, type: 3}
    - time: 0.8666665
      value: {fileID: 21300104, guid: f8f535e7f689fd94787791d735046f3d, type: 3}
    attribute: m_Sprite
    path: 
    classID: 212
    script: {fileID: 0}
  m_SampleRate: 60
  m_WrapMode: 0
  m_Bounds:
    m_Center: {x: 0, y: 0, z: 0}
    m_Extent: {x: 0, y: 0, z: 0}
  m_ClipBindingConstant:
    genericBindings:
    - serializedVersion: 2
      path: 0
      attribute: 0
      script: {fileID: 0}
      typeID: 212
      customType: 23
      isPPtrCurve: 1
    pptrCurveMapping:
    - {fileID: 21300000, guid: f8f535e7f689fd94787791d735046f3d, type: 3}
    - {fileID: 21300002, guid: f8f535e7f689fd94787791d735046f3d, type: 3}
    - {fileID: 21300004, guid: f8f535e7f689fd94787791d735046f3d, type: 3}
    - {fileID: 21300006, guid: f8f535e7f689fd94787791d735046f3d, type: 3}
    - {fileID: 21300008, guid: f8f535e7f689fd94787791d735046f3d, type: 3}
    - {fileID: 21300010, guid: f8f535e7f689fd94787791d735046f3d, type: 3}
    - {fileID: 21300012, guid: f8f535e7f689fd94787791d735046f3d, type: 3}
    - {fileID: 21300014, guid: f8f535e7f689fd94787791d735046f3d, type: 3}
    - {fileID: 21300016, guid: f8f535e7f689fd94787791d735046f3d, type: 3}
    - {fileID: 21300018, guid: f8f535e7f689fd94787791d735046f3d, type: 3}
    - {fileID: 21300020, guid: f8f535e7f689fd94787791d735046f3d, type: 3}
    - {fileID: 21300022, guid: f8f535e7f689fd94787791d735046f3d, type: 3}
    - {fileID: 21300024, guid: f8f535e7f689fd94787791d735046f3d, type: 3}
    - {fileID: 21300026, guid: f8f535e7f689fd94787791d735046f3d, type: 3}
    - {fileID: 21300028, guid: f8f535e7f689fd94787791d735046f3d, type: 3}
    - {fileID: 21300030, guid: f8f535e7f689fd94787791d735046f3d, type: 3}
    - {fileID: 21300032, guid: f8f535e7f689fd94787791d735046f3d, type: 3}
    - {fileID: 21300034, guid: f8f535e7f689fd94787791d735046f3d, type: 3}
    - {fileID: 21300036, guid: f8f535e7f689fd94787791d735046f3d, type: 3}
    - {fileID: 21300038, guid: f8f535e7f689fd94787791d735046f3d, type: 3}
    - {fileID: 21300040, guid: f8f535e7f689fd94787791d735046f3d, type: 3}
    - {fileID: 21300042, guid: f8f535e7f689fd94787791d735046f3d, type: 3}
    - {fileID: 21300044, guid: f8f535e7f689fd94787791d735046f3d, type: 3}
    - {fileID: 21300046, guid: f8f535e7f689fd94787791d735046f3d, type: 3}
    - {fileID: 21300048, guid: f8f535e7f689fd94787791d735046f3d, type: 3}
    - {fileID: 21300050, guid: f8f535e7f689fd94787791d735046f3d, type: 3}
    - {fileID: 21300052, guid: f8f535e7f689fd94787791d735046f3d, type: 3}
    - {fileID: 21300054, guid: f8f535e7f689fd94787791d735046f3d, type: 3}
    - {fileID: 21300056, guid: f8f535e7f689fd94787791d735046f3d, type: 3}
    - {fileID: 21300058, guid: f8f535e7f689fd94787791d735046f3d, type: 3}
    - {fileID: 21300060, guid: f8f535e7f689fd94787791d735046f3d, type: 3}
    - {fileID: 21300062, guid: f8f535e7f689fd94787791d735046f3d, type: 3}
    - {fileID: 21300064, guid: f8f535e7f689fd94787791d735046f3d, type: 3}
    - {fileID: 21300066, guid: f8f535e7f689fd94787791d735046f3d, type: 3}
    - {fileID: 21300068, guid: f8f535e7f689fd94787791d735046f3d, type: 3}
    - {fileID: 21300070, guid: f8f535e7f689fd94787791d735046f3d, type: 3}
    - {fileID: 21300072, guid: f8f535e7f689fd94787791d735046f3d, type: 3}
    - {fileID: 21300074, guid: f8f535e7f689fd94787791d735046f3d, type: 3}
    - {fileID: 21300076, guid: f8f535e7f689fd94787791d735046f3d, type: 3}
    - {fileID: 21300078, guid: f8f535e7f689fd94787791d735046f3d, type: 3}
    - {fileID: 21300080, guid: f8f535e7f689fd94787791d735046f3d, type: 3}
    - {fileID: 21300082, guid: f8f535e7f689fd94787791d735046f3d, type: 3}
    - {fileID: 21300084, guid: f8f535e7f689fd94787791d735046f3d, type: 3}
    - {fileID: 21300086, guid: f8f535e7f689fd94787791d735046f3d, type: 3}
    - {fileID: 21300088, guid: f8f535e7f689fd94787791d735046f3d, type: 3}
    - {fileID: 21300090, guid: f8f535e7f689fd94787791d735046f3d, type: 3}
    - {fileID: 21300092, guid: f8f535e7f689fd94787791d735046f3d, type: 3}
    - {fileID: 21300094, guid: f8f535e7f689fd94787791d735046f3d, type: 3}
    - {fileID: 21300096, guid: f8f535e7f689fd94787791d735046f3d, type: 3}
    - {fileID: 21300098, guid: f8f535e7f689fd94787791d735046f3d, type: 3}
    - {fileID: 21300100, guid: f8f535e7f689fd94787791d735046f3d, type: 3}
    - {fileID: 21300102, guid: f8f535e7f689fd94787791d735046f3d, type: 3}
    - {fileID: 21300104, guid: f8f535e7f689fd94787791d735046f3d, type: 3}
  m_AnimationClipSettings:
    serializedVersion: 2
    m_AdditiveReferencePoseClip: {fileID: 0}
    m_AdditiveReferencePoseTime: 0
    m_StartTime: 0
    m_StopTime: 0.88333315
    m_OrientationOffsetY: 0
    m_Level: 0
    m_CycleOffset: 0
    m_HasAdditiveReferencePose: 0
    m_LoopTime: 1
    m_LoopBlend: 0
    m_LoopBlendOrientation: 0
    m_LoopBlendPositionY: 0
    m_LoopBlendPositionXZ: 0
    m_KeepOriginalOrientation: 0
    m_KeepOriginalPositionY: 1
    m_KeepOriginalPositionXZ: 0
    m_HeightFromFeet: 0
    m_Mirror: 0
  m_EditorCurves: []
  m_EulerEditorCurves: []
  m_HasGenericRootTransform: 0
  m_HasMotionFloatCurves: 0
  m_GenerateMotionCurves: 0
  m_Events: []
