%YAML 1.1
%TAG !u! tag:unity3d.com,2011:
--- !u!1045 &1
EditorBuildSettings:
  m_ObjectHideFlags: 0
  serializedVersion: 2
  m_Scenes:
  - enabled: 1
    path: Assets/Scenes/ControllerDetect.unity
    guid: 2e3a2d75e840f2b4fa0a06cf8a8a5527
  - enabled: 1
    path: Assets/Scenes/Main.unity
    guid: 18d5d6c022541a547b00db41feddad96
  m_configObjects:
    com.unity.addressableassets: {fileID: 11400000, guid: f2342e4be6892704c972295a6e87b741,
      type: 2}
