%YAML 1.1
%TAG !u! tag:unity3d.com,2011:
--- !u!114 &11400000
MonoBehaviour:
  m_ObjectHideFlags: 0
  m_CorrespondingSourceObject: {fileID: 0}
  m_PrefabInstance: {fileID: 0}
  m_PrefabAsset: {fileID: 0}
  m_GameObject: {fileID: 0}
  m_Enabled: 1
  m_EditorHideFlags: 0
  m_Script: {fileID: 11500000, guid: fb111766df45ba44989cdd513aed8749, type: 3}
  m_Name: PinnedNote
  m_EditorClassIdentifier: 
  presetName: PinnedNote
  limitCountPerObject: 0
  maxPerObject: 1
  perObjectSpawnChance: 1
  perInstanceSpawnChance: 1
  perInstanceModifiers: []
  typeLimit: 3
