%YAML 1.1
%TAG !u! tag:unity3d.com,2011:
--- !u!114 &11400000
MonoBehaviour:
  m_ObjectHideFlags: 0
  m_CorrespondingSourceObject: {fileID: 0}
  m_PrefabInstance: {fileID: 0}
  m_PrefabAsset: {fileID: 0}
  m_GameObject: {fileID: 0}
  m_Enabled: 1
  m_EditorHideFlags: 0
  m_Script: {fileID: 11500000, guid: fb111766df45ba44989cdd513aed8749, type: 3}
  m_Name: ToiletItem
  m_EditorClassIdentifier: 
  presetName: ToiletItem
  limitCountPerObject: 0
  maxPerObject: 1
  perObjectSpawnChance: 1
  perInstanceSpawnChance: 0
  perInstanceModifiers:
  - rule: 2
    traitList:
    - {fileID: 11400000, guid: 62d5b5002d4da8d418bc6ac72ea305d6, type: 2}
    mustPassForApplication: 0
    baseChance: 0.1
    reasonChance: 0
  - rule: 0
    traitList:
    - {fileID: 11400000, guid: eab8715264b047545bb9d96252d6406b, type: 2}
    mustPassForApplication: 0
    baseChance: 0.2
    reasonChance: 0
  - rule: 0
    traitList:
    - {fileID: 11400000, guid: cf32dfaa753f46243b8d615ab3e09dc1, type: 2}
    mustPassForApplication: 0
    baseChance: 0.5
    reasonChance: 0
  typeLimit: 3
