%YAML 1.1
%TAG !u! tag:unity3d.com,2011:
--- !u!114 &11400000
MonoBehaviour:
  m_ObjectHideFlags: 0
  m_CorrespondingSourceObject: {fileID: 0}
  m_PrefabInstance: {fileID: 0}
  m_PrefabAsset: {fileID: 0}
  m_GameObject: {fileID: 0}
  m_Enabled: 1
  m_EditorHideFlags: 0
  m_Script: {fileID: 11500000, guid: 7559a64a9e831bf4cacd0fc9e5cb79a5, type: 3}
  m_Name: FairyLightsWall
  m_EditorClassIdentifier: 
  presetName: FairyLightsWall
  disable: 0
  clusterElements:
  - onlyValidIfPreviousObjectPlaced: 1
    placements:
    - {x: 0, y: 0}
    furnitureClass: {fileID: 11400000, guid: b20eddb14b3b855488623b33b1fea5bd, type: 2}
    facing: 0
    importantToCluster: 1
    chanceOfPlacementAttempt: 1
    placementScoreBoost: 1
    useFovBlock: 0
    blockDirection: {x: 0, y: 0}
    maxFOVBlockDistance: 0
    localScale: {x: 1, y: 1, z: 1}
    positionOffset: {x: 0, y: 0, z: 0}
  - onlyValidIfPreviousObjectPlaced: 0
    placements:
    - {x: 1, y: 0}
    furnitureClass: {fileID: 11400000, guid: b20eddb14b3b855488623b33b1fea5bd, type: 2}
    facing: 0
    importantToCluster: 0
    chanceOfPlacementAttempt: 1
    placementScoreBoost: 1
    useFovBlock: 0
    blockDirection: {x: 0, y: 0}
    maxFOVBlockDistance: 0
    localScale: {x: 1, y: 1, z: 1}
    positionOffset: {x: 0, y: 0, z: 0}
  - onlyValidIfPreviousObjectPlaced: 0
    placements:
    - {x: 2, y: 0}
    furnitureClass: {fileID: 11400000, guid: b20eddb14b3b855488623b33b1fea5bd, type: 2}
    facing: 0
    importantToCluster: 0
    chanceOfPlacementAttempt: 1
    placementScoreBoost: 1
    useFovBlock: 0
    blockDirection: {x: 0, y: 0}
    maxFOVBlockDistance: 0
    localScale: {x: 1, y: 1, z: 1}
    positionOffset: {x: 0, y: 0, z: 0}
  - onlyValidIfPreviousObjectPlaced: 0
    placements:
    - {x: 3, y: 0}
    furnitureClass: {fileID: 11400000, guid: b20eddb14b3b855488623b33b1fea5bd, type: 2}
    facing: 0
    importantToCluster: 0
    chanceOfPlacementAttempt: 1
    placementScoreBoost: 1
    useFovBlock: 0
    blockDirection: {x: 0, y: 0}
    maxFOVBlockDistance: 0
    localScale: {x: 1, y: 1, z: 1}
    positionOffset: {x: 0, y: 0, z: 0}
  - onlyValidIfPreviousObjectPlaced: 0
    placements:
    - {x: 4, y: 0}
    furnitureClass: {fileID: 11400000, guid: b20eddb14b3b855488623b33b1fea5bd, type: 2}
    facing: 0
    importantToCluster: 0
    chanceOfPlacementAttempt: 1
    placementScoreBoost: 1
    useFovBlock: 0
    blockDirection: {x: 0, y: 0}
    maxFOVBlockDistance: 0
    localScale: {x: 1, y: 1, z: 1}
    positionOffset: {x: 0, y: 0, z: 0}
  - onlyValidIfPreviousObjectPlaced: 0
    placements:
    - {x: 5, y: 0}
    furnitureClass: {fileID: 11400000, guid: b20eddb14b3b855488623b33b1fea5bd, type: 2}
    facing: 0
    importantToCluster: 0
    chanceOfPlacementAttempt: 1
    placementScoreBoost: 1
    useFovBlock: 0
    blockDirection: {x: 0, y: 0}
    maxFOVBlockDistance: 0
    localScale: {x: 1, y: 1, z: 1}
    positionOffset: {x: 0, y: 0, z: 0}
  - onlyValidIfPreviousObjectPlaced: 0
    placements:
    - {x: 6, y: 0}
    furnitureClass: {fileID: 11400000, guid: b20eddb14b3b855488623b33b1fea5bd, type: 2}
    facing: 0
    importantToCluster: 0
    chanceOfPlacementAttempt: 1
    placementScoreBoost: 1
    useFovBlock: 0
    blockDirection: {x: 0, y: 0}
    maxFOVBlockDistance: 0
    localScale: {x: 1, y: 1, z: 1}
    positionOffset: {x: 0, y: 0, z: 0}
  - onlyValidIfPreviousObjectPlaced: 0
    placements:
    - {x: 7, y: 0}
    furnitureClass: {fileID: 11400000, guid: b20eddb14b3b855488623b33b1fea5bd, type: 2}
    facing: 0
    importantToCluster: 0
    chanceOfPlacementAttempt: 1
    placementScoreBoost: 1
    useFovBlock: 0
    blockDirection: {x: 0, y: 0}
    maxFOVBlockDistance: 0
    localScale: {x: 1, y: 1, z: 1}
    positionOffset: {x: 0, y: 0, z: 0}
  - onlyValidIfPreviousObjectPlaced: 0
    placements:
    - {x: 8, y: 0}
    furnitureClass: {fileID: 11400000, guid: b20eddb14b3b855488623b33b1fea5bd, type: 2}
    facing: 0
    importantToCluster: 0
    chanceOfPlacementAttempt: 1
    placementScoreBoost: 1
    useFovBlock: 0
    blockDirection: {x: 0, y: 0}
    maxFOVBlockDistance: 0
    localScale: {x: 1, y: 1, z: 1}
    positionOffset: {x: 0, y: 0, z: 0}
  - onlyValidIfPreviousObjectPlaced: 0
    placements:
    - {x: 9, y: 0}
    furnitureClass: {fileID: 11400000, guid: b20eddb14b3b855488623b33b1fea5bd, type: 2}
    facing: 0
    importantToCluster: 0
    chanceOfPlacementAttempt: 1
    placementScoreBoost: 1
    useFovBlock: 0
    blockDirection: {x: 0, y: 0}
    maxFOVBlockDistance: 0
    localScale: {x: 1, y: 1, z: 1}
    positionOffset: {x: 0, y: 0, z: 0}
  - onlyValidIfPreviousObjectPlaced: 0
    placements:
    - {x: 10, y: 0}
    furnitureClass: {fileID: 11400000, guid: b20eddb14b3b855488623b33b1fea5bd, type: 2}
    facing: 0
    importantToCluster: 0
    chanceOfPlacementAttempt: 1
    placementScoreBoost: 1
    useFovBlock: 0
    blockDirection: {x: 0, y: 0}
    maxFOVBlockDistance: 0
    localScale: {x: 1, y: 1, z: 1}
    positionOffset: {x: 0, y: 0, z: 0}
  - onlyValidIfPreviousObjectPlaced: 0
    placements:
    - {x: 11, y: 0}
    furnitureClass: {fileID: 11400000, guid: b20eddb14b3b855488623b33b1fea5bd, type: 2}
    facing: 0
    importantToCluster: 0
    chanceOfPlacementAttempt: 1
    placementScoreBoost: 1
    useFovBlock: 0
    blockDirection: {x: 0, y: 0}
    maxFOVBlockDistance: 0
    localScale: {x: 1, y: 1, z: 1}
    positionOffset: {x: 0, y: 0, z: 0}
  - onlyValidIfPreviousObjectPlaced: 0
    placements:
    - {x: 12, y: 0}
    furnitureClass: {fileID: 11400000, guid: b20eddb14b3b855488623b33b1fea5bd, type: 2}
    facing: 0
    importantToCluster: 0
    chanceOfPlacementAttempt: 1
    placementScoreBoost: 1
    useFovBlock: 0
    blockDirection: {x: 0, y: 0}
    maxFOVBlockDistance: 0
    localScale: {x: 1, y: 1, z: 1}
    positionOffset: {x: 0, y: 0, z: 0}
  placementChance: 1
  roomPriority: 2
  modifyPriorityTraits: []
  modifyPlacementChanceTraits: []
  essentialFurniture: 0
  updatePreCalculated: 0
  calculatedMinRoomSize: 1
  minimumZeroNodeWallCount: 1
  maximumZeroNodeWallCount: 3
  zeroNodeClasses:
  - {fileID: 11400000, guid: b20eddb14b3b855488623b33b1fea5bd, type: 2}
  minimumRoomSize: 1
  useMaximumRoomSize: 0
  maximumRoomSize: 99
  useCustomZeroNodeMinWallCount: 0
  customZeroNodeMinWallCount: 0
  useCustomZeroNodeMaxWallCount: 0
  customZeroNodeMaxWallCount: 0
  zeroNodeWallRules: []
  allowedInOpenPlan: 0
  allowInResidential: 0
  allowInCompanies: 1
  allowOnStreets: 1
  coastalOnly: 0
  limitToDistricts: 1
  allowedInDistricts:
  - {fileID: 11400000, guid: e8ec4cafa64817b4bba67ddd397c84ed, type: 2}
  - {fileID: 11400000, guid: e6754b574d1a94a4e9dda4275cdc772c, type: 2}
  - {fileID: 11400000, guid: 8b3f353f27e0537458ec542ee154b003, type: 2}
  - {fileID: 11400000, guid: 79e5715c0f6bf164ebb033a2de16a409, type: 2}
  banFromDistricts: 0
  notAllowedInDistricts: []
  skipIfNoAddressInhabitants: 0
  allowedRoomFilters:
  - {fileID: 11400000, guid: d1bfa1c547db3f54fb3b2f087a1f031f, type: 2}
  - {fileID: 11400000, guid: 00bedc558ddbbca45b387c59d674a7c9, type: 2}
  - {fileID: 11400000, guid: 2b658dceab15cb5409a5f04ea7340fa3, type: 2}
  - {fileID: 11400000, guid: 1ae06a672d6e9d243841cbf18341df81, type: 2}
  - {fileID: 11400000, guid: ff557ac56418edd48b07775301891788, type: 2}
  - {fileID: 11400000, guid: 099ab32fb64546548a7bb6b78bdb4312, type: 2}
  limitPerRoom: 1
  maximumPerRoom: 2
  limitPerAddress: 0
  maximumPerAddress: 1
  limitToFloor: 0
  allowedOnFloor: 0
  wealthLimit: 0
  minimumWealth: 0
  maximumWealth: 1
  useRoomGrub: 0
  minimumGrub: 0
  maximumGrub: 1
  useBuildingResidences: 0
  minimumResidences: 0
  maximumResidences: 40
  addClustersOnSuccess: []
  removeClustersOnSuccess: []
  removeClustersOnFail: []
  securityDoor: 0
  isBreakerBox: 0
  enableDebug: 0
