%YAML 1.1
%TAG !u! tag:unity3d.com,2011:
--- !u!114 &11400000
MonoBehaviour:
  m_ObjectHideFlags: 0
  m_CorrespondingSourceObject: {fileID: 0}
  m_PrefabInstance: {fileID: 0}
  m_PrefabAsset: {fileID: 0}
  m_GameObject: {fileID: 0}
  m_Enabled: 1
  m_EditorHideFlags: 0
  m_Script: {fileID: 11500000, guid: 7559a64a9e831bf4cacd0fc9e5cb79a5, type: 3}
  m_Name: PosterCommercial
  m_EditorClassIdentifier: 
  disable: 0
  presetName: PosterCommercial
  clusterElements:
  - onlyValidIfPreviousObjectPlaced: 0
    placements:
    - {x: 0, y: 0}
    furnitureClass: {fileID: 11400000, guid: ea4f5d8f82849d44da36dab278c01bb9, type: 2}
    facing: 0
    importantToCluster: 1
    chanceOfPlacementAttempt: 1
    placementScoreBoost: 0
    useFovBlock: 0
    blockDirection: {x: 0, y: 0}
    maxFOVBlockDistance: 0
    localScale: {x: 1, y: 1, z: 1}
    positionOffset: {x: 0, y: 0, z: 0}
  placementChance: 0.3
  roomPriority: 0
  modifyPriorityTraits: []
  modifyPlacementChanceTraits: []
  essentialFurniture: 0
  updatePreCalculated: 0
  calculatedMinRoomSize: 1
  minimumZeroNodeWallCount: 1
  maximumZeroNodeWallCount: 4
  zeroNodeClasses:
  - {fileID: 11400000, guid: ea4f5d8f82849d44da36dab278c01bb9, type: 2}
  minimumRoomSize: 9
  useMaximumRoomSize: 1
  maximumRoomSize: 99
  useMinimumTesselation: 0
  nodesMustBeUnoccupied: 1
  minimumTesselation: {x: 1, y: 1}
  allowedInOpenPlan: 0
  allowInResidential: 0
  allowInCompanies: 1
  allowOnStreets: 0
  coastalOnly: 0
  limitToDistricts: 0
  allowedInDistricts: []
  banFromDistricts: 0
  notAllowedInDistricts: []
  skipIfNoAddressInhabitants: 1
  allowedRoomFilters:
  - {fileID: 11400000, guid: 5c0090316566554409f175e7728c7c91, type: 2}
  limitPerRoom: 1
  maximumPerRoom: 2
  limitPerAddress: 0
  maximumPerAddress: 1
  limitToFloor: 0
  allowedOnFloor: 0
  limitPerBuilding: 0
  maximumPerBuilding: 1
  limitPerCity: 0
  maximumPerCity: 1
  wealthLimit: 0
  minimumWealth: 0
  maximumWealth: 0.4
  useRoomGrub: 0
  minimumGrub: 0
  maximumGrub: 1
  useBuildingResidences: 0
  minimumResidences: 0
  maximumResidences: 40
  removeClustersOnSuccess: []
  removeClustersOnFail: []
  securityDoor: 0
  isBreakerBox: 0
  enableDebug: 0
