%YAML 1.1
%TAG !u! tag:unity3d.com,2011:
--- !u!114 &11400000
MonoBehaviour:
  m_ObjectHideFlags: 0
  m_CorrespondingSourceObject: {fileID: 0}
  m_PrefabInstance: {fileID: 0}
  m_PrefabAsset: {fileID: 0}
  m_GameObject: {fileID: 0}
  m_Enabled: 1
  m_EditorHideFlags: 0
  m_Script: {fileID: 11500000, guid: 7559a64a9e831bf4cacd0fc9e5cb79a5, type: 3}
  m_Name: WallGrimeTop
  m_EditorClassIdentifier: 
  disable: 0
  presetName: WallGrimeTop
  clusterElements:
  - onlyValidIfPreviousObjectPlaced: 0
    placements:
    - {x: 0, y: 0}
    furnitureClass: {fileID: 11400000, guid: 90450d10964670249b3b35b9eb7776e5, type: 2}
    facing: 0
    importantToCluster: 1
    chanceOfPlacementAttempt: 1
    placementScoreBoost: 0
    useFovBlock: 0
    blockDirection: {x: 0, y: 0}
    maxFOVBlockDistance: 0
    localScale: {x: 1, y: 1, z: 1}
    positionOffset: {x: 0, y: 0, z: 0}
  - onlyValidIfPreviousObjectPlaced: 0
    placements:
    - {x: 1, y: 0}
    furnitureClass: {fileID: 11400000, guid: 90450d10964670249b3b35b9eb7776e5, type: 2}
    facing: 0
    importantToCluster: 0
    chanceOfPlacementAttempt: 0.9
    placementScoreBoost: 0
    useFovBlock: 0
    blockDirection: {x: 0, y: 0}
    maxFOVBlockDistance: 0
    localScale: {x: 1, y: 1, z: 1}
    positionOffset: {x: 0, y: 0, z: 0}
  placementChance: 0
  roomPriority: 7
  modifyPriorityTraits: []
  modifyPlacementChanceTraits:
  - rule: 0
    traitList:
    - {fileID: 11400000, guid: ddf836a9aa21de94dbeff87441c6e593, type: 2}
    - {fileID: 11400000, guid: b2e0cf0d658041041bcde978050d6d98, type: 2}
    mustPassForApplication: 0
    baseChance: 0.9
    reasonChance: 0
  - rule: 0
    traitList:
    - {fileID: 11400000, guid: 49c20c24ea682464dada15c21c0ec232, type: 2}
    mustPassForApplication: 0
    baseChance: 0.1
    reasonChance: 0
  essentialFurniture: 0
  updatePreCalculated: 0
  calculatedMinRoomSize: 1
  minimumZeroNodeWallCount: 1
  maximumZeroNodeWallCount: 4
  zeroNodeClasses:
  - {fileID: 11400000, guid: 90450d10964670249b3b35b9eb7776e5, type: 2}
  minimumRoomSize: 1
  useMaximumRoomSize: 0
  maximumRoomSize: 99
  useMinimumTesselation: 0
  nodesMustBeUnoccupied: 1
  minimumTesselation: {x: 1, y: 1}
  allowedInOpenPlan: 0
  allowInResidential: 1
  allowInCompanies: 1
  allowOnStreets: 0
  coastalOnly: 0
  limitToDistricts: 0
  allowedInDistricts: []
  banFromDistricts: 0
  notAllowedInDistricts: []
  skipIfNoAddressInhabitants: 0
  allowedRoomFilters:
  - {fileID: 11400000, guid: b1f968842c07a0141abdb4e9bd558f99, type: 2}
  limitPerRoom: 0
  maximumPerRoom: 20
  limitPerAddress: 0
  maximumPerAddress: 1
  limitToFloor: 0
  allowedOnFloor: 0
  limitPerBuilding: 0
  maximumPerBuilding: 1
  limitPerCity: 0
  maximumPerCity: 1
  wealthLimit: 0
  minimumWealth: 0
  maximumWealth: 1
  useRoomGrub: 0
  minimumGrub: 0
  maximumGrub: 1
  useBuildingResidences: 0
  minimumResidences: 0
  maximumResidences: 40
  removeClustersOnSuccess: []
  removeClustersOnFail: []
  securityDoor: 0
  isBreakerBox: 0
  enableDebug: 0
