%YAML 1.1
%TAG !u! tag:unity3d.com,2011:
--- !u!114 &11400000
MonoBehaviour:
  m_ObjectHideFlags: 0
  m_CorrespondingSourceObject: {fileID: 0}
  m_PrefabInstance: {fileID: 0}
  m_PrefabAsset: {fileID: 0}
  m_GameObject: {fileID: 0}
  m_Enabled: 1
  m_EditorHideFlags: 0
  m_Script: {fileID: 11500000, guid: df34c098fe792944a8bdb8310fc6f3c5, type: 3}
  m_Name: CompendiumOfDiseases
  m_EditorClassIdentifier: 
  presetName: CompendiumOfDiseases
  bookName: CompendiumOfDiseases
  author: Prof. Florentius Morrow
  genre: 0400000002000000
  isSeries: 0
  seriesTag: 1
  seriesNumber: 8
  common: 0.526
  baseChance: 0.1
  pickRules:
  - rule: 0
    traitList:
    - {fileID: 11400000, guid: 13a637a58ce6e2840b912f0bf59356ca, type: 2}
    - {fileID: 11400000, guid: 4247dd5e817b3b8428c07ac3fddb8d4e, type: 2}
    - {fileID: 11400000, guid: 47f4ed8e0219b0d42a5bc0aaf061922e, type: 2}
    - {fileID: 11400000, guid: 0f025210ba071f1499786d92b31f0ee0, type: 2}
    - {fileID: 11400000, guid: 67be965593faee04ea2a98268ef3a9db, type: 2}
    - {fileID: 11400000, guid: f753dde7e33f2184487755b456965771, type: 2}
    - {fileID: 11400000, guid: 75b13aba18f72d74692701a336cc94f8, type: 2}
    mustPassForApplication: 0
    baseChance: 0.094
    reasonChance: 0
  - rule: 0
    traitList:
    - {fileID: 11400000, guid: 95d1debeedcd6cc41bd938321ea0ed93, type: 2}
    mustPassForApplication: 0
    baseChance: 0.502
    reasonChance: 0
  spawnRule: 0
  bookMesh: {fileID: 325090503309371590, guid: 49e44705e48f0664fa95deca278c11ba, type: 3}
  bookMaterial: {fileID: 2100000, guid: 528d802c48287324a8487f6c6289437f, type: 2}
  ddsMessage: d638c161-30b2-40ac-bc79-4a4474d496e7
