%YAML 1.1
%TAG !u! tag:unity3d.com,2011:
--- !u!114 &11400000
MonoBehaviour:
  m_ObjectHideFlags: 0
  m_CorrespondingSourceObject: {fileID: 0}
  m_PrefabInstance: {fileID: 0}
  m_PrefabAsset: {fileID: 0}
  m_GameObject: {fileID: 0}
  m_Enabled: 1
  m_EditorHideFlags: 0
  m_Script: {fileID: 11500000, guid: df34c098fe792944a8bdb8310fc6f3c5, type: 3}
  m_Name: WondersOfRejuvenation
  m_EditorClassIdentifier: 
  presetName: WondersOfRejuvenation
  bookName: WondersOfRejuvenation
  author: Bernd K. Epperson
  genre: 040000000b0000000900000005000000
  isSeries: 0
  seriesTag: 1
  seriesNumber: 8
  common: 1
  baseChance: 0
  pickRules:
  - rule: 0
    traitList:
    - {fileID: 11400000, guid: 2a06a6c0c3094a74584ef66fdc4eebde, type: 2}
    - {fileID: 11400000, guid: 1724ce531b753804da0f62f76137f8db, type: 2}
    mustPassForApplication: 0
    baseChance: 1
    reasonChance: 0
  spawnRule: 0
  bookMesh: {fileID: 7032977736774662889, guid: 9362eee85b3d03647b7d03fd1987c389,
    type: 3}
  bookMaterial: {fileID: 2100000, guid: be4f14da1e0c92148b2c6e26bc4b755a, type: 2}
  ddsMessage: e996ffe2-0ab7-43ea-b611-4e5b938442fa
