%YAML 1.1
%TAG !u! tag:unity3d.com,2011:
--- !u!114 &11400000
MonoBehaviour:
  m_ObjectHideFlags: 0
  m_CorrespondingSourceObject: {fileID: 0}
  m_PrefabInstance: {fileID: 0}
  m_PrefabAsset: {fileID: 0}
  m_GameObject: {fileID: 0}
  m_Enabled: 1
  m_EditorHideFlags: 0
  m_Script: {fileID: 11500000, guid: e49a7991d1c93f245b70b9ac0b078bed, type: 3}
  m_Name: 1979Schedule
  m_EditorClassIdentifier: 
  presetName: 1979Schedule
  broadcasts:
  - {fileID: 11400000, guid: 541f9ced05b40fd40a27f28cd1f2449f, type: 2}
