%YAML 1.1
%TAG !u! tag:unity3d.com,2011:
--- !u!114 &11400000
MonoBehaviour:
  m_ObjectHideFlags: 0
  m_CorrespondingSourceObject: {fileID: 0}
  m_PrefabInstance: {fileID: 0}
  m_PrefabAsset: {fileID: 0}
  m_GameObject: {fileID: 0}
  m_Enabled: 1
  m_EditorHideFlags: 0
  m_Script: {fileID: 11500000, guid: c506d548390bcc74f9b6f8d6fb38d68c, type: 3}
  m_Name: GeneralColourTextArticles02
  m_EditorClassIdentifier: 
  presetName: GeneralColourTextArticles02
  disabled: 0
  ddsReference: fd4b3c0a-e784-42ae-8b52-9806c7878af3
  category: 0
  followupStories: []
  possibleImages: []
  context: 0
