%YAML 1.1
%TAG !u! tag:unity3d.com,2011:
--- !u!114 &11400000
MonoBehaviour:
  m_ObjectHideFlags: 0
  m_CorrespondingSourceObject: {fileID: 0}
  m_PrefabInstance: {fileID: 0}
  m_PrefabAsset: {fileID: 0}
  m_GameObject: {fileID: 0}
  m_Enabled: 1
  m_EditorHideFlags: 0
  m_Script: {fileID: 11500000, guid: 25467ab45329133418dea32ffbbb92a3, type: 3}
  m_Name: CallLogIncoming
  m_EditorClassIdentifier: 
  presetName: CallLogIncoming
  tabName: Incoming
  colour: {r: 0.5990566, g: 0.8814111, b: 1, a: 1}
  contentPrefab: {fileID: 549735726191064553, guid: 019ea68a42148ce499f6967d4d30e894,
    type: 3}
  contentType: 8
  scalableContent: 0
  fitToScaleX: 0
  fitToScaleY: 0
  zoomWithMouseWheel: 0
  scrollBars: 1
  scrollRestrcition: 2
  displayContentWithTag: incoming
