%YAML 1.1
%TAG !u! tag:unity3d.com,2011:
--- !u!114 &11400000
MonoBehaviour:
  m_ObjectHideFlags: 0
  m_CorrespondingSourceObject: {fileID: 0}
  m_PrefabInstance: {fileID: 0}
  m_PrefabAsset: {fileID: 0}
  m_GameObject: {fileID: 0}
  m_Enabled: 1
  m_EditorHideFlags: 0
  m_Script: {fileID: 11500000, guid: 25467ab45329133418dea32ffbbb92a3, type: 3}
  m_Name: materialKey
  m_EditorClassIdentifier: 
  presetName: materialKey
  tabName: MaterialKey
  colour: {r: 1, g: 0.8624264, b: 0, a: 1}
  contentPrefab: {fileID: 5832274292845009682, guid: 6894678387025e548be67800cb165d08,
    type: 3}
  contentType: 19
  scalableContent: 1
  fitToScaleX: 1
  fitToScaleY: 0
  zoomWithMouseWheel: 0
  scrollBars: 1
  scrollRestrcition: 2
  displayContentWithTag: MaterialKey
