%YAML 1.1
%TAG !u! tag:unity3d.com,2011:
--- !u!114 &11400000
MonoBehaviour:
  m_ObjectHideFlags: 0
  m_CorrespondingSourceObject: {fileID: 0}
  m_PrefabInstance: {fileID: 0}
  m_PrefabAsset: {fileID: 0}
  m_GameObject: {fileID: 0}
  m_Enabled: 1
  m_EditorHideFlags: 0
  m_Script: {fileID: 11500000, guid: 25467ab45329133418dea32ffbbb92a3, type: 3}
  m_Name: selectItem
  m_EditorClassIdentifier: 
  presetName: selectItem
  tabName: Select
  colour: {r: 0.6955624, g: 0.990566, b: 0.53733534, a: 1}
  contentPrefab: {fileID: 4888284371389177782, guid: 29ce6091cbfcc964d944e2e0461d2dfe,
    type: 3}
  contentType: 22
  scalableContent: 0
  fitToScaleX: 0
  fitToScaleY: 0
  zoomWithMouseWheel: 0
  scrollBars: 1
  scrollRestrcition: 2
  displayContentWithTag: selectItem
