%YAML 1.1
%TAG !u! tag:unity3d.com,2011:
--- !u!114 &11400000
MonoBehaviour:
  m_ObjectHideFlags: 0
  m_CorrespondingSourceObject: {fileID: 0}
  m_PrefabInstance: {fileID: 0}
  m_PrefabAsset: {fileID: 0}
  m_GameObject: {fileID: 0}
  m_Enabled: 1
  m_EditorHideFlags: 0
  m_Script: {fileID: 11500000, guid: 25467ab45329133418dea32ffbbb92a3, type: 3}
  m_Name: GHI
  m_EditorClassIdentifier: 
  presetName: GHI
  tabName: GHI
  colour: {r: 1, g: 0.9275862, b: 0.625, a: 1}
  contentPrefab: {fileID: 1234976856690742, guid: fe826fe907d14e64a9a522627abcbc11,
    type: 3}
  contentType: 0
  scalableContent: 1
  fitToScaleX: 1
  fitToScaleY: 1
  zoomWithMouseWheel: 1
  scrollBars: 1
  scrollRestrcition: 2
  displayContentWithTag: GHI
