%YAML 1.1
%TAG !u! tag:unity3d.com,2011:
--- !u!114 &11400000
MonoBehaviour:
  m_ObjectHideFlags: 0
  m_CorrespondingSourceObject: {fileID: 0}
  m_PrefabInstance: {fileID: 0}
  m_PrefabAsset: {fileID: 0}
  m_GameObject: {fileID: 0}
  m_Enabled: 1
  m_EditorHideFlags: 0
  m_Script: {fileID: 11500000, guid: df34c098fe792944a8bdb8310fc6f3c5, type: 3}
  m_Name: TheBeautyOfFungus
  m_EditorClassIdentifier: 
  presetName: TheBeautyOfFungus
  bookName: TheBeautyOfFungus
  author: Shantu Khan
  genre: 0d000000
  isSeries: 0
  seriesTag: 1
  seriesNumber: 8
  common: 0.615
  baseChance: 0.1
  pickRules:
  - rule: 0
    traitList:
    - {fileID: 11400000, guid: 1e3e6e5f81591064da5639c393f50210, type: 2}
    mustPassForApplication: 0
    baseChance: 0.79
    reasonChance: 0
  spawnRule: 0
  bookMesh: {fileID: -8686041546616721347, guid: f6b0e2e2991ed874da8be8c1fcc8647b,
    type: 3}
  bookMaterial: {fileID: 2100000, guid: 6d24b5e7a077c2f408a6b93c0fc7baa6, type: 2}
  ddsMessage: d937e191-2728-4a2a-ac4e-8302d019ba30
