%YAML 1.1
%TAG !u! tag:unity3d.com,2011:
--- !u!114 &11400000
MonoBehaviour:
  m_ObjectHideFlags: 0
  m_CorrespondingSourceObject: {fileID: 0}
  m_PrefabInstance: {fileID: 0}
  m_PrefabAsset: {fileID: 0}
  m_GameObject: {fileID: 0}
  m_Enabled: 1
  m_EditorHideFlags: 0
  m_Script: {fileID: 11500000, guid: df34c098fe792944a8bdb8310fc6f3c5, type: 3}
  m_Name: TheCandorBookOfAnimals
  m_EditorClassIdentifier: 
  presetName: TheCandorBookOfAnimals
  bookName: TheCandorBookOfAnimals
  author: Candor News Group
  genre: 0d000000090000000a000000
  isSeries: 0
  seriesTag: 1
  seriesNumber: 8
  common: 0.819
  baseChance: 0.161
  pickRules:
  - rule: 0
    traitList:
    - {fileID: 11400000, guid: 545463d0aee0a0f418654d4114480a1f, type: 2}
    - {fileID: 11400000, guid: f3d4c981af6ff5f488918c96cd0fb7cd, type: 2}
    - {fileID: 11400000, guid: 051b5e2ff6b7d0140a85929b90b9f901, type: 2}
    mustPassForApplication: 0
    baseChance: 0.675
    reasonChance: 0
  - rule: 2
    traitList:
    - {fileID: 11400000, guid: f4cc9f0dee93f9b4eb470c6d584bbf42, type: 2}
    mustPassForApplication: 1
    baseChance: 0
    reasonChance: 0
  spawnRule: 0
  bookMesh: {fileID: -8686041546616721347, guid: f6b0e2e2991ed874da8be8c1fcc8647b,
    type: 3}
  bookMaterial: {fileID: 2100000, guid: 6d24b5e7a077c2f408a6b93c0fc7baa6, type: 2}
  ddsMessage: cf8bcc69-ae10-43f1-8bf4-7f8c6d8c93b3
