"Game Reference Key","Notes","Displayed Text","Alternate Text","Frequency","Requires Suffix","Misc."
"[The key used by the game to find strings]","[Not loaded into the game, for explanation only]","[The displayed string in-game]","[Alternate displayed string, eg. Nickname]","[For lists]","[Does this require a suffix for naming?]","[Miscellaneous]"
"—","—","—","—","— ","—","—"
"createcustomstring","","New Custom Connection...","",,"","11:49 05/09/2022"
"unpin","","Unpin","",,"","11:49 05/09/2022"
"openevidence","","Open Evidence","",,"","11:49 05/09/2022"
"renamecustomlink","","Rename Custom Connection...","",,"","11:49 05/09/2022"
"removecustomlink","","Remove Custom Connection","",,"","11:49 05/09/2022"
"togglecrossedout","","Toggle Cross-Out","",,"","11:49 05/09/2022"
"plotroute","","Plot Route","",,"","11:49 05/09/2022"
"cancelroute","","Cancel Route","",,"","11:49 05/09/2022"
"minimizeall","","Minimize All","",,"","11:49 05/09/2022"
"debugaccess","","Debug Access","",,"","11:49 05/09/2022"
"rename","","Rename...","",,"","11:49 05/09/2022"
"pinalllinks","","Pin All Connections","",,"","11:49 05/09/2022"
"unpinalllinks","","Unpin All Connections","",,"","11:49 05/09/2022"
"newstickynote","","New Sticky Note...","",,"","11:49 05/09/2022"
"locateonmap","","Locate On Map","",,"","11:49 05/09/2022"
"togglecollapse","","Toggle Collapse","",,"","11:49 05/09/2022"
"hide","","Hide","",,"","11:49 05/09/2022"
"cancel","","Cancel","",,"","11:49 05/09/2022"
