"Game Reference Key","Notes","Displayed Text","Alternate Text","Frequency","Requires Suffix","Misc."
"[The key used by the game to find strings]","[Not loaded into the game, for explanation only]","[The displayed string in-game]","[Alternate displayed string, eg. Nickname]","[For lists]","[Does this require a suffix for naming?]","[Miscellaneous]"
"— ","— ","— ","— ","— ","— ","— "
"open",,"Open",,,,"11:49 05/09/2022"
"close",,"Close",,,,"11:49 05/09/2022"
"turn on",,"Turn on",,,,"11:49 05/09/2022"
"turn off",,"Turn off",,,,"11:49 05/09/2022"
"lock",,"Lock",,,,"11:49 05/09/2022"
"unlock",,"Unlock",,,,"11:49 05/09/2022"
"interact",,"Interact",,,,"11:49 05/09/2022"
"button",,"Button",,,,"11:49 05/09/2022"
"inspect",,"Inspect",,,,"11:49 05/09/2022"
"pick up",,"Pick Up",,,,"11:49 05/09/2022"
"case file",,"Case File",,,,"11:49 05/09/2022"
"knock",,"Knock",,,,"11:49 05/09/2022"
"lockpick",,"Lock-pick",,,,"11:49 05/09/2022"
"access",,"Access",,,,"11:49 05/09/2022"
"read",,"Read",,,,"11:49 05/09/2022"
"peek",,"Peek",,,,"11:49 05/09/2022"
"return",,"Return",,,,"11:49 05/09/2022"
"lockpicking",,"Lock-picking",,,,"11:49 05/09/2022"
"evasion",,"Evasion",,,,"11:49 05/09/2022"
"evade",,"Evade",,,,"11:49 05/09/2022"
"punch",,"Punch",,,,"11:49 05/09/2022"
"take",,"Take",,,,"11:49 05/09/2022"
"talk to",,"Talk To",,,,"11:49 05/09/2022"
"say",,"Say",,,,"11:49 05/09/2022"
"view file...",,"View File...",,,,"11:49 05/09/2022"
"flush",,"Flush",,,,"11:49 05/09/2022"
"hide",,"Hide",,,,"11:49 05/09/2022"
"crawl into",,"Crawl Into",,,,"11:49 05/09/2022"
"go through",,"Go Through",,,,"11:49 05/09/2022"
"use",,"Use",,,,"11:49 05/09/2022"
"arm",,"Arm",,,,"11:49 05/09/2022"
"reivew job",,"Review Job",,,,"11:49 05/09/2022"
"previous month",,"Previous Month",,,,"11:49 05/09/2022"
"next month",,"Next Month",,,,"11:49 05/09/2022"
"review job",,"Review Job",,,,"11:49 05/09/2022"
"look underneath",,"Look Underneath",,,,"11:49 05/09/2022"
"put back",,"Put Back",,,,"11:49 05/09/2022"
"sleep",,"Sleep",,,,"11:49 05/09/2022"
"get up",,"Get Up",,,,"11:49 05/09/2022"
"answer",,"Answer",,,,"11:49 05/09/2022"
"end call",,"End Call",,,,"11:49 05/09/2022"
"get in",,"Get In",,,,"11:49 05/09/2022"
"enter",,"Enter",,,,"11:49 05/09/2022"
"put down",,"Put Down",,,,"11:49 05/09/2022"
"throw",,"Throw",,,,"11:49 05/09/2022"
"sit down",,"Sit Down",,,,"11:49 05/09/2022"
"take (lockpick)",,"Take (Lock-pick)",,,,"11:49 05/09/2022"
"call",,"Call",,,,"11:49 05/09/2022"
"cancel",,"Cancel",,,,"11:49 05/09/2022"
"set alarm (sleep)",,"Set Alarm (Sleep)",,,,"11:49 05/09/2022"
"set hours/minutes",,"Set Hours/Minutes",,,,"11:49 05/09/2022"
"pass time",,"Pass Time",,,,"11:49 05/09/2022"
"set alarm (pass time)",,"Set Alarm (Pass Time)",,,,"11:49 05/09/2022"
"scoot",,"Scoot",,,,"11:49 05/09/2022"
"time forward",,"Time Forward",,,,"11:49 05/09/2022"
"time back",,"Time Back",,,,"11:49 05/09/2022"
"barge",,"Barge",,,,"11:49 05/09/2022"
"counter",,"Counter",,,,"11:49 05/09/2022"
"jump",,"Jump",,,,"11:49 05/09/2022"
"crouch",,"Crouch",,,,"11:49 05/09/2022"
"sprint",,"Sprint",,,,"11:49 05/09/2022"
"flashlight",,"Flashlight",,,,"11:49 05/09/2022"
"scroll",,"Scroll/Context Menu",,,,"11:49 05/09/2022"
"zoom in",,"Zoom In",,,,"11:49 05/09/2022"
"zoom out",,"Zoom Out",,,,"11:49 05/09/2022"
"end conversation",,"End Conversation",,,,"11:49 05/09/2022"
"sit",,"Sit",,,,"11:49 05/09/2022"
"operate",,"Operate",,,,"11:49 05/09/2022"
"next",,"Next",,,,"11:49 05/09/2022"
"previous",,"Previous",,,,"11:49 05/09/2022"
"trigger alarm",,"Trigger Alarm",,,,"11:49 05/09/2022"
"view",,"View",,,,"11:49 05/09/2022"
"slide out",,"Slide Out",,,,"11:49 05/09/2022"
"slide back",,"Slide Back",,,,"11:49 05/09/2022"
"search",,"Search",,,,"11:49 05/09/2022"
"unscrew bulb",,"Unscrew Bulb",,,,"11:49 05/09/2022"
"screw bulb",,"Screw Bulb",,,,"11:49 05/09/2022"
"scan",,"Scan",,,,"11:49 05/09/2022"
"take print",,"Take Print",,,,"11:49 05/09/2022"
"takeprint",,"Taking Print",,,,"11:49 05/09/2022"
"search/analyse",,"Search/Analyse",,,,"11:49 05/09/2022"
"up",,"Up",,,,"11:49 05/09/2022"
"down",,"Down",,,,"11:49 05/09/2022"
"handcuff",,"Handcuff",,,,"11:49 05/09/2022"
"takedown",,"Takedown",,,,"11:49 05/09/2022"
"hang up",,"Hang Up",,,,"11:49 05/09/2022"
"dial...",,"Dial...",,,,"11:49 05/09/2022"
"drink",,"Drink",,,,"11:49 05/09/2022"
"swap",,"Swap",,,,"11:49 05/09/2022"
"eat",,"Eat",,,,"11:49 05/09/2022"
"raise",,"Raise",,,,"11:49 05/09/2022"
"take picture",,"Take Picture",,,,"11:49 05/09/2022"
"place",,"Place",,,,"11:49 05/09/2022"
"sabotage",,"Sabotage",,,,"11:49 05/09/2022"
"view fuse box",,"View Fuse Box",,,,"11:49 05/09/2022"
"view call logs",,"View Call Logs",,,,"11:49 05/09/2022"
"select",,"Select",,,,"11:49 05/09/2022"
"drop/place",,"Drop/Place",,,,"11:49 05/09/2022"
"click",,"Click",,,,"11:49 05/09/2022"
"check underneath",,"Check Underneath",,,,"11:49 05/09/2022"
"next page",,"Next Page",,,,"11:49 05/09/2022"
"previous page",,"Previous Page",,,,"11:49 05/09/2022"
"take one",,"Take One",,,,"11:49 05/09/2022"
"dry",,"Dry",,,,"11:49 05/09/2022"
"ko",,"Recovering",,,,"11:49 05/09/2022"
"install/uninstall sync disks...",,"Install/Uninstall Sync Disks...",,,,"11:49 05/09/2022"
"apply",,"Apply",,,,"11:49 05/09/2022"
"scroll/context menu",,"Scroll/Context Menu",,,,"11:49 05/09/2022"
"inventory",,"Inventory",,,,"11:49 05/09/2022"
"sleep...",,"Sleep...",,,,"11:49 05/09/2022"
"switch hours/minutes",,"Switch Hours/Minutes",,,,"11:49 05/09/2022"
"alarm forward",,"Alarm Forward",,,,"11:49 05/09/2022"
"alarm back",,"Alarm Back",,,,"11:49 05/09/2022"
"pass time....",,"Pass Time....",,,,"11:49 05/09/2022"
"set alarm (wait)",,"Set Alarm (Wait)",,,,"11:49 05/09/2022"
"notebook",,"Notebook",,,,"11:49 05/09/2022"
"case board",,"Case Board",,,,"11:49 05/09/2022"
"turn on hob",,"Turn On Hob",,,,"11:49 05/09/2022"
"hand in case",,"Hand-In Case",,,,"11:49 05/09/2022"
"get case form",,"Get Resolution Forms",,,,"11:49 05/09/2022"
"change decor",,"Change Decor",,,,"11:49 05/09/2022"
"get out",,"Get Out",,,,"11:49 05/09/2022"
"turn off hob",,"Turn Off Hob",,,,"11:49 05/09/2022"
"order",,"Order",,,,"11:49 05/09/2022"
"switch off",,"Switch Off",,,,"11:49 05/09/2022"
"switch on",,"Switch On",,,,"11:49 05/09/2022"
"nearestinteractable",,"Nearest Interactable",,,,"11:49 05/09/2022"
"nearest interactable",,"Nearest Interactable",,,,"11:49 05/09/2022"
"scroll map",,"Scroll Map",,,,"11:49 05/09/2022"
"cycle interface",,"Cycle Interface",,,,"11:49 05/09/2022"
"move evidence",,"Move Evidence",,,,"11:49 05/09/2022"
"scroll board",,"Scroll Board",,,,"11:49 05/09/2022"
"zoom",,"Zoom",,,,"11:49 05/09/2022"
"prev. window",,"Prev. Window",,,,"11:49 05/09/2022"
"next window",,"Next Window",,,,"11:49 05/09/2022"
"move window",,"Move Window",,,,"11:49 05/09/2022"
"context menu",,"Context Menu",,,,"11:49 05/09/2022"
"shoot",,"Shoot",,,,"11:49 05/09/2022"
"reset",,"Reset",,,,"11:49 05/09/2022"
"resume",,"Resume",,,,"11:49 05/09/2022"
"release",,"Release",,,,"11:49 05/09/2022"
"give",,"Give",,,,"11:49 05/09/2022"
"attack",,"Attack",,,,"11:49 05/09/2022"
"vomit",,"Vomit",,,,"11:49 05/09/2022"
"vomiting",,"Vomiting",,,,"11:49 05/09/2022"
"sabotaging",,"sabotaging",,,,"11:49 05/09/2022"
"select & return",,"Select & Return",,,,"11:49 05/09/2022"
"select & close",,"Select & Close",,,,"11:49 05/09/2022"
"next track","","Next Track","",,"","15:45 29/09/2022"
"previous track","","Previous Track","",,"","15:45 29/09/2022"
"create string","","Create String","",,"","14:08 11/01/2023"
"lower","","Lower","",,"","14:47 12/01/2023"
"rotate left","","Rotate Left","",,"","12:38 15/02/2023"
"rotate right","","Rotate Right","",,"","12:38 15/02/2023"
"dispose","","Dispose","",,"","10:25 10/04/2023"
