"Game Reference Key","Notes","Displayed Text","Alternate Text","Frequency","Requires Suffix","Misc."
"[The key used by the game to find strings]","[Not loaded into the game, for explanation only]","[The displayed string in-game]","[Alternate displayed string, eg. Nickname]","[For lists]","[Does this require a suffix for naming?]","[Miscellaneous]"
"— ","— ","— ","— ","— ","— ","— "
"illegal action",,"Illegal Action",,,,"11:49 05/09/2022"
"tresspassing",,"Trespassing",,,,"11:49 05/09/2022"
"city directory",,"City Directory",,,,"11:49 05/09/2022"
"a",,"A",,,,"11:49 05/09/2022"
"b",,"B",,,,"11:49 05/09/2022"
"c",,"C",,,,"11:49 05/09/2022"
"d",,"D",,,,"11:49 05/09/2022"
"e",,"E",,,,"11:49 05/09/2022"
"f",,"F",,,,"11:49 05/09/2022"
"g",,"G",,,,"11:49 05/09/2022"
"h",,"H",,,,"11:49 05/09/2022"
"i",,"I",,,,"11:49 05/09/2022"
"j",,"J",,,,"11:49 05/09/2022"
"k",,"K",,,,"11:49 05/09/2022"
"l",,"L",,,,"11:49 05/09/2022"
"m",,"M",,,,"11:49 05/09/2022"
"n",,"N",,,,"11:49 05/09/2022"
"o",,"O",,,,"11:49 05/09/2022"
"p",,"P",,,,"11:49 05/09/2022"
"q",,"Q",,,,"11:49 05/09/2022"
"r",,"R",,,,"11:49 05/09/2022"
"s",,"S",,,,"11:49 05/09/2022"
"t",,"T",,,,"11:49 05/09/2022"
"u",,"U",,,,"11:49 05/09/2022"
"v",,"V",,,,"11:49 05/09/2022"
"w",,"W",,,,"11:49 05/09/2022"
"x",,"X",,,,"11:49 05/09/2022"
"y",,"Y",,,,"11:49 05/09/2022"
"z",,"Z",,,,"11:49 05/09/2022"
"abc",,"ABC",,,,"11:49 05/09/2022"
"def",,"DEF",,,,"11:49 05/09/2022"
"ghi",,"GHI",,,,"11:49 05/09/2022"
"jkl",,"JKL",,,,"11:49 05/09/2022"
"mno",,"MNO",,,,"11:49 05/09/2022"
"pqr",,"PQR",,,,"11:49 05/09/2022"
"stu",,"STU",,,,"11:49 05/09/2022"
"vwx",,"VWX",,,,"11:49 05/09/2022"
"yz",,"YZ#",,,,"11:49 05/09/2022"
"innocent",,"Innocent",,,,"11:49 05/09/2022"
"places",,"Places",,,,"11:49 05/09/2022"
"history",,"Search",,,,"11:45 02/12/2022"
"accept job",,"Accept Job",,,,"11:49 05/09/2022"
"take item",,"Take Item",,,,"11:49 05/09/2022"
"passwords",,"Passwords",,,,"11:49 05/09/2022"
"lock",,"Lock",,,,"11:49 05/09/2022"
"last x hours",,"Last X Hours",,,,"11:49 05/09/2022"
"jan",,"January",,,,"11:49 05/09/2022"
"feb",,"February",,,,"11:49 05/09/2022"
"mar",,"March",,,,"11:49 05/09/2022"
"apr",,"April",,,,"11:49 05/09/2022"
"may",,"May",,,,"11:49 05/09/2022"
"jun",,"June",,,,"11:49 05/09/2022"
"jul",,"July",,,,"11:49 05/09/2022"
"aug",,"August",,,,"11:49 05/09/2022"
"sep",,"September",,,,"11:49 05/09/2022"
"oct",,"October",,,,"11:49 05/09/2022"
"nov",,"November",,,,"11:49 05/09/2022"
"dec",,"December",,,,"11:49 05/09/2022"
"st",,"st",,,,"11:49 05/09/2022"
"nd",,"nd",,,,"11:49 05/09/2022"
"rd",,"rd",,,,"11:49 05/09/2022"
"th",,"th",,,,"11:49 05/09/2022"
"paused",,"Paused",,,,"11:49 05/09/2022"
"birthday",,"birthday",,,,"11:49 05/09/2022"
"evidence",,"Evidence",,,,"11:49 05/09/2022"
"summary",,"Summary",,,,"11:49 05/09/2022"
"facts",,"Connections",,,,"11:49 05/09/2022"
"monday",,"Monday",,,,"11:49 05/09/2022"
"tuesday",,"Tuesday",,,,"11:49 05/09/2022"
"thursday",,"Thursday",,,,"11:49 05/09/2022"
"friday",,"Friday",,,,"11:49 05/09/2022"
"wednesday",,"Wednesday",,,,"11:49 05/09/2022"
"sunday",,"Sunday",,,,"11:49 05/09/2022"
"your apartment",,"Your Apartment",,,,"11:49 05/09/2022"
"am",,"AM",,,,"11:49 05/09/2022"
"resume",,"Resume",,,,"11:49 05/09/2022"
"new game",,"New Game",,,,"11:49 05/09/2022"
"load game",,"Load Game",,,,"11:49 05/09/2022"
"settings",,"Settings",,,,"11:49 05/09/2022"
"exit",,"Exit",,,,"11:49 05/09/2022"
"start",,"Start",,,,"11:49 05/09/2022"
"back",,"Back",,,,"11:49 05/09/2022"
"generate...",,"Generate...",,,,"11:49 05/09/2022"
"population",,"Population",,,,"11:49 05/09/2022"
"city size",,"City Size",,,,"11:49 05/09/2022"
"name",,"Name",,,,"11:49 05/09/2022"
"generate new",,"Generate New",,,,"11:49 05/09/2022"
"city",,"City",,,,"11:49 05/09/2022"
"video",,"Video",,,,"11:49 05/09/2022"
"graphics",,"Graphics",,,,"11:49 05/09/2022"
"gameplay",,"Gameplay",,,,"11:49 05/09/2022"
"controls",,"Controls",,,,"11:49 05/09/2022"
"controls settings",,"Controls Settings",,,,"11:49 05/09/2022"
"gameplay settings",,"Gameplay Settings",,,,"11:49 05/09/2022"
"graphics settings",,"Graphics Settings",,,,"11:49 05/09/2022"
"video settings",,"Video Settings",,,,"11:49 05/09/2022"
"developer settings",,"Developer Settings",,,,"11:49 05/09/2022"
"developer",,"Developer",,,,"11:49 05/09/2022"
"colour grading",,"Color Grading",,,,"11:49 05/09/2022"
"bloom",,"Bloom",,,,"11:49 05/09/2022"
"depth blur",,"Depth Blur",,,,"11:49 05/09/2022"
"film grain",,"Film Grain",,,,"11:49 05/09/2022"
"motion blur",,"Motion Blur",,,,"11:49 05/09/2022"
"volume",,"Volume",,,,"11:49 05/09/2022"
"audio",,"Audio",,,,"11:49 05/09/2022"
"audio settings",,"Audio Settings",,,,"11:49 05/09/2022"
"music",,"Music",,,,"11:49 05/09/2022"
"always tresspassing",,"Always Trespassing",,,,"11:49 05/09/2022"
"invisible player",,"Invisible Player",,,,"11:49 05/09/2022"
"keys to the city",,"Keys to the City",,,,"11:49 05/09/2022"
"uncatchable player",,"Un-catchable Player",,,,"11:49 05/09/2022"
"invincible player",,"Invincible Player",,,,"11:49 05/09/2022"
"inaudible player",,"Inaudible Player",,,,"11:49 05/09/2022"
"generate new city",,"Generate New City",,,,"11:49 05/09/2022"
"detective handbook",,"Detective Handbook",,,,"11:49 05/09/2022"
"help",,"Help",,,,"11:49 05/09/2022"
"teleport player to route end",,"Teleport Player to Route End",,,,"11:49 05/09/2022"
"theft",,"Theft",,,,"11:49 05/09/2022"
"tampering",,"Tampering",,,,"11:49 05/09/2022"
"breakingandentering",,"Breaking & Entering",,,,"11:49 05/09/2022"
"trespassingheard",,"Trespassing (Heard)",,,,"11:49 05/09/2022"
"trespassingseen",,"Trespassing (Seen)",,,,"11:49 05/09/2022"
"assault",,"Assault",,,,"11:49 05/09/2022"
"strength",,"Strength",,,,"11:49 05/09/2022"
"picks",,"picks",,,,"11:49 05/09/2022"
"pm",,"PM",,,,"11:49 05/09/2022"
"force enable movement",,"Force Enable Movement",,,,"11:49 05/09/2022"
"saturday",,"Saturday",,,,"11:49 05/09/2022"
"mapkeyunexplored",,"Unexplored",,,,"11:49 05/09/2022"
"mapkeyexploredsafe",,"Explored [legal]*",,,,"11:49 05/09/2022"
"mapkeyexploredprivate",,"Explored [illegal]",,,,"11:49 05/09/2022"
"mapkeyvent",,"Air Vent",,,,"11:49 05/09/2022"
"mapkeyduct",,"Air Duct",,,,"11:49 05/09/2022"
"mapkeyopenhoursonly",,"*Legal during open hours only.",,,,"11:49 05/09/2022"
"discover all rooms",,"Discover All Rooms",,,,"11:49 05/09/2022"
"head bob",,"Head Bob",,,,"11:49 05/09/2022"
"amount",,"Amount",,,,"11:49 05/09/2022"
"escape",,"Escape",,,,"11:49 05/09/2022"
"evade",,"Evade",,,,"11:49 05/09/2022"
"avoid",,"Avoid",,,,"11:49 05/09/2022"
"skip to chapter part",,"Skip To Chapter Part",,,,"11:49 05/09/2022"
"teleport to random",,"Teleport to Random",,,,"11:49 05/09/2022"
"wind",,"Wind",,,,"11:49 05/09/2022"
"rain",,"Rain",,,,"11:49 05/09/2022"
"lightning",,"Lightning",,,,"11:49 05/09/2022"
"snow",,"Snow",,,,"11:49 05/09/2022"
"set weather",,"Set Weather",,,,"11:49 05/09/2022"
"raindrops",,"Raindrops",,,,"11:49 05/09/2022"
"rainy windows",,"Rainy Windows",,,,"11:49 05/09/2022"
"interface scale",,"Interface Scale",,,,"11:49 05/09/2022"
"scale",,"Scale",,,,"11:49 05/09/2022"
"sandbox mode",,"Sandbox Mode",,,,"11:49 05/09/2022"
"input",,"Input",,,,"11:49 05/09/2022"
"share code",,"Share Code",,,,"11:49 05/09/2022"
"save game",,"Save Game",,,,"11:49 05/09/2022"
"load",,"Load",,,,"11:49 05/09/2022"
"save",,"Save",,,,"11:49 05/09/2022"
"save to dev cloud",,"Save To Dev Cloud",,,,"11:49 05/09/2022"
"select",,"Select",,,,"11:49 05/09/2022"
"eng",,"English",,,,"11:49 05/09/2022"
"fre",,"French",,,,"11:49 05/09/2022"
"ger",,"German",,,,"11:49 05/09/2022"
"spa",,"Spanish",,,,"11:49 05/09/2022"
"chi_simp",,"Simplified Chinese",,,,"11:49 05/09/2022"
"chi_trad",,"Traditional Chinese",,,,"11:49 05/09/2022"
"jap",,"Japanese",,,,"11:49 05/09/2022"
"rus",,"Russian",,,,"11:49 05/09/2022"
"interface",,"Interface",,,,"11:49 05/09/2022"
"language",,"Language",,,,"11:49 05/09/2022"
"resolution",,"Resolution",,,,"11:49 05/09/2022"
"full screen",,"Full Screen",,,,"11:49 05/09/2022"
"exclusivefullscreen",,"Exclusive Full Screen",,,,"11:49 05/09/2022"
"fullscreenwindow",,"Full Screen Window",,,,"11:49 05/09/2022"
"maximizedwindow",,"Maximized Window",,,,"11:49 05/09/2022"
"windowed",,"Windowed",,,,"11:49 05/09/2022"
"give all syncdisks",,"Give All SyncDisks",,,,"11:49 05/09/2022"
"purchase",,"Purchase",,,,"11:49 05/09/2022"
"new case",,"New Case",,,,"11:49 05/09/2022"
"objectives",,"Objectives",,,,"11:49 05/09/2022"
"hand-in objectives",,"Hand-In Objectives",,,,"11:49 05/09/2022"
"active objectives",,"Active Objectives",,,,"11:49 05/09/2022"
"starting objectives",,"Starting Objectives",,,,"11:49 05/09/2022"
"incoming",,"Incoming",,,,"11:49 05/09/2022"
"outgoing",,"Outgoing",,,,"11:49 05/09/2022"
"select city",,"Select City",,,,"11:49 05/09/2022"
"directional arrow",,"Directional Arrow",,,,"11:49 05/09/2022"
"chinesesimplified",,"Chinese Simplified",,,,"11:49 05/09/2022"
"chinesetraditional",,"Chinese Traditional",,,,"11:49 05/09/2022"
"english",,"English",,,,"11:49 05/09/2022"
"french",,"French",,,,"11:49 05/09/2022"
"german",,"German",,,,"11:49 05/09/2022"
"japanese",,"Japanese",,,,"11:49 05/09/2022"
"russian",,"Russian",,,,"11:49 05/09/2022"
"spanish",,"Spanish",,,,"11:49 05/09/2022"
"credits",,"Credits",,,,"11:49 05/09/2022"
"color grading",,"Color Grading",,,,"11:49 05/09/2022"
"display mode",,"Display Mode",,,,"11:49 05/09/2022"
"rain detail",,"Rain Detail",,,,"11:49 05/09/2022"
"resume after pin",,"Resume After Pin",,,,"11:49 05/09/2022"
"game difficulty",,"Game Difficulty",,,,"11:49 05/09/2022"
"enable status effect: smelly",,"Enable Status Effect: Smelly",,,,"11:49 05/09/2022"
"enable status effect: cold",,"Enable Status Effect: Cold",,,,"11:49 05/09/2022"
"objective markers",,"Objective Markers",,,,"11:49 05/09/2022"
"easy",,"Easy",,,,"11:49 05/09/2022"
"normal",,"Normal",,,,"11:49 05/09/2022"
"hard",,"Hard",,,,"11:49 05/09/2022"
"extreme",,"Extreme",,,,"11:49 05/09/2022"
"all upgrades",,"All Upgrades",,,,"11:49 05/09/2022"
"discover everywhere",,"Discover Everywhere",,,,"11:49 05/09/2022"
"teleport to end of route",,"Teleport to end of Route",,,,"11:49 05/09/2022"
"everywhere illegal",,"Everywhere Illegal",,,,"11:49 05/09/2022"
"mouse smoothing",,"Aim Smoothing",,,,"11:49 05/09/2022"
"generate city",,"Generate City",,,,"11:49 05/09/2022"
"new character",,"New Character",,,,"11:49 05/09/2022"
"share code:",,"Share Code:",,,,"11:49 05/09/2022"
"maximum",,"Maximum",,,,"11:49 05/09/2022"
"partner gender",,"Partner Gender",,,,"11:49 05/09/2022"
"skin",,"Skin",,,,"11:49 05/09/2022"
"gender",,"Gender",,,,"11:49 05/09/2022"
"player name",,"Player Name",,,,"11:49 05/09/2022"
"city name",,"City Name",,,,"11:49 05/09/2022"
"size",,"Size",,,,"11:49 05/09/2022"
"small",,"Small",,,,"11:49 05/09/2022"
"medium",,"Medium",,,,"11:49 05/09/2022"
"large",,"Large",,,,"11:49 05/09/2022"
"ultralow",,"Ultra Low",,,,"11:49 05/09/2022"
"verylow",,"Very Low",,,,"11:49 05/09/2022"
"low",,"Low",,,,"11:49 05/09/2022"
"high",,"High",,,,"11:49 05/09/2022"
"veryhigh",,"Very High",,,,"11:49 05/09/2022"
"verylarge",,"Very Large",,,,"11:49 05/09/2022"
"new save",,"New Save",,,,"11:49 05/09/2022"
"shadows of doubt",,"Shadows of Doubt",,,,"11:49 05/09/2022"
"popup message",,"Message",,,,"11:49 05/09/2022"
"detectivesnotebook",,"Detective's Notebook",,,,"11:49 05/09/2022"
"selectphoto",,"Select Photo",,,,"11:49 05/09/2022"
"nothing",,"nothing",,,,"11:49 05/09/2022"
"empty",,"Empty",,,,"11:49 05/09/2022"
"buy",,"Buy",,,,"11:49 05/09/2022"
"passcodes",,"Passcodes",,,,"11:49 05/09/2022"
"locate on map",,"Locate on Map",,,,"11:49 05/09/2022"
"enter code",,"Enter Code",,,,"11:49 05/09/2022"
"disable fall damage",,"Disable Fall Damage",,,,"11:49 05/09/2022"
"installed disks",,"Installed Disks",,,,"11:49 05/09/2022"
"available disks",,"Available Disks",,,,"11:49 05/09/2022"
"find a sync disk clinic to install or uninstall sync disks.",,"Find a sync disk clinic to install or uninstall sync disks.",,,,"11:49 05/09/2022"
"install",,"Install",,,,"11:49 05/09/2022"
"uninstall",,"Uninstall",,,,"11:49 05/09/2022"
"special offer: today only",,"Special Offer: Today Only",,,,"11:49 05/09/2022"
"install at sync clinic",,"Install at Sync Clinic",,,,"11:49 05/09/2022"
"item_application",,"item_application",,,,"11:49 05/09/2022"
"numbers",,"numbers",,,,"11:49 05/09/2022"
"enter phone number",,"Enter Phone Number",,,,"11:49 05/09/2022"
"morning",,"Morning",,,,"11:49 05/09/2022"
"midday",,"Midday",,,,"11:49 05/09/2022"
"evening",,"Evening",,,,"11:49 05/09/2022"
"midnight",,"Midnight",,,,"11:49 05/09/2022"
"sandbox mode start time",,"Sandbox Mode Start Time",,,,"11:49 05/09/2022"
"archive/close",,"Archive/Close",,,,"11:49 05/09/2022"
"resolve",,"Resolve",,,,"11:49 05/09/2022"
"caseresolve",,"Resolution Form",,,,"11:49 05/09/2022"
"resolve case",,"Resolve Case",,,,"11:49 05/09/2022"
"resolvecase_description",,"To resolve this case, provide answers for the following before plotting a route to the hand-in destination.",,,,"11:49 07/11/2022"
"please answer the question",,"Please resolve",,,,"11:49 05/09/2022"
"select from board...",,"Select...",,,,"11:49 05/09/2022"
"cancel pick",,"Cancel Pick",,,,"11:49 05/09/2022"
"get form",,"Get Form",,,,"11:49 05/09/2022"
"caseresults",,"Investigation Results",,,,"11:49 05/09/2022"
"investigation results",,"Investigation Results",,,,"11:49 05/09/2022"
"results_description",,"Please find the results of your investigation below...",,,,"11:49 05/09/2022"
"questions rank",,"Questions Rank",,,,"11:49 05/09/2022"
"victims rank",,"Victims Rank",,,,"11:49 05/09/2022"
"case unsolved",,"The case remains unsolved. Please try again by answering the non-optional questions correctly.",,,,"11:49 05/09/2022"
"unsolved",,"F",,,,"11:49 05/09/2022"
"results",,"Results",,,,"11:49 05/09/2022"
"resume game",,"Resume Game",,,,"11:49 05/09/2022"
"story mode",,"Introduction Mode",,,,"11:49 03/02/2023"
"copy",,"Copy",,,,"11:49 05/09/2022"
"continue",,"Continue",,,,"11:49 05/09/2022"
"delete",,"Delete",,,,"11:49 05/09/2022"
"off",,"Off",,,,"11:49 05/09/2022"
"change difficulty",,"Change Difficulty",,,,"11:49 05/09/2022"
"clear",,"Clear",,,,"11:49 05/09/2022"
"plot route to hand-in",,"Plot Route to Hand-in",,,,"11:49 05/09/2022"
"close case",,"Close Case",,,,"11:49 05/09/2022"
"random seed",,"Random Seed",,,,"11:49 05/09/2022"
"paste",,"Paste",,,,"11:49 05/09/2022"
"custom",,"Custom",,,,"11:49 05/09/2022"
"on",,"On",,,,"11:49 05/09/2022"
"add money",,"Add Money",,,,"11:49 05/09/2022"
"case solved",,"Case solved",,,,"11:49 05/09/2022"
"change lead",,"Change Lead",,,,"11:49 05/09/2022"
"incoming calls from",,"Incoming calls from",,,,"11:49 05/09/2022"
"hours",,"hours",,,,"11:49 05/09/2022"
"minutes",,"minutes",,,,"11:49 05/09/2022"
"outgoing calls from",,"Outgoing calls from",,,,"11:49 05/09/2022"
"random",,"Random",,,,"11:49 05/09/2022"
"apartmentdecor",,"Apartment Decor",,,,"11:49 05/09/2022"
"wall pattern",,"Wall Pattern",,,,"11:49 05/09/2022"
"decor",,"Decor",,,,"11:49 05/09/2022"
"furnishings",,"Furnishings",,,,"11:49 05/09/2022"
"pattern_walls",,"Wall Patterns",,,,"11:49 05/09/2022"
"colourpicker",,"Palette",,,,"11:49 05/09/2022"
"walls",,"Walls",,,,"11:49 05/09/2022"
"dirt",,"Dirt",,,,"11:49 05/09/2022"
"floor",,"Floor",,,,"11:49 05/09/2022"
"ceiling",,"Ceiling",,,,"11:49 05/09/2022"
"accept",,"Accept",,,,"11:49 05/09/2022"
"available",,"Available",,,,"11:49 05/09/2022"
"side effects",,"Side Effects",,,,"11:49 05/09/2022"
"sandbox mode starting apartment",,"Sandbox Mode Starting Apartment",,,,"11:49 05/09/2022"
"enable status effect: well rested",,"Enable Status Effect: Well Rested",,,,"11:49 05/09/2022"
"enable status effect: focused",,"Enable Status Effect: Focused",,,,"11:49 05/09/2022"
"enable status effect: hydrated",,"Enable Status Effect: Hydrated",,,,"11:49 05/09/2022"
"enable status effect: energized",,"Enable Status Effect: Energized",,,,"11:49 05/09/2022"
"enable status effects",,"Enable Status Effects",,,,"11:49 05/09/2022"
"enable status effect: headache",,"Enable Status Effect: Headache",,,,"11:49 05/09/2022"
"enable status effect: drunk",,"Enable Status Effect: Drunk",,,,"11:49 05/09/2022"
"enable status effect: wet",,"Enable Status Effect: Wet",,,,"11:49 05/09/2022"
"enable status effect: numb",,"Enable Status Effect: Numb",,,,"11:49 05/09/2022"
"enable status effect: tired",,"Enable Status Effect: Tired",,,,"11:49 05/09/2022"
"enable status effect: hydration",,"Enable Status Effect: Hydration",,,,"11:49 05/09/2022"
"enable status effect: hunger",,"Enable Status Effect: Hunger",,,,"11:49 05/09/2022"
"enable status effect: bleeding",,"Enable Status Effect: Bleeding",,,,"11:49 05/09/2022"
"enable status effects: injuries",,"Enable Status Effect: Injuries",,,,"11:49 05/09/2022"
"enable procedural murders",,"Enable Procedural Murders",,,,"11:49 05/09/2022"
"all",,"All",,,,"11:49 05/09/2022"
"only positive",,"Only Positive",,,,"11:49 05/09/2022"
"only negative",,"Only Negative",,,,"11:49 05/09/2022"
"none",,"None",,,,"11:49 05/09/2022"
"enable status effect: sick",,"Enable Status Effect: Sick",,,,"11:49 05/09/2022"
"enable popup tips",,"Enable Pop-up Tips",,,,"11:49 05/09/2022"
"enable control hints",,"Enable Control Hints",,,,"11:49 05/09/2022"
"take money",,"Take Money",,,,"11:49 05/09/2022"
"male",,"Male",,,,"11:49 05/09/2022"
"female",,"Female",,,,"11:49 05/09/2022"
"non-binary",,"Non-Binary",,,,"11:49 05/09/2022"
"fists",,"fists",,,,"11:49 05/09/2022"
"steal money",,"Steal Money",,,,"11:49 05/09/2022"
"press any button",,"Press Any Button",,,,"11:49 05/09/2022"
"invert aim y axis",,"Invert Aim Y Axis",,,,"11:49 05/09/2022"
"invert aim x axis",,"Invert Aim X Axis",,,,"11:49 05/09/2022"
"control configuration",,"Control Configuration",,,,"11:49 05/09/2022"
"keyboard/mouse",,"Keyboard/Mouse",,,,"11:49 05/09/2022"
"controller",,"Controller",,,,"11:49 05/09/2022"
"aim smoothing",,"Aim Smoothing",,,,"11:49 05/09/2022"
"test action",,"Test Action",,,,"11:49 05/09/2022"
"use primary",,"Use Primary",,,,"11:49 05/09/2022"
"use secondary",,"Use Secondary",,,,"11:49 05/09/2022"
"use alternate",,"Use Alternate",,,,"11:49 05/09/2022"
"map",,"Map",,,,"11:49 05/09/2022"
"flashlight",,"Flashlight",,,,"11:49 05/09/2022"
"case board toggle",,"Case Board Toggle",,,,"11:49 05/09/2022"
0,,0,,,,"11:49 05/09/2022"
1,,1,,,,"11:49 05/09/2022"
2,,2,,,,"11:49 05/09/2022"
3,,3,,,,"11:49 05/09/2022"
4,,4,,,,"11:49 05/09/2022"
5,,5,,,,"11:49 05/09/2022"
6,,6,,,,"11:49 05/09/2022"
7,,7,,,,"11:49 05/09/2022"
8,,8,,,,"11:49 05/09/2022"
9,,9,,,,"11:49 05/09/2022"
"notebook",,"Notebook",,,,"11:49 05/09/2022"
"toggle screenshot mode",,"Toggle Screenshot Mode",,,,"11:49 05/09/2022"
"scroll axis up",,"Scroll Axis Up",,,,"11:49 05/09/2022"
"scroll axis down",,"Scroll Axis Down",,,,"11:49 05/09/2022"
"move horizontal",,"Move Horizontal",,,,"11:49 05/09/2022"
"move right",,"Move Right",,,,"11:49 05/09/2022"
"move left",,"Move Left",,,,"11:49 05/09/2022"
"move vertical",,"Move Vertical",,,,"11:49 05/09/2022"
"move forward",,"Move Forward",,,,"11:49 05/09/2022"
"move back",,"Move Back",,,,"11:49 05/09/2022"
"look horizontal",,"Look Horizontal",,,,"11:49 05/09/2022"
"look right",,"Look Right",,,,"11:49 05/09/2022"
"look left",,"Look Left",,,,"11:49 05/09/2022"
"look vertical",,"Look Vertical",,,,"11:49 05/09/2022"
"look up",,"Look Up",,,,"11:49 05/09/2022"
"look down",,"Look Down",,,,"11:49 05/09/2022"
"lean left",,"Lean Left",,,,"11:49 05/09/2022"
"lean right",,"Lean Right",,,,"11:49 05/09/2022"
"sprint",,"Sprint",,,,"11:49 05/09/2022"
"crouch",,"Crouch",,,,"11:49 05/09/2022"
"jump",,"Jump",,,,"11:49 05/09/2022"
"move up",,"Move Up",,,,"11:49 05/09/2022"
"move down",,"Move Down",,,,"11:49 05/09/2022"
"navigate up",,"Navigate Up",,,,"11:49 05/09/2022"
"navigate down",,"Navigate Down",,,,"11:49 05/09/2022"
"navigate left",,"Navigate Left",,,,"11:49 05/09/2022"
"navigate right",,"Navigate Right",,,,"11:49 05/09/2022"
"weapon select menu",,"Weapon Select Menu",,,,"11:49 05/09/2022"
"weapon select axis",,"Weapon Select Axis",,,,"11:49 05/09/2022"
"weapon select up",,"Weapon Select Up",,,,"11:49 05/09/2022"
"weapon select down",,"Weapon Select Down",,,,"11:49 05/09/2022"
"evidence content scroll axis",,"Evidence Content Scroll Axis",,,,"11:49 05/09/2022"
"scroll up",,"Scroll Up",,,,"11:49 05/09/2022"
"scroll down",,"Scroll Down",,,,"11:49 05/09/2022"
"menu",,"Menu",,,,"11:49 05/09/2022"
"tab",,"Tab",,,,"11:49 05/09/2022"
"keypad 0",,"Keypad 0",,,,"11:49 05/09/2022"
"keypad 1",,"Keypad 1",,,,"11:49 05/09/2022"
"keypad 2",,"Keypad 2",,,,"11:49 05/09/2022"
"keypad 3",,"Keypad 3",,,,"11:49 05/09/2022"
"keypad 4",,"Keypad 4",,,,"11:49 05/09/2022"
"keypad 5",,"Keypad 5",,,,"11:49 05/09/2022"
"keypad 6",,"Keypad 6",,,,"11:49 05/09/2022"
"keypad 7",,"Keypad 7",,,,"11:49 05/09/2022"
"keypad 8",,"Keypad 8",,,,"11:49 05/09/2022"
"keypad 9",,"Keypad 9",,,,"11:49 05/09/2022"
"f1",,"F1",,,,"11:49 05/09/2022"
"left shift",,"Left Shift",,,,"11:49 05/09/2022"
"space",,"Space",,,,"11:49 05/09/2022"
"up arrow",,"Up Arrow",,,,"11:49 05/09/2022"
"down arrow",,"Down Arrow",,,,"11:49 05/09/2022"
"left arrow",,"Left Arrow",,,,"11:49 05/09/2022"
"right arrow",,"Right Arrow",,,,"11:49 05/09/2022"
"return",,"Return",,,,"11:49 05/09/2022"
"esc",,"ESC",,,,"11:49 05/09/2022"
"press any key",,"Press Any Key",,,,"11:49 05/09/2022"
"delete city?",,"Delete City?",,,,"11:49 05/09/2022"
"tutorial",,"Tutorial",,,,"11:49 05/09/2022"
"automatic detect/switch input method",,"Automatic Detect/Switch Input Method",,,,"11:49 05/09/2022"
"no active case",,"No Active Case",,,,"11:49 05/09/2022"
"select left",,"Select Left",,,,"11:49 05/09/2022"
"select right",,"Select Right",,,,"11:49 05/09/2022"
"evidence zoom",,"Evidence Zoom",,,,"11:49 05/09/2022"
"zoom in",,"Zoom In",,,,"11:49 05/09/2022"
"zoom out",,"Zoom Out",,,,"11:49 05/09/2022"
"evidence move axis x",,"Evidence Move Axis X",,,,"11:49 05/09/2022"
"evidence move axis x +",,"Evidence Move Axis X +",,,,"11:49 05/09/2022"
"evidence move axis x -",,"Evidence Move Axis X -",,,,"11:49 05/09/2022"
"evidence move axis y",,"Evidence Move Axis Y",,,,"11:49 05/09/2022"
"evidence move axis y +",,"Evidence Move Axis Y +",,,,"11:49 05/09/2022"
"evidence move axis y -",,"Evidence Move Axis Y -",,,,"11:49 05/09/2022"
"coin",,"coin",,,,"11:49 05/09/2022"
"cycle nearest interactable",,"Cycle Nearest Object",,,,"11:49 05/09/2022"
"case board zoom acis",,"Case Board Zoom Axis",,,,"11:49 05/09/2022"
"content move axis x",,"Content Move Axis X",,,,"11:49 05/09/2022"
"content move axis x +",,"Content Move Axis X +",,,,"11:49 05/09/2022"
"content move axis x -",,"Content Move Axis X -",,,,"11:49 05/09/2022"
"content move axis y",,"Content Move Axis Y",,,,"11:49 05/09/2022"
"content move axis y +",,"Content Move Axis Y +",,,,"11:49 05/09/2022"
"content move axis y -",,"Content Move Axis Y -",,,,"11:49 05/09/2022"
"weapon select next",,"Weapon Select Next",,,,"11:49 05/09/2022"
"weapon select previous",,"Weapon Select Previous",,,,"11:49 05/09/2022"
"case board zoom axis",,"Case Board Zoom Axis",,,,"11:49 05/09/2022"
"rename city",,"Rename City",,,,"11:49 05/09/2022"
"get info",,"Get Info",,,,"11:49 05/09/2022"
"close case?",,"Close Case?",,,,"11:49 05/09/2022"
"persue current objectives detailed in the job note to acquire more details about the job...",,"Pursue current objectives detailed in the job note to acquire more details about the job...",,,,"11:49 05/09/2022"
"note",,"Note",,,,"11:49 05/09/2022"
"details",,"Details",,,,"11:49 05/09/2022"
"custom string",,"Custom String",,,,"11:49 05/09/2022"
"take key",,"Take Key",,,,"11:49 05/09/2022"
"input citizen",,"Input Citizen",,,,"11:49 05/09/2022"
"place",,"Place",,,,"11:49 05/09/2022"
"room",,"Room",,,,"11:49 05/09/2022"
"storage",,"Storage",,,,"11:49 05/09/2022"
"shop",,"Shop",,,,"11:49 05/09/2022"
"materialkey",,"Material",,,,"11:49 05/09/2022"
"sell",,"Sell",,,,"11:49 05/09/2022"
"preview",,"Preview",,,,"11:49 05/09/2022"
"move all to storage",,"Move all to Storage",,,,"11:49 05/09/2022"
"overwrite save game?",,"Overwrite Save Game?",,,,"11:49 05/09/2022"
"colours",,"Colours",,,,"11:49 05/09/2022"
"multiply",,"Multiply",,,,"11:49 05/09/2022"
"cancel",,"Cancel",,,,"11:49 05/09/2022"
"save game?",,"Save Game?",,,,"11:49 05/09/2022"
"savegameoverwrite_title",,"Overwrite?",,,,"11:49 05/09/2022"
"citysave_title",,"Save",,,,"11:49 05/09/2022"
"add lockpicks",,"Add Lockpicks",,,,"11:49 05/09/2022"
"force side mission difficulty",,"Force Side Mission Difficulty",,,,"11:49 05/09/2022"
"screenshot mode",,"Screenshot Mode",,,,"11:49 05/09/2022"
"jan_short",,"Jan",,,,"11:49 05/09/2022"
"feb_short",,"Feb",,,,"11:49 05/09/2022"
"mar_short",,"Mar",,,,"11:49 05/09/2022"
"apr_short",,"Apr",,,,"11:49 05/09/2022"
"may_short",,"May",,,,"11:49 05/09/2022"
"jun_short",,"Jun",,,,"11:49 05/09/2022"
"jul_short",,"Jul",,,,"11:49 05/09/2022"
"aug_short",,"Aug",,,,"11:49 05/09/2022"
"sep_short",,"Sep",,,,"11:49 05/09/2022"
"oct_short",,"Oct",,,,"11:49 05/09/2022"
"nov_short",,"Nov",,,,"11:49 05/09/2022"
"dec_short",,"Dec",,,,"11:49 05/09/2022"
"delete game",,"Delete Game",,,,"11:49 05/09/2022"
"show demo mode",,"Show Demo Mode",,,,"11:49 05/09/2022"
"field of view",,"Field of View",,,,"11:49 05/09/2022"
"master volume",,"Master Volume",,,,"11:49 05/09/2022"
"music volume",,"Music Volume",,,,"11:49 05/09/2022"
"sandbox mode starting money",,"Sandbox Mode Starting Money",,,,"11:49 05/09/2022"
"sandbox mode starting lockpicks",,"Sandbox Mode Starting Lockpicks",,,,"11:49 05/09/2022"
"weather change frequency",,"Weather Change Frequency",,,,"11:49 05/09/2022"
"controller aim sensitivity x axis",,"Controller Aim Sensitivity X Axis",,,,"11:49 05/09/2022"
"controller aim sensitivity y axis",,"Controller Aim Sensitivity Y Axis",,,,"11:49 05/09/2022"
"mouse aim sensitivity x axis",,"Mouse Aim Sensitivity X Axis",,,,"11:49 05/09/2022"
"mouse aim sensitivity y axis",,"Mouse Aim Sensitivity Y Axis",,,,"11:49 05/09/2022"
"controller smoothing",,"Controller Smoothing",,,,"11:49 05/09/2022"
"side mission difficulty",,"Side Mission Difficulty",,,,"11:49 05/09/2022"
"full health",,"Full Health",,,,"11:49 05/09/2022"
"pause ai",,"Pause AI",,,,"11:49 05/09/2022"
"free camera mode",,"Free Camera Mode",,,,"11:49 05/09/2022"
"fast forward mode",,"Fast Forward Mode",,,,"11:49 05/09/2022"
"skip chapter part",,"Skip Chapter Part",,,,"11:49 05/09/2022"
"inventory full",,"Inventory Full",,,,"11:49 05/09/2022"
"movement speed",,"Movement Speed",,,,"11:49 05/09/2022"
"object draw/detail distance",,"Object Draw/Detail Distance",,,,"11:49 05/09/2022"
"vsync",,"V Sync",,,,"11:49 05/09/2022"
"text speed",,"Text Speed",,,,"11:49 05/09/2022"
"time scale",,"Time Scale",,,,"11:49 05/09/2022"
"disable trespassing",,"Disable Trespassing",,,,"11:49 05/09/2022"
"welcome",,"Welcome",,,,"11:49 05/09/2022"
"configuration",,"Configuration",,,,"11:49 05/09/2022"
"upgrades",,"Upgrades",,,,"11:49 05/09/2022"
"side effect",,"Side Effect",,,,"11:49 05/09/2022"
"description",,"Description",,,,"11:49 05/09/2022"
"options",,"Options",,,,"11:49 05/09/2022"
"install new sync disk?",,"Install New Sync Disk?",,,,"11:49 05/09/2022"
"available upgrades",,"Available Upgrades",,,,"11:49 05/09/2022"
"hygeine rating",,"Hygiene Rating",,,,"11:49 05/09/2022"
"single",,"Single",,,,"11:49 05/09/2022"
"use a bed or chamber to install or uninstall sync disks",,"Use a bed or chamber to install or uninstall Sync Disks",,,,"11:49 05/09/2022"
"give all upgrades",,"Give all upgrades",,,,"11:49 05/09/2022"
"skip intro",,"Skip Intro",,,,"11:49 05/09/2022"
"input password",,"Input Password",,,,"11:49 05/09/2022"
"very short",,"Very Short",,,,"11:49 05/09/2022"
"short",,"Short",,,,"11:49 05/09/2022"
"long",,"Long",,,,"11:49 05/09/2022"
"very long",,"Very Long",,,,"11:49 05/09/2022"
"game length",,"Game Length",,,,"11:49 05/09/2022"
"retirement",,"Retirement",,,,"11:49 05/09/2022"
"retire",,"Retire",,,,"11:49 05/09/2022"
"retire_title",,"Retire",,,,"11:49 05/09/2022"
"retire?",,"Retire?",,,,"11:49 05/09/2022"
"drop",,"Drop",,,,"11:49 05/09/2022"
"equip",,"Equip",,,,"11:49 05/09/2022"
"scan",,"Scan",,,,"11:49 05/09/2022"
"inspect",,"Inspect",,,,"11:49 05/09/2022"
"more options",,"More Options",,,,"11:49 05/09/2022"
"edit decor",,"Edit Decor",,,,"11:49 05/09/2022"
"inventory",,"Inventory",,,,"11:49 05/09/2022"
"you cannot hand this case in yet as not all objectives have been revealed...",,"You cannot hand this case in yet as not all objectives have been revealed...",,,,"11:49 05/09/2022"
"give social credit",,"Give social credit",,,,"11:49 05/09/2022"
"complete side job",,"Complete Side Job",,,,"11:49 05/09/2022"
"find a sync clinic to install, uninstall or upgrade sync disks",,"Find a sync clinic to install, uninstall or upgrade sync disks",,,,"13:56 06/09/2022"
"*find a sync clinic to install, uninstall or upgrade sync disks",,"*Find a sync clinic to install, uninstall or upgrade sync disks",,,,"14:21 06/09/2022"
"case options",,"Case Options",,,,"16:02 12/09/2022"
"open job post",,"Open Job Post",,,,"16:03 12/09/2022"
"skip the tutorial section?",,"Skip the Tutorial Section?",,,,"11:56 03/10/2022"
"auto close windows on resume",,"Auto Close Windows on Resume",,,,"14:37 06/10/2022"
"close story case",,"Close Story Case",,,,"16:17 25/10/2022"
"report bug",,"Report Bug",,,,"15:54 01/11/2022"
"edit share code",,"Edit Share Code",,,,"12:33 03/11/2022"
"feedback form",,"Feedback Form",,,,"15:23 03/11/2022"
"rename character",,"Rename Character",,,,"16:20 03/11/2022"
"brazilianportuguese",,"Brazilian Portuguese",,,,"10:12 11/11/2022"
"choose next lead",,"Choose Next Lead",,,,"11:02 11/11/2022"
"depending on size, new cities may take a long time to generate...",,"Depending on size, new cities may take a long time to generate...",,,,"12:25 21/11/2022"
"quick save",,"Quick Save",,,,"15:57 09/12/2022"
"other sfx volume",,"Other SFX Volume",,,,"16:54 12/12/2022"
"pa system volume",,"PA System Volume",,,,"16:54 12/12/2022"
"notifications volume",,"Notifications Volume",,,,"16:54 12/12/2022"
"interface volume",,"Interface Volume",,,,"16:54 12/12/2022"
"footsteps volume",,"Footsteps Volume",,,,"16:54 12/12/2022"
"weather volume",,"Weather Volume",,,,"16:54 12/12/2022"
"ambience volume",,"Ambience Volume",,,,"16:54 12/12/2022"
"master sfx volume",,"Master SFX Volume",,,,"16:54 12/12/2022"
"fastapproximateantialiasing",,"Fast Approximate Anti-Aliasing",,,,"15:37 13/12/2022"
"temporalantialiasing",,"Temporal Antialiasing",,,,"15:37 13/12/2022"
"subpixelmorphologicalantialiasing",,"Subpixel Morphological Anti-Aliasing",,,,"15:37 13/12/2022"
"dithering",,"Dithering",,,,"15:38 13/12/2022"
"anti-aliasing mode",,"Anti-Aliasing Mode",,,,"15:38 13/12/2022"
"anti-aliasing quality",,"Anti-Aliasing Quality",,,,"15:38 13/12/2022"
"new murder case",,"New Murder Case",,,,"10:41 16/12/2022"
"create string",,"Create String",,,,"12:50 11/01/2023"
"reset controls",,"Reset Controls",,,,"11:12 13/01/2023"
"streaming",,"Streaming",,,,"12:18 16/01/2023"
"allow licensed music (disable for streaming)",,"Allow Licensed Music (Disable for Streaming)",,,,"12:18 16/01/2023"
"twitch channel name",,"Twitch Channel Name",,,,"14:02 16/01/2023"
"enable twitch audience citizens",,"Enable Twitch Audience Citizens",,,,"14:02 16/01/2023"
"update twitch citizens",,"Update Twitch Citizens",,,,"14:50 16/01/2023"
"update frequency (minutes)",,"Update Frequency (Minutes)",,,,"16:11 16/01/2023"
"auto update twitch audience citizens",,"Auto Update Twitch Audience Citizens",,,,"16:11 16/01/2023"
"press the update button or enable auto update to gather twitch audience names...",,"Press the update button or enable auto update to gather Twitch audience names...",,,,"16:11 16/01/2023"
"last updated with audience names: ",,"Last updated with audience names: ",,,,"16:11 16/01/2023"
"audience citizen names disabled",,"Audience citizen names disabled",,,,"16:11 16/01/2023"
"update",,"Update",,,,"16:35 16/01/2023"
"valid name tip",,"\n*First and last names are made by trying to split viewer names in two with a '_' or '.'\n*Names will be applied dynamically and are not saved with save game or city data. They will be reset across play sessions.\n*No personal information is saved, and names will be applied to citizens randomly.",,,,"17:02 16/01/2023"
"buysell",,"Buy/Sell",,,,"14:10 18/01/2023"
"project lead & programming",,"Project Lead & Programming",,,,"09:33 25/01/2023"
"game design",,"Game Design",,,,"09:33 25/01/2023"
"art",,"Art",,,,"09:33 25/01/2023"
"voxels/misc",,"Voxels/Misc",,,,"09:33 25/01/2023"
"sfx & music",,"SFX & Music",,,,"09:33 25/01/2023"
"narrative",,"Narrative",,,,"09:33 25/01/2023"
"development",,"Development",,,,"12:22 25/01/2023"
"voice acting",,"Voice Acting",,,,"12:22 25/01/2023"
"detective gill (tv show)","LOC_IGNORE","Detective Gill (TV Show)",,,,"12:22 25/01/2023"
"angel harris (tv show)","LOC_IGNORE","Angel Harris (TV Show)",,,,"12:22 25/01/2023"
"commercials",,"Commercials",,,,"12:22 25/01/2023"
"publishing",,"Publishing",,,,"12:22 25/01/2023"
"fireshine games","LOC_IGNORE","Fireshine Games",,,,"12:22 25/01/2023"
"ceo",,"CEO",,,,"12:22 25/01/2023"
"coo",,"COO",,,,"12:22 25/01/2023"
"production",,"Production",,,,"12:22 25/01/2023"
"producer",,"Producer",,,,"12:22 25/01/2023"
"production assistant",,"Production Assistant",,,,"12:22 25/01/2023"
"marketing",,"Marketing",,,,"12:22 25/01/2023"
"marketing director",,"Marketing Director",,,,"12:22 25/01/2023"
"head of product marketing",,"Head of Product Marketing",,,,"12:22 25/01/2023"
"product manager",,"Product Manager",,,,"12:22 25/01/2023"
"associate product manager",,"Associate Product Manager",,,,"12:22 25/01/2023"
"sales director",,"Sales Director",,,,"12:22 25/01/2023"
"sales manager",,"Sales Manager",,,,"12:22 25/01/2023"
"community management",,"Community Management",,,,"12:22 25/01/2023"
"cm & additional marketing assets",,"CM & Additional Marketing Assets",,,,"12:22 25/01/2023"
"public relations",,"Public Relations",,,,"12:22 25/01/2023"
"finance",,"Finance",,,,"12:22 25/01/2023"
"finance director",,"Finance Director",,,,"12:22 25/01/2023"
"acquisitions management",,"Acquisitions Management",,,,"12:22 25/01/2023"
"trailers",,"Trailers",,,,"12:22 25/01/2023"
"pre-launch trailer",,"Pre-Launch Trailer",,,,"12:22 25/01/2023"
"launch trailer",,"Launch Trailer",,,,"12:22 25/01/2023"
"trailer audio",,"Trailer Audio",,,,"12:22 25/01/2023"
"user testing",,"User Testing",,,,"12:22 25/01/2023"
"unity plugins",,"Unity Plugins",,,,"12:22 25/01/2023"
"fonts",,"Fonts",,,,"12:22 25/01/2023"
"additional assets",,"Additional Assets",,,,"12:22 25/01/2023"
"discord community",,"Discord Community",,,,"12:22 25/01/2023"
"thanks for your input and patience!",,"Thanks for your input and patience!",,,,"12:22 25/01/2023"
"moderator",,"Moderator",,,,"12:22 25/01/2023"
"special thanks",,"Special Thanks",,,,"12:22 25/01/2023"
"unity plugins & resources",,"Unity Plug-ins & Resources",,,,"12:34 25/01/2023"
"poly few","LOC_IGNORE","Poly Few",,,,"12:34 25/01/2023"
"easy feedback form","LOC_IGNORE","Easy Feedback Form",,,,"12:34 25/01/2023"
"controller icon pack","LOC_IGNORE","Controller Icon Pack",,,,"12:34 25/01/2023"
"naughtyattributes","LOC_IGNORE","NaughtyAttributes",,,,"12:34 25/01/2023"
"rewired","LOC_IGNORE","Rewired",,,,"12:34 25/01/2023"
"hdrp outline","LOC_IGNORE","HDRP Outline",,,,"12:34 25/01/2023"
"lightning bolt effect","LOC_IGNORE","Lightning Bolt Effect",,,,"12:34 25/01/2023"
"explosion effects realistic sprites","LOC_IGNORE","Explosion Effects Realistic Sprites",,,,"12:34 25/01/2023"
"texture channel packer","LOC_IGNORE","Texture Channel Packer",,,,"12:34 25/01/2023"
"editor console pro","LOC_IGNORE","Editor Console Pro",,,,"12:34 25/01/2023"
"7zip, lzma, lz4, fastlz, zip/gzip & brotli multiplatform plugins","LOC_IGNORE","7Zip, lzma, LZ4, fastLZ, zip/gzip & brotli multiplatform plugins",,,,"12:34 25/01/2023"
"surface rain shader",,"Surface Rain Shader",,,,"12:34 25/01/2023"
"in-game paintings",,"In-Game Paintings",,,,"12:34 25/01/2023"
"promotional assets",,"Promotional Assets",,,,"12:44 25/01/2023"
"key art",,"Key Art",,,,"12:44 25/01/2023"
"key art development",,"Key Art Development",,,,"12:44 25/01/2023"
"supernaut studio","LOC_IGNORE","Supernaut Studio",,,,"12:44 25/01/2023"
"social media assets",,"Social Media Assets",,,,"12:44 25/01/2023"
"menu art",,"Menu Art",,,,"12:45 25/01/2023"
"cargo ship",,"Cargo Ship",,,,"12:53 25/01/2023"
"story mode button",,"The Dead of Night\n<size=75%>A specially crafted case to introduce the game",,,,"14:10 03/02/2023"
"sandbox mode button",,"Sandbox\n<size=75%>Solve & explore within the city your way",,,,"14:10 03/02/2023"
"select city button",,"Select City\n<size=75%>Play in a pre-made or previously generated city",,,,"14:21 03/02/2023"
"generate city button",,"Generate City\n<size=75%>Generate a new city to play in",,,,"14:21 03/02/2023"
"items",,"Items",,,,"16:39 21/02/2023"
"take",,"Take",,,,"17:19 21/02/2023"
"enable frame rate cap",,"Enable Frame Rate Cap",,,,"13:56 27/02/2023"
"frame rate cap",,"Frame Rate Cap",,,,"13:56 27/02/2023"
"watch",,"watch",,,,"11:43 28/02/2023"
"awareness indicator",,"Awareness Indicator",,,,"11:54 28/02/2023"
"'gruff man' (tv show)","LOC_IGNORE","'Gruff Man' (TV Show)",,,,"10:25 02/03/2023"
"passcode override",,"Passcode Override",,,,"16:04 17/03/2023"
"dan sayers","LOC_IGNORE","Dan Sayers",,,,"16:32 27/03/2023"
"averia","LOC_IGNORE","Averia",,,,"16:51 27/03/2023"
"basis33","LOC_IGNORE","Basis33",,,,"16:51 27/03/2023"
"bilingual serif","LOC_IGNORE","Bilingual Serif",,,,"16:51 27/03/2023"
"boom comic","LOC_IGNORE","Boom Comic",,,,"16:51 27/03/2023"
"delicious sans","LOC_IGNORE","Delicious Sans",,,,"16:51 27/03/2023"
"le royale","LOC_IGNORE","Le Royale",,,,"16:51 27/03/2023"
"pacific beach","LOC_IGNORE","Pacific Beach",,,,"16:51 27/03/2023"
"pentacle gothic","LOC_IGNORE","Pentacle Gothic",,,,"16:51 27/03/2023"
"perfect thoughts","LOC_IGNORE","Perfect Thoughts",,,,"16:51 27/03/2023"
"wild and folk","LOC_IGNORE","Wild and Folk",,,,"16:51 27/03/2023"
"dot matrix","LOC_IGNORE","Dot Matrix",,,,"16:51 27/03/2023"
"free serif","LOC_IGNORE","Free Serif",,,,"16:51 27/03/2023"
"josefin sans","LOC_IGNORE","Josefin Sans",,,,"16:51 27/03/2023"
"my hands are holding you","LOC_IGNORE","My Hands are Holding You",,,,"16:51 27/03/2023"
"noto sans","LOC_IGNORE","Noto Sans",,,,"16:51 27/03/2023"
"papa man aoe","LOC_IGNORE","Papa Man AOE",,,,"16:51 27/03/2023"
"truetypewriter polyglott","LOC_IGNORE","Truetypewriter Polyglott",,,,"16:51 27/03/2023"
"comili-book","LOC_IGNORE","Comili-Book",,,,"16:51 27/03/2023"
"denise handwriting","LOC_IGNORE","Denise Handwriting",,,,"16:51 27/03/2023"
"halogen","LOC_IGNORE","Halogen",,,,"16:51 27/03/2023"
"hundrighting","LOC_IGNORE","Hundrighting",,,,"16:51 27/03/2023"
"juliagar","LOC_IGNORE","Juliagar",,,,"16:51 27/03/2023"
"white pinky","LOC_IGNORE","White Pinky",,,,"16:51 27/03/2023"
"pecita","LOC_IGNORE","Pecita",,,,"16:51 27/03/2023"
"righty uses left hand","LOC_IGNORE","Righty Uses Left Hand",,,,"16:51 27/03/2023"
"roustel","LOC_IGNORE","Roustel",,,,"16:51 27/03/2023"
"southpaw","LOC_IGNORE","Southpaw",,,,"16:51 27/03/2023"
"send screenshot",,"Send Screenshot",,,,"14:37 19/04/2023"
"bug report",,"Bug Report",,,,"14:37 19/04/2023"
"send previous game log",,"Send Previous Game Log",,,,"14:37 19/04/2023"
"category",,"Category",,,,"14:37 19/04/2023"
"priority",,"Priority",,,,"14:37 19/04/2023"
"send system specs",,"Send System Specs",,,,"14:37 19/04/2023"
"send save game",,"Send Save Game",,,,"14:37 19/04/2023"
"general bugs",,"General Bugs",,,,"14:54 19/04/2023"
"ai bugs",,"AI Bugs",,,,"14:54 19/04/2023"
"geometry bugs",,"Geometry Bugs",,,,"14:54 19/04/2023"
"feedback",,"Feedback",,,,"14:54 19/04/2023"
"bug name",,"Bug Name",,,,"15:08 19/04/2023"
"bug details",,"Bug Details",,,,"15:08 19/04/2023"
"submit",,"Submit",,,,"15:15 19/04/2023"
"delete playerprefs","LOC_IGNORE","Delete PlayerPrefs",,,,"12:07 24/04/2023"
"enable flickering lights",,"Enable Flickering Lights",,,,"16:50 09/05/2023"
"project lead",,"Project Lead",,,,"15:19 23/06/2023"
"programming",,"Programming",,,,"15:19 23/06/2023"
"legendary detectives",,"Legendary Detectives",,,,"15:19 23/06/2023"
"audio engine",,"Audio Engine",,,,"08:15 27/06/2023"
"light fade distance",,"Light Fade Distance",,,,"14:44 12/07/2023"
"revert all settings to default",,"Revert all Settings to Default",,,,"15:38 12/07/2023"
"reset all settings to default",,"Reset All Settings to Default",,,,"09:17 27/07/2023"
"city data compression",,"City Data Compression",,,,"16:39 02/08/2023"
"save game compression",,"Save Game Compression",,,,"16:39 02/08/2023"
"due to recent changes to twitch, this feature is currently not functional. we aim to get it working again in a future update.",,"Due to recent changes to Twitch, this feature is currently not functional. We aim to get it working again in a future update.",,,,"16:49 02/08/2023"
"selectitem",,"Select Item",,,,"12:24 25/08/2023"
"enable dynamic resolution",,"Enable Dynamic Resolution/DLSS",,,,"15:23 25/08/2023"
"connect","","Connect","",,"","10:24 19/09/2023"
"twitch username","","Twitch Username","",,"","10:24 19/09/2023"
"twitch features","","Twitch Features","",,"","10:28 19/09/2023"
"twitch connect","","Twitch Connect","",,"","11:06 19/09/2023"
"disconnected","","Disconnected","",,"","11:10 19/09/2023"
"connected","","Connected","",,"","11:34 19/09/2023"
"twitch","","Twitch","",,"","12:10 19/09/2023"
"press the update button to gather twitch audience names...","","Press the update button to gather Twitch audience names...","",,"","12:10 19/09/2023"
"connecting","","Connecting","",,"","12:32 19/09/2023"
"disconnect","","Disconnect","",,"","12:59 19/09/2023"
"admin","","Admin","",,"","15:05 21/09/2023"
