Game Reference Key,Notes,Displayed Text,Alternate Text,Frequency,Requires Suffix,Misc.
[The key used by the game to find strings],"[Not loaded into the game, for explanation only]",[The displayed string in-game],"[Alternate displayed string, eg. Nickname]",[For lists],[Does this require a suffix for naming?],[Miscellaneous]
— ,— ,— ,— ,— ,— ,— 
generating,,Generating,,,,11:49 05/09/2022
start,,Start,,,,11:49 05/09/2022
setupcityboundary,,Setting up Boundary,,,,11:49 05/09/2022
generatedistricts,,Creating Districts,,,,11:49 05/09/2022
generateblocks,,Creating Blocks,,,,11:49 05/09/2022
generatedensity,,Creating Density,,,,11:49 05/09/2022
generatezoning,,Creating Zones,,,,11:49 05/09/2022
loadbasemap,,Loading Base Map,,,,11:49 05/09/2022
generatebuildings,,Creating Buildings,,,,11:49 05/09/2022
generatepathfinding,,Creating Path-finding Grid,,,,11:49 05/09/2022
generateroads,,Creating Streets,,,,11:49 05/09/2022
generatecitizens,,Creating Citizens,,,,11:49 05/09/2022
generaterelationships,,Creating Relationships,,,,11:49 05/09/2022
generatecriminals,,Creating Criminals,,,,11:49 05/09/2022
generateroutines,,Creating Routines,,,,11:49 05/09/2022
generatepaths,,Calculating Paths,,,,11:49 05/09/2022
gatherdata,,Gathering Data,,,,11:49 05/09/2022
generateevidence,,Creating Evidence,,,,11:49 05/09/2022
simulateday,,Simulating Day,,,,11:49 05/09/2022
generatepathsfollowingsimday,,Calculating Paths,,,,11:49 05/09/2022
postdaysimulation,,Gathering Data,,,,11:49 05/09/2022
population,,Population,,,,11:49 05/09/2022
ready,,Ready,,,,11:49 05/09/2022
prepping,,Preparing,,,,11:49 05/09/2022
removecompletedroutines,,Removing Completed Routines,,,,11:49 05/09/2022
setupemmisiontextures,,Creating Emission Textures,,,,11:49 05/09/2022
gather,,Gathering Data,,,,11:49 05/09/2022
finalizing,,Finalizing,,,,11:49 05/09/2022
generateinteriors,,Creating Interiors,,,,11:49 05/09/2022
generateblueprints,,Creating Blueprints,,,,11:49 05/09/2022
generaterooms,,Creating Rooms,,,,11:49 05/09/2022
loadrooms,,Loading Rooms,,,,11:49 05/09/2022
connectrooms,,Connecting Rooms,,,,11:49 05/09/2022
preparecitizens,,Preparing Citizens,,,,11:49 05/09/2022
savingdata,,Saving Data,,,,11:49 05/09/2022
entering,,Entering,,,,11:49 05/09/2022
calculatenearest,,Optimizing Paths,,,,11:49 05/09/2022
generatecompanies,,Creating Companies,,,,11:49 05/09/2022
generatejobs,,Creating Jobs,,,,11:49 05/09/2022
generateairducts,,Generating Air Ducts,,,,11:49 05/09/2022
loadchapter,,Loading Chapter,,,,11:49 05/09/2022
loadobjects,,Loading Objects,,,,11:49 05/09/2022
loadstate,,Loading Game State,,,,11:49 15/11/2022
presim,,Simulating Past Events,,,,11:49 05/09/2022
loadcomplete,,Complete,,,,11:49 05/09/2022
parsingfile,,Loading Save File,,,,11:49 05/09/2022
