%YAML 1.1
%TAG !u! tag:unity3d.com,2011:
--- !u!114 &11400000
MonoBehaviour:
  m_ObjectHideFlags: 0
  m_CorrespondingSourceObject: {fileID: 0}
  m_PrefabInstance: {fileID: 0}
  m_PrefabAsset: {fileID: 0}
  m_GameObject: {fileID: 0}
  m_Enabled: 1
  m_EditorHideFlags: 0
  m_Script: {fileID: 11500000, guid: 87934c2f8054f6147bf0a47c749e8b6f, type: 3}
  m_Name: 1x1DinerCounter
  m_EditorClassIdentifier: 
  presetName: 1x1DinerCounter
  wallRules:
  - nodeOffset: {x: 0, y: 0}
    wallDirection: 7
    option: 0
    tag: 0
    roomType: {fileID: 0}
    addScore: 0
  - nodeOffset: {x: 0, y: 0}
    wallDirection: 2
    option: 0
    tag: 0
    roomType: {fileID: 0}
    addScore: 0
  - nodeOffset: {x: 0, y: -1}
    wallDirection: 2
    option: 1
    tag: 0
    roomType: {fileID: 0}
    addScore: 0
  - nodeOffset: {x: 0, y: -1}
    wallDirection: 2
    option: 1
    tag: 2
    roomType: {fileID: 0}
    addScore: 0
  - nodeOffset: {x: 0, y: -1}
    wallDirection: 2
    option: 1
    tag: 3
    roomType: {fileID: 0}
    addScore: 0
  - nodeOffset: {x: 0, y: -1}
    wallDirection: 2
    option: 1
    tag: 10
    roomType: {fileID: 11400000, guid: 1feb4b2a99f84874db3280126152827c, type: 2}
    addScore: 0
  - nodeOffset: {x: 0, y: -1}
    wallDirection: 2
    option: 1
    tag: 10
    roomType: {fileID: 11400000, guid: 9e676c651d3387c4ea368d84d93034d1, type: 2}
    addScore: 0
  - nodeOffset: {x: 0, y: -1}
    wallDirection: 2
    option: 1
    tag: 10
    roomType: {fileID: 11400000, guid: 4feaa49c940ecd84b94179e8c973e38c, type: 2}
    addScore: 0
  - nodeOffset: {x: -1, y: -1}
    wallDirection: 2
    option: 1
    tag: 10
    roomType: {fileID: 11400000, guid: 4feaa49c940ecd84b94179e8c973e38c, type: 2}
    addScore: 0
  - nodeOffset: {x: 1, y: -1}
    wallDirection: 2
    option: 1
    tag: 10
    roomType: {fileID: 11400000, guid: 4feaa49c940ecd84b94179e8c973e38c, type: 2}
    addScore: 0
  nodeRules: []
  blockedAccess:
  - disabled: 0
    nodeOffset: {x: 0, y: 0}
    blockExteriorDiagonals: 0
    blocked: 070000000600000008000000
  - disabled: 0
    nodeOffset: {x: 0, y: 1}
    blockExteriorDiagonals: 0
    blocked: 020000000100000003000000
  updatePreCalculated: 0
  minimumZeroNodeWallCount: 0
  maximumZeroNodeWallCount: 2
  canFaceDiagonally: 0
  limitPerRoom: 0
  maximumNumberPerRoom: 20
  limitPerAddress: 0
  maximumNumberPerAddress: 20
  limitToFloor: 0
  allowedOnFloor: 0
  limitToFloorRange: 0
  allowedOnFloorRange: {x: 0, y: 0}
  limitPerBuildingResidence: 0
  perBuildingResidences: 30
  limitPerJobs: 0
  perJobs: 6
  awayFromClasses: []
  minimumNodeDistance: 0
  objectSize: {x: 1, y: 1}
  tall: 0
  wallPiece: 0
  useWallSnappingInDecorMode: 0
  windowPiece: 0
  occupiesTile: 1
  allowedOnStairwell: 0
  onlyOnStairwell: 0
  allowIfNoFloor: 0
  ceilingPiece: 0
  requiresCeiling: 0
  blocksCeiling: 0
  allowLightswitch: 1
  raiseLightswitch: 0
  noBlocking: 0
  noPassThrough: 0
  noAccessNeeded: 0
  blockDefaultSublocations: 1
  ignoreGeometryInPhysicsCheck: 0
  sublocations:
  - offset: {x: 0, y: 0}
    sublocations:
    - {x: -0.594, y: 0, z: -0.116}
    - {x: 0, y: 0, z: -0.116}
    - {x: 0.594, y: 0, z: -0.116}
  aiRobberyPriority: 3
  isSecurityCamera: 0
  ownershipClass: 0
  ownershipSource: 0
  assignBelongsToOwners: 0
  preferCouples: 0
  copyFromPreviouslyPlacedInCluster: 0
  onlyPickFromRoomOwners: 0
  skipIfNoAddressInhabitants: 0
  assignHomelessOwners: 0
  assignMailbox: 0
  discourageMissionPhotos: 0
  copyFrom: {fileID: 0}
