%YAML 1.1
%TAG !u! tag:unity3d.com,2011:
--- !u!114 &11400000
MonoBehaviour:
  m_ObjectHideFlags: 0
  m_CorrespondingSourceObject: {fileID: 0}
  m_PrefabInstance: {fileID: 0}
  m_PrefabAsset: {fileID: 0}
  m_GameObject: {fileID: 0}
  m_Enabled: 1
  m_EditorHideFlags: 0
  m_Script: {fileID: 11500000, guid: 87934c2f8054f6147bf0a47c749e8b6f, type: 3}
  m_Name: 1x1KitchenSink
  m_EditorClassIdentifier: 
  presetName: 1x1KitchenSink
  wallRules:
  - nodeOffset: {x: 0, y: 0}
    wallDirection: 2
    option: 1
    tag: 0
    roomType: {fileID: 0}
    addScore: 0
  - nodeOffset: {x: 0, y: 0}
    wallDirection: 2
    option: 1
    tag: 4
    roomType: {fileID: 0}
    addScore: 0
  - nodeOffset: {x: 0, y: 0}
    wallDirection: 7
    option: 0
    tag: 0
    roomType: {fileID: 0}
    addScore: 0
  - nodeOffset: {x: 0, y: 0}
    wallDirection: 2
    option: 2
    tag: 2
    roomType: {fileID: 0}
    addScore: 1
  - nodeOffset: {x: 0, y: 0}
    wallDirection: 2
    option: 2
    tag: 3
    roomType: {fileID: 0}
    addScore: 1
  nodeRules:
  - offset: {x: -1, y: 0}
    option: 2
    anyOccupiedTile: 0
    furnitureClass: {fileID: 11400000, guid: 09742109af966a64b8b34c8403e0e25f, type: 2}
    addScore: 1
  - offset: {x: 1, y: 0}
    option: 2
    anyOccupiedTile: 0
    furnitureClass: {fileID: 11400000, guid: 09742109af966a64b8b34c8403e0e25f, type: 2}
    addScore: 1
  - offset: {x: -1, y: 0}
    option: 2
    anyOccupiedTile: 0
    furnitureClass: {fileID: 11400000, guid: 739844a8d31a8fc4ea443e1c7949adce, type: 2}
    addScore: 1
  - offset: {x: 1, y: 0}
    option: 2
    anyOccupiedTile: 0
    furnitureClass: {fileID: 11400000, guid: 739844a8d31a8fc4ea443e1c7949adce, type: 2}
    addScore: 1
  - offset: {x: -1, y: 0}
    option: 2
    anyOccupiedTile: 0
    furnitureClass: {fileID: 11400000, guid: 0f24a99ade3833b4b934af61560ec3bf, type: 2}
    addScore: 1
  - offset: {x: 1, y: 0}
    option: 2
    anyOccupiedTile: 0
    furnitureClass: {fileID: 11400000, guid: 0f24a99ade3833b4b934af61560ec3bf, type: 2}
    addScore: 1
  blockedAccess:
  - disabled: 0
    nodeOffset: {x: -0, y: -0}
    blockExteriorDiagonals: 0
    blocked: 010000000200000003000000
  updatePreCalculated: 0
  minimumZeroNodeWallCount: 1
  maximumZeroNodeWallCount: 3
  canFaceDiagonally: 0
  limitPerRoom: 1
  maximumNumberPerRoom: 1
  limitPerAddress: 1
  maximumNumberPerAddress: 8
  limitToFloor: 0
  allowedOnFloor: 0
  limitToFloorRange: 0
  allowedOnFloorRange: {x: 0, y: 0}
  limitPerBuildingResidence: 0
  perBuildingResidences: 30
  limitPerJobs: 0
  perJobs: 6
  awayFromClasses:
  - {fileID: 11400000, guid: 09742109af966a64b8b34c8403e0e25f, type: 2}
  - {fileID: 11400000, guid: 04bb32c2187848241acfdcd95ae78b86, type: 2}
  - {fileID: 11400000}
  - {fileID: 11400000, guid: 2ba4db493f338dd48a204a8b4fd0d0fb, type: 2}
  minimumNodeDistance: 1
  objectSize: {x: 1, y: 1}
  tall: 0
  wallPiece: 0
  useWallSnappingInDecorMode: 0
  windowPiece: 0
  occupiesTile: 1
  allowedOnStairwell: 0
  onlyOnStairwell: 0
  allowIfNoFloor: 0
  ceilingPiece: 0
  requiresCeiling: 0
  blocksCeiling: 0
  allowLightswitch: 1
  raiseLightswitch: 0
  noBlocking: 0
  noPassThrough: 0
  noAccessNeeded: 0
  blockDefaultSublocations: 1
  ignoreGeometryInPhysicsCheck: 0
  sublocations:
  - offset: {x: 0, y: 0}
    sublocations:
    - {x: 0.594, y: 0, z: 0.607}
    - {x: -0.594, y: 0, z: 0.607}
    - {x: -0.019, y: 0, z: 0.619}
    - {x: 0.594, y: 0, z: 0.219}
    - {x: -0.594, y: 0, z: 0.222}
    - {x: -0.031, y: 0, z: 0.222}
  aiRobberyPriority: 0
  isSecurityCamera: 0
  ownershipClass: 0
  ownershipSource: 0
  assignBelongsToOwners: 0
  preferCouples: 0
  copyFromPreviouslyPlacedInCluster: 0
  onlyPickFromRoomOwners: 0
  skipIfNoAddressInhabitants: 0
  assignHomelessOwners: 0
  assignMailbox: 0
  discourageMissionPhotos: 0
  copyFrom: {fileID: 0}
