%YAML 1.1
%TAG !u! tag:unity3d.com,2011:
--- !u!114 &11400000
MonoBehaviour:
  m_ObjectHideFlags: 0
  m_CorrespondingSourceObject: {fileID: 0}
  m_PrefabInstance: {fileID: 0}
  m_PrefabAsset: {fileID: 0}
  m_GameObject: {fileID: 0}
  m_Enabled: 1
  m_EditorHideFlags: 0
  m_Script: {fileID: 11500000, guid: 87934c2f8054f6147bf0a47c749e8b6f, type: 3}
  m_Name: 1x1ReceptionSeat
  m_EditorClassIdentifier: 
  presetName: 1x1ReceptionSeat
  wallRules:
  - nodeOffset: {x: 0, y: 0}
    wallDirection: 2
    option: 1
    tag: 0
    roomType: {fileID: 0}
    addScore: 0
  - nodeOffset: {x: 0, y: 0}
    wallDirection: 2
    option: 1
    tag: 4
    roomType: {fileID: 0}
    addScore: 0
  nodeRules: []
  blockedAccess: []
  updatePreCalculated: 0
  minimumZeroNodeWallCount: 1
  maximumZeroNodeWallCount: 3
  canFaceDiagonally: 0
  limitPerRoom: 1
  maximumNumberPerRoom: 8
  limitPerAddress: 1
  maximumNumberPerAddress: 8
  limitToFloor: 0
  allowedOnFloor: 0
  limitToFloorRange: 0
  allowedOnFloorRange: {x: 0, y: 0}
  limitPerBuildingResidence: 0
  perBuildingResidences: 30
  limitPerJobs: 0
  perJobs: 6
  awayFromClasses:
  - {fileID: 11400000, guid: ba0d0857c9589014f9fe388b5af614f0, type: 2}
  - {fileID: 11400000, guid: d451d223f2010314993ac642982ba491, type: 2}
  - {fileID: 11400000, guid: f1570082fc13f694ea75cf25e87b2d0c, type: 2}
  - {fileID: 11400000, guid: d8edaf95c83a52b489e2640968a5c2a5, type: 2}
  minimumNodeDistance: 1.9
  objectSize: {x: 1, y: 1}
  tall: 0
  wallPiece: 0
  useWallSnappingInDecorMode: 0
  windowPiece: 0
  occupiesTile: 1
  allowedOnStairwell: 0
  onlyOnStairwell: 0
  allowIfNoFloor: 0
  ceilingPiece: 0
  requiresCeiling: 0
  blocksCeiling: 0
  allowLightswitch: 1
  raiseLightswitch: 0
  noBlocking: 1
  noPassThrough: 0
  noAccessNeeded: 0
  blockDefaultSublocations: 0
  ignoreGeometryInPhysicsCheck: 0
  sublocations:
  - offset: {x: 0, y: 0}
    sublocations:
    - {x: 0.594, y: 0, z: 0.559}
    - {x: -0.594, y: 0, z: 0.559}
    - {x: -0.019, y: 0, z: 0.559}
    - {x: 0.594, y: 0, z: 0.078}
    - {x: -0.594, y: 0, z: 0.078}
    - {x: -0.019, y: 0, z: 0.078}
  aiRobberyPriority: 3
  isSecurityCamera: 0
  ownershipClass: 0
  ownershipSource: 0
  assignBelongsToOwners: 0
  preferCouples: 0
  copyFromPreviouslyPlacedInCluster: 0
  onlyPickFromRoomOwners: 0
  skipIfNoAddressInhabitants: 0
  assignHomelessOwners: 0
  assignMailbox: 0
  discourageMissionPhotos: 0
  copyFrom: {fileID: 0}
