%YAML 1.1
%TAG !u! tag:unity3d.com,2011:
--- !u!114 &11400000
MonoBehaviour:
  m_ObjectHideFlags: 0
  m_CorrespondingSourceObject: {fileID: 0}
  m_PrefabInstance: {fileID: 0}
  m_PrefabAsset: {fileID: 0}
  m_GameObject: {fileID: 0}
  m_Enabled: 1
  m_EditorHideFlags: 0
  m_Script: {fileID: 11500000, guid: 87934c2f8054f6147bf0a47c749e8b6f, type: 3}
  m_Name: 1x1SupermarketFridge
  m_EditorClassIdentifier: 
  presetName: 1x1SupermarketFridge
  wallRules:
  - nodeOffset: {x: 0, y: 0}
    wallDirection: 2
    option: 0
    tag: 7
    roomType: {fileID: 0}
    addScore: 0
  nodeRules: []
  blockedAccess:
  - disabled: 0
    nodeOffset: {x: -0, y: -0}
    blockExteriorDiagonals: 0
    blocked: 010000000200000003000000
  updatePreCalculated: 0
  minimumZeroNodeWallCount: 1
  maximumZeroNodeWallCount: 3
  canFaceDiagonally: 0
  limitPerRoom: 0
  maximumNumberPerRoom: 4
  limitPerAddress: 0
  maximumNumberPerAddress: 1
  limitToFloor: 0
  allowedOnFloor: 0
  limitToFloorRange: 0
  allowedOnFloorRange: {x: 0, y: 0}
  limitPerBuildingResidence: 0
  perBuildingResidences: 30
  limitPerJobs: 0
  perJobs: 6
  awayFromClasses:
  - {fileID: 11400000, guid: 5ae81ff8670131144aaeef6b211234c6, type: 2}
  - {fileID: 11400000, guid: ca9920e1e9472dc44b16ae8c697dbe8d, type: 2}
  - {fileID: 11400000, guid: 98313783bd5ded34ca889ddfa76d4d4f, type: 2}
  - {fileID: 11400000, guid: 53a03b3ff236db9408fb3ca1602589bb, type: 2}
  - {fileID: 11400000, guid: 38b99dc683585e24f9f6cd0a6715edb7, type: 2}
  - {fileID: 11400000, guid: c16152b10688e7642bbe5cd6546870d7, type: 2}
  - {fileID: 11400000, guid: 82c965f50d13a864f89cc3107c9f81be, type: 2}
  minimumNodeDistance: 2
  objectSize: {x: 1, y: 1}
  tall: 1
  wallPiece: 0
  useWallSnappingInDecorMode: 0
  windowPiece: 0
  occupiesTile: 1
  allowedOnStairwell: 0
  onlyOnStairwell: 0
  allowIfNoFloor: 0
  ceilingPiece: 0
  requiresCeiling: 0
  blocksCeiling: 0
  allowLightswitch: 0
  raiseLightswitch: 0
  noBlocking: 0
  noPassThrough: 0
  noAccessNeeded: 0
  blockDefaultSublocations: 1
  ignoreGeometryInPhysicsCheck: 0
  sublocations:
  - offset: {x: 0, y: 0}
    sublocations:
    - {x: -0.019, y: 0, z: 0.722}
  aiRobberyPriority: 3
  isSecurityCamera: 0
  ownershipClass: 0
  ownershipSource: 0
  assignBelongsToOwners: 0
  preferCouples: 0
  copyFromPreviouslyPlacedInCluster: 0
  onlyPickFromRoomOwners: 0
  skipIfNoAddressInhabitants: 0
  assignHomelessOwners: 0
  assignMailbox: 0
  discourageMissionPhotos: 0
  copyFrom: {fileID: 0}
