%YAML 1.1
%TAG !u! tag:unity3d.com,2011:
--- !u!114 &11400000
MonoBehaviour:
  m_ObjectHideFlags: 0
  m_CorrespondingSourceObject: {fileID: 0}
  m_PrefabInstance: {fileID: 0}
  m_PrefabAsset: {fileID: 0}
  m_GameObject: {fileID: 0}
  m_Enabled: 1
  m_EditorHideFlags: 0
  m_Script: {fileID: 11500000, guid: 87934c2f8054f6147bf0a47c749e8b6f, type: 3}
  m_Name: 1x1ScoutLaserLeftCorner
  m_EditorClassIdentifier: 
  presetName: 1x1ScoutLaserLeftCorner
  wallRules:
  - nodeOffset: {x: 0, y: 0}
    wallDirection: 2
    option: 1
    tag: 0
    roomType: {fileID: 0}
    addScore: 0
  - nodeOffset: {x: 0, y: 0}
    wallDirection: 5
    option: 1
    tag: 0
    roomType: {fileID: 0}
    addScore: 0
  - nodeOffset: {x: 0, y: 0}
    wallDirection: 7
    option: 0
    tag: 0
    roomType: {fileID: 0}
    addScore: 0
  - nodeOffset: {x: 0, y: 1}
    wallDirection: 7
    option: 2
    tag: 0
    roomType: {fileID: 0}
    addScore: 1
  - nodeOffset: {x: -1, y: 0}
    wallDirection: 7
    option: 2
    tag: 0
    roomType: {fileID: 0}
    addScore: 1
  - nodeOffset: {x: 0, y: 2}
    wallDirection: 7
    option: 2
    tag: 0
    roomType: {fileID: 0}
    addScore: 1
  - nodeOffset: {x: -1, y: 1}
    wallDirection: 7
    option: 2
    tag: 0
    roomType: {fileID: 0}
    addScore: 1
  - nodeOffset: {x: -1, y: 2}
    wallDirection: 7
    option: 2
    tag: 0
    roomType: {fileID: 0}
    addScore: 1
  - nodeOffset: {x: 0, y: 0}
    wallDirection: 2
    option: 2
    tag: 5
    roomType: {fileID: 0}
    addScore: 1
  - nodeOffset: {x: 0, y: 0}
    wallDirection: 5
    option: 2
    tag: 5
    roomType: {fileID: 0}
    addScore: 1
  - nodeOffset: {x: 0, y: 1}
    wallDirection: 5
    option: 2
    tag: 11
    roomType: {fileID: 0}
    addScore: 1
  - nodeOffset: {x: 0, y: 2}
    wallDirection: 5
    option: 2
    tag: 11
    roomType: {fileID: 0}
    addScore: 1
  - nodeOffset: {x: 0, y: 3}
    wallDirection: 5
    option: 2
    tag: 11
    roomType: {fileID: 0}
    addScore: 1
  nodeRules:
  - offset: {x: 0, y: 1}
    option: 1
    anyOccupiedTile: 0
    furnitureClass: {fileID: 11400000, guid: 82c3e3c926cc69a4a81419acfc9fd91b, type: 2}
    addScore: 0
  - offset: {x: 1, y: 0}
    option: 1
    anyOccupiedTile: 0
    furnitureClass: {fileID: 11400000, guid: 82c3e3c926cc69a4a81419acfc9fd91b, type: 2}
    addScore: 0
  - offset: {x: -1, y: 0}
    option: 1
    anyOccupiedTile: 0
    furnitureClass: {fileID: 11400000, guid: 82c3e3c926cc69a4a81419acfc9fd91b, type: 2}
    addScore: 0
  - offset: {x: 0, y: 0}
    option: 1
    anyOccupiedTile: 0
    furnitureClass: {fileID: 11400000, guid: bdbf474724531c942845f61e39f6d694, type: 2}
    addScore: 0
  blockedAccess: []
  updatePreCalculated: 0
  minimumZeroNodeWallCount: 2
  maximumZeroNodeWallCount: 3
  canFaceDiagonally: 1
  limitPerRoom: 1
  maximumNumberPerRoom: 1
  limitPerAddress: 1
  maximumNumberPerAddress: 2
  limitToFloor: 0
  allowedOnFloor: 0
  limitToFloorRange: 0
  allowedOnFloorRange: {x: 0, y: 0}
  limitPerBuildingResidence: 0
  perBuildingResidences: 30
  limitPerJobs: 0
  perJobs: 6
  awayFromClasses:
  - {fileID: 11400000}
  - {fileID: 11400000, guid: 5d138e3225cb9154eaa7120be12c7425, type: 2}
  minimumNodeDistance: 4
  objectSize: {x: 1, y: 1}
  tall: 0
  wallPiece: 0
  useWallSnappingInDecorMode: 0
  windowPiece: 0
  occupiesTile: 0
  allowedOnStairwell: 0
  onlyOnStairwell: 0
  allowIfNoFloor: 0
  ceilingPiece: 1
  requiresCeiling: 0
  blocksCeiling: 1
  allowLightswitch: 1
  raiseLightswitch: 0
  noBlocking: 1
  noPassThrough: 0
  noAccessNeeded: 1
  blockDefaultSublocations: 0
  ignoreGeometryInPhysicsCheck: 0
  sublocations: []
  aiRobberyPriority: 3
  isSecurityCamera: 0
  ownershipClass: 0
  ownershipSource: 0
  assignBelongsToOwners: 0
  preferCouples: 0
  copyFromPreviouslyPlacedInCluster: 0
  onlyPickFromRoomOwners: 0
  skipIfNoAddressInhabitants: 0
  assignHomelessOwners: 0
  assignMailbox: 0
  discourageMissionPhotos: 0
  copyFrom: {fileID: 0}
