%YAML 1.1
%TAG !u! tag:unity3d.com,2011:
--- !u!114 &11400000
MonoBehaviour:
  m_ObjectHideFlags: 0
  m_CorrespondingSourceObject: {fileID: 0}
  m_PrefabInstance: {fileID: 0}
  m_PrefabAsset: {fileID: 0}
  m_GameObject: {fileID: 0}
  m_Enabled: 1
  m_EditorHideFlags: 0
  m_Script: {fileID: 11500000, guid: 87934c2f8054f6147bf0a47c749e8b6f, type: 3}
  m_Name: 1x1TelephoneBoxPark
  m_EditorClassIdentifier: 
  presetName: 1x1TelephoneBoxPark
  wallRules:
  - nodeOffset: {x: 0, y: 0}
    wallDirection: 7
    option: 0
    tag: 10
    roomType: {fileID: 11400000, guid: 93c8c29d262f4f248b323641a3b720fa, type: 2}
    addScore: 0
  - nodeOffset: {x: 0, y: 0}
    wallDirection: 5
    option: 2
    tag: 0
    roomType: {fileID: 0}
    addScore: -5
  - nodeOffset: {x: 0, y: 0}
    wallDirection: 4
    option: 2
    tag: 0
    roomType: {fileID: 0}
    addScore: -5
  nodeRules: []
  blockedAccess:
  - disabled: 0
    nodeOffset: {x: 0, y: 0}
    blockExteriorDiagonals: 0
    blocked: 02000000010000000300000006000000080000000400000005000000
  updatePreCalculated: 0
  minimumZeroNodeWallCount: 1
  maximumZeroNodeWallCount: 3
  canFaceDiagonally: 0
  limitPerRoom: 0
  maximumNumberPerRoom: 1
  limitPerAddress: 1
  maximumNumberPerAddress: 1
  limitToFloor: 1
  allowedOnFloor: 0
  limitToFloorRange: 0
  allowedOnFloorRange: {x: 0, y: 0}
  limitPerBuildingResidence: 0
  perBuildingResidences: 30
  limitPerJobs: 0
  perJobs: 6
  awayFromClasses:
  - {fileID: 11400000, guid: e828b46be97fafe4990fb0b312c133b9, type: 2}
  minimumNodeDistance: 2
  objectSize: {x: 1, y: 1}
  tall: 1
  wallPiece: 0
  useWallSnappingInDecorMode: 0
  windowPiece: 0
  occupiesTile: 1
  allowedOnStairwell: 0
  onlyOnStairwell: 0
  allowIfNoFloor: 1
  ceilingPiece: 0
  requiresCeiling: 0
  blocksCeiling: 0
  allowLightswitch: 0
  raiseLightswitch: 0
  noBlocking: 0
  noPassThrough: 1
  noAccessNeeded: 0
  blockDefaultSublocations: 1
  ignoreGeometryInPhysicsCheck: 0
  sublocations:
  - offset: {x: 0, y: 0}
    sublocations:
    - {x: -0.022, y: 0, z: -0.084}
  aiRobberyPriority: 3
  isSecurityCamera: 0
  ownershipClass: 0
  ownershipSource: 0
  assignBelongsToOwners: 0
  preferCouples: 0
  copyFromPreviouslyPlacedInCluster: 0
  onlyPickFromRoomOwners: 0
  skipIfNoAddressInhabitants: 0
  assignHomelessOwners: 0
  assignMailbox: 0
  discourageMissionPhotos: 0
  copyFrom: {fileID: 0}
