%YAML 1.1
%TAG !u! tag:unity3d.com,2011:
--- !u!114 &11400000
MonoBehaviour:
  m_ObjectHideFlags: 0
  m_CorrespondingSourceObject: {fileID: 0}
  m_PrefabInstance: {fileID: 0}
  m_PrefabAsset: {fileID: 0}
  m_GameObject: {fileID: 0}
  m_Enabled: 1
  m_EditorHideFlags: 0
  m_Script: {fileID: 11500000, guid: 87934c2f8054f6147bf0a47c749e8b6f, type: 3}
  m_Name: 1x1WallGrimeBottom
  m_EditorClassIdentifier: 
  presetName: 1x1WallGrimeBottom
  wallRules:
  - nodeOffset: {x: 0, y: 0}
    wallDirection: 2
    option: 0
    tag: 7
    roomType: {fileID: 0}
    addScore: 0
  - nodeOffset: {x: 1, y: 0}
    wallDirection: 2
    option: 0
    tag: 7
    roomType: {fileID: 0}
    addScore: 0
  - nodeOffset: {x: -1, y: 0}
    wallDirection: 2
    option: 0
    tag: 7
    roomType: {fileID: 0}
    addScore: 0
  nodeRules: []
  blockedAccess: []
  updatePreCalculated: 0
  minimumZeroNodeWallCount: 1
  maximumZeroNodeWallCount: 4
  canFaceDiagonally: 0
  limitPerRoom: 0
  maximumNumberPerRoom: 20
  limitPerAddress: 0
  maximumNumberPerAddress: 20
  limitToFloor: 0
  allowedOnFloor: 0
  limitToFloorRange: 0
  allowedOnFloorRange: {x: 0, y: 0}
  limitPerBuildingResidence: 0
  perBuildingResidences: 30
  limitPerJobs: 0
  perJobs: 6
  awayFromClasses:
  - {fileID: 11400000}
  minimumNodeDistance: 1
  objectSize: {x: 1, y: 1}
  tall: 0
  wallPiece: 1
  useWallSnappingInDecorMode: 0
  windowPiece: 0
  occupiesTile: 0
  allowedOnStairwell: 0
  onlyOnStairwell: 0
  allowIfNoFloor: 0
  ceilingPiece: 0
  requiresCeiling: 0
  blocksCeiling: 0
  allowLightswitch: 1
  raiseLightswitch: 0
  noBlocking: 1
  noPassThrough: 0
  noAccessNeeded: 1
  blockDefaultSublocations: 0
  ignoreGeometryInPhysicsCheck: 0
  sublocations: []
  aiRobberyPriority: 3
  isSecurityCamera: 0
  ownershipClass: 0
  ownershipSource: 0
  assignBelongsToOwners: 0
  preferCouples: 0
  copyFromPreviouslyPlacedInCluster: 0
  onlyPickFromRoomOwners: 0
  skipIfNoAddressInhabitants: 0
  assignHomelessOwners: 0
  assignMailbox: 0
  discourageMissionPhotos: 0
  copyFrom: {fileID: 0}
