%YAML 1.1
%TAG !u! tag:unity3d.com,2011:
--- !u!114 &11400000
MonoBehaviour:
  m_ObjectHideFlags: 0
  m_CorrespondingSourceObject: {fileID: 0}
  m_PrefabInstance: {fileID: 0}
  m_PrefabAsset: {fileID: 0}
  m_GameObject: {fileID: 0}
  m_Enabled: 1
  m_EditorHideFlags: 0
  m_Script: {fileID: 11500000, guid: 87934c2f8054f6147bf0a47c749e8b6f, type: 3}
  m_Name: 3x2Skip
  m_EditorClassIdentifier: 
  presetName: 3x2Skip
  wallRules:
  - nodeOffset: {x: 0, y: -1}
    wallDirection: 2
    option: 0
    tag: 7
    roomType: {fileID: 0}
    addScore: 0
  - nodeOffset: {x: -1, y: -1}
    wallDirection: 2
    option: 0
    tag: 7
    roomType: {fileID: 0}
    addScore: 0
  - nodeOffset: {x: -2, y: -1}
    wallDirection: 2
    option: 0
    tag: 7
    roomType: {fileID: 0}
    addScore: 0
  nodeRules: []
  blockedAccess:
  - disabled: 0
    nodeOffset: {x: -0, y: -0}
    blockExteriorDiagonals: 0
    blocked: 0100000002000000030000000400000005000000060000000700000008000000
  - disabled: 0
    nodeOffset: {x: -0, y: -1}
    blockExteriorDiagonals: 0
    blocked: 01000000020000000300000004000000050000000600000008000000
  - disabled: 0
    nodeOffset: {x: -0, y: -2}
    blockExteriorDiagonals: 0
    blocked: 06000000
  - disabled: 0
    nodeOffset: {x: -1, y: -0}
    blockExteriorDiagonals: 0
    blocked: 0100000002000000040000000600000008000000
  - disabled: 0
    nodeOffset: {x: -1, y: -1}
    blockExteriorDiagonals: 0
    blocked: 01000000020000000400000006000000
  - disabled: 0
    nodeOffset: {x: -1, y: -2}
    blockExteriorDiagonals: 0
    blocked: 06000000
  - disabled: 0
    nodeOffset: {x: -2, y: -0}
    blockExteriorDiagonals: 0
    blocked: 010000000200000004000000060000000700000008000000
  - disabled: 0
    nodeOffset: {x: -2, y: -1}
    blockExteriorDiagonals: 0
    blocked: 01000000020000000400000006000000
  updatePreCalculated: 0
  minimumZeroNodeWallCount: 0
  maximumZeroNodeWallCount: 3
  canFaceDiagonally: 0
  limitPerRoom: 1
  maximumNumberPerRoom: 1
  limitPerAddress: 1
  maximumNumberPerAddress: 1
  limitToFloor: 1
  allowedOnFloor: 0
  limitToFloorRange: 0
  allowedOnFloorRange: {x: 0, y: 0}
  limitPerBuildingResidence: 0
  perBuildingResidences: 30
  limitPerJobs: 0
  perJobs: 6
  awayFromClasses:
  - {fileID: 11400000}
  minimumNodeDistance: 6
  objectSize: {x: 3, y: 2}
  tall: 0
  wallPiece: 0
  useWallSnappingInDecorMode: 0
  windowPiece: 0
  occupiesTile: 1
  allowedOnStairwell: 0
  onlyOnStairwell: 0
  allowIfNoFloor: 1
  ceilingPiece: 0
  requiresCeiling: 0
  blocksCeiling: 0
  allowLightswitch: 0
  raiseLightswitch: 0
  noBlocking: 0
  noPassThrough: 1
  noAccessNeeded: 0
  blockDefaultSublocations: 1
  ignoreGeometryInPhysicsCheck: 0
  sublocations: []
  aiRobberyPriority: 3
  isSecurityCamera: 0
  ownershipClass: 0
  ownershipSource: 0
  assignBelongsToOwners: 0
  preferCouples: 0
  copyFromPreviouslyPlacedInCluster: 0
  onlyPickFromRoomOwners: 0
  skipIfNoAddressInhabitants: 0
  assignHomelessOwners: 0
  assignMailbox: 0
  discourageMissionPhotos: 1
  copyFrom: {fileID: 11400000, guid: f81d7d0e38d72944cac86905e7f286f7, type: 2}
