%YAML 1.1
%TAG !u! tag:unity3d.com,2011:
--- !u!114 &11400000
MonoBehaviour:
  m_ObjectHideFlags: 0
  m_CorrespondingSourceObject: {fileID: 0}
  m_PrefabInstance: {fileID: 0}
  m_PrefabAsset: {fileID: 0}
  m_GameObject: {fileID: 0}
  m_Enabled: 1
  m_EditorHideFlags: 0
  m_Script: {fileID: 11500000, guid: 87934c2f8054f6147bf0a47c749e8b6f, type: 3}
  m_Name: 3x2StreetLocker
  m_EditorClassIdentifier: 
  presetName: 3x2StreetLocker
  wallRules:
  - nodeOffset: {x: 0, y: -1}
    wallDirection: 2
    option: 0
    tag: 1
    roomType: {fileID: 0}
    addScore: 0
  - nodeOffset: {x: -1, y: -1}
    wallDirection: 2
    option: 0
    tag: 1
    roomType: {fileID: 0}
    addScore: 0
  - nodeOffset: {x: -2, y: -1}
    wallDirection: 2
    option: 0
    tag: 1
    roomType: {fileID: 0}
    addScore: 0
  - nodeOffset: {x: 0, y: 0}
    wallDirection: 7
    option: 0
    tag: 0
    roomType: {fileID: 0}
    addScore: 0
  - nodeOffset: {x: -1, y: 0}
    wallDirection: 7
    option: 0
    tag: 0
    roomType: {fileID: 0}
    addScore: 0
  - nodeOffset: {x: -2, y: 0}
    wallDirection: 7
    option: 0
    tag: 0
    roomType: {fileID: 0}
    addScore: 0
  - nodeOffset: {x: 0, y: -1}
    wallDirection: 2
    option: 2
    tag: 5
    roomType: {fileID: 0}
    addScore: 1
  - nodeOffset: {x: -1, y: -1}
    wallDirection: 2
    option: 2
    tag: 5
    roomType: {fileID: 0}
    addScore: 1
  - nodeOffset: {x: -1, y: -1}
    wallDirection: 2
    option: 2
    tag: 6
    roomType: {fileID: 0}
    addScore: 1
  - nodeOffset: {x: -2, y: -1}
    wallDirection: 2
    option: 2
    tag: 5
    roomType: {fileID: 0}
    addScore: 1
  - nodeOffset: {x: -2, y: -1}
    wallDirection: 2
    option: 2
    tag: 6
    roomType: {fileID: 0}
    addScore: 1
  nodeRules: []
  blockedAccess:
  - disabled: 0
    nodeOffset: {x: -0, y: -0}
    blockExteriorDiagonals: 0
    blocked: 03000000050000000700000008000000
  - disabled: 0
    nodeOffset: {x: -0, y: -1}
    blockExteriorDiagonals: 0
    blocked: 0100000002000000030000000500000008000000
  - disabled: 0
    nodeOffset: {x: -0, y: -2}
    blockExteriorDiagonals: 0
    blocked: 06000000
  - disabled: 0
    nodeOffset: {x: -1, y: -0}
    blockExteriorDiagonals: 0
    blocked: 0600000008000000
  - disabled: 0
    nodeOffset: {x: -1, y: -1}
    blockExteriorDiagonals: 0
    blocked: 0100000002000000
  - disabled: 0
    nodeOffset: {x: -1, y: -2}
    blockExteriorDiagonals: 0
    blocked: 06000000
  - disabled: 0
    nodeOffset: {x: -2, y: -0}
    blockExteriorDiagonals: 0
    blocked: 010000000200000004000000060000000700000008000000
  - disabled: 0
    nodeOffset: {x: -2, y: -1}
    blockExteriorDiagonals: 0
    blocked: 01000000020000000400000006000000
  - disabled: 0
    nodeOffset: {x: -3, y: -0}
    blockExteriorDiagonals: 0
    blocked: 08000000
  updatePreCalculated: 0
  minimumZeroNodeWallCount: 0
  maximumZeroNodeWallCount: 3
  canFaceDiagonally: 0
  limitPerRoom: 1
  maximumNumberPerRoom: 6
  limitPerAddress: 0
  maximumNumberPerAddress: 6
  limitToFloor: 1
  allowedOnFloor: 0
  limitToFloorRange: 0
  allowedOnFloorRange: {x: 0, y: 0}
  limitPerBuildingResidence: 0
  perBuildingResidences: 30
  limitPerJobs: 0
  perJobs: 6
  awayFromClasses: []
  minimumNodeDistance: 6
  objectSize: {x: 3, y: 2}
  tall: 0
  wallPiece: 0
  useWallSnappingInDecorMode: 0
  windowPiece: 0
  occupiesTile: 1
  allowedOnStairwell: 0
  onlyOnStairwell: 0
  allowIfNoFloor: 1
  ceilingPiece: 0
  requiresCeiling: 0
  blocksCeiling: 0
  allowLightswitch: 0
  raiseLightswitch: 0
  noBlocking: 0
  noPassThrough: 0
  noAccessNeeded: 0
  blockDefaultSublocations: 1
  ignoreGeometryInPhysicsCheck: 1
  sublocations:
  - offset: {x: 1, y: 0}
    sublocations:
    - {x: 0.629, y: 0, z: 0.481}
    - {x: 0.639, y: 0, z: -0.256}
  - offset: {x: 1, y: 1}
    sublocations:
    - {x: 0.553, y: 0, z: 0.287}
    - {x: -0.353, y: 0, z: 0.37}
  - offset: {x: 2, y: 1}
    sublocations:
    - {x: 0.444, y: 0, z: 0.287}
  - offset: {x: 2, y: 0}
    sublocations:
    - {x: 0.397, y: 0, z: -0.261}
  - offset: {x: 0, y: 1}
    sublocations:
    - {x: -0.419, y: 0, z: 0.287}
  - offset: {x: 0, y: 0}
    sublocations:
    - {x: -0.36, y: 0, z: -0.265}
  aiRobberyPriority: 3
  isSecurityCamera: 0
  ownershipClass: 0
  ownershipSource: 0
  assignBelongsToOwners: 0
  preferCouples: 0
  copyFromPreviouslyPlacedInCluster: 0
  onlyPickFromRoomOwners: 0
  skipIfNoAddressInhabitants: 0
  assignHomelessOwners: 0
  assignMailbox: 0
  discourageMissionPhotos: 1
  copyFrom: {fileID: 0}
