%YAML 1.1
%TAG !u! tag:unity3d.com,2011:
--- !u!114 &11400000
MonoBehaviour:
  m_ObjectHideFlags: 0
  m_CorrespondingSourceObject: {fileID: 0}
  m_PrefabInstance: {fileID: 0}
  m_PrefabAsset: {fileID: 0}
  m_GameObject: {fileID: 0}
  m_Enabled: 1
  m_EditorHideFlags: 0
  m_Script: {fileID: 11500000, guid: 87934c2f8054f6147bf0a47c749e8b6f, type: 3}
  m_Name: 4x2SideFoodTruck
  m_EditorClassIdentifier: 
  presetName: 4x2SideFoodTruck
  wallRules:
  - nodeOffset: {x: 0, y: 0}
    wallDirection: 7
    option: 0
    tag: 0
    roomType: {fileID: 0}
    addScore: 0
  - nodeOffset: {x: -1, y: 0}
    wallDirection: 7
    option: 0
    tag: 0
    roomType: {fileID: 0}
    addScore: 0
  - nodeOffset: {x: -2, y: 0}
    wallDirection: 7
    option: 0
    tag: 0
    roomType: {fileID: 0}
    addScore: 0
  - nodeOffset: {x: -3, y: 0}
    wallDirection: 7
    option: 0
    tag: 0
    roomType: {fileID: 0}
    addScore: 0
  - nodeOffset: {x: 0, y: 1}
    wallDirection: 7
    option: 0
    tag: 0
    roomType: {fileID: 0}
    addScore: 0
  - nodeOffset: {x: -1, y: 1}
    wallDirection: 7
    option: 0
    tag: 0
    roomType: {fileID: 0}
    addScore: 0
  - nodeOffset: {x: -2, y: 1}
    wallDirection: 7
    option: 0
    tag: 0
    roomType: {fileID: 0}
    addScore: 0
  - nodeOffset: {x: 0, y: -1}
    wallDirection: 2
    option: 1
    tag: 0
    roomType: {fileID: 0}
    addScore: 0
  - nodeOffset: {x: -1, y: -1}
    wallDirection: 2
    option: 1
    tag: 0
    roomType: {fileID: 0}
    addScore: 0
  - nodeOffset: {x: -2, y: -1}
    wallDirection: 2
    option: 1
    tag: 0
    roomType: {fileID: 0}
    addScore: 0
  nodeRules: []
  blockedAccess:
  - disabled: 0
    nodeOffset: {x: -0, y: -0}
    blockExteriorDiagonals: 0
    blocked: 010000000200000003000000
  - disabled: 0
    nodeOffset: {x: -0, y: -1}
    blockExteriorDiagonals: 0
    blocked: 010000000200000003000000050000000600000008000000
  - disabled: 0
    nodeOffset: {x: -0, y: -2}
    blockExteriorDiagonals: 0
    blocked: 0600000008000000
  - disabled: 0
    nodeOffset: {x: -1, y: -0}
    blockExteriorDiagonals: 0
    blocked: 0100000002000000
  - disabled: 0
    nodeOffset: {x: -1, y: -1}
    blockExteriorDiagonals: 0
    blocked: 010000000200000006000000
  - disabled: 0
    nodeOffset: {x: -1, y: -2}
    blockExteriorDiagonals: 0
    blocked: 06000000
  - disabled: 0
    nodeOffset: {x: -2, y: -0}
    blockExteriorDiagonals: 0
    blocked: 0100000002000000
  - disabled: 0
    nodeOffset: {x: -2, y: -1}
    blockExteriorDiagonals: 0
    blocked: 010000000200000006000000
  - disabled: 0
    nodeOffset: {x: -2, y: -2}
    blockExteriorDiagonals: 0
    blocked: 06000000
  updatePreCalculated: 0
  minimumZeroNodeWallCount: 0
  maximumZeroNodeWallCount: 3
  canFaceDiagonally: 0
  limitPerRoom: 1
  maximumNumberPerRoom: 2
  limitPerAddress: 0
  maximumNumberPerAddress: 1
  limitToFloor: 1
  allowedOnFloor: 0
  limitToFloorRange: 0
  allowedOnFloorRange: {x: 0, y: 0}
  limitPerBuildingResidence: 0
  perBuildingResidences: 30
  limitPerJobs: 0
  perJobs: 6
  awayFromClasses:
  - {fileID: 11400000}
  - {fileID: 11400000, guid: 62601456212b79a4aa77d0502eb3d07e, type: 2}
  - {fileID: 11400000, guid: 0f6cd9e47951cb644a1e2d0ac1ff32c5, type: 2}
  minimumNodeDistance: 6
  objectSize: {x: 4, y: 2}
  tall: 0
  wallPiece: 0
  useWallSnappingInDecorMode: 0
  windowPiece: 0
  occupiesTile: 1
  allowedOnStairwell: 0
  onlyOnStairwell: 0
  allowIfNoFloor: 1
  ceilingPiece: 0
  requiresCeiling: 0
  blocksCeiling: 0
  allowLightswitch: 0
  raiseLightswitch: 0
  noBlocking: 0
  noPassThrough: 0
  noAccessNeeded: 0
  blockDefaultSublocations: 1
  ignoreGeometryInPhysicsCheck: 1
  sublocations:
  - offset: {x: 0, y: 0}
    sublocations:
    - {x: 0.433, y: 0, z: 0.672}
    - {x: -0.364, y: 0, z: 0.692}
  - offset: {x: 1, y: 0}
    sublocations:
    - {x: 0.226, y: 0, z: 0.463}
    - {x: -0.358, y: 0.387, z: 0.049}
  - offset: {x: 1, y: 1}
    sublocations:
    - {x: -0.354, y: 1.024, z: 0.523}
  - offset: {x: 2, y: 0}
    sublocations:
    - {x: 0.724, y: 0, z: 0.463}
    - {x: -0.504, y: 0, z: 0.463}
  - offset: {x: 2, y: 1}
    sublocations:
    - {x: -0.681, y: 1.024, z: 0.523}
    - {x: 0.171, y: 1.024, z: 0.523}
    - {x: 0.801, y: 1.024, z: 0.523}
  - offset: {x: 3, y: 0}
    sublocations:
    - {x: 0.373, y: 0, z: 0.463}
    - {x: -0.553, y: 0, z: 0.463}
    - {x: -0.553, y: 0, z: -0.322}
  - offset: {x: 3, y: 1}
    sublocations:
    - {x: -0.553, y: 0, z: 0.457}
    - {x: -0.553, y: 0, z: -0.499}
    - {x: 0.357, y: 0.342, z: 0.363}
  aiRobberyPriority: 3
  isSecurityCamera: 0
  ownershipClass: 0
  ownershipSource: 0
  assignBelongsToOwners: 0
  preferCouples: 0
  copyFromPreviouslyPlacedInCluster: 0
  onlyPickFromRoomOwners: 0
  skipIfNoAddressInhabitants: 0
  assignHomelessOwners: 0
  assignMailbox: 0
  discourageMissionPhotos: 1
  copyFrom: {fileID: 0}
