%YAML 1.1
%TAG !u! tag:unity3d.com,2011:
--- !u!114 &11400000
MonoBehaviour:
  m_ObjectHideFlags: 0
  m_CorrespondingSourceObject: {fileID: 0}
  m_PrefabInstance: {fileID: 0}
  m_PrefabAsset: {fileID: 0}
  m_GameObject: {fileID: 0}
  m_Enabled: 1
  m_EditorHideFlags: 0
  m_Script: {fileID: 11500000, guid: 592254c2a3a5f0a4e9363fd65cf6af2d, type: 3}
  m_Name: 60s70s
  m_EditorClassIdentifier: 
  presetName: 60s70s
  includeInPersonalityMatching: 1
  compatibleAddressTypes:
  - {fileID: 11400000, guid: 801a83a428c364440be81e76197df3b2, type: 2}
  - {fileID: 11400000, guid: 2c6bbbd57bc984446b8350b583b6f0b3, type: 2}
  - {fileID: 11400000, guid: cbefd8947f1161b42a013d915b450549, type: 2}
  - {fileID: 11400000, guid: d271d01a8029ddf4d84281c945da60ae, type: 2}
  - {fileID: 11400000, guid: 02e19e0a6435a9e419797fbdfa147422, type: 2}
  - {fileID: 11400000, guid: 2d3125df818057f49bfd82e3110973a8, type: 2}
  - {fileID: 11400000, guid: e67599ffdd055a344a5e0f25c3335045, type: 2}
  - {fileID: 11400000, guid: 0eb12808986c1b04e9369a7e91fd3de6, type: 2}
  - {fileID: 11400000, guid: ed18b3896dd89884ab864fd2ea06d569, type: 2}
  - {fileID: 11400000, guid: 241502d0f19fe1045ae023a4132d51dd, type: 2}
  - {fileID: 11400000, guid: da16b939d17c33a479bbf886cbbbc6c5, type: 2}
  - {fileID: 11400000, guid: 5e5cb476e055ee248a52872314355034, type: 2}
  - {fileID: 11400000, guid: 87dae6dff66bcdc41be0b09b34b1e7e4, type: 2}
  minimumWealth: 0.5
  humility: 5
  emotionality: 4
  extraversion: 5
  agreeableness: 5
  conscientiousness: 5
  creativity: 4
  modernity: 7
  allowCoving: 1
  isBasement: 0
