%YAML 1.1
%TAG !u! tag:unity3d.com,2011:
--- !u!114 &11400000
MonoBehaviour:
  m_ObjectHideFlags: 0
  m_CorrespondingSourceObject: {fileID: 0}
  m_PrefabInstance: {fileID: 0}
  m_PrefabAsset: {fileID: 0}
  m_GameObject: {fileID: 0}
  m_Enabled: 1
  m_EditorHideFlags: 0
  m_Script: {fileID: 11500000, guid: 592254c2a3a5f0a4e9363fd65cf6af2d, type: 3}
  m_Name: Street
  m_EditorClassIdentifier: 
  presetName: Street
  includeInPersonalityMatching: 0
  compatibleAddressTypes:
  - {fileID: 11400000, guid: 8cdb18f9851c3884d8b283798caa3d24, type: 2}
  - {fileID: 11400000, guid: ea2eece5b01f7e146b10111cb4092c68, type: 2}
  - {fileID: 11400000, guid: a2a0e026bf88c0240924c5fb08ee235d, type: 2}
  - {fileID: 11400000, guid: 2e65e46f14e33e341bfa67d81f2aa373, type: 2}
  - {fileID: 11400000, guid: 2947fc5d40c1c8946a12f4069edd5777, type: 2}
  minimumWealth: 0
  humility: 5
  emotionality: 5
  extraversion: 5
  agreeableness: 5
  conscientiousness: 5
  creativity: 5
  modernity: 5
  allowCoving: 0
  isBasement: 0
