%YAML 1.1
%TAG !u! tag:unity3d.com,2011:
--- !u!114 &11400000
MonoBehaviour:
  m_ObjectHideFlags: 0
  m_CorrespondingSourceObject: {fileID: 0}
  m_PrefabInstance: {fileID: 0}
  m_PrefabAsset: {fileID: 0}
  m_GameObject: {fileID: 0}
  m_Enabled: 1
  m_EditorHideFlags: 0
  m_Script: {fileID: 11500000, guid: 05c50b8a24558c04fb29c890553074fd, type: 3}
  m_Name: BasketballHoop
  m_EditorClassIdentifier: 
  presetName: BasketballHoop
  classes:
  - {fileID: 11400000, guid: 8a250bc39203e474293b10820b05e32c, type: 2}
  prefab: {fileID: 4047112584007760502, guid: ab0fb91fd738cc2438200b007d6947c6, type: 3}
  allowStaticBatching: 1
  spawnRange: 5
  integratedInteractables: []
  universalDesignStyle: 1
  designStyles:
  - {fileID: 11400000, guid: 748ca6bfa273c674187dcd4ec18a224a, type: 2}
  inheritColouringFromDecor: 0
  shareColours: 0
  inheritGrubFromDecor: 1
  variations: []
  furnitureGroup: 0
  groupID: 0
  concrete: 0
  plaster: 0
  wood: 0
  carpet: 0
  tile: 0
  metal: 1
  glass: 0
  fabric: 0
  minimumRoomSize: 4
  allowedInOpenPlan: 0
  onlyAllowInFollowing: 0
  allowedInAddressesOfType: []
  banInFollowing: 0
  bannedInAddressesOfType: []
  OnlyAllowInBuildings: 0
  allowedInBuildings: []
  banFromBuildings: 0
  notAllowedInBuildings: []
  OnlyAllowInDistricts: 0
  allowedInDistricts: []
  banFromDistricts: 0
  notAllowedInDistricts: []
  requiresGenderedInhabitants: 0
  enableIfGenderPresent: 
  allowedRoomFilters:
  - {fileID: 11400000, guid: e60bea4a2d187f047a1860600532ec92, type: 2}
  minimumWealth: 0
  usePersonalityWeighting: 0
  modernity: 5
  cleanness: 5
  loudness: 5
  emotive: 5
  subObjects:
  - preset: {fileID: 11400000, guid: 77c152bafa28a254e9ada1472bb2f98d, type: 2}
    parent: 
    localPos: {x: 0.212, y: 0.029, z: 0.058}
    localRot: {x: -0, y: 0, z: 0}
    belongsTo: 0
    security: 0
  - preset: {fileID: 11400000, guid: 58d35ae0305e7d541af98472310ee11c, type: 2}
    parent: 
    localPos: {x: -0.474, y: 0.064, z: -0.544}
    localRot: {x: -0, y: 353.65067, z: 0}
    belongsTo: 0
    security: 0
  - preset: {fileID: 11400000, guid: 58d35ae0305e7d541af98472310ee11c, type: 2}
    parent: 
    localPos: {x: 0.569, y: 0.064, z: -0.51}
    localRot: {x: -0, y: 17.50643, z: -0}
    belongsTo: 0
    security: 0
  testForModifiers: 0
  forcePublicIllegal: 0
  hidingEnterTransition: {fileID: 0}
  hidingExitTransition: {fileID: 0}
  hidingEnterTransition2: {fileID: 0}
  hidingExitTransition2: {fileID: 0}
  map: {fileID: 2800000, guid: 8e54540657d7b594ea34eb05027bf79d, type: 3}
  drawUnderWalls: 0
  ignoreDirection: 0
  fingerprintsEnabled: 1
  printsSource: 6
  fingerprintDensity: 1
  alterAreaLighting: 0
  possibleColours: []
  lightOperation: 0
  lightAmount: 0.12
  brightnessModifier: 10
  purchasable: 0
  cost: 100
  decorClass: 5
  staticImage: {fileID: 0}
  imagePos: {x: 0, y: 0, z: 0}
  imageRot: {x: 0, y: 0, z: 0}
  imageScale: 1
  imagePrefabOverride: {fileID: 0}
  isJobBoard: 0
  isWorkPosition: 0
  isPlant: 0
  isArt: 0
  isSecurityCamera: 0
  artOrientation: 0
  createSelfEmployed: {fileID: 0}
  workPositionID: 0
  spawnObjectOnChance: 1
  spawnObjectsOnPlacement:
  - {fileID: 11400000, guid: 00257b9f77457ec4682085d220eda3d8, type: 2}
