%YAML 1.1
%TAG !u! tag:unity3d.com,2011:
--- !u!114 &11400000
MonoBehaviour:
  m_ObjectHideFlags: 0
  m_CorrespondingSourceObject: {fileID: 0}
  m_PrefabInstance: {fileID: 0}
  m_PrefabAsset: {fileID: 0}
  m_GameObject: {fileID: 0}
  m_Enabled: 1
  m_EditorHideFlags: 0
  m_Script: {fileID: 11500000, guid: 05c50b8a24558c04fb29c890553074fd, type: 3}
  m_Name: BillboardPole
  m_EditorClassIdentifier: 
  presetName: BillboardPole
  classes:
  - {fileID: 11400000, guid: 2d19fde447d58c044945431451a7f081, type: 2}
  - {fileID: 11400000, guid: d61ec561b23b4f64ba3d2ecd7d974386, type: 2}
  prefab: {fileID: 648633587872926343, guid: 38758bba073b88948bfd2bffd2de9132, type: 3}
  allowStaticBatching: 1
  spawnRange: 5
  integratedInteractables:
  - preset: {fileID: 11400000, guid: ff440fa9532251442a6b8f919ea5718b, type: 2}
    pairToController: 0
    belongsTo: 0
  universalDesignStyle: 1
  designStyles:
  - {fileID: 11400000, guid: 748ca6bfa273c674187dcd4ec18a224a, type: 2}
  inheritColouringFromDecor: 0
  shareColours: 0
  inheritGrubFromDecor: 1
  variations: []
  furnitureGroup: 0
  groupID: 0
  concrete: 1
  plaster: 0
  wood: 0
  carpet: 0
  tile: 0
  metal: 0
  glass: 0
  fabric: 0
  minimumRoomSize: 4
  allowedInOpenPlan: 0
  onlyAllowInFollowing: 0
  allowedInAddressesOfType: []
  banInFollowing: 0
  bannedInAddressesOfType: []
  OnlyAllowInBuildings: 0
  allowedInBuildings: []
  banFromBuildings: 0
  notAllowedInBuildings: []
  OnlyAllowInDistricts: 0
  allowedInDistricts: []
  banFromDistricts: 0
  notAllowedInDistricts: []
  requiresGenderedInhabitants: 0
  enableIfGenderPresent: 
  allowedRoomFilters:
  - {fileID: 11400000, guid: e60bea4a2d187f047a1860600532ec92, type: 2}
  minimumWealth: 0
  usePersonalityWeighting: 0
  modernity: 5
  cleanness: 5
  loudness: 5
  emotive: 5
  subObjects: []
  testForModifiers: 0
  forcePublicIllegal: 0
  hidingEnterTransition: {fileID: 0}
  hidingExitTransition: {fileID: 0}
  hidingEnterTransition2: {fileID: 0}
  hidingExitTransition2: {fileID: 0}
  map: {fileID: 2800000, guid: b3bc49a2fb151e246921a7aa455e2462, type: 3}
  drawUnderWalls: 0
  ignoreDirection: 0
  fingerprintsEnabled: 1
  printsSource: 6
  fingerprintDensity: 1
  alterAreaLighting: 1
  possibleColours:
  - {r: 1, g: 0.68598413, b: 0, a: 1}
  lightOperation: 0
  lightAmount: 0.12
  brightnessModifier: 20
  purchasable: 0
  cost: 100
  decorClass: 5
  staticImage: {fileID: 0}
  imagePos: {x: 0, y: 0, z: 0}
  imageRot: {x: 0, y: 0, z: 0}
  imageScale: 1
  imagePrefabOverride: {fileID: 0}
  isJobBoard: 0
  isWorkPosition: 0
  isPlant: 0
  isArt: 0
  isSecurityCamera: 0
  artOrientation: 0
  createSelfEmployed: {fileID: 0}
  workPositionID: 0
  spawnObjectOnChance: 1
  spawnObjectsOnPlacement: []
