%YAML 1.1
%TAG !u! tag:unity3d.com,2011:
--- !u!114 &11400000
MonoBehaviour:
  m_ObjectHideFlags: 0
  m_CorrespondingSourceObject: {fileID: 0}
  m_PrefabInstance: {fileID: 0}
  m_PrefabAsset: {fileID: 0}
  m_GameObject: {fileID: 0}
  m_Enabled: 1
  m_EditorHideFlags: 0
  m_Script: {fileID: 11500000, guid: 05c50b8a24558c04fb29c890553074fd, type: 3}
  m_Name: Dumpster
  m_EditorClassIdentifier: 
  presetName: Dumpster
  classes:
  - {fileID: 11400000, guid: 53b4010e68463c942b2bb4fe6d115a35, type: 2}
  prefab: {fileID: 1334296390518186682, guid: 3e4096a74e991bb499d37eced9904c69, type: 3}
  allowStaticBatching: 1
  spawnRange: 4
  integratedInteractables:
  - preset: {fileID: 11400000, guid: 22bc064e8ad8aec4dac4489909a72230, type: 2}
    pairToController: 0
    belongsTo: 0
  universalDesignStyle: 1
  designStyles: []
  inheritColouringFromDecor: 0
  shareColours: 0
  inheritGrubFromDecor: 1
  variations: []
  furnitureGroup: 0
  groupID: 0
  concrete: 0
  plaster: 0
  wood: 0
  carpet: 0
  tile: 0
  metal: 1
  glass: 0
  fabric: 0
  minimumRoomSize: 4
  allowedInOpenPlan: 0
  onlyAllowInFollowing: 0
  allowedInAddressesOfType: []
  banInFollowing: 0
  bannedInAddressesOfType: []
  OnlyAllowInBuildings: 0
  allowedInBuildings: []
  banFromBuildings: 0
  notAllowedInBuildings: []
  OnlyAllowInDistricts: 0
  allowedInDistricts: []
  banFromDistricts: 0
  notAllowedInDistricts: []
  requiresGenderedInhabitants: 0
  enableIfGenderPresent: 
  allowedRoomFilters:
  - {fileID: 11400000, guid: e60bea4a2d187f047a1860600532ec92, type: 2}
  - {fileID: 11400000, guid: 9c8b7405ee05b084a9f5e8713542757d, type: 2}
  minimumWealth: 0
  usePersonalityWeighting: 0
  modernity: 5
  cleanness: 5
  loudness: 5
  emotive: 5
  subObjects:
  - preset: {fileID: 11400000, guid: 17e1775a16420e247a04d63026c4de20, type: 2}
    parent: 
    localPos: {x: -0.396, y: 0.30000052, z: -0.009}
    localRot: {x: -0, y: 346.90994, z: 0}
    belongsTo: 0
    security: 0
  - preset: {fileID: 11400000, guid: 17e1775a16420e247a04d63026c4de20, type: 2}
    parent: 
    localPos: {x: 0.403, y: 0.30000052, z: -0.009}
    localRot: {x: -0, y: 12.136155, z: 0}
    belongsTo: 0
    security: 0
  - preset: {fileID: 11400000, guid: fbbfd2d9c824acf45bcb0e5a1b01a153, type: 2}
    parent: 
    localPos: {x: 0.992, y: 0.048, z: 0.408}
    localRot: {x: -0, y: 90, z: 0}
    belongsTo: 0
    security: 0
  - preset: {fileID: 11400000, guid: fbbfd2d9c824acf45bcb0e5a1b01a153, type: 2}
    parent: 
    localPos: {x: -0.997, y: 0.048, z: 0.422}
    localRot: {x: -0, y: 90, z: 0}
    belongsTo: 0
    security: 0
  testForModifiers: 0
  forcePublicIllegal: 0
  hidingEnterTransition: {fileID: 0}
  hidingExitTransition: {fileID: 0}
  hidingEnterTransition2: {fileID: 0}
  hidingExitTransition2: {fileID: 0}
  map: {fileID: 2800000, guid: a44d8ecc4998ede4498a6bc6dd461c0e, type: 3}
  drawUnderWalls: 0
  ignoreDirection: 0
  fingerprintsEnabled: 1
  printsSource: 6
  fingerprintDensity: 1
  alterAreaLighting: 0
  possibleColours: []
  lightOperation: 0
  lightAmount: 0.12
  brightnessModifier: 10
  purchasable: 0
  cost: 100
  decorClass: 5
  staticImage: {fileID: 0}
  imagePos: {x: 0, y: 0, z: 0}
  imageRot: {x: 0, y: 0, z: 0}
  imageScale: 1
  imagePrefabOverride: {fileID: 0}
  isJobBoard: 0
  isWorkPosition: 0
  isPlant: 0
  isArt: 0
  isSecurityCamera: 0
  artOrientation: 0
  createSelfEmployed: {fileID: 0}
  workPositionID: 0
  spawnObjectOnChance: 1
  spawnObjectsOnPlacement: []
