%YAML 1.1
%TAG !u! tag:unity3d.com,2011:
--- !u!114 &11400000
MonoBehaviour:
  m_ObjectHideFlags: 0
  m_CorrespondingSourceObject: {fileID: 0}
  m_PrefabInstance: {fileID: 0}
  m_PrefabAsset: {fileID: 0}
  m_GameObject: {fileID: 0}
  m_Enabled: 1
  m_EditorHideFlags: 0
  m_Script: {fileID: 11500000, guid: 05c50b8a24558c04fb29c890553074fd, type: 3}
  m_Name: NoodleStand
  m_EditorClassIdentifier: 
  presetName: NoodleStand
  classes:
  - {fileID: 11400000, guid: 5374d912a8b5e6940af883563a4767ad, type: 2}
  - {fileID: 11400000, guid: 1a0565210bf0e3944987c7b0cbe1f8e4, type: 2}
  prefab: {fileID: 6803986014878696903, guid: 76a2482982e7278409d21de5ac183812, type: 3}
  allowStaticBatching: 1
  spawnRange: 4
  integratedInteractables:
  - preset: {fileID: 11400000, guid: 0c9fec522fe1fc34aa817636387b8a53, type: 2}
    pairToController: 0
    belongsTo: 2
  - preset: {fileID: 11400000, guid: 155fae76b454ade40a1ad4d6f175e0c0, type: 2}
    pairToController: 1
    belongsTo: 2
  - preset: {fileID: 11400000, guid: 648854460c621d0478ddb88fc01eb24e, type: 2}
    pairToController: 2
    belongsTo: 2
  - preset: {fileID: 11400000, guid: 994e4140332fb444e8dc96e23ede40c9, type: 2}
    pairToController: 3
    belongsTo: 0
  - preset: {fileID: 11400000, guid: ff440fa9532251442a6b8f919ea5718b, type: 2}
    pairToController: 4
    belongsTo: 0
  - preset: {fileID: 11400000, guid: ff440fa9532251442a6b8f919ea5718b, type: 2}
    pairToController: 5
    belongsTo: 0
  universalDesignStyle: 1
  designStyles:
  - {fileID: 11400000, guid: 748ca6bfa273c674187dcd4ec18a224a, type: 2}
  inheritColouringFromDecor: 0
  shareColours: 0
  inheritGrubFromDecor: 1
  variations: []
  furnitureGroup: 0
  groupID: 0
  concrete: 0
  plaster: 0
  wood: 0
  carpet: 0
  tile: 0
  metal: 1
  glass: 0
  fabric: 0
  minimumRoomSize: 4
  allowedInOpenPlan: 0
  onlyAllowInFollowing: 0
  allowedInAddressesOfType: []
  banInFollowing: 0
  bannedInAddressesOfType: []
  OnlyAllowInBuildings: 0
  allowedInBuildings: []
  banFromBuildings: 0
  notAllowedInBuildings: []
  OnlyAllowInDistricts: 0
  allowedInDistricts: []
  banFromDistricts: 0
  notAllowedInDistricts: []
  requiresGenderedInhabitants: 0
  enableIfGenderPresent: 
  allowedRoomFilters:
  - {fileID: 11400000, guid: f4fd0596e8315f34f9138d71e8ce6078, type: 2}
  minimumWealth: 0
  usePersonalityWeighting: 0
  modernity: 5
  cleanness: 5
  loudness: 5
  emotive: 5
  subObjects:
  - preset: {fileID: 11400000, guid: 9c31c746a9174974e999e50aaf3fcb53, type: 2}
    parent: 
    localPos: {x: -0.319, y: 1, z: -2.066124}
    localRot: {x: -0, y: 0, z: 0}
    belongsTo: 0
    security: 0
  - preset: {fileID: 11400000, guid: 9c31c746a9174974e999e50aaf3fcb53, type: 2}
    parent: 
    localPos: {x: -0.492, y: 1, z: -2.066124}
    localRot: {x: -0, y: 0, z: 0}
    belongsTo: 0
    security: 0
  - preset: {fileID: 11400000, guid: 9c31c746a9174974e999e50aaf3fcb53, type: 2}
    parent: 
    localPos: {x: -1.362, y: 1, z: -2.066124}
    localRot: {x: -0, y: 353.6133, z: 0}
    belongsTo: 0
    security: 0
  - preset: {fileID: 11400000, guid: 9c31c746a9174974e999e50aaf3fcb53, type: 2}
    parent: 
    localPos: {x: -2.432, y: 1.507, z: -2.485}
    localRot: {x: -0, y: 5.674579, z: 0}
    belongsTo: 0
    security: 0
  - preset: {fileID: 11400000, guid: 9c31c746a9174974e999e50aaf3fcb53, type: 2}
    parent: 
    localPos: {x: -3.144, y: 1.003, z: -1.08}
    localRot: {x: -0, y: 348.8565, z: 0}
    belongsTo: 0
    security: 0
  - preset: {fileID: 11400000, guid: 9c31c746a9174974e999e50aaf3fcb53, type: 2}
    parent: 
    localPos: {x: -1.556, y: 0.997, z: -0.707}
    localRot: {x: -0, y: 0, z: 0}
    belongsTo: 0
    security: 0
  - preset: {fileID: 11400000, guid: f340733e9a0e1a145ac43584285b484a, type: 2}
    parent: 
    localPos: {x: -3.112, y: 0.944, z: -2.615}
    localRot: {x: -0, y: 47.926846, z: -0}
    belongsTo: 0
    security: 0
  - preset: {fileID: 11400000, guid: f340733e9a0e1a145ac43584285b484a, type: 2}
    parent: 
    localPos: {x: -1.353, y: 1.003, z: -1.05}
    localRot: {x: 0, y: 301.42413, z: 0}
    belongsTo: 0
    security: 0
  - preset: {fileID: 11400000, guid: 7834ec40fc2c7ff4596d8432c68494a9, type: 2}
    parent: 
    localPos: {x: -1.292, y: 1.002, z: -0.733}
    localRot: {x: -0, y: 358.2208, z: 0}
    belongsTo: 0
    security: 0
  - preset: {fileID: 11400000, guid: 94ecd56f625166b449047f5eee385c68, type: 2}
    parent: 
    localPos: {x: -0.816, y: 1, z: -2.066124}
    localRot: {x: -0, y: 0, z: 0}
    belongsTo: 0
    security: 0
  - preset: {fileID: 11400000, guid: 94ecd56f625166b449047f5eee385c68, type: 2}
    parent: 
    localPos: {x: -1.088, y: 1, z: -2.084}
    localRot: {x: -0, y: 0, z: 0}
    belongsTo: 0
    security: 0
  - preset: {fileID: 11400000, guid: 94ecd56f625166b449047f5eee385c68, type: 2}
    parent: 
    localPos: {x: -2.76, y: 1, z: -2.717}
    localRot: {x: -0, y: 0, z: 0}
    belongsTo: 0
    security: 0
  - preset: {fileID: 11400000, guid: 94ecd56f625166b449047f5eee385c68, type: 2}
    parent: 
    localPos: {x: -2.76, y: 1, z: -2.407}
    localRot: {x: -0, y: 0, z: 0}
    belongsTo: 0
    security: 0
  - preset: {fileID: 11400000, guid: 94ecd56f625166b449047f5eee385c68, type: 2}
    parent: 
    localPos: {x: -2.76, y: 1, z: -1.086}
    localRot: {x: -0, y: 0, z: 0}
    belongsTo: 0
    security: 0
  - preset: {fileID: 11400000, guid: 94ecd56f625166b449047f5eee385c68, type: 2}
    parent: 
    localPos: {x: -2.143, y: 1, z: -1.086}
    localRot: {x: -0, y: 0, z: 0}
    belongsTo: 0
    security: 0
  - preset: {fileID: 11400000, guid: 94ecd56f625166b449047f5eee385c68, type: 2}
    parent: 
    localPos: {x: -2.143, y: 0.152, z: -1.086}
    localRot: {x: -0, y: 0, z: 0}
    belongsTo: 0
    security: 0
  - preset: {fileID: 11400000, guid: 94ecd56f625166b449047f5eee385c68, type: 2}
    parent: 
    localPos: {x: -2.975, y: 0.152, z: -1.086}
    localRot: {x: -0, y: 0, z: 0}
    belongsTo: 0
    security: 0
  - preset: {fileID: 11400000, guid: 17e1775a16420e247a04d63026c4de20, type: 2}
    parent: 
    localPos: {x: -4.028, y: 0, z: -1.23}
    localRot: {x: -0, y: 334.97742, z: 0}
    belongsTo: 0
    security: 0
  - preset: {fileID: 11400000, guid: 0df7f1eaa3048bc4c8a1d9dc21e1c5c5, type: 2}
    parent: 
    localPos: {x: -2.426, y: 0, z: -2.531}
    localRot: {x: -0, y: 0, z: 0}
    belongsTo: 0
    security: 0
  - preset: {fileID: 11400000, guid: 17e1775a16420e247a04d63026c4de20, type: 2}
    parent: 
    localPos: {x: -4.058, y: 0, z: -2.257}
    localRot: {x: -0, y: 299.07825, z: 0}
    belongsTo: 0
    security: 0
  - preset: {fileID: 11400000, guid: 7834ec40fc2c7ff4596d8432c68494a9, type: 2}
    parent: 
    localPos: {x: -2.164, y: 1.396, z: -0.901}
    localRot: {x: -0, y: 18.539663, z: 0}
    belongsTo: 0
    security: 0
  - preset: {fileID: 11400000, guid: 17e1775a16420e247a04d63026c4de20, type: 2}
    parent: 
    localPos: {x: -0.741, y: 0, z: -2.483}
    localRot: {x: -0, y: 194.04697, z: 0}
    belongsTo: 0
    security: 0
  - preset: {fileID: 11400000, guid: f340733e9a0e1a145ac43584285b484a, type: 2}
    parent: 
    localPos: {x: -2.909, y: 1.396, z: -0.835}
    localRot: {x: 0, y: 278.1707, z: 0}
    belongsTo: 0
    security: 0
  - preset: {fileID: 11400000, guid: f340733e9a0e1a145ac43584285b484a, type: 2}
    parent: 
    localPos: {x: -0.362, y: 1.047, z: -1.019}
    localRot: {x: 0, y: 258.96982, z: 0}
    belongsTo: 0
    security: 0
  testForModifiers: 0
  forcePublicIllegal: 0
  hidingEnterTransition: {fileID: 0}
  hidingExitTransition: {fileID: 0}
  hidingEnterTransition2: {fileID: 0}
  hidingExitTransition2: {fileID: 0}
  map: {fileID: 0}
  drawUnderWalls: 0
  ignoreDirection: 0
  fingerprintsEnabled: 1
  printsSource: 6
  fingerprintDensity: 1
  alterAreaLighting: 1
  possibleColours:
  - {r: 1, g: 0, b: 0, a: 1}
  - {r: 1, g: 0.2563885, b: 0, a: 1}
  - {r: 1, g: 0.5102247, b: 0, a: 1}
  - {r: 1, g: 0.6604271, b: 0, a: 1}
  lightOperation: 0
  lightAmount: 0.12
  brightnessModifier: 50
  purchasable: 0
  cost: 100
  decorClass: 5
  staticImage: {fileID: 0}
  imagePos: {x: 0, y: 0, z: 0}
  imageRot: {x: 0, y: 0, z: 0}
  imageScale: 1
  imagePrefabOverride: {fileID: 0}
  isJobBoard: 0
  isWorkPosition: 0
  isPlant: 0
  isArt: 0
  isSecurityCamera: 0
  artOrientation: 0
  createSelfEmployed: {fileID: 11400000, guid: 88734909dc6acb649a82a29da1493183, type: 2}
  workPositionID: 2
  spawnObjectOnChance: 1
  spawnObjectsOnPlacement: []
