%YAML 1.1
%TAG !u! tag:unity3d.com,2011:
--- !u!114 &11400000
MonoBehaviour:
  m_ObjectHideFlags: 0
  m_CorrespondingSourceObject: {fileID: 0}
  m_PrefabInstance: {fileID: 0}
  m_PrefabAsset: {fileID: 0}
  m_GameObject: {fileID: 0}
  m_Enabled: 1
  m_EditorHideFlags: 0
  m_Script: {fileID: 11500000, guid: 05c50b8a24558c04fb29c890553074fd, type: 3}
  m_Name: StreetTree3
  m_EditorClassIdentifier: 
  presetName: StreetTree3
  classes:
  - {fileID: 11400000, guid: 5238f0490bb2558489c0a6d1503bac1f, type: 2}
  prefab: {fileID: 5293519830872222347, guid: 3c9c29530d6d31041bfc70b920e7555f, type: 3}
  allowStaticBatching: 1
  spawnRange: 5
  integratedInteractables: []
  universalDesignStyle: 1
  designStyles:
  - {fileID: 11400000, guid: 748ca6bfa273c674187dcd4ec18a224a, type: 2}
  inheritColouringFromDecor: 0
  shareColours: 0
  inheritGrubFromDecor: 0
  variations: []
  furnitureGroup: 0
  groupID: 0
  concrete: 0
  plaster: 0
  wood: 1
  carpet: 0
  tile: 0
  metal: 0
  glass: 0
  fabric: 0
  minimumRoomSize: 4
  allowedInOpenPlan: 0
  onlyAllowInFollowing: 0
  allowedInAddressesOfType: []
  banInFollowing: 0
  bannedInAddressesOfType: []
  OnlyAllowInBuildings: 0
  allowedInBuildings: []
  banFromBuildings: 0
  notAllowedInBuildings: []
  OnlyAllowInDistricts: 0
  allowedInDistricts:
  - {fileID: 11400000, guid: 79e5715c0f6bf164ebb033a2de16a409, type: 2}
  banFromDistricts: 0
  notAllowedInDistricts: []
  requiresGenderedInhabitants: 0
  enableIfGenderPresent: 
  allowedRoomFilters:
  - {fileID: 11400000, guid: f4fd0596e8315f34f9138d71e8ce6078, type: 2}
  minimumWealth: 0
  usePersonalityWeighting: 0
  modernity: 5
  cleanness: 5
  loudness: 5
  emotive: 5
  subObjects: []
  testForModifiers: 0
  forcePublicIllegal: 0
  hidingEnterTransition: {fileID: 0}
  hidingExitTransition: {fileID: 0}
  hidingEnterTransition2: {fileID: 0}
  hidingExitTransition2: {fileID: 0}
  map: {fileID: 0}
  drawUnderWalls: 0
  ignoreDirection: 0
  fingerprintsEnabled: 0
  printsSource: 1
  fingerprintDensity: 1
  alterAreaLighting: 0
  possibleColours: []
  lightOperation: 0
  lightAmount: 0.12
  brightnessModifier: 10
  purchasable: 0
  cost: 100
  decorClass: 5
  staticImage: {fileID: 0}
  imagePos: {x: 0, y: 0, z: 0}
  imageRot: {x: 0, y: 0, z: 0}
  imageScale: 1
  imagePrefabOverride: {fileID: 0}
  isJobBoard: 0
  isWorkPosition: 0
  isPlant: 0
  isArt: 0
  isSecurityCamera: 0
  artOrientation: 0
  createSelfEmployed: {fileID: 0}
  workPositionID: 0
  spawnObjectOnChance: 1
  spawnObjectsOnPlacement: []
