%YAML 1.1
%TAG !u! tag:unity3d.com,2011:
--- !u!114 &11400000
MonoBehaviour:
  m_ObjectHideFlags: 0
  m_CorrespondingSourceObject: {fileID: 0}
  m_PrefabInstance: {fileID: 0}
  m_PrefabAsset: {fileID: 0}
  m_GameObject: {fileID: 0}
  m_Enabled: 1
  m_EditorHideFlags: 0
  m_Script: {fileID: 11500000, guid: 05c50b8a24558c04fb29c890553074fd, type: 3}
  m_Name: StreetVendorCart
  m_EditorClassIdentifier: 
  presetName: StreetVendorCart
  classes:
  - {fileID: 11400000, guid: c82fbacc73c4c8f479e00719ce4e6bf4, type: 2}
  prefab: {fileID: 8692983481829755138, guid: 4d7decb72601a4d43a303b63a98d5ea1, type: 3}
  allowStaticBatching: 1
  spawnRange: 4
  integratedInteractables:
  - preset: {fileID: 11400000, guid: 155fae76b454ade40a1ad4d6f175e0c0, type: 2}
    pairToController: 0
    belongsTo: 2
  - preset: {fileID: 11400000, guid: 648854460c621d0478ddb88fc01eb24e, type: 2}
    pairToController: 1
    belongsTo: 2
  - preset: {fileID: 11400000, guid: 994e4140332fb444e8dc96e23ede40c9, type: 2}
    pairToController: 2
    belongsTo: 0
  - preset: {fileID: 11400000, guid: ff440fa9532251442a6b8f919ea5718b, type: 2}
    pairToController: 3
    belongsTo: 0
  universalDesignStyle: 1
  designStyles:
  - {fileID: 11400000, guid: 748ca6bfa273c674187dcd4ec18a224a, type: 2}
  inheritColouringFromDecor: 0
  shareColours: 0
  inheritGrubFromDecor: 1
  variations: []
  furnitureGroup: 0
  groupID: 0
  concrete: 0
  plaster: 0
  wood: 0
  carpet: 0
  tile: 0
  metal: 1
  glass: 0
  fabric: 0
  minimumRoomSize: 4
  allowedInOpenPlan: 0
  onlyAllowInFollowing: 0
  allowedInAddressesOfType: []
  banInFollowing: 0
  bannedInAddressesOfType: []
  OnlyAllowInBuildings: 0
  allowedInBuildings: []
  banFromBuildings: 0
  notAllowedInBuildings: []
  OnlyAllowInDistricts: 0
  allowedInDistricts: []
  banFromDistricts: 0
  notAllowedInDistricts: []
  requiresGenderedInhabitants: 0
  enableIfGenderPresent: 
  allowedRoomFilters:
  - {fileID: 11400000, guid: f4fd0596e8315f34f9138d71e8ce6078, type: 2}
  minimumWealth: 0
  usePersonalityWeighting: 0
  modernity: 5
  cleanness: 5
  loudness: 5
  emotive: 5
  subObjects:
  - preset: {fileID: 11400000, guid: 9c31c746a9174974e999e50aaf3fcb53, type: 2}
    parent: 
    localPos: {x: 0.603, y: 1.455, z: 0.75}
    localRot: {x: -0, y: 0, z: 0}
    belongsTo: 0
    security: 0
  - preset: {fileID: 11400000, guid: 9c31c746a9174974e999e50aaf3fcb53, type: 2}
    parent: 
    localPos: {x: 0.439, y: 1.455, z: 0.75}
    localRot: {x: -0, y: 0, z: 0}
    belongsTo: 0
    security: 0
  - preset: {fileID: 11400000, guid: a28a1fda33b7cf4429eceaf1e97794f1, type: 2}
    parent: 
    localPos: {x: 0.513, y: 1.35, z: 0.283}
    localRot: {x: -0, y: 76.15999, z: 0}
    belongsTo: 0
    security: 0
  - preset: {fileID: 11400000, guid: a28a1fda33b7cf4429eceaf1e97794f1, type: 2}
    parent: 
    localPos: {x: 0.26399985, y: 1.35, z: 0.451}
    localRot: {x: -0, y: 283.40002, z: 0}
    belongsTo: 0
    security: 0
  - preset: {fileID: 11400000, guid: a28a1fda33b7cf4429eceaf1e97794f1, type: 2}
    parent: 
    localPos: {x: 0.029, y: 1.35, z: 0.283}
    localRot: {x: -0, y: 0, z: 0}
    belongsTo: 0
    security: 0
  - preset: {fileID: 11400000, guid: a28a1fda33b7cf4429eceaf1e97794f1, type: 2}
    parent: 
    localPos: {x: -0.253, y: 1.35, z: 0.428}
    localRot: {x: -0, y: 343.32, z: 0}
    belongsTo: 0
    security: 0
  - preset: {fileID: 11400000, guid: 17e1775a16420e247a04d63026c4de20, type: 2}
    parent: 
    localPos: {x: 1.269, y: 0.001, z: -0.165}
    localRot: {x: -0, y: 0, z: 0}
    belongsTo: 0
    security: 0
  - preset: {fileID: 11400000, guid: 17394580b1f322f4bb3d9e2899b64a1c, type: 2}
    parent: 
    localPos: {x: -0.951, y: 1.35, z: 0.442}
    localRot: {x: -0, y: 270, z: 0}
    belongsTo: 0
    security: 0
  - preset: {fileID: 11400000, guid: 17394580b1f322f4bb3d9e2899b64a1c, type: 2}
    parent: 
    localPos: {x: -0.951, y: 1.35, z: -0.032}
    localRot: {x: -0, y: 270, z: 0}
    belongsTo: 0
    security: 0
  - preset: {fileID: 11400000, guid: 17e1775a16420e247a04d63026c4de20, type: 2}
    parent: 
    localPos: {x: -0.773, y: 0.006, z: 1.206}
    localRot: {x: -0, y: 0, z: 0}
    belongsTo: 0
    security: 0
  - preset: {fileID: 11400000, guid: fbbfd2d9c824acf45bcb0e5a1b01a153, type: 2}
    parent: 
    localPos: {x: -1.38, y: 0.059, z: 0.361}
    localRot: {x: -0, y: 268.84488, z: 0}
    belongsTo: 0
    security: 0
  testForModifiers: 0
  forcePublicIllegal: 0
  hidingEnterTransition: {fileID: 0}
  hidingExitTransition: {fileID: 0}
  hidingEnterTransition2: {fileID: 0}
  hidingExitTransition2: {fileID: 0}
  map: {fileID: 0}
  drawUnderWalls: 0
  ignoreDirection: 0
  fingerprintsEnabled: 1
  printsSource: 6
  fingerprintDensity: 1
  alterAreaLighting: 1
  possibleColours:
  - {r: 1, g: 0, b: 0, a: 1}
  - {r: 1, g: 0.2563885, b: 0, a: 1}
  - {r: 1, g: 0.5102247, b: 0, a: 1}
  - {r: 1, g: 0.6604271, b: 0, a: 1}
  lightOperation: 0
  lightAmount: 0.12
  brightnessModifier: 50
  purchasable: 0
  cost: 100
  decorClass: 5
  staticImage: {fileID: 0}
  imagePos: {x: 0, y: 0, z: 0}
  imageRot: {x: 0, y: 0, z: 0}
  imageScale: 1
  imagePrefabOverride: {fileID: 0}
  isJobBoard: 0
  isWorkPosition: 0
  isPlant: 0
  isArt: 0
  isSecurityCamera: 0
  artOrientation: 0
  createSelfEmployed: {fileID: 11400000, guid: 88734909dc6acb649a82a29da1493183, type: 2}
  workPositionID: 1
  spawnObjectOnChance: 1
  spawnObjectsOnPlacement: []
