%YAML 1.1
%TAG !u! tag:unity3d.com,2011:
--- !u!114 &11400000
MonoBehaviour:
  m_ObjectHideFlags: 0
  m_CorrespondingSourceObject: {fileID: 0}
  m_PrefabInstance: {fileID: 0}
  m_PrefabAsset: {fileID: 0}
  m_GameObject: {fileID: 0}
  m_Enabled: 1
  m_EditorHideFlags: 0
  m_Script: {fileID: 11500000, guid: 05c50b8a24558c04fb29c890553074fd, type: 3}
  m_Name: StreetRubble02
  m_EditorClassIdentifier: 
  presetName: StreetRubble02
  classes:
  - {fileID: 11400000, guid: e828b46be97fafe4990fb0b312c133b9, type: 2}
  prefab: {fileID: 2340185809956387193, guid: e0cfc1a2cf9225f408d620ea4f5b86e4, type: 3}
  allowStaticBatching: 1
  spawnRange: 4
  integratedInteractables: []
  universalDesignStyle: 1
  designStyles:
  - {fileID: 11400000, guid: 748ca6bfa273c674187dcd4ec18a224a, type: 2}
  - {fileID: 11400000, guid: 238eb7f62296f3149bd39ce3b7506276, type: 2}
  - {fileID: 11400000, guid: 874a29f205e656345b6bf7e398fd3d8d, type: 2}
  inheritColouringFromDecor: 0
  shareColours: 0
  inheritGrubFromDecor: 0
  variations: []
  furnitureGroup: 0
  groupID: 0
  concrete: 0
  plaster: 1
  wood: 0
  carpet: 0
  tile: 0
  metal: 0
  glass: 0
  fabric: 0
  minimumRoomSize: 4
  allowedInOpenPlan: 0
  onlyAllowInFollowing: 0
  allowedInAddressesOfType: []
  banInFollowing: 0
  bannedInAddressesOfType: []
  OnlyAllowInBuildings: 0
  allowedInBuildings: []
  banFromBuildings: 0
  notAllowedInBuildings: []
  OnlyAllowInDistricts: 0
  allowedInDistricts: []
  banFromDistricts: 0
  notAllowedInDistricts: []
  requiresGenderedInhabitants: 0
  enableIfGenderPresent: 
  allowedRoomFilters:
  - {fileID: 11400000, guid: e60bea4a2d187f047a1860600532ec92, type: 2}
  - {fileID: 11400000, guid: eb169ce86d95cbc4298ef6e91190fa1a, type: 2}
  - {fileID: 11400000, guid: 9de93050db98430409b846af116f09ca, type: 2}
  minimumWealth: 0
  usePersonalityWeighting: 0
  modernity: 5
  cleanness: 5
  loudness: 5
  emotive: 5
  subObjects:
  - preset: {fileID: 11400000, guid: fbbfd2d9c824acf45bcb0e5a1b01a153, type: 2}
    parent: 
    localPos: {x: 0.429, y: 0.036, z: 0.749}
    localRot: {x: -0, y: 5.6802635, z: -0}
    belongsTo: 0
    security: 0
  testForModifiers: 0
  forcePublicIllegal: 0
  hidingEnterTransition: {fileID: 0}
  hidingExitTransition: {fileID: 0}
  hidingEnterTransition2: {fileID: 0}
  hidingExitTransition2: {fileID: 0}
  map: {fileID: 0}
  drawUnderWalls: 0
  ignoreDirection: 0
  fingerprintsEnabled: 0
  printsSource: 1
  fingerprintDensity: 1
  alterAreaLighting: 0
  possibleColours: []
  lightOperation: 0
  lightAmount: 0.12
  brightnessModifier: 10
  purchasable: 0
  cost: 100
  decorClass: 5
  staticImage: {fileID: 0}
  imagePos: {x: 0, y: 0, z: 0}
  imageRot: {x: 0, y: 0, z: 0}
  imageScale: 1
  imagePrefabOverride: {fileID: 0}
  isJobBoard: 0
  isWorkPosition: 0
  isPlant: 0
  isArt: 0
  isSecurityCamera: 0
  artOrientation: 0
  createSelfEmployed: {fileID: 0}
  workPositionID: 0
  spawnObjectOnChance: 1
  spawnObjectsOnPlacement: []
