%YAML 1.1
%TAG !u! tag:unity3d.com,2011:
--- !u!114 &11400000
MonoBehaviour:
  m_ObjectHideFlags: 0
  m_CorrespondingSourceObject: {fileID: 0}
  m_PrefabInstance: {fileID: 0}
  m_PrefabAsset: {fileID: 0}
  m_GameObject: {fileID: 0}
  m_Enabled: 1
  m_EditorHideFlags: 0
  m_Script: {fileID: 11500000, guid: 05c50b8a24558c04fb29c890553074fd, type: 3}
  m_Name: StreetCrates3
  m_EditorClassIdentifier: 
  presetName: StreetCrates3
  classes:
  - {fileID: 11400000, guid: 53b4010e68463c942b2bb4fe6d115a35, type: 2}
  prefab: {fileID: 8362529944786013301, guid: a50c975cb6a10ec488285dd658f7ccfd, type: 3}
  allowStaticBatching: 1
  spawnRange: 3
  integratedInteractables: []
  universalDesignStyle: 1
  designStyles: []
  inheritColouringFromDecor: 0
  shareColours: 0
  inheritGrubFromDecor: 0
  variations: []
  furnitureGroup: 0
  groupID: 0
  concrete: 0
  plaster: 0
  wood: 1
  carpet: 0
  tile: 0
  metal: 0
  glass: 0
  fabric: 0
  minimumRoomSize: 4
  allowedInOpenPlan: 0
  onlyAllowInFollowing: 0
  allowedInAddressesOfType: []
  banInFollowing: 0
  bannedInAddressesOfType: []
  OnlyAllowInBuildings: 0
  allowedInBuildings: []
  banFromBuildings: 0
  notAllowedInBuildings: []
  OnlyAllowInDistricts: 1
  allowedInDistricts:
  - {fileID: 11400000, guid: b78700d5a0aa6da4e9a690055be01ab2, type: 2}
  banFromDistricts: 0
  notAllowedInDistricts: []
  requiresGenderedInhabitants: 0
  enableIfGenderPresent: 
  allowedRoomFilters:
  - {fileID: 11400000, guid: e60bea4a2d187f047a1860600532ec92, type: 2}
  - {fileID: 11400000, guid: 9c8b7405ee05b084a9f5e8713542757d, type: 2}
  minimumWealth: 0
  usePersonalityWeighting: 0
  modernity: 5
  cleanness: 5
  loudness: 5
  emotive: 5
  subObjects:
  - preset: {fileID: 11400000, guid: 17e1775a16420e247a04d63026c4de20, type: 2}
    parent: 
    localPos: {x: -0.377, y: 0.175, z: 0.398}
    localRot: {x: -0, y: 359.43793, z: 0}
    belongsTo: 0
    security: 0
  - preset: {fileID: 11400000, guid: 45bc555f1ea1ebb43a5e8305e8c548c0, type: 2}
    parent: 
    localPos: {x: 0.252, y: 0.17, z: -0.296}
    localRot: {x: -0, y: 0.5292713, z: -0}
    belongsTo: 0
    security: 0
  - preset: {fileID: 11400000, guid: 58d35ae0305e7d541af98472310ee11c, type: 2}
    parent: 
    localPos: {x: 0.339, y: 0.175, z: 0.405}
    localRot: {x: -0, y: 19.714651, z: 0}
    belongsTo: 0
    security: 0
  testForModifiers: 0
  forcePublicIllegal: 0
  hidingEnterTransition: {fileID: 0}
  hidingExitTransition: {fileID: 0}
  hidingEnterTransition2: {fileID: 0}
  hidingExitTransition2: {fileID: 0}
  map: {fileID: 0}
  drawUnderWalls: 0
  ignoreDirection: 0
  fingerprintsEnabled: 0
  printsSource: 6
  fingerprintDensity: 1
  alterAreaLighting: 0
  possibleColours: []
  lightOperation: 0
  lightAmount: 0.12
  brightnessModifier: 10
  purchasable: 0
  cost: 100
  decorClass: 5
  staticImage: {fileID: 0}
  imagePos: {x: 0, y: 0, z: 0}
  imageRot: {x: 0, y: 0, z: 0}
  imageScale: 1
  imagePrefabOverride: {fileID: 0}
  isJobBoard: 0
  isWorkPosition: 0
  isPlant: 0
  isArt: 0
  isSecurityCamera: 0
  artOrientation: 0
  createSelfEmployed: {fileID: 0}
  workPositionID: 0
  spawnObjectOnChance: 1
  spawnObjectsOnPlacement: []
