%YAML 1.1
%TAG !u! tag:unity3d.com,2011:
--- !u!114 &11400000
MonoBehaviour:
  m_ObjectHideFlags: 0
  m_CorrespondingSourceObject: {fileID: 0}
  m_PrefabInstance: {fileID: 0}
  m_PrefabAsset: {fileID: 0}
  m_GameObject: {fileID: 0}
  m_Enabled: 1
  m_EditorHideFlags: 0
  m_Script: {fileID: 11500000, guid: 9d757e97b11d4064db60cf985a2a0d9e, type: 3}
  m_Name: 128x128_0018_Layer 66
  m_EditorClassIdentifier: 
  presetName: 128x128_0018_Layer 66
  disable: 0
  texturePreview: {fileID: 2800000, guid: 2b0f8b8e49a211343b19a3c79ef92566, type: 3}
  material: {fileID: 2100000, guid: 57db3a9b5a4b43b49892890645c22521, type: 2}
  orientationCompatibility: 02000000
  pixelScaleMultiplier: 0.025
  allowInResidential: 1
  allowInCommerical: 1
  allowInLobby: 1
  allowOnStreet: 0
  basePriority: 0
  colourMatching:
  - {r: 0.36078432, g: 0.5647059, b: 0.6392157, a: 1}
  - {r: 0.18039216, g: 0.22745098, b: 0.33333334, a: 1}
  - {r: 0.6784314, g: 0.6117647, b: 0.6117647, a: 1}
  - {r: 0.69803923, g: 0.74509805, b: 0.67058825, a: 1}
  - {r: 0.5019608, g: 0.44705883, b: 0.3137255, a: 1}
  colourMatchingScale: 5
  minimumWealth: 0
  maximumWealth: 1
  roomMatchingScale: 5
  modernity: 5
  cleanness: 5
  loudness: 5
  emotive: 8
  mustRequireTraitFromBelow: 0
  traitModifiers: []
  useDynamicText: 0
  dynamicTextSource: 0
  textFont: {fileID: 0}
  textColour: {r: 1, g: 1, b: 1, a: 1}
  textSize: 24
