%YAML 1.1
%TAG !u! tag:unity3d.com,2011:
--- !u!114 &11400000
MonoBehaviour:
  m_ObjectHideFlags: 0
  m_CorrespondingSourceObject: {fileID: 0}
  m_PrefabInstance: {fileID: 0}
  m_PrefabAsset: {fileID: 0}
  m_GameObject: {fileID: 0}
  m_Enabled: 1
  m_EditorHideFlags: 0
  m_Script: {fileID: 11500000, guid: 9d757e97b11d4064db60cf985a2a0d9e, type: 3}
  m_Name: 128x128_0007_Layer 77
  m_EditorClassIdentifier: 
  presetName: 128x128_0007_Layer 77
  disable: 0
  texturePreview: {fileID: 2800000, guid: 76151a7c5b7c5554ebe0507aca36bd21, type: 3}
  material: {fileID: 2100000, guid: 848cb16580f2bc346b61cea12cf75ced, type: 2}
  orientationCompatibility: 01000000
  pixelScaleMultiplier: 0.025
  allowInResidential: 1
  allowInCommerical: 1
  allowInLobby: 1
  allowOnStreet: 0
  basePriority: 0
  colourMatching:
  - {r: 0.65882355, g: 0.63529414, b: 0.6509804, a: 1}
  - {r: 0.6392157, g: 0.63529414, b: 0.58431375, a: 1}
  - {r: 0.6392157, g: 0.654902, b: 0.654902, a: 1}
  - {r: 0.49411765, g: 0.49803922, b: 0.5019608, a: 1}
  - {r: 0.5372549, g: 0.4627451, b: 0.5176471, a: 1}
  colourMatchingScale: 5
  minimumWealth: 0
  maximumWealth: 1
  roomMatchingScale: 5
  modernity: 6
  cleanness: 6
  loudness: 3
  emotive: 6
  mustRequireTraitFromBelow: 0
  traitModifiers: []
  useDynamicText: 0
  dynamicTextSource: 0
  textFont: {fileID: 0}
  textColour: {r: 1, g: 1, b: 1, a: 1}
  textSize: 24
