%YAML 1.1
%TAG !u! tag:unity3d.com,2011:
--- !u!114 &11400000
MonoBehaviour:
  m_ObjectHideFlags: 0
  m_CorrespondingSourceObject: {fileID: 0}
  m_PrefabInstance: {fileID: 0}
  m_PrefabAsset: {fileID: 0}
  m_GameObject: {fileID: 0}
  m_Enabled: 1
  m_EditorHideFlags: 0
  m_Script: {fileID: 11500000, guid: 9d757e97b11d4064db60cf985a2a0d9e, type: 3}
  m_Name: 128x128_0001_Layer 83
  m_EditorClassIdentifier: 
  presetName: 128x128_0001_Layer 83
  disable: 0
  texturePreview: {fileID: 2800000, guid: 6c1d0e6f04cffa148aad972bb6e65b43, type: 3}
  material: {fileID: 2100000, guid: c43571a6a090d384e9dc71f3cd3eaddb, type: 2}
  orientationCompatibility: 00000000
  pixelScaleMultiplier: 0.025
  allowInResidential: 1
  allowInCommerical: 1
  allowInLobby: 1
  allowOnStreet: 0
  basePriority: 0
  colourMatching:
  - {r: 0.16470589, g: 0.10980392, b: 0, a: 1}
  - {r: 0.89411765, g: 0.63529414, b: 0.33333334, a: 1}
  - {r: 0.8862745, g: 0.5058824, b: 0.33333334, a: 1}
  - {r: 0.5372549, g: 0.2784314, b: 0.33333334, a: 1}
  - {r: 0.5176471, g: 0.3529412, b: 0.33333334, a: 1}
  colourMatchingScale: 5
  minimumWealth: 0
  maximumWealth: 1
  roomMatchingScale: 5
  modernity: 5
  cleanness: 0
  loudness: 8
  emotive: 6
  mustRequireTraitFromBelow: 0
  traitModifiers: []
  useDynamicText: 0
  dynamicTextSource: 0
  textFont: {fileID: 0}
  textColour: {r: 1, g: 1, b: 1, a: 1}
  textSize: 24
