%YAML 1.1
%TAG !u! tag:unity3d.com,2011:
--- !u!21 &2100000
Material:
  serializedVersion: 8
  m_ObjectHideFlags: 0
  m_CorrespondingSourceObject: {fileID: 0}
  m_PrefabInstance: {fileID: 0}
  m_PrefabAsset: {fileID: 0}
  m_Name: FemaleMidriffAverageWaistcoat
  m_Shader: {fileID: 4800000, guid: f83d66dfab2c7394c94e3984465cd502, type: 3}
  m_ValidKeywords:
  - _DISABLE_SSR
  - _DISABLE_SSR_TRANSPARENT
  m_InvalidKeywords: []
  m_LightmapFlags: 4
  m_EnableInstancingVariants: 0
  m_DoubleSidedGI: 0
  m_CustomRenderQueue: 2225
  stringTagMap:
    MotionVector: User
  disabledShaderPasses:
  - MOTIONVECTORS
  - TransparentBackface
  - TransparentDepthPrepass
  - TransparentDepthPostpass
  - RayTracingPrepass
  m_SavedProperties:
    serializedVersion: 3
    m_TexEnvs:
    - _BaseColorMap:
        m_Texture: {fileID: 2800000, guid: 84f06974f1661b2419dfde9cd6cc37fa, type: 3}
        m_Scale: {x: 1, y: 1}
        m_Offset: {x: 0, y: 0}
    - _ColourMap:
        m_Texture: {fileID: 2800000, guid: 1b4ccd2a63f29784ebf218a6c005a1e5, type: 3}
        m_Scale: {x: 1, y: 1}
        m_Offset: {x: 0, y: 0}
    - _EmissionMap:
        m_Texture: {fileID: 0}
        m_Scale: {x: 1, y: 1}
        m_Offset: {x: 0, y: 0}
    - _GrubMap:
        m_Texture: {fileID: 0}
        m_Scale: {x: 1, y: 1}
        m_Offset: {x: 0, y: 0}
    - _MaskMap:
        m_Texture: {fileID: 0}
        m_Scale: {x: 1, y: 1}
        m_Offset: {x: 0, y: 0}
    - _NormalMap:
        m_Texture: {fileID: 2800000, guid: a9c84eefdbf2c334cb761d5716ae9498, type: 3}
        m_Scale: {x: 1, y: 1}
        m_Offset: {x: 0, y: 0}
    - _Texture2DAsset_7ff8356b9977c781b72975916e1c2059_Out_0:
        m_Texture: {fileID: 2800000, guid: 78eca2efda973954e8b0f2e942011604, type: 3}
        m_Scale: {x: 1, y: 1}
        m_Offset: {x: 0, y: 0}
    - _Texture2DAsset_84E2EF64_Out_0:
        m_Texture: {fileID: 2800000, guid: 78eca2efda973954e8b0f2e942011604, type: 3}
        m_Scale: {x: 1, y: 1}
        m_Offset: {x: 0, y: 0}
    - unity_Lightmaps:
        m_Texture: {fileID: 0}
        m_Scale: {x: 1, y: 1}
        m_Offset: {x: 0, y: 0}
    - unity_LightmapsInd:
        m_Texture: {fileID: 0}
        m_Scale: {x: 1, y: 1}
        m_Offset: {x: 0, y: 0}
    - unity_ShadowMasks:
        m_Texture: {fileID: 0}
        m_Scale: {x: 1, y: 1}
        m_Offset: {x: 0, y: 0}
    m_Ints: []
    m_Floats:
    - Color_1_Threshold: 1
    - Color_2_Threshold: 1
    - Color_3_Threshold: 1
    - _AddPrecomputedVelocity: 0
    - _AlphaCutoffEnable: 0
    - _AlphaDstBlend: 0
    - _AlphaSrcBlend: 1
    - _AlphaToMask: 0
    - _AlphaToMaskInspectorValue: 0
    - _BlendMode: 0
    - _ColorBoost1: 1
    - _ColorBoost2: 1
    - _ColorBoost3: 1
    - _ConservativeDepthOffsetEnable: 0
    - _CullMode: 2
    - _CullModeForward: 2
    - _DepthOffsetEnable: 0
    - _DerriveNormalFromBase: 0
    - _DoubleSidedEnable: 0
    - _DoubleSidedGIMode: 0
    - _DoubleSidedNormalMode: 2
    - _DstBlend: 0
    - _EnableBlendModePreserveSpecularLighting: 1
    - _EnableFogOnTransparent: 1
    - _GenericGrub: 1
    - _GenericGrubMaxThreshold: 1
    - _GrubAmount: 0
    - _GrubEffectsEmission: 1
    - _GrubEffectsMetallic: 1
    - _GrubEffectsNormal: 0
    - _GrubEffectsSmoothness: 1
    - _MetallicMultiplier: 0
    - _MultiplyEmission: 0
    - _NormalMultiplier: 0.1
    - _OpaqueCullMode: 2
    - _RayTracing: 0
    - _ReceivesSSR: 0
    - _ReceivesSSRTransparent: 0
    - _RefractionModel: 0
    - _RenderQueueType: 1
    - _RequireSplitLighting: 0
    - _SrcBlend: 1
    - _StencilRef: 0
    - _StencilRefDepth: 0
    - _StencilRefDistortionVec: 4
    - _StencilRefGBuffer: 2
    - _StencilRefMV: 32
    - _StencilWriteMask: 6
    - _StencilWriteMaskDepth: 8
    - _StencilWriteMaskDistortionVec: 4
    - _StencilWriteMaskGBuffer: 14
    - _StencilWriteMaskMV: 40
    - _SupportDecals: 1
    - _SurfaceType: 0
    - _TransparentBackfaceEnable: 0
    - _TransparentCullMode: 2
    - _TransparentDepthPostpassEnable: 0
    - _TransparentDepthPrepassEnable: 0
    - _TransparentSortPriority: 0
    - _TransparentWritingMotionVec: 0
    - _TransparentZWrite: 0
    - _UseShadowThreshold: 0
    - _ZTestDepthEqualForOpaque: 3
    - _ZTestGBuffer: 4
    - _ZTestTransparent: 4
    - _ZWrite: 1
    m_Colors:
    - _AORemap: {r: 0, g: 1, b: 0, a: 0}
    - _BaseColor: {r: 1, g: 1, b: 1, a: 1}
    - _Color1: {r: 1, g: 0.62402993, b: 0, a: 1}
    - _Color2: {r: 1, g: 0.70430475, b: 0.6650944, a: 0}
    - _Color3: {r: 1, g: 1, b: 1, a: 0}
    - _DoubleSidedConstants: {r: 1, g: 1, b: -1, a: 0}
    - _EmissionColor: {r: 1, g: 1, b: 1, a: 1}
    - _EmissionColour: {r: 0, g: 0, b: 0, a: 1}
    - _EmissiveColor: {r: 0, g: 0, b: 0, a: 1}
    - _SmoothnessRemap: {r: 0.2, g: 0.6, b: 0, a: 0}
  m_BuildTextureStacks: []
--- !u!114 &5657313019709757798
MonoBehaviour:
  m_ObjectHideFlags: 11
  m_CorrespondingSourceObject: {fileID: 0}
  m_PrefabInstance: {fileID: 0}
  m_PrefabAsset: {fileID: 0}
  m_GameObject: {fileID: 0}
  m_Enabled: 1
  m_EditorHideFlags: 0
  m_Script: {fileID: 11500000, guid: da692e001514ec24dbc4cca1949ff7e8, type: 3}
  m_Name: 
  m_EditorClassIdentifier: 
  version: 12
  hdPluginSubTargetMaterialVersions:
    m_Keys: []
    m_Values: 
