%YAML 1.1
%TAG !u! tag:unity3d.com,2011:
--- !u!114 &11400000
MonoBehaviour:
  m_ObjectHideFlags: 0
  m_CorrespondingSourceObject: {fileID: 0}
  m_PrefabInstance: {fileID: 0}
  m_PrefabAsset: {fileID: 0}
  m_GameObject: {fileID: 0}
  m_Enabled: 1
  m_EditorHideFlags: 0
  m_Script: {fileID: 11500000, guid: bd8cf01e916836245a209f51bdf8dea5, type: 3}
  m_Name: CoatedConcrete
  m_EditorClassIdentifier: 
  presetName: CoatedConcrete
  material: {fileID: 2100000, guid: 6436c3caed495134aa3a504ecd92dee1, type: 2}
  variations:
  - name: Default
    main: 8
    colour1: 15
    colour2: 15
    colour3: 15
  - name: Default
    main: 16
    colour1: 15
    colour2: 15
    colour3: 15
  concrete: 1
  plaster: 0
  wood: 0
  carpet: 0
  tile: 0
  metal: 0
  glass: 0
  fabric: 0
  noFloorReplacement: {fileID: 0}
  allowFootprints: 1
  affectFootprintDirt: 0
  grubFootprintDirtMultiplier: 0.05
  materialType: 1
  minimumWealth: 0
  designStyles:
  - designStyle: {fileID: 11400000, guid: e72ea046ed0da1e4fa8dc37cf23d4962, type: 2}
    weighting: 1
  - designStyle: {fileID: 11400000, guid: 874a29f205e656345b6bf7e398fd3d8d, type: 2}
    weighting: 1
  - designStyle: {fileID: 11400000, guid: 238eb7f62296f3149bd39ce3b7506276, type: 2}
    weighting: 4
  allowedRoomFilters:
  - {fileID: 11400000, guid: eb169ce86d95cbc4298ef6e91190fa1a, type: 2}
  - {fileID: 11400000, guid: a529559632daab14cb241ffd69913400, type: 2}
  - {fileID: 11400000, guid: 480874ff50736bf4b8f7af0e7a1ce5f1, type: 2}
  - {fileID: 11400000, guid: 74981c17227ed2845addd1c8d229b797, type: 2}
  - {fileID: 11400000, guid: 7a14d10fff6542d4d90a385b2e592c91, type: 2}
  - {fileID: 11400000, guid: db6a73a9531591d4e83963f3d7a56556, type: 2}
  - {fileID: 11400000, guid: 5a6ff359d8501fd4c9b19f9bb93091f7, type: 2}
  - {fileID: 11400000, guid: ca7f1f152b91f744ba5d027c32452687, type: 2}
  purchasable: 1
  price: 22
  decorSprite: {fileID: 21300000, guid: 2cbd68a0ee1a32c419a6edba8bf38a03, type: 3}
