%YAML 1.1
%TAG !u! tag:unity3d.com,2011:
--- !u!114 &11400000
MonoBehaviour:
  m_ObjectHideFlags: 0
  m_CorrespondingSourceObject: {fileID: 0}
  m_PrefabInstance: {fileID: 0}
  m_PrefabAsset: {fileID: 0}
  m_GameObject: {fileID: 0}
  m_Enabled: 1
  m_EditorHideFlags: 0
  m_Script: {fileID: 11500000, guid: bd8cf01e916836245a209f51bdf8dea5, type: 3}
  m_Name: LinoTilesCross
  m_EditorClassIdentifier: 
  presetName: LinoTilesCross
  material: {fileID: 2100000, guid: 5e29331c5f7199f4484856697b618bcd, type: 2}
  variations:
  - name: Neutral and Any
    main: 15
    colour1: 13
    colour2: 8
    colour3: 15
  concrete: 0
  plaster: 0
  wood: 0
  carpet: 0
  tile: 1
  metal: 0
  glass: 0
  fabric: 0
  noFloorReplacement: {fileID: 0}
  allowFootprints: 1
  affectFootprintDirt: 0
  grubFootprintDirtMultiplier: 0.05
  materialType: 1
  minimumWealth: 0
  designStyles:
  - designStyle: {fileID: 11400000, guid: e02dfc783e1042e48b87ceb703c8dc23, type: 2}
    weighting: 3
  - designStyle: {fileID: 11400000, guid: fb5884c44b9167f4982a3fe7b4a798b4, type: 2}
    weighting: 2
  - designStyle: {fileID: 11400000, guid: f7900e58d7b990840b8413d0629275ee, type: 2}
    weighting: 1
  allowedRoomFilters:
  - {fileID: 11400000, guid: 9a25016f65b7724489f6c6407db9dbb3, type: 2}
  purchasable: 1
  price: 15
  decorSprite: {fileID: 21300000, guid: 3135a257fbbd981479d5b090e2a55957, type: 3}
