%YAML 1.1
%TAG !u! tag:unity3d.com,2011:
--- !u!114 &11400000
MonoBehaviour:
  m_ObjectHideFlags: 0
  m_CorrespondingSourceObject: {fileID: 0}
  m_PrefabInstance: {fileID: 0}
  m_PrefabAsset: {fileID: 0}
  m_GameObject: {fileID: 0}
  m_Enabled: 1
  m_EditorHideFlags: 0
  m_Script: {fileID: 11500000, guid: 7559a64a9e831bf4cacd0fc9e5cb79a5, type: 3}
  m_Name: LaserGridLResidential
  m_EditorClassIdentifier: 
  disable: 0
  presetName: LaserGridLResidential
  clusterElements:
  - onlyValidIfPreviousObjectPlaced: 0
    placements:
    - {x: 0, y: 0}
    furnitureClass: {fileID: 11400000, guid: 0fd8b60b2c51e8a4c84e530b294650ed, type: 2}
    facing: 1
    importantToCluster: 1
    chanceOfPlacementAttempt: 1
    placementScoreBoost: 0
    useFovBlock: 0
    blockDirection: {x: 0, y: 0}
    maxFOVBlockDistance: 0
    localScale: {x: -1, y: 1, z: 1}
    positionOffset: {x: 0, y: 0, z: 0}
  placementChance: 0.8
  roomPriority: 4
  modifyPriorityTraits: []
  modifyPlacementChanceTraits:
  - rule: 0
    traitList:
    - {fileID: 11400000, guid: f190c8774a7c4084a888588b2adf1946, type: 2}
    - {fileID: 11400000, guid: 6f81dbe55a54fce42bb5e363daa024aa, type: 2}
    mustPassForApplication: 0
    baseChance: 1
    reasonChance: 0
  - rule: 0
    traitList:
    - {fileID: 11400000, guid: 760e394c37a2c8d41b85f554746dcb77, type: 2}
    - {fileID: 11400000, guid: 285c13c7d4f4bfa4e8c343c5fd45562f, type: 2}
    mustPassForApplication: 0
    baseChance: -1
    reasonChance: 0
  essentialFurniture: 0
  updatePreCalculated: 0
  calculatedMinRoomSize: 1
  minimumZeroNodeWallCount: 2
  maximumZeroNodeWallCount: 4
  zeroNodeClasses:
  - {fileID: 11400000, guid: 0fd8b60b2c51e8a4c84e530b294650ed, type: 2}
  minimumRoomSize: 9
  useMaximumRoomSize: 1
  maximumRoomSize: 99
  useMinimumTesselation: 0
  nodesMustBeUnoccupied: 1
  minimumTesselation: {x: 1, y: 1}
  allowedInOpenPlan: 0
  allowInResidential: 1
  allowInCompanies: 1
  allowOnStreets: 0
  coastalOnly: 0
  limitToDistricts: 0
  allowedInDistricts: []
  banFromDistricts: 0
  notAllowedInDistricts: []
  skipIfNoAddressInhabitants: 0
  allowedRoomFilters:
  - {fileID: 11400000, guid: baa1ecb5332e75744855a66ecb8ea8d6, type: 2}
  limitPerRoom: 1
  maximumPerRoom: 1
  limitPerAddress: 1
  maximumPerAddress: 2
  limitToFloor: 0
  allowedOnFloor: 0
  limitPerBuilding: 0
  maximumPerBuilding: 1
  limitPerCity: 0
  maximumPerCity: 1
  wealthLimit: 1
  minimumWealth: 0.75
  maximumWealth: 1
  useRoomGrub: 0
  minimumGrub: 0
  maximumGrub: 1
  useBuildingResidences: 0
  minimumResidences: 0
  maximumResidences: 40
  removeClustersOnSuccess: []
  removeClustersOnFail: []
  securityDoor: 0
  isBreakerBox: 0
  enableDebug: 0
