%YAML 1.1
%TAG !u! tag:unity3d.com,2011:
--- !u!114 &11400000
MonoBehaviour:
  m_ObjectHideFlags: 0
  m_CorrespondingSourceObject: {fileID: 0}
  m_PrefabInstance: {fileID: 0}
  m_PrefabAsset: {fileID: 0}
  m_GameObject: {fileID: 0}
  m_Enabled: 1
  m_EditorHideFlags: 0
  m_Script: {fileID: 11500000, guid: 2c4bae82dc95dd540b66ec7206648b7c, type: 3}
  m_Name: XPMultiplier
  m_EditorClassIdentifier: 
  presetName: XPMultiplier
  firstValueIsPercentageIncrease: 1
  runActivationOnUpdate: 0
