%YAML 1.1
%TAG !u! tag:unity3d.com,2011:
--- !u!114 &11400000
MonoBehaviour:
  m_ObjectHideFlags: 0
  m_CorrespondingSourceObject: {fileID: 0}
  m_PrefabInstance: {fileID: 0}
  m_PrefabAsset: {fileID: 0}
  m_GameObject: {fileID: 0}
  m_Enabled: 1
  m_EditorHideFlags: 0
  m_Script: {fileID: 11500000, guid: 3aedd3a7847dd714e95fc4dea1881354, type: 3}
  m_Name: PoisonSyringe
  m_EditorClassIdentifier: 
  presetName: PoisonSyringe
  type: 5
  ammunition:
  - {fileID: 11400000, guid: 5ccc301a4da2d364e97db87b52876fcc, type: 2}
  murderDifficultyModifier: 1
  muzzleOffset: {x: -0.524, y: 0.0202, z: -0.044}
  brassEjectOffset: {x: 0.056, y: 0.061, z: -0.058}
  itemRightOverride: {fileID: 2823962661033497545, guid: a578ac4a0bdfdcc4e84da18421d676ab,
    type: 3}
  itemRightLocalPos: {x: -0.02, y: -0.065, z: 0.11}
  itemRightLocalEuler: {x: 0, y: 0, z: 90}
  itemLeftOverride: {fileID: 0}
  itemLeftLocalPos: {x: 0, y: 0, z: 0}
  itemLeftLocalEuler: {x: 0, y: 0, z: 0}
  overideUsesCarryAnimation: 0
  overrideCarryAnimation: 1
  usedInPersonalDefence: 0
  disabled: 0
  basePriority: 4
  socialClassRange: {x: 0, y: 1}
  citizenSpawningWithScore: 0
  personalDefenceTraitModifiers: []
  jobModifierList: []
  jobScoreModifier: 0
  drawnNerveModifier: -0.1
  barkTriggerChance: 0.5
  bark: 34
  incomingNerveDamageMultiplier: 1
  attackTriggerPoint: 0.5
  attackRemovePoint: 1
  shots: 1
  weaponMaxRange: {x: 1.65, y: 1.65}
  minimumRange: 0
  maximumBulletRange: 1.9
  weaponRangeLerpSource: 0
  fireDelay: {x: 0.5, y: 0.2}
  fireDelayLerpSource: 3
  attackAccuracy: {x: 1, y: 1}
  attackAccuracyLerpSource: 0
  attackDamage: {x: 0, y: 0}
  attackDamageLerpSource: 0
  applyPoison: 1
  shellCasing: {fileID: 0}
  ejectBrassSetting: 0
  bulletHole: {fileID: 0}
  entryWound: {fileID: 0}
  forwardSpatter: {fileID: 0}
  backSpatter: {fileID: 0}
  fireEvent: {fileID: 11400000, guid: 95a504209dcdfaf4f905ff44b817a54a, type: 2}
  impactEvent: {fileID: 0}
  impactEventBody: {fileID: 11400000, guid: 32e1922d2949be942832f6a6c78abbfb, type: 2}
  impactEventPlayer: {fileID: 11400000, guid: 717a432ac2af7dc48b7a6d9e19e4e88c, type: 2}
