%YAML 1.1
%TAG !u! tag:unity3d.com,2011:
--- !u!114 &11400000
MonoBehaviour:
  m_ObjectHideFlags: 0
  m_CorrespondingSourceObject: {fileID: 0}
  m_PrefabInstance: {fileID: 0}
  m_PrefabAsset: {fileID: 0}
  m_GameObject: {fileID: 0}
  m_Enabled: 1
  m_EditorHideFlags: 0
  m_Script: {fileID: 11500000, guid: c85c0ad7d263a0743bb9a6fd6928c95b, type: 3}
  m_Name: VandalismHome_D0
  m_EditorClassIdentifier: 
  presetName: VandalismHome_D0
  disabled: 0
  caseName: Vandalism
  jobPosting: {fileID: 11400000, guid: 0f5a4344ab784554783e64f97570be2e, type: 2}
  subClass: 
  allowSyncDiskRewards: 1
  allowBlackMarketSyncDiskRewards: 1
  physicalRewardLocation: 1
  generateHidingLocation: 0
  socialCreditLevelMinSpawnFrequency:
    serializedVersion: 2
    m_Curve:
    - serializedVersion: 3
      time: 0
      value: 1
      inSlope: -1.1063753
      outSlope: -1.1063753
      tangentMode: 0
      weightedMode: 0
      inWeight: 0
      outWeight: 0.083861224
    - serializedVersion: 3
      time: 2
      value: 0
      inSlope: -0.0029833536
      outSlope: -0.0029833536
      tangentMode: 0
      weightedMode: 0
      inWeight: 0.33333334
      outWeight: 0.13572875
    - serializedVersion: 3
      time: 10
      value: 0
      inSlope: 0
      outSlope: 0
      tangentMode: 0
      weightedMode: 0
      inWeight: 0
      outWeight: 0
    m_PreInfinity: 2
    m_PostInfinity: 2
    m_RotationOrder: 4
  activePerCitizen: 0.01
  maxJobs: 8
  immediatePostCountThreshold: 2
  difficultyTag: 0
  changePosterDialogCompliancy: 0
  changePerpDialogCompliancy: 1
  purpetratorMotives:
  - {fileID: 11400000, guid: 40cf4c0f956b3c84892b3fe6a36c4ebc, type: 2}
  penaltyForPurpAndPosterSameBuilding: 0
  startingScenarios:
  - name: Destruction 1
    dds: 12b0ecba-5ee0-4208-99ba-4127dff9bf63
    leads: []
  - name: Destruction 2
    dds: c58bf3d4-f926-44b9-9ce6-f3929af5d337
    leads: []
  - name: Destruction 3
    dds: 62adbea1-1dad-4c4b-9d49-670f6318521d
    leads: []
  compatibleIntros:
  - preset: {fileID: 11400000, guid: 25e194f750b45c641849870eee5af316, type: 2}
    frequency: 1
  - preset: {fileID: 11400000, guid: c26a2a0ba496ac64d9f6f7770c1a6843, type: 2}
    frequency: 1
  - preset: {fileID: 11400000, guid: 0659cbb85759a6a469e5c2b28a1774e1, type: 2}
    frequency: 0
  - preset: {fileID: 11400000, guid: 84472f86f1fe3fd4b95643de9857d92e, type: 2}
    frequency: 0
  - preset: {fileID: 11400000, guid: f949232bdfeddce4eb298bdcbf6b3413, type: 2}
    frequency: 0
  leadPoolData: 0
  createFactsOnInformationAcquisition:
  - factPreset: {fileID: 11400000, guid: e450b25695fe40d42b12aad3492b6bd2, type: 2}
    from: 13
    to: 2
    overrideFromKeys: 0
    fromKeys: 
    featureKeysFromLeadPool: 0
    overrideToKeys: 1
    toKeys: 00000000
    featureKeysFromLeadPoolTo: 1
  informationAcquisitionLeads:
  - leadEvidence: 5
    keys: 00000000
    useKeyFromLeadPool: 0
    autoPin: 1
    addDialogOptions: []
    factsReveal: []
    mergeKeys: 0000000024000000
    discoveryApplication: 
  revengeObjectives:
  - {fileID: 11400000, guid: fe98cb83c8ddce945b029ea24bf7f3e7, type: 2}
  - {fileID: 11400000, guid: a9626dc8173c214478ea9e046546e29a, type: 2}
  - {fileID: 11400000, guid: f2e6586d4f436f845bc1f8e2e2cf219b, type: 2}
  - {fileID: 11400000, guid: a13ac4cae50353540bbf0038dfd432af, type: 2}
  - {fileID: 11400000, guid: 7defdd75d3181cd41aa7d6e6b9ea24f6, type: 2}
  spawnItems: []
  resolveQuestions:
  - name: Revenge
    displayObjective: 1
    displayOnlyAtPhase: 0
    displayAtPhase: 0
    objectiveDelay: 0
    onlyCompatibleWithIntros: []
    onlyCompatibleWithHandIns: []
    inputType: 3
    automaticAnswers: 
    tag: 1
    icon: 15
    rewardRange: {x: 200, y: 200}
    penaltyRange: {x: 0, y: 0}
    isOptional: 0
    useAlternateName: 0
    useName: 0
    target: 2
    location: 2
    revengeObjective: 
    revengeObjTarget: -1
    revengeObjLoc: -1
    revengeObjPassed: 0
    completedRevenge: 0
    input: 
    inputtedEvidence: 
    correctAnswers: []
    progress: 0
    reward: 0
    penalty: 0
    isValid: 0
    isCorrect: 0
  - name: Take a photo of the damage
    displayObjective: 1
    displayOnlyAtPhase: 0
    displayAtPhase: 0
    objectiveDelay: 0
    onlyCompatibleWithIntros: []
    onlyCompatibleWithHandIns: []
    inputType: 2
    automaticAnswers: 0e000000
    tag: 2
    icon: 30
    rewardRange: {x: 50, y: 50}
    penaltyRange: {x: 0, y: 0}
    isOptional: 1
    useAlternateName: 0
    useName: 2
    target: 0
    location: 0
    revengeObjective: 
    revengeObjTarget: -1
    revengeObjLoc: -1
    revengeObjPassed: 0
    completedRevenge: 0
    input: 
    inputtedEvidence: 
    correctAnswers: []
    progress: 0
    reward: 0
    penalty: 0
    isValid: 0
    isCorrect: 0
  additional:
  - name: Has camera
    elementType: 7
    dialogReference: 
    tagReference: 0
    spawnItems: []
    enableUpdateWhileTalking: 0
    objectiveDelay: 0
    validItems: []
    validFurniture: []
    disableOnDifficulties: 
    onlyCompativleWithIntros: []
    onlyCompatibleWithHandIns: []
    triggerFailIfItemDestroyed: 
  compatibleHandIns:
  - preset: {fileID: 11400000, guid: 105373a3726979743883d15d3f2469be, type: 2}
    frequency: 1
  dialogReferences:
  - name: IntroCall
    dialog: {fileID: 11400000, guid: e6a22184376f336428ae642a3971e8de, type: 2}
  - name: IntroAskStaff
    dialog: {fileID: 11400000, guid: 57cd32c8fa0fd5c4282607a164236632, type: 2}
  - name: IntroAskStaffPhoto
    dialog: {fileID: 11400000, guid: b0bfc90d492c8014a9cc85f39387f6c9, type: 2}
  - name: IntroGooseChase1
    dialog: {fileID: 11400000, guid: 2e0f9e7c03242e746a9aed785e7a6ccd, type: 2}
  - name: IntroGooseChase2
    dialog: {fileID: 11400000, guid: 9d485f1dd12dd934f91c8ce595b865b9, type: 2}
  - name: IntroMeetUpSpecific1
    dialog: {fileID: 11400000, guid: 31581c018cc39904db2d4d6f38fd168f, type: 2}
  - name: IntroMeetUpSpecific2
    dialog: {fileID: 11400000, guid: 9a1e92ce68cb3d045bb0c626cd2c5c37, type: 2}
  - name: TelephoneHandIn
    dialog: {fileID: 11400000, guid: 61ca02536809a7748831413ebb405fb2, type: 2}
  debugCopyFrom: {fileID: 11400000, guid: cfb10f08eb5e87948a95d59456f16981, type: 2}
