%YAML 1.1
%TAG !u! tag:unity3d.com,2011:
--- !u!114 &11400000
MonoBehaviour:
  m_ObjectHideFlags: 0
  m_CorrespondingSourceObject: {fileID: 0}
  m_PrefabInstance: {fileID: 0}
  m_PrefabAsset: {fileID: 0}
  m_GameObject: {fileID: 0}
  m_Enabled: 1
  m_EditorHideFlags: 0
  m_Script: {fileID: 11500000, guid: bd8cf01e916836245a209f51bdf8dea5, type: 3}
  m_Name: JazzChaos
  m_EditorClassIdentifier: 
  presetName: JazzChaos
  material: {fileID: 2100000, guid: 9233197b5c183174883f7a8ab11e64b4, type: 2}
  variations:
  - name: Primaries
    main: 15
    colour1: 9
    colour2: 10
    colour3: 14
  - name: Primaries
    main: 15
    colour1: 10
    colour2: 9
    colour3: 14
  concrete: 0
  plaster: 1
  wood: 0
  carpet: 0
  tile: 0
  metal: 0
  glass: 0
  fabric: 0
  noFloorReplacement: {fileID: 0}
  allowFootprints: 0
  affectFootprintDirt: 0
  grubFootprintDirtMultiplier: 0.05
  materialType: 0
  minimumWealth: 0.8
  designStyles:
  - designStyle: {fileID: 11400000, guid: f7900e58d7b990840b8413d0629275ee, type: 2}
    weighting: 1
  allowedRoomFilters:
  - {fileID: 11400000, guid: 1822c281a456b7348b487abf0d51b37c, type: 2}
  - {fileID: 11400000, guid: 45c369b1e10394445862f7a9d1e022e0, type: 2}
  purchasable: 1
  price: 20
  decorSprite: {fileID: 21300000, guid: f71e43c81d8576f4e88323cbd455ffdb, type: 3}
