%YAML 1.1
%TAG !u! tag:unity3d.com,2011:
--- !u!114 &11400000
MonoBehaviour:
  m_ObjectHideFlags: 0
  m_CorrespondingSourceObject: {fileID: 0}
  m_PrefabInstance: {fileID: 0}
  m_PrefabAsset: {fileID: 0}
  m_GameObject: {fileID: 0}
  m_Enabled: 1
  m_EditorHideFlags: 0
  m_Script: {fileID: 11500000, guid: bd8cf01e916836245a209f51bdf8dea5, type: 3}
  m_Name: OldBrick
  m_EditorClassIdentifier: 
  presetName: OldBrick
  material: {fileID: 2100000, guid: b1d884ba7afbc714d999d4500d9bf370, type: 2}
  variations:
  - name: Default
    main: 15
    colour1: 15
    colour2: 15
    colour3: 15
  concrete: 0.8
  plaster: 0.129
  wood: 0
  carpet: 0
  tile: 0.2
  metal: 0
  glass: 0
  fabric: 0
  noFloorReplacement: {fileID: 0}
  allowFootprints: 0
  affectFootprintDirt: 0
  grubFootprintDirtMultiplier: 0.05
  materialType: 0
  minimumWealth: 0
  designStyles:
  - designStyle: {fileID: 11400000, guid: 874a29f205e656345b6bf7e398fd3d8d, type: 2}
    weighting: 1
  - designStyle: {fileID: 11400000, guid: 748ca6bfa273c674187dcd4ec18a224a, type: 2}
    weighting: 1
  - designStyle: {fileID: 11400000, guid: e02dfc783e1042e48b87ceb703c8dc23, type: 2}
    weighting: 1
  - designStyle: {fileID: 11400000, guid: fb5884c44b9167f4982a3fe7b4a798b4, type: 2}
    weighting: 1
  allowedRoomFilters:
  - {fileID: 11400000, guid: 449f8cb195fb3fb4aa1ec3b6078687d4, type: 2}
  purchasable: 1
  price: 5
  decorSprite: {fileID: 21300000, guid: ee0af67b00f69d0478f7c0561eeef884, type: 3}
