%YAML 1.1
%TAG !u! tag:unity3d.com,2011:
--- !u!114 &11400000
MonoBehaviour:
  m_ObjectHideFlags: 0
  m_CorrespondingSourceObject: {fileID: 0}
  m_PrefabInstance: {fileID: 0}
  m_PrefabAsset: {fileID: 0}
  m_GameObject: {fileID: 0}
  m_Enabled: 1
  m_EditorHideFlags: 0
  m_Script: {fileID: 11500000, guid: 78a38080d63ff7f4ba69a8d60a35f8dc, type: 3}
  m_Name: Baseball
  m_EditorClassIdentifier: 
  presetName: Baseball
  mass: 0.14
  drag: 0.2
  angularDrag: 0.15
  heldEuler: {x: 0, y: 0, z: 0}
  tamperDistanceModifier: 0
  throwForceMultiplier: 2.1
  throwDamageMultiplier: 0.5
  treatAsCausedByPlayer: 1
  collisionMode: 1
  removeOnReset: 0
  physicsCollisionAudio: {fileID: 11400000, guid: 5aa593e73afe19a4b952e23c5bdaeca3,
    type: 2}
