%YAML 1.1
%TAG !u! tag:unity3d.com,2011:
--- !u!114 &11400000
MonoBehaviour:
  m_ObjectHideFlags: 0
  m_CorrespondingSourceObject: {fileID: 0}
  m_PrefabInstance: {fileID: 0}
  m_PrefabAsset: {fileID: 0}
  m_GameObject: {fileID: 0}
  m_Enabled: 1
  m_EditorHideFlags: 0
  m_Script: {fileID: 11500000, guid: 85e1431e7ee42c545a9d5bfd9582eacc, type: 3}
  m_Name: Chinatown
  m_EditorClassIdentifier: 
  presetName: Chinatown
  generationPriority: {x: 3, y: 4}
  limitToOne: 1
  cityRatio: 0.2
  minimumSize: 2
  maximumSize: 6
  mustBeOnCoast: 0
  centreWeighting: 0
  aliterationWeight: 1
  prefixOrSuffixChance: 0.6
  prefixList:
  - names.district.prefix
  mainChance: 1
  mainNamingList:
  - names.district.eastern
  - names.flowers
  - names.asian
  suffixList:
  - names.district.suffix
  minimumDensity: 0
  maximumDensity: 2
  minimumLandValue: 1
  maximumLandValue: 3
  affectEthnicity: 1
  ethnicityFrequencyModifiers:
  - ethnicity: 7
    frequency: 100
  - ethnicity: 8
    frequency: 50
  - ethnicity: 9
    frequency: 50
  sceneProfile: 6
  alterStreetAreaLighting: 1
  possibleColours:
  - {r: 1, g: 0.3351617, b: 0.2688679, a: 1}
  - {r: 1, g: 0.20392156, b: 0.21187834, a: 1}
  - {r: 1, g: 0.27058828, b: 0.42608503, a: 1}
  - {r: 1, g: 0.27058828, b: 0.61840135, a: 1}
  - {r: 1, g: 0.20392156, b: 0.7861927, a: 1}
  lightOperation: 0
  lightAmount: 1
  brightnessModifier: 0
  copyFrom: {fileID: 11400000, guid: e8ec4cafa64817b4bba67ddd397c84ed, type: 2}
