%YAML 1.1
%TAG !u! tag:unity3d.com,2011:
--- !u!114 &11400000
MonoBehaviour:
  m_ObjectHideFlags: 0
  m_CorrespondingSourceObject: {fileID: 0}
  m_PrefabInstance: {fileID: 0}
  m_PrefabAsset: {fileID: 0}
  m_GameObject: {fileID: 0}
  m_Enabled: 1
  m_EditorHideFlags: 0
  m_Script: {fileID: 11500000, guid: 85e1431e7ee42c545a9d5bfd9582eacc, type: 3}
  m_Name: Residential
  m_EditorClassIdentifier: 
  presetName: Residential
  generationPriority: {x: 1, y: 2}
  limitToOne: 0
  cityRatio: 0.2
  minimumSize: 2
  maximumSize: 6
  mustBeOnCoast: 0
  centreWeighting: 0
  aliterationWeight: 1
  prefixOrSuffixChance: 0.6
  prefixList:
  - names.district.prefix
  mainChance: 1
  mainNamingList:
  - names.district.western
  - names.district.eastern
  - names.colours
  suffixList:
  - names.district.suffix
  minimumDensity: 0
  maximumDensity: 1
  minimumLandValue: 0
  maximumLandValue: 3
  affectEthnicity: 0
  ethnicityFrequencyModifiers: []
  sceneProfile: 8
  alterStreetAreaLighting: 1
  possibleColours:
  - {r: 0.94406104, g: 1, b: 0.18396229, a: 1}
  - {r: 0.69301164, g: 1, b: 0.18431371, a: 1}
  - {r: 1, g: 0.8964429, b: 0.18431371, a: 1}
  - {r: 1, g: 0.74034643, b: 0.18431371, a: 1}
  - {r: 0.618874, g: 1, b: 0.18431371, a: 1}
  lightOperation: 0
  lightAmount: 1
  brightnessModifier: -40
  copyFrom: {fileID: 11400000, guid: e8ec4cafa64817b4bba67ddd397c84ed, type: 2}
