%YAML 1.1
%TAG !u! tag:unity3d.com,2011:
--- !u!21 &-8051451338930633682
Material:
  serializedVersion: 6
  m_ObjectHideFlags: 1
  m_CorrespondingSourceObject: {fileID: 0}
  m_PrefabInstance: {fileID: 0}
  m_PrefabAsset: {fileID: 0}
  m_Name: TextMeshPro/Sprite
  m_Shader: {fileID: 4800000, guid: cf81c85f95fe47e1a27f6ae460cf182c, type: 3}
  m_ShaderKeywords: 
  m_LightmapFlags: 4
  m_EnableInstancingVariants: 0
  m_DoubleSidedGI: 0
  m_CustomRenderQueue: -1
  stringTagMap: {}
  disabledShaderPasses: []
  m_SavedProperties:
    serializedVersion: 3
    m_TexEnvs:
    - _MainTex:
        m_Texture: {fileID: 2800000, guid: 5c8eaec6691767342b8166808d69a982, type: 3}
        m_Scale: {x: 1, y: 1}
        m_Offset: {x: 0, y: 0}
    m_Ints: []
    m_Floats:
    - _ColorMask: 15
    - _Stencil: 0
    - _StencilComp: 8
    - _StencilOp: 0
    - _StencilReadMask: 255
    - _StencilWriteMask: 255
    - _UseUIAlphaClip: 0
    m_Colors:
    - _ClipRect: {r: -32767, g: -32767, b: 32767, a: 32767}
    - _Color: {r: 1, g: 1, b: 1, a: 1}
  m_BuildTextureStacks: []
--- !u!114 &11400000
MonoBehaviour:
  m_ObjectHideFlags: 0
  m_CorrespondingSourceObject: {fileID: 0}
  m_PrefabInstance: {fileID: 0}
  m_PrefabAsset: {fileID: 0}
  m_GameObject: {fileID: 0}
  m_Enabled: 1
  m_EditorHideFlags: 0
  m_Script: {fileID: 11500000, guid: 84a92b25f83d49b9bc132d206b370281, type: 3}
  m_Name: icons
  m_EditorClassIdentifier: 
  hashCode: 780247378
  material: {fileID: -8051451338930633682}
  materialHashCode: 0
  m_Version: 1.1.0
  m_FaceInfo:
    m_FaceIndex: 0
    m_FamilyName: 
    m_StyleName: 
    m_PointSize: 0
    m_Scale: 0
    m_LineHeight: 0
    m_AscentLine: 0
    m_CapLine: 0
    m_MeanLine: 0
    m_Baseline: 0
    m_DescentLine: 0
    m_SuperscriptOffset: 0
    m_SuperscriptSize: 0
    m_SubscriptOffset: 0
    m_SubscriptSize: 0
    m_UnderlineOffset: 0
    m_UnderlineThickness: 0
    m_StrikethroughOffset: 0
    m_StrikethroughThickness: 0
    m_TabWidth: 0
  spriteSheet: {fileID: 2800000, guid: 5c8eaec6691767342b8166808d69a982, type: 3}
  m_SpriteCharacterTable:
  - m_ElementType: 2
    m_Unicode: 65534
    m_GlyphIndex: 0
    m_Scale: 0.75
    m_Name: Checkbox Empty
    m_HashCode: -1625689626
  - m_ElementType: 2
    m_Unicode: 65534
    m_GlyphIndex: 1
    m_Scale: 0.75
    m_Name: Checkbox Checked
    m_HashCode: 622264212
  - m_ElementType: 2
    m_Unicode: 65534
    m_GlyphIndex: 2
    m_Scale: 0.66
    m_Name: Name Empty
    m_HashCode: 863572434
  - m_ElementType: 2
    m_Unicode: 65534
    m_GlyphIndex: 3
    m_Scale: 0.66
    m_Name: Name Checked
    m_HashCode: 1561839456
  - m_ElementType: 2
    m_Unicode: 65534
    m_GlyphIndex: 4
    m_Scale: 0.66
    m_Name: Photo Empty
    m_HashCode: 336303065
  - m_ElementType: 2
    m_Unicode: 65534
    m_GlyphIndex: 5
    m_Scale: 0.66
    m_Name: Photo Checked
    m_HashCode: 815213099
  - m_ElementType: 2
    m_Unicode: 65534
    m_GlyphIndex: 6
    m_Scale: 0.66
    m_Name: Voice Empty
    m_HashCode: 2006616707
  - m_ElementType: 2
    m_Unicode: 65534
    m_GlyphIndex: 7
    m_Scale: 0.66
    m_Name: Voice Checked
    m_HashCode: -1809699215
  - m_ElementType: 2
    m_Unicode: 65534
    m_GlyphIndex: 8
    m_Scale: 0.66
    m_Name: Fingerprint Empty
    m_HashCode: -1631628459
  - m_ElementType: 2
    m_Unicode: 65534
    m_GlyphIndex: 9
    m_Scale: 0.66
    m_Name: Fingerprint Checked
    m_HashCode: -493062233
  - m_ElementType: 2
    m_Unicode: 65534
    m_GlyphIndex: 10
    m_Scale: 0.75
    m_Name: Link
    m_HashCode: 2687968
  - m_ElementType: 2
    m_Unicode: 65534
    m_GlyphIndex: 11
    m_Scale: 1
    m_Name: Mouse Wheel
    m_HashCode: 1905987346
  - m_ElementType: 2
    m_Unicode: 65534
    m_GlyphIndex: 12
    m_Scale: 1
    m_Name: desktop_12
    m_HashCode: -2091388690
  - m_ElementType: 2
    m_Unicode: 65534
    m_GlyphIndex: 13
    m_Scale: 1
    m_Name: desktop_13
    m_HashCode: -2091388689
  - m_ElementType: 2
    m_Unicode: 65534
    m_GlyphIndex: 14
    m_Scale: 1
    m_Name: desktop_14
    m_HashCode: -2091388696
  - m_ElementType: 2
    m_Unicode: 65534
    m_GlyphIndex: 15
    m_Scale: 1
    m_Name: desktop_15
    m_HashCode: -2091388695
  - m_ElementType: 2
    m_Unicode: 65534
    m_GlyphIndex: 16
    m_Scale: 1
    m_Name: desktop_16
    m_HashCode: -2091388694
  - m_ElementType: 2
    m_Unicode: 65534
    m_GlyphIndex: 17
    m_Scale: 1
    m_Name: desktop_17
    m_HashCode: -2091388693
  - m_ElementType: 2
    m_Unicode: 65534
    m_GlyphIndex: 18
    m_Scale: 1
    m_Name: desktop_18
    m_HashCode: -2091388700
  - m_ElementType: 2
    m_Unicode: 65534
    m_GlyphIndex: 19
    m_Scale: 1
    m_Name: desktop_19
    m_HashCode: -2091388699
  - m_ElementType: 2
    m_Unicode: 65534
    m_GlyphIndex: 20
    m_Scale: 1
    m_Name: desktop_20
    m_HashCode: -2091388657
  - m_ElementType: 2
    m_Unicode: 65534
    m_GlyphIndex: 21
    m_Scale: 1
    m_Name: desktop_21
    m_HashCode: -2091388658
  - m_ElementType: 2
    m_Unicode: 65534
    m_GlyphIndex: 22
    m_Scale: 1
    m_Name: desktop_22
    m_HashCode: -2091388659
  - m_ElementType: 2
    m_Unicode: 65534
    m_GlyphIndex: 23
    m_Scale: 1
    m_Name: desktop_23
    m_HashCode: -2091388660
  - m_ElementType: 2
    m_Unicode: 65534
    m_GlyphIndex: 24
    m_Scale: 1
    m_Name: desktop_24
    m_HashCode: -2091388661
  - m_ElementType: 2
    m_Unicode: 65534
    m_GlyphIndex: 25
    m_Scale: 1
    m_Name: desktop_25
    m_HashCode: -2091388662
  - m_ElementType: 2
    m_Unicode: 65534
    m_GlyphIndex: 26
    m_Scale: 1
    m_Name: desktop_26
    m_HashCode: -2091388663
  - m_ElementType: 2
    m_Unicode: 65534
    m_GlyphIndex: 27
    m_Scale: 1
    m_Name: desktop_27
    m_HashCode: -2091388664
  - m_ElementType: 2
    m_Unicode: 65534
    m_GlyphIndex: 28
    m_Scale: 1
    m_Name: desktop_28
    m_HashCode: -2091388665
  - m_ElementType: 2
    m_Unicode: 65534
    m_GlyphIndex: 29
    m_Scale: 1
    m_Name: desktop_29
    m_HashCode: -2091388666
  - m_ElementType: 2
    m_Unicode: 65534
    m_GlyphIndex: 30
    m_Scale: 1
    m_Name: desktop_30
    m_HashCode: -2091388626
  - m_ElementType: 2
    m_Unicode: 65534
    m_GlyphIndex: 31
    m_Scale: 1
    m_Name: desktop_31
    m_HashCode: -2091388625
  - m_ElementType: 2
    m_Unicode: 65534
    m_GlyphIndex: 32
    m_Scale: 1
    m_Name: desktop_32
    m_HashCode: -2091388628
  - m_ElementType: 2
    m_Unicode: 65534
    m_GlyphIndex: 33
    m_Scale: 1
    m_Name: desktop_33
    m_HashCode: -2091388627
  - m_ElementType: 2
    m_Unicode: 65534
    m_GlyphIndex: 34
    m_Scale: 1
    m_Name: desktop_34
    m_HashCode: -2091388630
  - m_ElementType: 2
    m_Unicode: 65534
    m_GlyphIndex: 35
    m_Scale: 1
    m_Name: desktop_35
    m_HashCode: -2091388629
  - m_ElementType: 2
    m_Unicode: 65534
    m_GlyphIndex: 36
    m_Scale: 1
    m_Name: desktop_36
    m_HashCode: -2091388632
  - m_ElementType: 2
    m_Unicode: 65534
    m_GlyphIndex: 37
    m_Scale: 1
    m_Name: desktop_37
    m_HashCode: -2091388631
  - m_ElementType: 2
    m_Unicode: 65534
    m_GlyphIndex: 38
    m_Scale: 1
    m_Name: desktop_38
    m_HashCode: -2091388634
  - m_ElementType: 2
    m_Unicode: 65534
    m_GlyphIndex: 39
    m_Scale: 1
    m_Name: desktop_39
    m_HashCode: -2091388633
  - m_ElementType: 2
    m_Unicode: 65534
    m_GlyphIndex: 40
    m_Scale: 1
    m_Name: desktop_40
    m_HashCode: -2091388855
  - m_ElementType: 2
    m_Unicode: 65534
    m_GlyphIndex: 41
    m_Scale: 1
    m_Name: desktop_41
    m_HashCode: -2091388856
  - m_ElementType: 2
    m_Unicode: 65534
    m_GlyphIndex: 42
    m_Scale: 1
    m_Name: desktop_42
    m_HashCode: -2091388853
  - m_ElementType: 2
    m_Unicode: 65534
    m_GlyphIndex: 43
    m_Scale: 1
    m_Name: desktop_43
    m_HashCode: -2091388854
  - m_ElementType: 2
    m_Unicode: 65534
    m_GlyphIndex: 44
    m_Scale: 1
    m_Name: desktop_44
    m_HashCode: -2091388851
  - m_ElementType: 2
    m_Unicode: 65534
    m_GlyphIndex: 45
    m_Scale: 1
    m_Name: desktop_45
    m_HashCode: -2091388852
  - m_ElementType: 2
    m_Unicode: 65534
    m_GlyphIndex: 46
    m_Scale: 1
    m_Name: desktop_46
    m_HashCode: -2091388849
  - m_ElementType: 2
    m_Unicode: 65534
    m_GlyphIndex: 47
    m_Scale: 1
    m_Name: desktop_47
    m_HashCode: -2091388850
  - m_ElementType: 2
    m_Unicode: 65534
    m_GlyphIndex: 48
    m_Scale: 1
    m_Name: desktop_48
    m_HashCode: -2091388863
  - m_ElementType: 2
    m_Unicode: 65534
    m_GlyphIndex: 49
    m_Scale: 1
    m_Name: desktop_49
    m_HashCode: -2091388864
  - m_ElementType: 2
    m_Unicode: 65534
    m_GlyphIndex: 50
    m_Scale: 1
    m_Name: desktop_50
    m_HashCode: -2091388824
  - m_ElementType: 2
    m_Unicode: 65534
    m_GlyphIndex: 51
    m_Scale: 1
    m_Name: desktop_51
    m_HashCode: -2091388823
  - m_ElementType: 2
    m_Unicode: 65534
    m_GlyphIndex: 52
    m_Scale: 1
    m_Name: desktop_52
    m_HashCode: -2091388822
  - m_ElementType: 2
    m_Unicode: 65534
    m_GlyphIndex: 53
    m_Scale: 1
    m_Name: desktop_53
    m_HashCode: -2091388821
  - m_ElementType: 2
    m_Unicode: 65534
    m_GlyphIndex: 54
    m_Scale: 1
    m_Name: desktop_54
    m_HashCode: -2091388820
  - m_ElementType: 2
    m_Unicode: 65534
    m_GlyphIndex: 55
    m_Scale: 1
    m_Name: desktop_55
    m_HashCode: -2091388819
  - m_ElementType: 2
    m_Unicode: 65534
    m_GlyphIndex: 56
    m_Scale: 1
    m_Name: desktop_56
    m_HashCode: -2091388818
  - m_ElementType: 2
    m_Unicode: 65534
    m_GlyphIndex: 57
    m_Scale: 1
    m_Name: desktop_57
    m_HashCode: -2091388817
  - m_ElementType: 2
    m_Unicode: 65534
    m_GlyphIndex: 58
    m_Scale: 1
    m_Name: desktop_58
    m_HashCode: -2091388832
  - m_ElementType: 2
    m_Unicode: 65534
    m_GlyphIndex: 59
    m_Scale: 1
    m_Name: desktop_59
    m_HashCode: -2091388831
  - m_ElementType: 2
    m_Unicode: 65534
    m_GlyphIndex: 60
    m_Scale: 1
    m_Name: desktop_60
    m_HashCode: -2091388789
  - m_ElementType: 2
    m_Unicode: 65534
    m_GlyphIndex: 61
    m_Scale: 1
    m_Name: desktop_61
    m_HashCode: -2091388790
  - m_ElementType: 2
    m_Unicode: 65534
    m_GlyphIndex: 62
    m_Scale: 1
    m_Name: desktop_62
    m_HashCode: -2091388791
  - m_ElementType: 2
    m_Unicode: 65534
    m_GlyphIndex: 63
    m_Scale: 1
    m_Name: desktop_63
    m_HashCode: -2091388792
  m_SpriteGlyphTable:
  - m_Index: 0
    m_Metrics:
      m_Width: 64
      m_Height: 64
      m_HorizontalBearingX: -16
      m_HorizontalBearingY: 42
      m_HorizontalAdvance: 44
    m_GlyphRect:
      m_X: 0
      m_Y: 448
      m_Width: 64
      m_Height: 64
    m_Scale: 3
    m_AtlasIndex: 0
    sprite: {fileID: -4126882495801548486, guid: c322ea5883d42994a952356eb33409cb,
      type: 3}
  - m_Index: 1
    m_Metrics:
      m_Width: 64
      m_Height: 64
      m_HorizontalBearingX: -16
      m_HorizontalBearingY: 42
      m_HorizontalAdvance: 44
    m_GlyphRect:
      m_X: 64
      m_Y: 448
      m_Width: 64
      m_Height: 64
    m_Scale: 3
    m_AtlasIndex: 0
    sprite: {fileID: -6977756914665608503, guid: c322ea5883d42994a952356eb33409cb,
      type: 3}
  - m_Index: 2
    m_Metrics:
      m_Width: 64
      m_Height: 64
      m_HorizontalBearingX: -16
      m_HorizontalBearingY: 42
      m_HorizontalAdvance: 46
    m_GlyphRect:
      m_X: 128
      m_Y: 448
      m_Width: 64
      m_Height: 64
    m_Scale: 3
    m_AtlasIndex: 0
    sprite: {fileID: 5542346170186123930, guid: c322ea5883d42994a952356eb33409cb,
      type: 3}
  - m_Index: 3
    m_Metrics:
      m_Width: 64
      m_Height: 64
      m_HorizontalBearingX: -16
      m_HorizontalBearingY: 42
      m_HorizontalAdvance: 46
    m_GlyphRect:
      m_X: 192
      m_Y: 448
      m_Width: 64
      m_Height: 64
    m_Scale: 3
    m_AtlasIndex: 0
    sprite: {fileID: -665656902019409353, guid: c322ea5883d42994a952356eb33409cb,
      type: 3}
  - m_Index: 4
    m_Metrics:
      m_Width: 64
      m_Height: 64
      m_HorizontalBearingX: -16
      m_HorizontalBearingY: 42
      m_HorizontalAdvance: 46
    m_GlyphRect:
      m_X: 256
      m_Y: 448
      m_Width: 64
      m_Height: 64
    m_Scale: 3
    m_AtlasIndex: 0
    sprite: {fileID: 3471661012384754450, guid: c322ea5883d42994a952356eb33409cb,
      type: 3}
  - m_Index: 5
    m_Metrics:
      m_Width: 64
      m_Height: 64
      m_HorizontalBearingX: -16
      m_HorizontalBearingY: 42
      m_HorizontalAdvance: 46
    m_GlyphRect:
      m_X: 320
      m_Y: 448
      m_Width: 64
      m_Height: 64
    m_Scale: 3
    m_AtlasIndex: 0
    sprite: {fileID: -4052507639849867677, guid: c322ea5883d42994a952356eb33409cb,
      type: 3}
  - m_Index: 6
    m_Metrics:
      m_Width: 64
      m_Height: 64
      m_HorizontalBearingX: -16
      m_HorizontalBearingY: 42
      m_HorizontalAdvance: 46
    m_GlyphRect:
      m_X: 384
      m_Y: 448
      m_Width: 64
      m_Height: 64
    m_Scale: 3
    m_AtlasIndex: 0
    sprite: {fileID: 1937514137259684310, guid: c322ea5883d42994a952356eb33409cb,
      type: 3}
  - m_Index: 7
    m_Metrics:
      m_Width: 64
      m_Height: 64
      m_HorizontalBearingX: -16
      m_HorizontalBearingY: 42
      m_HorizontalAdvance: 46
    m_GlyphRect:
      m_X: 448
      m_Y: 448
      m_Width: 64
      m_Height: 64
    m_Scale: 3
    m_AtlasIndex: 0
    sprite: {fileID: -1104859098333996566, guid: c322ea5883d42994a952356eb33409cb,
      type: 3}
  - m_Index: 8
    m_Metrics:
      m_Width: 64
      m_Height: 64
      m_HorizontalBearingX: -16
      m_HorizontalBearingY: 42
      m_HorizontalAdvance: 46
    m_GlyphRect:
      m_X: 0
      m_Y: 384
      m_Width: 64
      m_Height: 64
    m_Scale: 3
    m_AtlasIndex: 0
    sprite: {fileID: 4878134849213153680, guid: c322ea5883d42994a952356eb33409cb,
      type: 3}
  - m_Index: 9
    m_Metrics:
      m_Width: 64
      m_Height: 64
      m_HorizontalBearingX: -16
      m_HorizontalBearingY: 42
      m_HorizontalAdvance: 46
    m_GlyphRect:
      m_X: 64
      m_Y: 384
      m_Width: 64
      m_Height: 64
    m_Scale: 3
    m_AtlasIndex: 0
    sprite: {fileID: -3486995421259038872, guid: c322ea5883d42994a952356eb33409cb,
      type: 3}
  - m_Index: 10
    m_Metrics:
      m_Width: 64
      m_Height: 64
      m_HorizontalBearingX: -18
      m_HorizontalBearingY: 40
      m_HorizontalAdvance: 44
    m_GlyphRect:
      m_X: 128
      m_Y: 384
      m_Width: 64
      m_Height: 64
    m_Scale: 3
    m_AtlasIndex: 0
    sprite: {fileID: -7195213746699566006, guid: c322ea5883d42994a952356eb33409cb,
      type: 3}
  - m_Index: 11
    m_Metrics:
      m_Width: 64
      m_Height: 64
      m_HorizontalBearingX: -30
      m_HorizontalBearingY: 40
      m_HorizontalAdvance: 30
    m_GlyphRect:
      m_X: 192
      m_Y: 384
      m_Width: 64
      m_Height: 64
    m_Scale: 3
    m_AtlasIndex: 0
    sprite: {fileID: -6868624565644682673, guid: c322ea5883d42994a952356eb33409cb,
      type: 3}
  - m_Index: 12
    m_Metrics:
      m_Width: 64
      m_Height: 64
      m_HorizontalBearingX: -32
      m_HorizontalBearingY: 32
      m_HorizontalAdvance: 64
    m_GlyphRect:
      m_X: 256
      m_Y: 384
      m_Width: 64
      m_Height: 64
    m_Scale: 1
    m_AtlasIndex: 0
    sprite: {fileID: 2429851266219776138, guid: c322ea5883d42994a952356eb33409cb,
      type: 3}
  - m_Index: 13
    m_Metrics:
      m_Width: 64
      m_Height: 64
      m_HorizontalBearingX: -32
      m_HorizontalBearingY: 32
      m_HorizontalAdvance: 64
    m_GlyphRect:
      m_X: 320
      m_Y: 384
      m_Width: 64
      m_Height: 64
    m_Scale: 1
    m_AtlasIndex: 0
    sprite: {fileID: -842207454847212849, guid: c322ea5883d42994a952356eb33409cb,
      type: 3}
  - m_Index: 14
    m_Metrics:
      m_Width: 64
      m_Height: 64
      m_HorizontalBearingX: -32
      m_HorizontalBearingY: 32
      m_HorizontalAdvance: 64
    m_GlyphRect:
      m_X: 384
      m_Y: 384
      m_Width: 64
      m_Height: 64
    m_Scale: 1
    m_AtlasIndex: 0
    sprite: {fileID: -7081667905885184447, guid: c322ea5883d42994a952356eb33409cb,
      type: 3}
  - m_Index: 15
    m_Metrics:
      m_Width: 64
      m_Height: 64
      m_HorizontalBearingX: -32
      m_HorizontalBearingY: 32
      m_HorizontalAdvance: 64
    m_GlyphRect:
      m_X: 448
      m_Y: 384
      m_Width: 64
      m_Height: 64
    m_Scale: 1
    m_AtlasIndex: 0
    sprite: {fileID: -8212718304534257115, guid: c322ea5883d42994a952356eb33409cb,
      type: 3}
  - m_Index: 16
    m_Metrics:
      m_Width: 64
      m_Height: 64
      m_HorizontalBearingX: -32
      m_HorizontalBearingY: 32
      m_HorizontalAdvance: 64
    m_GlyphRect:
      m_X: 0
      m_Y: 320
      m_Width: 64
      m_Height: 64
    m_Scale: 1
    m_AtlasIndex: 0
    sprite: {fileID: -4548489116689578994, guid: c322ea5883d42994a952356eb33409cb,
      type: 3}
  - m_Index: 17
    m_Metrics:
      m_Width: 64
      m_Height: 64
      m_HorizontalBearingX: -32
      m_HorizontalBearingY: 32
      m_HorizontalAdvance: 64
    m_GlyphRect:
      m_X: 64
      m_Y: 320
      m_Width: 64
      m_Height: 64
    m_Scale: 1
    m_AtlasIndex: 0
    sprite: {fileID: -1592122245026654086, guid: c322ea5883d42994a952356eb33409cb,
      type: 3}
  - m_Index: 18
    m_Metrics:
      m_Width: 64
      m_Height: 64
      m_HorizontalBearingX: -32
      m_HorizontalBearingY: 32
      m_HorizontalAdvance: 64
    m_GlyphRect:
      m_X: 128
      m_Y: 320
      m_Width: 64
      m_Height: 64
    m_Scale: 1
    m_AtlasIndex: 0
    sprite: {fileID: -6623958421430308810, guid: c322ea5883d42994a952356eb33409cb,
      type: 3}
  - m_Index: 19
    m_Metrics:
      m_Width: 64
      m_Height: 64
      m_HorizontalBearingX: -32
      m_HorizontalBearingY: 32
      m_HorizontalAdvance: 64
    m_GlyphRect:
      m_X: 192
      m_Y: 320
      m_Width: 64
      m_Height: 64
    m_Scale: 1
    m_AtlasIndex: 0
    sprite: {fileID: -7926989664533773692, guid: c322ea5883d42994a952356eb33409cb,
      type: 3}
  - m_Index: 20
    m_Metrics:
      m_Width: 64
      m_Height: 64
      m_HorizontalBearingX: -32
      m_HorizontalBearingY: 32
      m_HorizontalAdvance: 64
    m_GlyphRect:
      m_X: 256
      m_Y: 320
      m_Width: 64
      m_Height: 64
    m_Scale: 1
    m_AtlasIndex: 0
    sprite: {fileID: -8592898077362649381, guid: c322ea5883d42994a952356eb33409cb,
      type: 3}
  - m_Index: 21
    m_Metrics:
      m_Width: 64
      m_Height: 64
      m_HorizontalBearingX: -32
      m_HorizontalBearingY: 32
      m_HorizontalAdvance: 64
    m_GlyphRect:
      m_X: 320
      m_Y: 320
      m_Width: 64
      m_Height: 64
    m_Scale: 1
    m_AtlasIndex: 0
    sprite: {fileID: 2842775367850278679, guid: c322ea5883d42994a952356eb33409cb,
      type: 3}
  - m_Index: 22
    m_Metrics:
      m_Width: 64
      m_Height: 64
      m_HorizontalBearingX: -32
      m_HorizontalBearingY: 32
      m_HorizontalAdvance: 64
    m_GlyphRect:
      m_X: 384
      m_Y: 320
      m_Width: 64
      m_Height: 64
    m_Scale: 1
    m_AtlasIndex: 0
    sprite: {fileID: -1733450607083650980, guid: c322ea5883d42994a952356eb33409cb,
      type: 3}
  - m_Index: 23
    m_Metrics:
      m_Width: 64
      m_Height: 64
      m_HorizontalBearingX: -32
      m_HorizontalBearingY: 32
      m_HorizontalAdvance: 64
    m_GlyphRect:
      m_X: 448
      m_Y: 320
      m_Width: 64
      m_Height: 64
    m_Scale: 1
    m_AtlasIndex: 0
    sprite: {fileID: 6566293728099937308, guid: c322ea5883d42994a952356eb33409cb,
      type: 3}
  - m_Index: 24
    m_Metrics:
      m_Width: 64
      m_Height: 64
      m_HorizontalBearingX: -32
      m_HorizontalBearingY: 32
      m_HorizontalAdvance: 64
    m_GlyphRect:
      m_X: 0
      m_Y: 256
      m_Width: 64
      m_Height: 64
    m_Scale: 1
    m_AtlasIndex: 0
    sprite: {fileID: 564421372450204346, guid: c322ea5883d42994a952356eb33409cb, type: 3}
  - m_Index: 25
    m_Metrics:
      m_Width: 64
      m_Height: 64
      m_HorizontalBearingX: -32
      m_HorizontalBearingY: 32
      m_HorizontalAdvance: 64
    m_GlyphRect:
      m_X: 64
      m_Y: 256
      m_Width: 64
      m_Height: 64
    m_Scale: 1
    m_AtlasIndex: 0
    sprite: {fileID: 7940689327413461441, guid: c322ea5883d42994a952356eb33409cb,
      type: 3}
  - m_Index: 26
    m_Metrics:
      m_Width: 64
      m_Height: 64
      m_HorizontalBearingX: -32
      m_HorizontalBearingY: 32
      m_HorizontalAdvance: 64
    m_GlyphRect:
      m_X: 128
      m_Y: 256
      m_Width: 64
      m_Height: 64
    m_Scale: 1
    m_AtlasIndex: 0
    sprite: {fileID: 7761059407814285050, guid: c322ea5883d42994a952356eb33409cb,
      type: 3}
  - m_Index: 27
    m_Metrics:
      m_Width: 64
      m_Height: 64
      m_HorizontalBearingX: -32
      m_HorizontalBearingY: 32
      m_HorizontalAdvance: 64
    m_GlyphRect:
      m_X: 192
      m_Y: 256
      m_Width: 64
      m_Height: 64
    m_Scale: 1
    m_AtlasIndex: 0
    sprite: {fileID: 2844339836778609248, guid: c322ea5883d42994a952356eb33409cb,
      type: 3}
  - m_Index: 28
    m_Metrics:
      m_Width: 64
      m_Height: 64
      m_HorizontalBearingX: -32
      m_HorizontalBearingY: 32
      m_HorizontalAdvance: 64
    m_GlyphRect:
      m_X: 256
      m_Y: 256
      m_Width: 64
      m_Height: 64
    m_Scale: 1
    m_AtlasIndex: 0
    sprite: {fileID: 5310744814427190994, guid: c322ea5883d42994a952356eb33409cb,
      type: 3}
  - m_Index: 29
    m_Metrics:
      m_Width: 64
      m_Height: 64
      m_HorizontalBearingX: -32
      m_HorizontalBearingY: 32
      m_HorizontalAdvance: 64
    m_GlyphRect:
      m_X: 320
      m_Y: 256
      m_Width: 64
      m_Height: 64
    m_Scale: 1
    m_AtlasIndex: 0
    sprite: {fileID: -4747268994645015920, guid: c322ea5883d42994a952356eb33409cb,
      type: 3}
  - m_Index: 30
    m_Metrics:
      m_Width: 64
      m_Height: 64
      m_HorizontalBearingX: -32
      m_HorizontalBearingY: 32
      m_HorizontalAdvance: 64
    m_GlyphRect:
      m_X: 384
      m_Y: 256
      m_Width: 64
      m_Height: 64
    m_Scale: 1
    m_AtlasIndex: 0
    sprite: {fileID: 5178542353709185666, guid: c322ea5883d42994a952356eb33409cb,
      type: 3}
  - m_Index: 31
    m_Metrics:
      m_Width: 64
      m_Height: 64
      m_HorizontalBearingX: -32
      m_HorizontalBearingY: 32
      m_HorizontalAdvance: 64
    m_GlyphRect:
      m_X: 448
      m_Y: 256
      m_Width: 64
      m_Height: 64
    m_Scale: 1
    m_AtlasIndex: 0
    sprite: {fileID: 6880675996527198245, guid: c322ea5883d42994a952356eb33409cb,
      type: 3}
  - m_Index: 32
    m_Metrics:
      m_Width: 64
      m_Height: 64
      m_HorizontalBearingX: -32
      m_HorizontalBearingY: 32
      m_HorizontalAdvance: 64
    m_GlyphRect:
      m_X: 0
      m_Y: 192
      m_Width: 64
      m_Height: 64
    m_Scale: 1
    m_AtlasIndex: 0
    sprite: {fileID: 4963533132418639530, guid: c322ea5883d42994a952356eb33409cb,
      type: 3}
  - m_Index: 33
    m_Metrics:
      m_Width: 64
      m_Height: 64
      m_HorizontalBearingX: -32
      m_HorizontalBearingY: 32
      m_HorizontalAdvance: 64
    m_GlyphRect:
      m_X: 64
      m_Y: 192
      m_Width: 64
      m_Height: 64
    m_Scale: 1
    m_AtlasIndex: 0
    sprite: {fileID: 7200243392569558078, guid: c322ea5883d42994a952356eb33409cb,
      type: 3}
  - m_Index: 34
    m_Metrics:
      m_Width: 64
      m_Height: 64
      m_HorizontalBearingX: -32
      m_HorizontalBearingY: 32
      m_HorizontalAdvance: 64
    m_GlyphRect:
      m_X: 128
      m_Y: 192
      m_Width: 64
      m_Height: 64
    m_Scale: 1
    m_AtlasIndex: 0
    sprite: {fileID: 4085751145620473010, guid: c322ea5883d42994a952356eb33409cb,
      type: 3}
  - m_Index: 35
    m_Metrics:
      m_Width: 64
      m_Height: 64
      m_HorizontalBearingX: -32
      m_HorizontalBearingY: 32
      m_HorizontalAdvance: 64
    m_GlyphRect:
      m_X: 192
      m_Y: 192
      m_Width: 64
      m_Height: 64
    m_Scale: 1
    m_AtlasIndex: 0
    sprite: {fileID: -4133896818830543367, guid: c322ea5883d42994a952356eb33409cb,
      type: 3}
  - m_Index: 36
    m_Metrics:
      m_Width: 64
      m_Height: 64
      m_HorizontalBearingX: -32
      m_HorizontalBearingY: 32
      m_HorizontalAdvance: 64
    m_GlyphRect:
      m_X: 256
      m_Y: 192
      m_Width: 64
      m_Height: 64
    m_Scale: 1
    m_AtlasIndex: 0
    sprite: {fileID: 666740573979022785, guid: c322ea5883d42994a952356eb33409cb, type: 3}
  - m_Index: 37
    m_Metrics:
      m_Width: 64
      m_Height: 64
      m_HorizontalBearingX: -32
      m_HorizontalBearingY: 32
      m_HorizontalAdvance: 64
    m_GlyphRect:
      m_X: 320
      m_Y: 192
      m_Width: 64
      m_Height: 64
    m_Scale: 1
    m_AtlasIndex: 0
    sprite: {fileID: 8310655696647020949, guid: c322ea5883d42994a952356eb33409cb,
      type: 3}
  - m_Index: 38
    m_Metrics:
      m_Width: 64
      m_Height: 64
      m_HorizontalBearingX: -32
      m_HorizontalBearingY: 32
      m_HorizontalAdvance: 64
    m_GlyphRect:
      m_X: 384
      m_Y: 192
      m_Width: 64
      m_Height: 64
    m_Scale: 1
    m_AtlasIndex: 0
    sprite: {fileID: 8636220160135940943, guid: c322ea5883d42994a952356eb33409cb,
      type: 3}
  - m_Index: 39
    m_Metrics:
      m_Width: 64
      m_Height: 64
      m_HorizontalBearingX: -32
      m_HorizontalBearingY: 32
      m_HorizontalAdvance: 64
    m_GlyphRect:
      m_X: 448
      m_Y: 192
      m_Width: 64
      m_Height: 64
    m_Scale: 1
    m_AtlasIndex: 0
    sprite: {fileID: 1409278930407954556, guid: c322ea5883d42994a952356eb33409cb,
      type: 3}
  - m_Index: 40
    m_Metrics:
      m_Width: 64
      m_Height: 64
      m_HorizontalBearingX: -32
      m_HorizontalBearingY: 32
      m_HorizontalAdvance: 64
    m_GlyphRect:
      m_X: 0
      m_Y: 128
      m_Width: 64
      m_Height: 64
    m_Scale: 1
    m_AtlasIndex: 0
    sprite: {fileID: -15749382849635150, guid: c322ea5883d42994a952356eb33409cb, type: 3}
  - m_Index: 41
    m_Metrics:
      m_Width: 64
      m_Height: 64
      m_HorizontalBearingX: -32
      m_HorizontalBearingY: 32
      m_HorizontalAdvance: 64
    m_GlyphRect:
      m_X: 64
      m_Y: 128
      m_Width: 64
      m_Height: 64
    m_Scale: 1
    m_AtlasIndex: 0
    sprite: {fileID: -9120603420644054920, guid: c322ea5883d42994a952356eb33409cb,
      type: 3}
  - m_Index: 42
    m_Metrics:
      m_Width: 64
      m_Height: 64
      m_HorizontalBearingX: -32
      m_HorizontalBearingY: 32
      m_HorizontalAdvance: 64
    m_GlyphRect:
      m_X: 128
      m_Y: 128
      m_Width: 64
      m_Height: 64
    m_Scale: 1
    m_AtlasIndex: 0
    sprite: {fileID: -6407012220415703525, guid: c322ea5883d42994a952356eb33409cb,
      type: 3}
  - m_Index: 43
    m_Metrics:
      m_Width: 64
      m_Height: 64
      m_HorizontalBearingX: -32
      m_HorizontalBearingY: 32
      m_HorizontalAdvance: 64
    m_GlyphRect:
      m_X: 192
      m_Y: 128
      m_Width: 64
      m_Height: 64
    m_Scale: 1
    m_AtlasIndex: 0
    sprite: {fileID: 5929084423184564869, guid: c322ea5883d42994a952356eb33409cb,
      type: 3}
  - m_Index: 44
    m_Metrics:
      m_Width: 64
      m_Height: 64
      m_HorizontalBearingX: -32
      m_HorizontalBearingY: 32
      m_HorizontalAdvance: 64
    m_GlyphRect:
      m_X: 256
      m_Y: 128
      m_Width: 64
      m_Height: 64
    m_Scale: 1
    m_AtlasIndex: 0
    sprite: {fileID: 4954447576208935713, guid: c322ea5883d42994a952356eb33409cb,
      type: 3}
  - m_Index: 45
    m_Metrics:
      m_Width: 64
      m_Height: 64
      m_HorizontalBearingX: -32
      m_HorizontalBearingY: 32
      m_HorizontalAdvance: 64
    m_GlyphRect:
      m_X: 320
      m_Y: 128
      m_Width: 64
      m_Height: 64
    m_Scale: 1
    m_AtlasIndex: 0
    sprite: {fileID: -8181501959050838876, guid: c322ea5883d42994a952356eb33409cb,
      type: 3}
  - m_Index: 46
    m_Metrics:
      m_Width: 64
      m_Height: 64
      m_HorizontalBearingX: -32
      m_HorizontalBearingY: 32
      m_HorizontalAdvance: 64
    m_GlyphRect:
      m_X: 384
      m_Y: 128
      m_Width: 64
      m_Height: 64
    m_Scale: 1
    m_AtlasIndex: 0
    sprite: {fileID: 3868705027725923803, guid: c322ea5883d42994a952356eb33409cb,
      type: 3}
  - m_Index: 47
    m_Metrics:
      m_Width: 64
      m_Height: 64
      m_HorizontalBearingX: -32
      m_HorizontalBearingY: 32
      m_HorizontalAdvance: 64
    m_GlyphRect:
      m_X: 448
      m_Y: 128
      m_Width: 64
      m_Height: 64
    m_Scale: 1
    m_AtlasIndex: 0
    sprite: {fileID: 1597245127952958648, guid: c322ea5883d42994a952356eb33409cb,
      type: 3}
  - m_Index: 48
    m_Metrics:
      m_Width: 64
      m_Height: 64
      m_HorizontalBearingX: -32
      m_HorizontalBearingY: 32
      m_HorizontalAdvance: 64
    m_GlyphRect:
      m_X: 0
      m_Y: 64
      m_Width: 64
      m_Height: 64
    m_Scale: 1
    m_AtlasIndex: 0
    sprite: {fileID: 4455007306315303976, guid: c322ea5883d42994a952356eb33409cb,
      type: 3}
  - m_Index: 49
    m_Metrics:
      m_Width: 64
      m_Height: 64
      m_HorizontalBearingX: -32
      m_HorizontalBearingY: 32
      m_HorizontalAdvance: 64
    m_GlyphRect:
      m_X: 64
      m_Y: 64
      m_Width: 64
      m_Height: 64
    m_Scale: 1
    m_AtlasIndex: 0
    sprite: {fileID: 8006869072343869352, guid: c322ea5883d42994a952356eb33409cb,
      type: 3}
  - m_Index: 50
    m_Metrics:
      m_Width: 64
      m_Height: 64
      m_HorizontalBearingX: -32
      m_HorizontalBearingY: 32
      m_HorizontalAdvance: 64
    m_GlyphRect:
      m_X: 128
      m_Y: 64
      m_Width: 64
      m_Height: 64
    m_Scale: 1
    m_AtlasIndex: 0
    sprite: {fileID: -2435786061840125724, guid: c322ea5883d42994a952356eb33409cb,
      type: 3}
  - m_Index: 51
    m_Metrics:
      m_Width: 64
      m_Height: 64
      m_HorizontalBearingX: -32
      m_HorizontalBearingY: 32
      m_HorizontalAdvance: 64
    m_GlyphRect:
      m_X: 192
      m_Y: 64
      m_Width: 64
      m_Height: 64
    m_Scale: 1
    m_AtlasIndex: 0
    sprite: {fileID: -4895291814706417376, guid: c322ea5883d42994a952356eb33409cb,
      type: 3}
  - m_Index: 52
    m_Metrics:
      m_Width: 64
      m_Height: 64
      m_HorizontalBearingX: -32
      m_HorizontalBearingY: 32
      m_HorizontalAdvance: 64
    m_GlyphRect:
      m_X: 256
      m_Y: 64
      m_Width: 64
      m_Height: 64
    m_Scale: 1
    m_AtlasIndex: 0
    sprite: {fileID: 9109031617350640994, guid: c322ea5883d42994a952356eb33409cb,
      type: 3}
  - m_Index: 53
    m_Metrics:
      m_Width: 64
      m_Height: 64
      m_HorizontalBearingX: -32
      m_HorizontalBearingY: 32
      m_HorizontalAdvance: 64
    m_GlyphRect:
      m_X: 320
      m_Y: 64
      m_Width: 64
      m_Height: 64
    m_Scale: 1
    m_AtlasIndex: 0
    sprite: {fileID: 7602185500603105498, guid: c322ea5883d42994a952356eb33409cb,
      type: 3}
  - m_Index: 54
    m_Metrics:
      m_Width: 64
      m_Height: 64
      m_HorizontalBearingX: -32
      m_HorizontalBearingY: 32
      m_HorizontalAdvance: 64
    m_GlyphRect:
      m_X: 384
      m_Y: 64
      m_Width: 64
      m_Height: 64
    m_Scale: 1
    m_AtlasIndex: 0
    sprite: {fileID: 4382396695603444432, guid: c322ea5883d42994a952356eb33409cb,
      type: 3}
  - m_Index: 55
    m_Metrics:
      m_Width: 64
      m_Height: 64
      m_HorizontalBearingX: -32
      m_HorizontalBearingY: 32
      m_HorizontalAdvance: 64
    m_GlyphRect:
      m_X: 448
      m_Y: 64
      m_Width: 64
      m_Height: 64
    m_Scale: 1
    m_AtlasIndex: 0
    sprite: {fileID: -7207491348713889150, guid: c322ea5883d42994a952356eb33409cb,
      type: 3}
  - m_Index: 56
    m_Metrics:
      m_Width: 64
      m_Height: 64
      m_HorizontalBearingX: -32
      m_HorizontalBearingY: 32
      m_HorizontalAdvance: 64
    m_GlyphRect:
      m_X: 0
      m_Y: 0
      m_Width: 64
      m_Height: 64
    m_Scale: 1
    m_AtlasIndex: 0
    sprite: {fileID: -4101676296958259788, guid: c322ea5883d42994a952356eb33409cb,
      type: 3}
  - m_Index: 57
    m_Metrics:
      m_Width: 64
      m_Height: 64
      m_HorizontalBearingX: -32
      m_HorizontalBearingY: 32
      m_HorizontalAdvance: 64
    m_GlyphRect:
      m_X: 64
      m_Y: 0
      m_Width: 64
      m_Height: 64
    m_Scale: 1
    m_AtlasIndex: 0
    sprite: {fileID: 6797844363475863981, guid: c322ea5883d42994a952356eb33409cb,
      type: 3}
  - m_Index: 58
    m_Metrics:
      m_Width: 64
      m_Height: 64
      m_HorizontalBearingX: -32
      m_HorizontalBearingY: 32
      m_HorizontalAdvance: 64
    m_GlyphRect:
      m_X: 128
      m_Y: 0
      m_Width: 64
      m_Height: 64
    m_Scale: 1
    m_AtlasIndex: 0
    sprite: {fileID: -5928616269700939186, guid: c322ea5883d42994a952356eb33409cb,
      type: 3}
  - m_Index: 59
    m_Metrics:
      m_Width: 64
      m_Height: 64
      m_HorizontalBearingX: -32
      m_HorizontalBearingY: 32
      m_HorizontalAdvance: 64
    m_GlyphRect:
      m_X: 192
      m_Y: 0
      m_Width: 64
      m_Height: 64
    m_Scale: 1
    m_AtlasIndex: 0
    sprite: {fileID: 7449460386267919488, guid: c322ea5883d42994a952356eb33409cb,
      type: 3}
  - m_Index: 60
    m_Metrics:
      m_Width: 64
      m_Height: 64
      m_HorizontalBearingX: -32
      m_HorizontalBearingY: 32
      m_HorizontalAdvance: 64
    m_GlyphRect:
      m_X: 256
      m_Y: 0
      m_Width: 64
      m_Height: 64
    m_Scale: 1
    m_AtlasIndex: 0
    sprite: {fileID: -8142544515513678419, guid: c322ea5883d42994a952356eb33409cb,
      type: 3}
  - m_Index: 61
    m_Metrics:
      m_Width: 64
      m_Height: 64
      m_HorizontalBearingX: -32
      m_HorizontalBearingY: 32
      m_HorizontalAdvance: 64
    m_GlyphRect:
      m_X: 320
      m_Y: 0
      m_Width: 64
      m_Height: 64
    m_Scale: 1
    m_AtlasIndex: 0
    sprite: {fileID: -4916181381100130533, guid: c322ea5883d42994a952356eb33409cb,
      type: 3}
  - m_Index: 62
    m_Metrics:
      m_Width: 64
      m_Height: 64
      m_HorizontalBearingX: -32
      m_HorizontalBearingY: 32
      m_HorizontalAdvance: 64
    m_GlyphRect:
      m_X: 384
      m_Y: 0
      m_Width: 64
      m_Height: 64
    m_Scale: 1
    m_AtlasIndex: 0
    sprite: {fileID: 511018713006529501, guid: c322ea5883d42994a952356eb33409cb, type: 3}
  - m_Index: 63
    m_Metrics:
      m_Width: 64
      m_Height: 64
      m_HorizontalBearingX: -32
      m_HorizontalBearingY: 32
      m_HorizontalAdvance: 64
    m_GlyphRect:
      m_X: 448
      m_Y: 0
      m_Width: 64
      m_Height: 64
    m_Scale: 1
    m_AtlasIndex: 0
    sprite: {fileID: -9020881661175212058, guid: c322ea5883d42994a952356eb33409cb,
      type: 3}
  spriteInfoList: []
  fallbackSpriteAssets: []
