%YAML 1.1
%TAG !u! tag:unity3d.com,2011:
--- !u!1001 &4764622876463712208
PrefabInstance:
  m_ObjectHideFlags: 0
  serializedVersion: 2
  m_Modification:
    m_TransformParent: {fileID: 0}
    m_Modifications:
    - target: {fileID: -4216859302048453862, guid: 922d6514759849346b2e0828ea1a8a4a,
        type: 3}
      propertyPath: m_LocalPosition.x
      value: 0
      objectReference: {fileID: 0}
    - target: {fileID: -4216859302048453862, guid: 922d6514759849346b2e0828ea1a8a4a,
        type: 3}
      propertyPath: m_LocalPosition.y
      value: 0
      objectReference: {fileID: 0}
    - target: {fileID: -4216859302048453862, guid: 922d6514759849346b2e0828ea1a8a4a,
        type: 3}
      propertyPath: m_LocalPosition.z
      value: 0
      objectReference: {fileID: 0}
    - target: {fileID: -4216859302048453862, guid: 922d6514759849346b2e0828ea1a8a4a,
        type: 3}
      propertyPath: m_LocalRotation.x
      value: 0
      objectReference: {fileID: 0}
    - target: {fileID: -4216859302048453862, guid: 922d6514759849346b2e0828ea1a8a4a,
        type: 3}
      propertyPath: m_LocalRotation.y
      value: 0
      objectReference: {fileID: 0}
    - target: {fileID: -4216859302048453862, guid: 922d6514759849346b2e0828ea1a8a4a,
        type: 3}
      propertyPath: m_LocalRotation.z
      value: 0
      objectReference: {fileID: 0}
    - target: {fileID: -4216859302048453862, guid: 922d6514759849346b2e0828ea1a8a4a,
        type: 3}
      propertyPath: m_LocalRotation.w
      value: 1
      objectReference: {fileID: 0}
    - target: {fileID: -4216859302048453862, guid: 922d6514759849346b2e0828ea1a8a4a,
        type: 3}
      propertyPath: m_RootOrder
      value: 0
      objectReference: {fileID: 0}
    - target: {fileID: -4216859302048453862, guid: 922d6514759849346b2e0828ea1a8a4a,
        type: 3}
      propertyPath: m_LocalEulerAnglesHint.x
      value: 0
      objectReference: {fileID: 0}
    - target: {fileID: -4216859302048453862, guid: 922d6514759849346b2e0828ea1a8a4a,
        type: 3}
      propertyPath: m_LocalEulerAnglesHint.y
      value: 0
      objectReference: {fileID: 0}
    - target: {fileID: -4216859302048453862, guid: 922d6514759849346b2e0828ea1a8a4a,
        type: 3}
      propertyPath: m_LocalEulerAnglesHint.z
      value: 0
      objectReference: {fileID: 0}
    - target: {fileID: -1504981713932161579, guid: 922d6514759849346b2e0828ea1a8a4a,
        type: 3}
      propertyPath: m_Materials.Array.data[0]
      value: 
      objectReference: {fileID: 2100000, guid: 9a0ec2bde82305f44bef2bbe613fe863, type: 2}
    - target: {fileID: -927199367670048503, guid: 922d6514759849346b2e0828ea1a8a4a,
        type: 3}
      propertyPath: m_Name
      value: LowerTorsoTrousers
      objectReference: {fileID: 0}
    m_RemovedComponents:
    - {fileID: -6860895033569716450, guid: 922d6514759849346b2e0828ea1a8a4a, type: 3}
  m_SourcePrefab: {fileID: 100100000, guid: 922d6514759849346b2e0828ea1a8a4a, type: 3}
