%YAML 1.1
%TAG !u! tag:unity3d.com,2011:
--- !u!114 &11400000
MonoBehaviour:
  m_ObjectHideFlags: 0
  m_CorrespondingSourceObject: {fileID: 0}
  m_PrefabInstance: {fileID: 0}
  m_PrefabAsset: {fileID: 0}
  m_GameObject: {fileID: 0}
  m_Enabled: 1
  m_EditorHideFlags: 0
  m_Script: {fileID: 11500000, guid: 05c50b8a24558c04fb29c890553074fd, type: 3}
  m_Name: FilingCabinet
  m_EditorClassIdentifier: 
  presetName: FilingCabinet
  classes:
  - {fileID: 11400000, guid: 6d353a84b26efa0419d3a4bcdf0fd91e, type: 2}
  prefab: {fileID: 5888903146680963552, guid: eccd5da10dc346443b3557ce8c5802e0, type: 3}
  allowStaticBatching: 0
  spawnRange: 3
  integratedInteractables:
  - preset: {fileID: 11400000, guid: 0c9fec522fe1fc34aa817636387b8a53, type: 2}
    pairToController: 0
    belongsTo: 0
  - preset: {fileID: 11400000, guid: 0c9fec522fe1fc34aa817636387b8a53, type: 2}
    pairToController: 1
    belongsTo: 0
  - preset: {fileID: 11400000, guid: 0c9fec522fe1fc34aa817636387b8a53, type: 2}
    pairToController: 2
    belongsTo: 0
  universalDesignStyle: 1
  designStyles: []
  inheritColouringFromDecor: 1
  shareColours: 4
  inheritGrubFromDecor: 1
  variations:
  - name: PrimaryOrSecondary
    main: 16
    colour1: 15
    colour2: 15
    colour3: 15
  furnitureGroup: 0
  groupID: 0
  concrete: 0
  plaster: 0
  wood: 0
  carpet: 0
  tile: 0
  metal: 1
  glass: 0
  fabric: 0
  minimumRoomSize: 2
  allowedInOpenPlan: 0
  onlyAllowInFollowing: 0
  allowedInAddressesOfType: []
  banInFollowing: 0
  bannedInAddressesOfType: []
  OnlyAllowInBuildings: 0
  allowedInBuildings: []
  banFromBuildings: 0
  notAllowedInBuildings: []
  OnlyAllowInDistricts: 0
  allowedInDistricts: []
  banFromDistricts: 0
  notAllowedInDistricts: []
  requiresGenderedInhabitants: 0
  enableIfGenderPresent: 
  allowedRoomFilters:
  - {fileID: 11400000, guid: 092ea676885428c4491725f0b55893eb, type: 2}
  - {fileID: 11400000, guid: f86e7518a1ff33d45ab4d955fb2c1780, type: 2}
  - {fileID: 11400000, guid: 850bbb143e1524447971d3f22b5108ca, type: 2}
  - {fileID: 11400000, guid: 0f0aa887900b2f24fae5fa1e24137032, type: 2}
  - {fileID: 11400000, guid: 5032f744f8e4c6d488144b626c4bdbfc, type: 2}
  - {fileID: 11400000, guid: 7a14d10fff6542d4d90a385b2e592c91, type: 2}
  minimumWealth: 0
  usePersonalityWeighting: 1
  modernity: 7
  cleanness: 7
  loudness: 1
  emotive: 1
  subObjects:
  - preset: {fileID: 11400000, guid: d5330977178bd434a9163ee78a92baf3, type: 2}
    parent: TopDrawer
    localPos: {x: -0.002, y: -0.05, z: 0}
    localRot: {x: -0, y: 0, z: 0}
    belongsTo: 1
    security: 0
  - preset: {fileID: 11400000, guid: d5330977178bd434a9163ee78a92baf3, type: 2}
    parent: MiddleDrawer
    localPos: {x: -0.002, y: -0.05, z: 0}
    localRot: {x: -0, y: 0, z: 0}
    belongsTo: 1
    security: 0
  - preset: {fileID: 11400000, guid: d5330977178bd434a9163ee78a92baf3, type: 2}
    parent: BottomDrawer
    localPos: {x: -0.002, y: -0.05, z: 0}
    localRot: {x: -0, y: 0, z: 0}
    belongsTo: 1
    security: 0
  - preset: {fileID: 11400000, guid: 1344b73ecd802f244b155b2bea6cb649, type: 2}
    parent: 
    localPos: {x: 0.018, y: 1.35, z: -0.477}
    localRot: {x: -0, y: 0, z: 0}
    belongsTo: 1
    security: 0
  - preset: {fileID: 11400000, guid: 58d35ae0305e7d541af98472310ee11c, type: 2}
    parent: 
    localPos: {x: 0.61, y: 0, z: -0.543}
    localRot: {x: -0, y: 5.8225284, z: -0}
    belongsTo: 1
    security: 0
  - preset: {fileID: 11400000, guid: 58d35ae0305e7d541af98472310ee11c, type: 2}
    parent: 
    localPos: {x: -0.618, y: 0, z: -0.524}
    localRot: {x: -0, y: 348.1295, z: 0}
    belongsTo: 1
    security: 0
  testForModifiers: 1
  forcePublicIllegal: 1
  hidingEnterTransition: {fileID: 0}
  hidingExitTransition: {fileID: 0}
  hidingEnterTransition2: {fileID: 0}
  hidingExitTransition2: {fileID: 0}
  map: {fileID: 2800000, guid: c95b206b595d47146a0f9389bee08ea8, type: 3}
  drawUnderWalls: 0
  ignoreDirection: 0
  fingerprintsEnabled: 1
  printsSource: 1
  fingerprintDensity: 1
  alterAreaLighting: 0
  possibleColours: []
  lightOperation: 0
  lightAmount: 0.12
  brightnessModifier: 10
  purchasable: 1
  cost: 85
  decorClass: 2
  staticImage: {fileID: 21300000, guid: 8c99b0e1abf97e943b6766b8990205f0, type: 3}
  imagePos: {x: 0, y: 0, z: 0}
  imageRot: {x: 0, y: 0, z: 0}
  imageScale: 1
  imagePrefabOverride: {fileID: 0}
  isJobBoard: 0
  isWorkPosition: 0
  isPlant: 0
  isArt: 0
  isSecurityCamera: 0
  artOrientation: 0
  createSelfEmployed: {fileID: 0}
  workPositionID: 0
  spawnObjectOnChance: 1
  spawnObjectsOnPlacement: []
