%YAML 1.1
%TAG !u! tag:unity3d.com,2011:
--- !u!114 &11400000
MonoBehaviour:
  m_ObjectHideFlags: 0
  m_CorrespondingSourceObject: {fileID: 0}
  m_PrefabInstance: {fileID: 0}
  m_PrefabAsset: {fileID: 0}
  m_GameObject: {fileID: 0}
  m_Enabled: 1
  m_EditorHideFlags: 0
  m_Script: {fileID: 11500000, guid: 8489892453af7af4989d40a1f80e8882, type: 3}
  m_Name: Sports-JealousCollector
  m_EditorClassIdentifier: 
  presetName: Sports-JealousCollector
  allowHomelessPurps: 0
  allowJoblessPurps: 1
  purpMustLiveAtDifferentAddressToPoster: 1
  allowEnforcers: 1
  purpTraitModifiers:
  - rule: 2
    traitList:
    - {fileID: 11400000, guid: 72367af7c76cc5b42896f1296cfc1336, type: 2}
    mustPassForApplication: 0
    score: 1
  - rule: 0
    traitList:
    - {fileID: 11400000, guid: d97fa437877075c4dbd8e8b456715389, type: 2}
    mustPassForApplication: 1
    score: 1
  - rule: 0
    traitList:
    - {fileID: 11400000, guid: 43298841fc2f1a44ab03d45080ce0059, type: 2}
    - {fileID: 11400000, guid: 2ed6a8b7c36a76f4987b7c21e90e523f, type: 2}
    mustPassForApplication: 1
    score: 1
  - rule: 0
    traitList:
    - {fileID: 11400000, guid: be7b3d7acbbf32c4d8f8501a3d236063, type: 2}
    mustPassForApplication: 1
    score: 2
  usePurpJobs: 0
  purpJobs: []
  allowHomelessPosters: 0
  allowJoblessPosters: 0
  usePosterConnections: 1
  acceptableConnections: 10000000
  usePosterTraits: 1
  posterTraitModifiers:
  - rule: 0
    traitList:
    - {fileID: 11400000, guid: 43298841fc2f1a44ab03d45080ce0059, type: 2}
    - {fileID: 11400000, guid: 2ed6a8b7c36a76f4987b7c21e90e523f, type: 2}
    mustPassForApplication: 1
    score: 1
  purpIsExemptFromPostingOtherJobs: 0
  purpIsExemptFromPurpingOtherJobs: 1
  posterIsExemptFromPostingOtherJobs: 0
  posterIsExemptFromPurpingOtherJobs: 0
