%YAML 1.1
%TAG !u! tag:unity3d.com,2011:
--- !u!114 &11400000
MonoBehaviour:
  m_ObjectHideFlags: 0
  m_CorrespondingSourceObject: {fileID: 0}
  m_PrefabInstance: {fileID: 0}
  m_PrefabAsset: {fileID: 0}
  m_GameObject: {fileID: 0}
  m_Enabled: 1
  m_EditorHideFlags: 0
  m_Script: {fileID: 11500000, guid: 8489892453af7af4989d40a1f80e8882, type: 3}
  m_Name: Suicide-Debt
  m_EditorClassIdentifier: 
  presetName: Suicide-Debt
  allowHomelessPurps: 0
  allowJoblessPurps: 1
  purpMustLiveAtDifferentAddressToPoster: 1
  allowEnforcers: 1
  purpTraitModifiers:
  - rule: 0
    traitList:
    - {fileID: 11400000, guid: ddf836a9aa21de94dbeff87441c6e593, type: 2}
    - {fileID: 11400000, guid: b2e0cf0d658041041bcde978050d6d98, type: 2}
    mustPassForApplication: 1
    score: 1
  usePurpJobs: 0
  purpJobs: []
  allowHomelessPosters: 0
  allowJoblessPosters: 1
  usePosterConnections: 1
  acceptableConnections: 1000000003000000
  usePosterTraits: 0
  posterTraitModifiers: []
  purpIsExemptFromPostingOtherJobs: 0
  purpIsExemptFromPurpingOtherJobs: 1
  posterIsExemptFromPostingOtherJobs: 0
  posterIsExemptFromPurpingOtherJobs: 0
