"Game Reference Key","Notes","Displayed Text","Alternate Text","Frequency","Requires Suffix","Misc."
"[The key used by the game to find strings]","[Not loaded into the game, for explanation only]","[The displayed string in-game]","[Alternate displayed string, eg. Nickname]","[For lists]","[Does this require a suffix for naming?]","[Miscellaneous]"
"— ","— ","— ","— ","— ","— ","— "
"scan","","スキャン","",,"","10:31 01/12/2022"
"evening","","夕方","",,"","10:31 01/12/2022"
"morning","","朝","",,"","10:31 01/12/2022"
"confirmed","","確認済","",,"","10:31 01/12/2022"
"bookclub","","読書クラブ","",,"","10:31 01/12/2022"
"botanyclub","","植物を愛でる会","",,"","10:31 01/12/2022"
"chessclub","","チェスクラブ","",,"","10:31 01/12/2022"
"dramagroup","","ドラマグループ","",,"","10:31 01/12/2022"
"gunclub","","銃愛好家の集い","",,"","10:31 01/12/2022"
"historyclub","","歴史同好会","",,"","10:31 01/12/2022"
"scificlub","","SFクラブ","",,"","10:31 01/12/2022"
"cheatersmeet","","デート","",,"","10:31 01/12/2022"
"knittingclub","","編み物会","",,"","10:31 01/12/2022"
"winetastersclub","","きき酒クラブ","",,"","10:31 01/12/2022"
"tarotclub","","タロット愛好会","",,"","10:31 01/12/2022"
"boss","","ボス","",,"","10:31 01/12/2022"
"redgumsmeetup","","緋色の歯茎会合","",,"","10:31 01/12/2022"
"pokerclub","","ポーカークラブ","",,"","10:31 01/12/2022"
"afternoon","","午後","",,"","10:31 01/12/2022"
"the |city.name| herald","","|city.name|ヘラルド","",,"","10:31 01/12/2022"
"newsstand_ticker","","キャンダーニュース 24/7 — 24時間営業","",,"","10:31 01/12/2022"
"sir","","だんな","",,"","10:31 01/12/2022"
"null","","Null","",,"","10:31 01/12/2022"
"ma'am","","お嬢さん","",,"","10:31 01/12/2022"
"east","","東","",,"","9:32 12/04/2023"
"west","","西","",,"","9:32 12/04/2023"
"north","","北","",,"","9:32 12/04/2023"
"south","","南","",,"","9:32 12/04/2023"
"static_killer_ref_1","","サイコパス殺人犯","",,"","9:32 12/04/2023"
"static_killer_ref_2","","血塗られた殺人犯","",,"","9:32 12/04/2023"
"static_killer_ref_3","","不可解な殺人犯","",,"","9:32 12/04/2023"
"static_killer_ref_4","","サイコパス殺人者","",,"","9:32 12/04/2023"
"static_killer_ref_5","","ストーカー","",,"","9:32 12/04/2023"
"static_killer_ref_6","","死神","",,"","9:32 12/04/2023"
"static_killer_ref_7","","夜間徘徊者","",,"","9:32 12/04/2023"
"static_killer_ref_8","","夜間不審者","",,"","9:32 12/04/2023"
"static_killer_ref_9","","大都市の殺人犯","",,"","9:32 12/04/2023"
"static_killer_ref_10","","星明りの殺人者","",,"","9:32 12/04/2023"
