"Game Reference Key","Notes","Displayed Text","Alternate Text","Frequency","Requires Suffix","Misc."
"[The key used by the game to find strings]","[Not loaded into the game, for explanation only]","[The displayed string in-game]","[Alternate displayed string, eg. Nickname]","[For lists]","[Does this require a suffix for naming?]","[Miscellaneous]"
"— ","— ","— ","— ","— ","— ","— "
"at","","場所：","",,"","10:31 01/12/2022"
"photograph","","写真","",,"","10:31 01/12/2022"
"hardevidence","","浮気の証拠を提出する。","",,"","10:31 01/12/2022"
"cheatersname","","パートナーの愛人のフルネームを調べる。","",,"","10:31 01/12/2022"
"investigateaffair","","浮気調査","",,"","10:31 01/12/2022"
"handin","","証拠の提出：|poster.home.telephone|に電話する、あるいは、依頼者本人を見つける。","",,"","10:31 01/12/2022"
"corporatesabotage","","企業妨害","",,"","10:31 01/12/2022"
"sabotagerecoverinfo","","赤いシールで閉じられた封筒を見つける：封筒は、|purp.initial|から名前が始まる|purp.job.employer.name|の誰かが所持している。","",,"","10:31 01/12/2022"
"provide the requested item","","要求されたアイテムを提供する","",,"","10:31 01/12/2022"
"can you provide evidence of infidelity?","","浮気の証拠を提出できる？","",,"","10:31 01/12/2022"
"can you provide evidence of infidelity?_F","","浮気の証拠を提出できるの？","",,"","10:31 01/12/2022"
"can you provide evidence of infidelity?_NB","","浮気の証拠を提出できますか？","",,"","10:31 01/12/2022"
"where does the cheater live?","","浮気者の家はどこだ？","",,"","10:31 01/12/2022"
"where does the cheater live?_F","","浮気者の家はどこなの？","",,"","10:31 01/12/2022"
"where does the cheater live?_NB","","浮気者の家はどこ？","",,"","10:31 01/12/2022"
"optional","","任意","",,"","10:31 01/12/2022"
"what is the full name of the killer?","","殺人犯の氏名は？","",,"","10:31 01/12/2022"
"have you arrested the killer? if so, what is their present location?","","殺人犯を捕まえたことはあるのか？あるなら、そいつの現在地はどこだ？","",,"","10:31 01/12/2022"
"have you arrested the killer? if so, what is their present location?_F","","殺人犯を捕まえたことはあるの？あるなら、その人の現在地はどこ？","",,"","10:31 01/12/2022"
"have you arrested the killer? if so, what is their present location?_NB","","殺人犯を捕まえたことは？あるなら、そいつの現在地はどこ？","",,"","10:31 01/12/2022"
"where does the killer live?","","殺人犯の家はどこ？","",,"","10:31 01/12/2022"
"if applicable, who is the killer's next target?","","その場合、殺人犯の次の標的は誰？","",,"","10:31 01/12/2022"
"have you located the murder weapon?","","殺人に使われた武器は見つけたのか？","",,"","10:31 01/12/2022"
"have you located the murder weapon?_F","","殺人に使われた武器は見つけたの？","",,"","10:31 01/12/2022"
"have you located the murder weapon?_NB","","殺人に使われた武器は見つけた？","",,"","10:31 01/12/2022"
"reward","","報酬:","",,"","15:12 06/02/2023"
"penalty","","ペナルティ","",,"","10:31 01/12/2022"
"do you have evidence that places the killer at a crime scene?","","その殺人犯が事件現場にいたという証拠はあるのか？","",,"","10:31 01/12/2022"
"do you have evidence that places the killer at a crime scene?_F","","その殺人犯が事件現場にいたという証拠はあるの？","",,"","10:31 01/12/2022"
"do you have evidence that places the killer at a crime scene?_NB","","その殺人犯が事件現場にいたという証拠はある？","",,"","10:31 01/12/2022"
"complete the hand in form","","解決書類の質問に解答を記入してくれ","",,"","10:31 01/12/2022"
"complete the hand in form_F","","解決書類の質問に解答を記入して","",,"","10:31 01/12/2022"
"complete the hand in form_NB","","解決書類の質問に解答を記入する","",,"","10:31 01/12/2022"
"who is the poster's partner cheating with?","","投稿者のパートナーは誰と浮気していたのか？","",,"","10:31 01/12/2022"
"who is the poster's partner cheating with?_F","","投稿者のパートナーは誰と浮気していたの？","",,"","10:31 01/12/2022"
"who is the poster's partner cheating with?_NB","","投稿者のパートナーは誰と浮気していた？","",,"","10:31 01/12/2022"
"submit case","","解決書類を役所に提出してくれ","",,"","10:31 01/12/2022"
"submit case_F","","解決書類を役所に提出して","",,"","10:31 01/12/2022"
"submit case_NB","","解決書類を役所に提出する","",,"","10:31 01/12/2022"
"case processing","","事件処理中...","",,"","10:31 01/12/2022"
"collect hand in","","役所で殺人事件解決書類を受け取ってくれ","",,"","10:31 01/12/2022"
"collect hand in_F","","役所で殺人事件解決書類を受け取って","",,"","10:31 01/12/2022"
"collect hand in_NB","","役所で殺人事件解決書類を受け取る","",,"","10:31 01/12/2022"
"explore reported crime scene","","報告された事件現場を探索しろ： ","",,"","9:32 12/04/2023"
"have you located the stolen item?","","盗まれた物を発見したのか？","",,"","10:31 01/12/2022"
"have you located the stolen item?_F","","盗まれた物を発見したの？","",,"","10:31 01/12/2022"
"have you located the stolen item?_NB","","盗まれた物を発見した？","",,"","10:31 01/12/2022"
"stolenitem","","盗まれた物","",,"","10:31 01/12/2022"
"who stole my |stolenitem.name|?","","誰が俺の|stolenitem.name|を盗んだんだ？","",,"","10:31 01/12/2022"
"who stole my |stolenitem.name|?_F","","誰が私の|stolenitem.name|を盗んだの？","",,"","10:31 01/12/2022"
"who stole my |stolenitem.name|?_NB","","誰が|stolenitem.name|を盗んだんだろう？","",,"","10:31 01/12/2022"
"uncover evidence as to the whereabouts of |purp.name|","","|purp.name|の所在に関する証拠を見つけくれ","",,"","10:31 01/12/2022"
"uncover evidence as to the whereabouts of |purp.name|_F","","|purp.name|の所在に関する証拠を見つけてね","",,"","10:31 01/12/2022"
"uncover evidence as to the whereabouts of |purp.name|_NB","","|purp.name|の所在に関する証拠を見つける","",,"","10:31 01/12/2022"
"uncover evidence as to why they are missing","","なぜ失踪したのかに関する証拠を見つけてくれ","",,"","10:31 01/12/2022"
"uncover evidence as to why they are missing_F","","なぜ失踪したのかに関する証拠を見つけて","",,"","10:31 01/12/2022"
"uncover evidence as to why they are missing_NB","","なぜ失踪したのかに関する証拠を見つける","",,"","10:31 01/12/2022"
"where was the last known whereabouts of |purp.name|?","","|purp.name|が最後に目撃された位置はどこなんだ？","",,"","10:31 01/12/2022"
"where was the last known whereabouts of |purp.name|?_F","","|purp.name|が最後に目撃された位置はどこなの？","",,"","10:31 01/12/2022"
"where was the last known whereabouts of |purp.name|?_NB","","|purp.name|が最後に目撃された位置はどこ？","",,"","10:31 01/12/2022"
"missingperson","","行方不明者","",,"","10:31 01/12/2022"
"submit case sidejob","","完了するには、見つけたものを|submission.name|のドアの下から投函してくれ","",,"","10:31 01/12/2022"
"submit under door","","完了するには、見つけたものを|submission.name|のドアの下から投函してくれ","",,"","10:31 01/12/2022"
"submit case sidejob_F","","完了するには、見つけたものを|submission.name|のドアの下から投函してちょうだい","",,"","10:31 01/12/2022"
"submit under door_F","","完了するには、見つけたものを|submission.name|のドアの下から投函してちょうだい","",,"","10:31 01/12/2022"
"submit case sidejob_NB","","完了するには、見つけたものを|submission.name|のドアの下から投函する","",,"","10:31 01/12/2022"
"submit under door_NB","","完了するには、見つけたものを|submission.name|のドアの下から投函する","",,"","10:31 01/12/2022"
"vandalismfindhomeaddress","","器物破損","",,"","10:31 01/12/2022"
"vandalismhome_d2a","","器物破損","",,"","10:31 01/12/2022"
"vandalism","","器物破損","",,"","10:31 01/12/2022"
"cause cr|revengeamount| of vandalism at |purp.home.name|.","","|purp.home.name|で総額|revengeamount|Cr分の器物損壊を行え。","",,"","10:31 01/12/2022"
"cause cr|revengeamount| of vandalism at |purp.home.name|._F","","|purp.home.name|で総額|revengeamount|Cr分の器物損壊を行って。","",,"","10:31 01/12/2022"
"cause cr|revengeamount| of vandalism at |purp.home.name|._NB","","|purp.home.name|で総額|revengeamount|Cr分の器物損壊を行う。","",,"","10:31 01/12/2022"
"cause cr|revengeamount| of vandalism at the home of |purp.name|.","","|purp.name|の家で総額|revengeamount|Cr分の器物損壊を行え。","",,"","10:31 01/12/2022"
"cause cr|revengeamount| of vandalism at the home of |purp.name|._F","","|purp.name|の家で総額|revengeamount|Cr分の器物損壊を行って。","",,"","10:31 01/12/2022"
"cause cr|revengeamount| of vandalism at the home of |purp.name|._NB","","|purp.name|の家で総額|revengeamount|Cr分の器物損壊を行う。","",,"","10:31 01/12/2022"
"where does |purp.name| live?","","|purp.name|の家はどこだ？","",,"","10:31 01/12/2022"
"where does |purp.name| live?_F","","|purp.name|の家はどこなの？","",,"","10:31 01/12/2022"
"where does |purp.name| live?_NB","","|purp.name|の家はどこ？","",,"","10:31 01/12/2022"
"take a photo of the damage","","荒らした現場の写真を撮れ","",,"","10:31 01/12/2022"
"take a photo of the damage_F","","荒らした現場の写真を撮って","",,"","10:31 01/12/2022"
"take a photo of the damage_NB","","荒らした現場の写真を撮る","",,"","10:31 01/12/2022"
"where does the target live?","","標的の家はどこだ？","",,"","10:31 01/12/2022"
"where does the target live?_F","","標的の家はどこなの？","",,"","10:31 01/12/2022"
"where does the target live?_NB","","標的の家はどこ？","",,"","10:31 01/12/2022"
"cause cr|revengeamount| of vandalism at the home of the target.","","標的の家で総額|revengeamount|Cr分の器物損壊を行え。","",,"","10:31 01/12/2022"
"cause cr|revengeamount| of vandalism at the home of the target._F","","標的の家で総額|revengeamount|Cr分の器物損壊を行って。","",,"","10:31 01/12/2022"
"cause cr|revengeamount| of vandalism at the home of the target._NB","","標的の家で総額|revengeamount|Cr分の器物損壊を行う。","",,"","10:31 01/12/2022"
"kick down the door of the target.","","標的の家のドアを蹴破れ","",,"","10:31 01/12/2022"
"kick down the door of the target._F","","標的の家のドアを蹴破って","",,"","10:31 01/12/2022"
"kick down the door of the target._NB","","標的の家のドアを蹴破る","",,"","10:31 01/12/2022"
"cause cr|revengeamount| of vandalism at the home of the target by filling it with trash.","","標的の家をごみまみれにして、総額|revengeamount|Cr分の器物損壊を行え。","",,"","10:31 01/12/2022"
"cause cr|revengeamount| of vandalism at the home of the target by filling it with trash._F","","標的の家をごみまみれにして、総額|revengeamount|Cr分の器物損壊を行って。","",,"","10:31 01/12/2022"
"cause cr|revengeamount| of vandalism at the home of the target by filling it with trash._NB","","標的の家をごみまみれにして、総額|revengeamount|Cr分の器物損壊を行う。","",,"","10:31 01/12/2022"
"cause cr|revengeamount| of vandalism at the home of the target by breaking windows.","","標的の家の窓を割って、総額|revengeamount|Cr分の器物損壊を行え。","",,"","10:31 01/12/2022"
"cause cr|revengeamount| of vandalism at the home of the target by breaking windows._F","","標的の家の窓を割って、総額|revengeamount|Cr分の器物損壊を行って。","",,"","10:31 01/12/2022"
"cause cr|revengeamount| of vandalism at the home of the target by breaking windows._NB","","標的の家の窓を割って、総額|revengeamount|Cr分の器物損壊を行う。","",,"","10:31 01/12/2022"
"cause cr|revengeamount| of vandalism at the home of |purp.name| by filling it with trash.","","|purp.name|の家をごみまみれにして、総額|revengeamount|Cr分の器物損壊を行え。","",,"","10:31 01/12/2022"
"cause cr|revengeamount| of vandalism at the home of |purp.name| by filling it with trash._F","","|purp.name|の家をごみまみれにして、総額|revengeamount|Cr分の器物損壊を行って。","",,"","10:31 01/12/2022"
"cause cr|revengeamount| of vandalism at the home of |purp.name| by filling it with trash._NB","","|purp.name|の家をごみまみれにして、総額|revengeamount|Cr分の器物損壊を行う。","",,"","10:31 01/12/2022"
"cause cr|revengeamount| of vandalism at |purp.home.name| by breaking windows.","","|purp.home.name|で窓を割って、総額|revengeamount|Cr分の器物損壊を行え。","",,"","10:31 01/12/2022"
"cause cr|revengeamount| of vandalism at |purp.home.name| by breaking windows._F","","|purp.home.name|で窓を割って、総額|revengeamount|Cr分の器物損壊を行って。","",,"","10:31 01/12/2022"
"cause cr|revengeamount| of vandalism at |purp.home.name| by breaking windows._NB","","|purp.home.name|で窓を割って、総額|revengeamount|Cr分の器物損壊を行う。","",,"","10:31 01/12/2022"
"kick down the door of |purp.name|.","","|purp.name|の家のドアを蹴破れ","",,"","10:31 01/12/2022"
"kick down the door of |purp.name|._F","","|purp.name|の家のドアを蹴破って","",,"","10:31 01/12/2022"
"kick down the door of |purp.name|._NB","","|purp.name|の家のドアを蹴破る","",,"","10:31 01/12/2022"
"humiliate","","屈辱を与える","",,"","10:31 01/12/2022"
"throw some food in the face of |purp.name|.","","|purp.name|の顔に食べ物を投げつけろ","",,"","10:31 01/12/2022"
"throw some food in the face of |purp.name|._F","","|purp.name|の顔に食べ物を投げつけて","",,"","10:31 01/12/2022"
"throw some food in the face of |purp.name|._NB","","|purp.name|の顔に食べ物を投げつける","",,"","10:31 01/12/2022"
"take a photo of them","","標的の写真を撮れ","",,"","10:31 01/12/2022"
"take a photo of them_F","","標的の写真を撮って","",,"","10:31 01/12/2022"
"take a photo of them_NB","","標的の写真を撮る","",,"","10:31 01/12/2022"
"identify the target","","標的を特定しろ","",,"","10:31 01/12/2022"
"identify the target_F","","標的を特定して","",,"","10:31 01/12/2022"
"identify the target_NB","","標的を特定する","",,"","10:31 01/12/2022"
"take a photo of the target","","標的の写真を撮れ","",,"","10:31 01/12/2022"
"take a photo of the target_F","","標的の写真を撮って","",,"","10:31 01/12/2022"
"take a photo of the target_NB","","標的の写真を撮る","",,"","10:31 01/12/2022"
"ask staff","","クリスについてスタッフに尋ねろ","",,"","10:31 01/12/2022"
"ask staff_F","","クリスについてスタッフに尋ねて","",,"","10:31 01/12/2022"
"ask staff_NB","","クリスについてスタッフに尋ねる","",,"","10:31 01/12/2022"
"find dossier","","隠されたブリーフケースを見つけて開け","",,"","9:32 12/04/2023"
"find dossier_F","","隠されたブリーフケースを見つけて","",,"","10:31 01/12/2022"
"find dossier_NB","","隠されたブリーフケースを見つける","",,"","10:31 01/12/2022"
"take a photo of |purp.name|","","|purp.name|の写真を撮れ","",,"","10:31 01/12/2022"
"take a photo of |purp.name|_F","","|purp.name|の写真を撮って","",,"","10:31 01/12/2022"
"take a photo of |purp.name|_NB","","|purp.name|の写真を撮る","",,"","10:31 01/12/2022"
"call","","|purp.name|に電話しろ","",,"","10:31 01/12/2022"
"call |fakenumber|","","|purp.name|に電話しろ","",,"","10:31 01/12/2022"
"call_F","","|purp.name|に電話して","",,"","10:31 01/12/2022"
"call |fakenumber|_F","","|purp.name|に電話して","",,"","10:31 01/12/2022"
"call_NB","","|purp.name|に電話する","",,"","10:31 01/12/2022"
"call |fakenumber|_NB","","|purp.name|に電話する","",,"","10:31 01/12/2022"
"setup goose chase","","|calltime.time24|に|callphone.location.name|の公衆電話にたどり着け","",,"","10:31 01/12/2022"
"setup goose chase_F","","|calltime.time24|に|callphone.location.name|の公衆電話にたどり着いてね","",,"","10:31 01/12/2022"
"setup goose chase_NB","","|calltime.time24|に|callphone.location.name|の公衆電話にたどり着く","",,"","10:31 01/12/2022"
"answer","","電話に出ろ","",,"","10:31 01/12/2022"
"answer_F","","電話に出て","",,"","10:31 01/12/2022"
"answer_NB","","電話に出る","",,"","10:31 01/12/2022"
"setup meet","","|meet.location.name|で|meetitem|と一緒に座っている人に話しかけろ","",,"","10:31 01/12/2022"
"setup meet_F","","|meet.location.name|で|meetitem|と一緒に座っている人に話しかけて","",,"","10:31 01/12/2022"
"setup meet_NB","","|meet.location.name|で|meetitem|と一緒に座っている人に話しかける","",,"","10:31 01/12/2022"
"open dossier","","ブリーフケースを開けろ","",,"","10:31 01/12/2022"
"open dossier_F","","ブリーフケースを開けて","",,"","10:31 01/12/2022"
"open dossier_NB","","ブリーフケースを開ける","",,"","10:31 01/12/2022"
"has camera","","役場かどこかでカメラを入手しろ","",,"","10:31 01/12/2022"
"has camera_F","","役場かどこかでカメラを入手して","",,"","10:31 01/12/2022"
"has camera_NB","","カメラを入手する（役場などで入手可能）","",,"","10:31 01/12/2022"
"retrieveitem","","物品奪還","",,"","10:31 01/12/2022"
"who is the partner of |poster.name| cheating with?","","|poster.name|のパートナーは誰と浮気していたのか？","",,"","10:31 01/12/2022"
"who is the partner of |poster.name| cheating with?_F","","|poster.name|のパートナーは誰と浮気していたの？","",,"","10:31 01/12/2022"
"who is the partner of |poster.name| cheating with?_NB","","|poster.name|のパートナーは誰と浮気していた？","",,"","10:31 01/12/2022"
"can you provide a photo of the cheater?","","浮気相手の写真は提出できるのか？","",,"","10:31 01/12/2022"
"can you provide a photo of the cheater?_F","","浮気相手の写真は提出できるの？","",,"","10:31 01/12/2022"
"can you provide a photo of the cheater?_NB","","浮気相手の写真は提出できる？","",,"","10:31 01/12/2022"
"throw some food in the face of the target.","","標的の顔に食べ物を投げつけろ。","",,"","10:31 01/12/2022"
"throw some food in the face of the target._F","","標的の顔に食べ物を投げつけて。","",,"","10:31 01/12/2022"
"throw some food in the face of the target._NB","","標的の顔に食べ物を投げつける。","",,"","10:31 01/12/2022"
"submit to poster","","完了するには、|poster.name|を見つけろ","",,"","10:31 01/12/2022"
"submit to poster_F","","完了するには、|poster.name|を見つけて","",,"","10:31 01/12/2022"
"submit to poster_NB","","完了するには、|poster.name|を見つける","",,"","10:31 01/12/2022"
"theft","","窃盗","",,"","10:31 01/12/2022"
"home meeting","","|poster.home.name|の窃盗事件を調査しろ","",,"","10:31 01/12/2022"
"home meeting_F","","|poster.home.name|の窃盗事件を調査して","",,"","10:31 01/12/2022"
"home meeting_NB","","|poster.home.name|の窃盗事件を調査する","",,"","10:31 01/12/2022"
"you cannot take your possessions with you to the retirement distict: please nominate a citizen to receive your possessions upon exit from the city.","","隠居区域には所有財産を持ち込むことはできません。町を離れるにあたって、財産を寄与する市民を選択しましょう。","",,"","10:31 01/12/2022"
"please leave any additional comments below: ","","その他コメントがありましたら、以下の欄へご記入ください：","",,"","10:31 01/12/2022"
"collect retirement form","","役所で隠居用書類を受け取ってくれ","",,"","10:31 01/12/2022"
"collect retirement form_F","","役所で隠居用書類を受け取って","",,"","10:31 01/12/2022"
"collect retirement form_NB","","役所で隠居用書類を受け取る","",,"","10:31 01/12/2022"
"stealbriefcase","","尾行調査","",,"","10:31 01/12/2022"
"find and tail the person with the briefcase","","ブリーフケースを持った標的を見つけて、尾行しろ","",,"","10:31 01/12/2022"
"find and tail the person with the briefcase_F","","ブリーフケースを持った標的を見つけて、尾行して","",,"","10:31 01/12/2022"
"find and tail the person with the briefcase_NB","","ブリーフケースを持った標的を見つけて、尾行する","",,"","10:31 01/12/2022"
"who does the mark give the briefcase to?","","標的は誰にブリーフケースを渡したんだ？","",,"","10:31 01/12/2022"
"who does the mark give the briefcase to?_F","","標的は誰にブリーフケースを渡したの？","",,"","10:31 01/12/2022"
"who does the mark give the briefcase to?_NB","","標的は誰にブリーフケースを渡した？","",,"","10:31 01/12/2022"
"provide photographic evidence of the recipient","","領収書の証拠写真を提出しろ","",,"","10:31 01/12/2022"
"provide photographic evidence of the recipient_F","","領収書の証拠写真を提出して","",,"","10:31 01/12/2022"
"provide photographic evidence of the recipient_NB","","領収書の証拠写真を提出する","",,"","10:31 01/12/2022"
"where does the exchange take place?","","取引はどこで行われていたんだ？","",,"","10:31 01/12/2022"
"where does the exchange take place?_F","","取引はどこで行われていたの？","",,"","10:31 01/12/2022"
"where does the exchange take place?_NB","","取引はどこで行われていた？","",,"","10:31 01/12/2022"
"steal the briefcase","","ブリーフケースを盗め","",,"","10:31 01/12/2022"
"steal the briefcase_F","","ブリーフケースを盗んで","",,"","10:31 01/12/2022"
"steal the briefcase_NB","","ブリーフケースを盗む","",,"","10:31 01/12/2022"
"missed call","","不在着信","",,"","10:31 01/12/2022"
"provide photographic evidence of the exchange","","取引の証拠写真を提出しろ","",,"","10:31 01/12/2022"
"provide photographic evidence of the exchange_F","","取引の証拠写真を提出して","",,"","10:31 01/12/2022"
"provide photographic evidence of the exchange_NB","","取引の証拠写真を提出する","",,"","10:31 01/12/2022"
"leave the briefcase near the |secretlocation|","","|secretlocation|の付近にブリーフケースを置け","",,"","10:31 01/12/2022"
"leave the briefcase near the |secretlocation|_F","","|secretlocation|の付近にブリーフケースを置いて","",,"","10:31 01/12/2022"
"leave the briefcase near the |secretlocation|_NB","","|secretlocation|の付近にブリーフケースを置く","",,"","10:31 01/12/2022"
"briefcase has been opened","","ブリーフケースは開かれた","",,"","10:31 01/12/2022"
"briefcase has been opened_F","","ブリーフケースは開かれたわ","",,"","10:31 01/12/2022"
"briefcase has been opened_NB","","ブリーフケースは開かれた","",,"","10:31 01/12/2022"
"briefcase was destroyed","","ブリーフケースは壊された","",,"","10:31 01/12/2022"
"briefcase was destroyed_F","","ブリーフケースは壊されたわ","",,"","10:31 01/12/2022"
"briefcase was destroyed_NB","","ブリーフケースは壊された","",,"","10:31 01/12/2022"
"destroy the briefcase by throwing it into the sea","","海に投げ込んでブリーフケースを壊せ","",,"","10:31 01/12/2022"
"destroy the briefcase by throwing it into the sea_F","","海に投げ込んでブリーフケースを壊して","",,"","10:31 01/12/2022"
"destroy the briefcase by throwing it into the sea_NB","","海に投げ込んでブリーフケースを壊す","",,"","10:31 01/12/2022"
"arrest","","逮捕","",,"","10:31 01/12/2022"
"indentify the suspect","","容疑者を特定しろ","",,"","10:31 01/12/2022"
"indentify the suspect_F","","容疑者を特定して","",,"","10:31 01/12/2022"
"indentify the suspect_NB","","容疑者を特定する","",,"","10:31 01/12/2022"
"arrest the target","","容疑者を逮捕しろ","",,"","10:31 01/12/2022"
"arrest the target_F","","容疑者を逮捕して","",,"","10:31 01/12/2022"
"arrest the target_NB","","容疑者を逮捕する","",,"","10:31 01/12/2022"
"has handcuffs","","役所とかで手錠を手に入れろ","",,"","10:31 01/12/2022"
"has handcuffs_F","","役所とかで手錠を手に入れて","",,"","10:31 01/12/2022"
"has handcuffs_NB","","手錠を手に入れる（役所などから）","",,"","10:31 01/12/2022"
"submit to city hall","","役所に提出しろ","",,"","10:31 01/12/2022"
"submit to city hall_F","","役所に提出して","",,"","10:31 01/12/2022"
"submit to city hall_NB","","役所に提出する","",,"","10:31 01/12/2022"
"a rare sync disk","","珍しい同期盤","",,"","10:31 01/12/2022"
"pick up your reward cityhalldesk","","役所のデスクで報酬を受け取れ","",,"","9:32 12/04/2023"
"pick up your reward","","報酬を受け取れ","",,"","9:32 12/04/2023"
"recover my |stolenitem.name| and place it in my mailbox","","|stolenitem.name|を取り戻し|poster.home.name|の郵便箱に入れろ","",,"","9:32 12/04/2023"
"arrest the killer","","殺人犯を逮捕しろ","",,"","9:32 12/04/2023"
"locate and steal the item; |stolenitem.name|","","標的から|stolenitem.name|の場所を突き止めて、盗め","",,"","9:32 12/04/2023"
"leave the item near the |secretlocation|","","|secretlocation|の付近にアイテムを置け","",,"","9:32 12/04/2023"
"pick up your reward postersmailbox","","|poster.home.name|の郵便箱から報酬を受け取れ","",,"","9:32 12/04/2023"
"destroy the item by throwing it into the sea","","海に投げ込んでアイテムを壊せ","",,"","9:32 12/04/2023"
"callhandin","","|fakenumber|に電話しろ","",,"","9:32 12/04/2023"
"an important item was destroyed!","","重要なアイテムが破壊された！","",,"","9:32 12/04/2023"
"beat up the target.","","標的を殴り倒せ","",,"","9:32 12/04/2023"
"handcuff |purp.name|, leave them somewhere non-public.","","|purp.name|に手錠をかけ、人目に付かない場所に置き去りにしろ","",,"","9:32 12/04/2023"
"handcuff the target, leave them somewhere non-public.","","標的に手錠をかけ、人目に付かない場所に置き去りにしろ","",,"","9:32 12/04/2023"
"beat up |purp.name|.","","|purp.name|を殴り倒せ","",,"","9:32 12/04/2023"
"cause cr|revengeamount| of vandalism at |purp.home.name| by filling it with trash.","","|purp.home.name|をごみまみれにして、総額|revengeamount|Cr分の器物損壊を行え","",,"","9:32 12/04/2023"
"cause cr|revengeamount| of vandalism at the home of the target by filling it with trash","","標的の家をごみまみれにして、総額|revengeamount|Cr分の器物損壊を行え","",,"","9:32 12/04/2023"
"cause cr|revengeamount| of vandalism at |purp.job.employer.location.name|.","","|purp.job.employer.location.name|で総額|revengeamount|Cr分の器物損壊を行え","",,"","9:32 12/04/2023"
"cause cr|revengeamount| of vandalism at the workplace of |purp.name|.","","|purp.name|の勤務先で総額|revengeamount|Cr分の器物損壊を行え","",,"","9:32 12/04/2023"
"cause cr|revengeamount| of vandalism at the workplace of the target.","","標的の勤務先で総額|revengeamount|Cr分の器物損壊を行え","",,"","9:32 12/04/2023"
"cause cr|revengeamount| of vandalism at |purp.job.employer.location.name| by filling it with trash.","","|purp.job.employer.location.name|をごみまみれにして、総額|revengeamount|Cr分の器物損壊を行え","",,"","9:32 12/04/2023"
"cause cr|revengeamount| of vandalism at the workplace of |purp.name| by filling it with trash.","","|purp.name|の勤務先をごみまみれにして、総額|revengeamount|Cr分の器物損壊を行え","",,"","9:32 12/04/2023"
"cause cr|revengeamount| of vandalism at the workplace of the target by filling it with trash","","標的の勤務先をごみまみれにして、総額|revengeamount|Cr分の器物損壊を行え","",,"","9:32 12/04/2023"
"cause cr|revengeamount| of vandalism at |purp.job.employer.location.name| by breaking windows.","","|purp.job.employer.location.name|で窓を割って、総額|revengeamount|Cr分の器物損壊を行え","",,"","9:32 12/04/2023"
"cause cr|revengeamount| of vandalism at the workplace of |purp.name| by breaking windows.","","|purp.name|の勤務先で窓を割って、総額|revengeamount|Cr分の器物損壊を行え","",,"","9:32 12/04/2023"
"cause cr|revengeamount| of vandalism at the workplace of the target by breaking windows.","","標的の勤務先で窓を割って、総額|revengeamount|Cr分の器物損壊を行え","",,"","9:32 12/04/2023"
"wait for the meeting to take place","","会議が始まるまで待て","",,"","9:32 12/04/2023"
