"Game Reference Key","Notes","Displayed Text","Alternate Text","Frequency","Requires Suffix","Misc."
"[The key used by the game to find strings]","[Not loaded into the game, for explanation only]","[The displayed string in-game]","[Alternate displayed string, eg. Nickname]","[For lists]","[Does this require a suffix for naming?]","[Miscellaneous]"
"— ","— ","— ","— ","— ","— ","— "
"start","","はじめる","",,"","10:31 01/12/2022"
"population","","人口","",,"","10:31 01/12/2022"
"generating","","生成中","",,"","10:31 01/12/2022"
"setupcityboundary","","境界を設定中","",,"","10:31 01/12/2022"
"generatedistricts","","地区を作成中","",,"","10:31 01/12/2022"
"generateblocks","","ブロックを作成中","",,"","10:31 01/12/2022"
"generatedensity","","人口密度を作成中","",,"","10:31 01/12/2022"
"generatezoning","","区域を作成中","",,"","10:31 01/12/2022"
"loadbasemap","","ベースマップをロード中","",,"","10:31 01/12/2022"
"generatebuildings","","建物を作成中","",,"","10:31 01/12/2022"
"generatepathfinding","","経路探索グリッドを作成中","",,"","10:31 01/12/2022"
"generateroads","","道を作成中","",,"","10:31 01/12/2022"
"generatecitizens","","市民を作成中","",,"","10:31 01/12/2022"
"generaterelationships","","人間関係を作成中","",,"","10:31 01/12/2022"
"generatecriminals","","犯罪者を作成中","",,"","10:31 01/12/2022"
"generateroutines","","日課を作成中","",,"","10:31 01/12/2022"
"generatepaths","","経路を計算中","",,"","10:31 01/12/2022"
"generatepathsfollowingsimday","","経路を計算中","",,"","10:31 01/12/2022"
"gatherdata","","データを収集中","",,"","10:31 01/12/2022"
"postdaysimulation","","データを収集中","",,"","10:31 01/12/2022"
"gather","","データを収集中","",,"","10:31 01/12/2022"
"generateevidence","","証拠を作成中","",,"","10:31 01/12/2022"
"simulateday","","一日をシミュレーション中","",,"","10:31 01/12/2022"
"ready","","準備完了","",,"","10:31 01/12/2022"
"prepping","","準備中","",,"","10:31 01/12/2022"
"removecompletedroutines","","終了した日課を削除中","",,"","10:31 01/12/2022"
"setupemmisiontextures","","放出テクスチャを作成中","",,"","10:31 01/12/2022"
"finalizing","","仕上げ中","",,"","10:31 01/12/2022"
"generateinteriors","","内装を作成中","",,"","10:31 01/12/2022"
"generateblueprints","","設計図を作成中","",,"","10:31 01/12/2022"
"generaterooms","","部屋を作成中","",,"","10:31 01/12/2022"
"loadrooms","","部屋をロード中","",,"","10:31 01/12/2022"
"connectrooms","","部屋を接続中","",,"","10:31 01/12/2022"
"preparecitizens","","市民を準備中","",,"","10:31 01/12/2022"
"savingdata","","データをセーブ中","",,"","10:31 01/12/2022"
"entering","","入場中","",,"","10:31 01/12/2022"
"calculatenearest","","経路を最適化中","",,"","10:31 01/12/2022"
"generatecompanies","","会社を作成中","",,"","10:31 01/12/2022"
"generatejobs","","仕事を作成中","",,"","10:31 01/12/2022"
"generateairducts","","通気口を生成中","",,"","10:31 01/12/2022"
"loadchapter","","チャプターをロード中","",,"","10:31 01/12/2022"
"loadobjects","","オブジェクトをロード中","",,"","10:31 01/12/2022"
"loadstate","","ゲーム状態のロード中","",,"","9:32 12/04/2023"
"presim","","経路でのイベントをシミュレーション中","",,"","10:31 01/12/2022"
"loadcomplete","","完了","",,"","10:31 01/12/2022"
"parsingfile","","セーブファイルをロード中","",,"","10:31 01/12/2022"
