%YAML 1.1
%TAG !u! tag:unity3d.com,2011:
--- !u!114 &11400000
MonoBehaviour:
  m_ObjectHideFlags: 0
  m_CorrespondingSourceObject: {fileID: 0}
  m_PrefabInstance: {fileID: 0}
  m_PrefabAsset: {fileID: 0}
  m_GameObject: {fileID: 0}
  m_Enabled: 1
  m_EditorHideFlags: 0
  m_Script: {fileID: 11500000, guid: df34c098fe792944a8bdb8310fc6f3c5, type: 3}
  m_Name: ThroughTheLens
  m_EditorClassIdentifier: 
  presetName: ThroughTheLens
  bookName: ThroughTheLens
  author: Khari Toure
  genre: 02000000
  isSeries: 0
  seriesTag: 1
  seriesNumber: 8
  common: 0.828
  baseChance: 0
  pickRules:
  - rule: 0
    traitList:
    - {fileID: 11400000, guid: 397f4b3cca38f3a49bc4e7e37c04731f, type: 2}
    mustPassForApplication: 0
    baseChance: 1
    reasonChance: 0
  spawnRule: 0
  bookMesh: {fileID: -7968633931437985260, guid: a0cc0609ccdc6184d90a240dc934edf9,
    type: 3}
  bookMaterial: {fileID: 2100000, guid: 46dc6e2e1a9e5b649b693edc75d83d4f, type: 2}
  ddsMessage: 1cf2bf8b-80f2-438a-b058-9d7379cdf80b
