%YAML 1.1
%TAG !u! tag:unity3d.com,2011:
--- !u!114 &11400000
MonoBehaviour:
  m_ObjectHideFlags: 0
  m_CorrespondingSourceObject: {fileID: 0}
  m_PrefabInstance: {fileID: 0}
  m_PrefabAsset: {fileID: 0}
  m_GameObject: {fileID: 0}
  m_Enabled: 1
  m_EditorHideFlags: 0
  m_Script: {fileID: 11500000, guid: 56f2490b52fa89c48a5646ebac4f742a, type: 3}
  m_Name: CigaretteMachine
  m_EditorClassIdentifier: 
  presetName: CigaretteMachine
  itemsSold:
  - {fileID: 11400000, guid: 95d14126f1b143945bec4a75b2ee08a3, type: 2}
  - {fileID: 11400000, guid: e87a16c4775060342bf7bc58f8c8a1e9, type: 2}
  - {fileID: 11400000, guid: 585cbd90748f7ee43b6a201a3650f136, type: 2}
  - {fileID: 11400000, guid: 43f51b0e7c2aec5419615ec0745652a3, type: 2}
  - {fileID: 11400000, guid: cd372cb47feb9dd418ea611f2ca09901, type: 2}
  - {fileID: 11400000, guid: debb7c8ef065d3f4498981248a05f888, type: 2}
  - {fileID: 11400000, guid: 208d7e1099c25ca4db9fbccd077a49f7, type: 2}
  - {fileID: 11400000, guid: fbe595203a86b274a981982d2f3fc982, type: 2}
  - {fileID: 11400000, guid: ec4bba11488960348b4140f2f0083b13, type: 2}
  - {fileID: 11400000, guid: 72ae7ec3c9c731e4f9a221192e7441cf, type: 2}
  - {fileID: 11400000, guid: 0f1b31bad83e1474795470bcb58fd62b, type: 2}
  - {fileID: 11400000, guid: cab59b123f2ead2478a597d3fbf4a5c0, type: 2}
  - {fileID: 11400000, guid: 8827db377575a5843b3892aa84979b30, type: 2}
  - {fileID: 11400000, guid: 7332c7f0879373f4180e5e970f6ef46d, type: 2}
  - {fileID: 11400000, guid: 93bb5f97b0ae8904f94e9da940cc1ea0, type: 2}
  - {fileID: 11400000, guid: 6920d6af7d306684aa199a1cbff6d51c, type: 2}
  createReceipt: 0
  purchaseAudio: {fileID: 11400000, guid: 858be4692e4a4f84e8af02b5c329e753, type: 2}
  syncDiskSlots: 0
  fromManufacturers: 
  syncDisks: []
