%YAML 1.1
%TAG !u! tag:unity3d.com,2011:
--- !u!114 &11400000
MonoBehaviour:
  m_ObjectHideFlags: 0
  m_CorrespondingSourceObject: {fileID: 0}
  m_PrefabInstance: {fileID: 0}
  m_PrefabAsset: {fileID: 0}
  m_GameObject: {fileID: 0}
  m_Enabled: 1
  m_EditorHideFlags: 0
  m_Script: {fileID: 11500000, guid: 56f2490b52fa89c48a5646ebac4f742a, type: 3}
  m_Name: NewspaperBox
  m_EditorClassIdentifier: 
  presetName: NewspaperBox
  itemsSold:
  - {fileID: 11400000, guid: 0a91c30cc66b7f04d927c93d72b6c970, type: 2}
  createReceipt: 0
  purchaseAudio: {fileID: 11400000, guid: 858be4692e4a4f84e8af02b5c329e753, type: 2}
  syncDiskSlots: 0
  fromManufacturers: 
  syncDisks: []
