%YAML 1.1
%TAG !u! tag:unity3d.com,2011:
--- !u!114 &11400000
MonoBehaviour:
  m_ObjectHideFlags: 0
  m_CorrespondingSourceObject: {fileID: 0}
  m_PrefabInstance: {fileID: 0}
  m_PrefabAsset: {fileID: 0}
  m_GameObject: {fileID: 0}
  m_Enabled: 1
  m_EditorHideFlags: 0
  m_Script: {fileID: 11500000, guid: 56f2490b52fa89c48a5646ebac4f742a, type: 3}
  m_Name: PawnShop
  m_EditorClassIdentifier: 
  presetName: PawnShop
  itemsSold:
  - {fileID: 11400000, guid: 8d3180cb244d2df4dbc0d76a52b16642, type: 2}
  - {fileID: 11400000, guid: e143181145f87284993643292b8b42c6, type: 2}
  - {fileID: 11400000, guid: 16e13dbc67a2f8f49b486fc4cd4f218a, type: 2}
  - {fileID: 11400000, guid: e2181916bc976b44da9c9d5e5e26521f, type: 2}
  - {fileID: 11400000, guid: 74ef890402c559a439e0764fa6d94517, type: 2}
  - {fileID: 11400000, guid: 308b3d3f5b89e844ca41fc30bdd17dc7, type: 2}
  - {fileID: 11400000, guid: d4cd5824b69256d499283eda5ea90e59, type: 2}
  - {fileID: 11400000, guid: f7912849cc8c3de4184fe86dda60e804, type: 2}
  - {fileID: 11400000, guid: 2c804a961c769df4cac1a22e79dafd63, type: 2}
  - {fileID: 11400000, guid: 79702b011a0f8734694cbadac0acd09b, type: 2}
  - {fileID: 11400000, guid: 16e54e6631dd8fe4d87a90cf00009361, type: 2}
  - {fileID: 11400000, guid: 2093e156d513a214fab62d527dd84424, type: 2}
  - {fileID: 11400000, guid: d795d96fb1fa4f14abb08887df59a766, type: 2}
  - {fileID: 11400000, guid: 996aca1abee41d54fbac775f5a05f126, type: 2}
  - {fileID: 11400000, guid: 0dd4707e76485e54e9449c020ee9429b, type: 2}
  - {fileID: 11400000, guid: d9e09c2a2a308c047870d081ebe2759b, type: 2}
  - {fileID: 11400000, guid: 472851a91246f4c4b9b71608ab8972ad, type: 2}
  createReceipt: 0
  purchaseAudio: {fileID: 0}
  syncDiskSlots: 0
  fromManufacturers: 
  syncDisks: []
