%YAML 1.1
%TAG !u! tag:unity3d.com,2011:
--- !u!114 &11400000
MonoBehaviour:
  m_ObjectHideFlags: 0
  m_CorrespondingSourceObject: {fileID: 0}
  m_PrefabInstance: {fileID: 0}
  m_PrefabAsset: {fileID: 0}
  m_GameObject: {fileID: 0}
  m_Enabled: 1
  m_EditorHideFlags: 0
  m_Script: {fileID: 11500000, guid: 56f2490b52fa89c48a5646ebac4f742a, type: 3}
  m_Name: SupermarketFreezer
  m_EditorClassIdentifier: 
  presetName: SupermarketFreezer
  itemsSold:
  - {fileID: 11400000, guid: bc180aa46a8231c4b904208b54e04909, type: 2}
  - {fileID: 11400000, guid: b66f8d96cacb7874883c15ad19bdff28, type: 2}
  - {fileID: 11400000, guid: f13052fe756467b4198be994c46265c1, type: 2}
  createReceipt: 1
  purchaseAudio: {fileID: 0}
  syncDiskSlots: 0
  fromManufacturers: 
  syncDisks: []
