%YAML 1.1
%TAG !u! tag:unity3d.com,2011:
--- !u!114 &11400000
MonoBehaviour:
  m_ObjectHideFlags: 0
  m_CorrespondingSourceObject: {fileID: 0}
  m_PrefabInstance: {fileID: 0}
  m_PrefabAsset: {fileID: 0}
  m_GameObject: {fileID: 0}
  m_Enabled: 1
  m_EditorHideFlags: 0
  m_Script: {fileID: 11500000, guid: 56f2490b52fa89c48a5646ebac4f742a, type: 3}
  m_Name: SupermarketFruit
  m_EditorClassIdentifier: 
  presetName: SupermarketFruit
  itemsSold:
  - {fileID: 11400000, guid: 0085aa4a1954dcb45b9ef8a9a82e6833, type: 2}
  createReceipt: 1
  purchaseAudio: {fileID: 0}
  syncDiskSlots: 0
  fromManufacturers: 
  syncDisks: []
