%YAML 1.1
%TAG !u! tag:unity3d.com,2011:
--- !u!114 &11400000
MonoBehaviour:
  m_ObjectHideFlags: 0
  m_CorrespondingSourceObject: {fileID: 0}
  m_PrefabInstance: {fileID: 0}
  m_PrefabAsset: {fileID: 0}
  m_GameObject: {fileID: 0}
  m_Enabled: 1
  m_EditorHideFlags: 0
  m_Script: {fileID: 11500000, guid: 3f919a38bda07a046a96d2a335329b22, type: 3}
  m_Name: CityHall
  m_EditorClassIdentifier: 
  presetName: CityHall
  companyCategories: 
  isIllegal: 0
  useBuildingOverrideName: 1
  overrideSuffixList: []
  useStreetNameChance: 0
  useDistrictNameChance: 0
  useOwnerFirstNameChance: 0
  useOwnerSurNameChance: 0
  useCompanyNameListChance: 1
  aliterationWeight: 0
  prefixChance: 0
  prefixList: []
  mainChance: 1
  mainNamingList:
  - greekalphabet
  suffixList:
  - company.suffix.enforcers
  theRules: []
  minimumSalary: 3
  topSalary: 3
  payGradeCurve:
    serializedVersion: 2
    m_Curve:
    - serializedVersion: 3
      time: 0
      value: 0
      inSlope: 0
      outSlope: 1
      tangentMode: 0
      weightedMode: 0
      inWeight: 0.33333334
      outWeight: 0.33333334
    - serializedVersion: 3
      time: 1
      value: 1
      inSlope: 1
      outSlope: 0
      tangentMode: 0
      weightedMode: 0
      inWeight: 0.33333334
      outWeight: 0.33333334
    m_PreInfinity: 2
    m_PostInfinity: 2
    m_RotationOrder: 4
  publicFacing: 1
  isSelfEmployed: 0
  autoCreate: 0
  priority: 5
  cityPopRatio: 0.03
  minimumNumber: 2
  maximumNumber: 10
  menus: []
  recordSalesData: 0
  previousFakeSalesRecords: 5
  requiredTraits: []
  enableSelling: 0
  enableSellingOfIllegalItems: 0
  sellValueMultiplier: 0.5
  possibleUniformColours:
  - {r: 0.46226418, g: 0, b: 0.023090152, a: 1}
  workHours: {fileID: 11400000, guid: d438cabd4f517e943a312b09be888474, type: 2}
  structure: {fileID: 11400000, guid: 2f9ffd635e595a340b8421b3e9e7b302, type: 2}
  controlsBuildingSurveillance: 0
