%YAML 1.1
%TAG !u! tag:unity3d.com,2011:
--- !u!114 &11400000
MonoBehaviour:
  m_ObjectHideFlags: 0
  m_CorrespondingSourceObject: {fileID: 0}
  m_PrefabInstance: {fileID: 0}
  m_PrefabAsset: {fileID: 0}
  m_GameObject: {fileID: 0}
  m_Enabled: 1
  m_EditorHideFlags: 0
  m_Script: {fileID: 11500000, guid: a4297aa2cd604254b9ff3ad39191d95f, type: 3}
  m_Name: item_Small
  m_EditorClassIdentifier: 
  presetName: item_Small
  slotPriority: 3
  modelActive: 1
  idleClip: {fileID: 7400000, guid: 485e8ce622d619a4388dae0ec2a03abe, type: 2}
  selectionIcon: {fileID: 21300000, guid: 6c2b5019e1744b3459fe4546f690c412, type: 3}
  summaryMsgID: 
  triggerTutorial: 
  disableBracketDisplayName: 0
  drawSpeed: 1.5
  holsterSpeed: 2.2
  leftHandObject: {fileID: 0}
  rightHandObject: {fileID: 0}
  spawnScale: {x: 4100, y: 4100, z: 4100}
  useFoodSlotItem: 1
  useAlternateTrashObjects: 0
  leftHandObjectTrash: {fileID: 0}
  rightHandObjectTrash: {fileID: 0}
  actions:
  - interactionName: Put Down
    action: {fileID: 11400000, guid: 99909e12f1186994c877e267f685a660, type: 2}
    useDefaultKeySetting: 1
    keyOverride: 0
    specialCase: 0
    usableByAI: 0
    aiUsageDelay: 0
    effectSwitchStates: []
    onlyActiveIf: []
    actionIsIllegal: 0
    availableWhileIllegal: 1
    availableWhileWitnessesToIllegal: 0
    availableWhileLockedIn: 1
    availableWhileJumping: 1
    actionCost: 0
    useStrikethrough: 0
    isHidingPlace: 0
    onlyHidingPlaceIfPublic: 0
    soundEvent: {fileID: 0}
    playOnTrigger: 0
    availability: 7
    attackMainSpeed: 1
    attackTrasition: {fileID: 0}
    attackDelay: 0
    mainSpecialAction: 7
    mainUseSpecialColour: 0
    mainSpecialColour: {r: 0, g: 0, b: 0, a: 0}
    attackEvent: {fileID: 0}
    useCameraJolt: 0
    joltXRange: {x: 0, y: 0}
    joltYRange: {x: 0, y: 0}
    joltZRange: {x: 0, y: 0}
    joltAmplitude: 1
    joltSpeed: 1
  - interactionName: Throw
    action: {fileID: 11400000, guid: 1969befc999008a44af27dbb28187121, type: 2}
    useDefaultKeySetting: 1
    keyOverride: 0
    specialCase: 0
    usableByAI: 0
    aiUsageDelay: 0
    effectSwitchStates: []
    onlyActiveIf: []
    actionIsIllegal: 0
    availableWhileIllegal: 1
    availableWhileWitnessesToIllegal: 0
    availableWhileLockedIn: 1
    availableWhileJumping: 1
    actionCost: 0
    useStrikethrough: 0
    isHidingPlace: 0
    onlyHidingPlaceIfPublic: 0
    soundEvent: {fileID: 0}
    playOnTrigger: 0
    availability: 5
    attackMainSpeed: 2
    attackTrasition: {fileID: 0}
    attackDelay: 0
    mainSpecialAction: 8
    mainUseSpecialColour: 0
    mainSpecialColour: {r: 0, g: 0, b: 0, a: 0}
    attackEvent: {fileID: 0}
    useCameraJolt: 0
    joltXRange: {x: 0, y: 0}
    joltYRange: {x: 0, y: 0}
    joltZRange: {x: 0, y: 0}
    joltAmplitude: 1
    joltSpeed: 1
  drawnNerveModifier: 0
  barkTriggerChance: 0
  bark: 34
  compatibleWithLockedIn: 1
  compatibleWithHidden: 1
  equipSoundDelay: 0
  equipEvent: {fileID: 0}
  holsterSoundDelay: 0
  holsterEvent: {fileID: 0}
  activeLoop: {fileID: 0}
