"Game Reference Key","Notes","Displayed Text","Alternate Text","Frequency","Requires Suffix","Misc."
"[The key used by the game to find strings]","[Not loaded into the game, for explanation only]","[The displayed string in-game]","[Alternate displayed string, eg. Nickname]","[For lists]","[Does this require a suffix for naming?]","[Miscellaneous]"
"— ","— ","— ","— ","— ","— ","— "
"vintagetelephone","","Teléfono","",,"","10:31 01/12/2022"
"telephone","","Teléfono","",,"","10:31 01/12/2022"
"blueprints","","Planos","",,"","10:31 01/12/2022"
"photo","","Foto","",,"","10:31 01/12/2022"
"fingerprint","","Huella dactilar","",,"","10:31 01/12/2022"
"wok","","Wok","",,"","10:31 01/12/2022"
"noodles","","Noodles","",,"","10:31 01/12/2022"
"luckycat","","Gato de la suerte","",,"","10:31 01/12/2022"
"pepper","","Pimienta","",,"","10:31 01/12/2022"
"hammer","","Martillo","",,"","10:31 01/12/2022"
"sitfloor","","Planta","",,"","10:31 01/12/2022"
"diamond","","Diamante","",,"","10:31 01/12/2022"
"poisonbottle","","Veneno","",,"","10:31 01/12/2022"
"turpentine","","Aguarrás","",,"","10:31 01/12/2022"
"gemsteader","","Gemsteader","",,"","10:31 01/12/2022"
"elevatorcontrols","","Controles del ascensor","",,"","10:31 01/12/2022"
"jobposting","","Publicación de oferta de empleo","",,"","10:31 01/12/2022"
"key","","Llave","",,"","10:31 01/12/2022"
"keytabletoponly","","Llave","",,"","10:31 01/12/2022"
"building","","edificio","",,"","10:31 01/12/2022"
"menu","","Menú","",,"","10:31 01/12/2022"
"birthdaycard","","Tarjeta de cumpleaños","",,"","10:31 01/12/2022"
"photograph","","Fotografía","",,"","10:31 01/12/2022"
"citizen","","Ciudadano","",,"","10:31 01/12/2022"
"citizen_F","","Ciudadana","",,"","10:31 01/12/2022"
"citizen_NB","","Ciudadane","",,"","10:31 01/12/2022"
"lightswitch","","Interruptor de la luz","",,"","10:31 01/12/2022"
"door","","Puerta","",,"","10:31 01/12/2022"
"telephonerouterdoor","","Puerta","",,"","10:31 01/12/2022"
"doorhandle","","Pomo de puerta","",,"","10:31 01/12/2022"
"location","","ubicación","",,"","10:31 01/12/2022"
"buildingdirectory","","Directorio de edificios","",,"","10:31 01/12/2022"
"employeedirectory","","Directorio de empleados","",,"","10:31 01/12/2022"
"citydirectory","","Guía telefónica","",,"","10:25 21/09/2023"
"ceilingbulb","","Luz del techo","",,"","10:31 01/12/2022"
"1930sceilinglight","","Luz del techo","",,"","10:31 01/12/2022"
"domedceilinglightbright","","Luz del techo","",,"","10:31 01/12/2022"
"domedceilinglight","","Luz del techo","",,"","10:31 01/12/2022"
"doorunderneathpeek","","Fisgar bajo la puerta","",,"","10:31 01/12/2022"
"television","","Televisor","",,"","10:31 01/12/2022"
"fridge","","Nevera","",,"","10:31 01/12/2022"
"fridgedoor","","Nevera","",,"","10:31 01/12/2022"
"supermarketfridge","","Nevera","",,"","10:31 01/12/2022"
"chair","","Silla","",,"","10:31 01/12/2022"
"model14chair","","Silla","",,"","10:31 01/12/2022"
"toilet","","Retrete","",,"","10:31 01/12/2022"
"bed","","Cama","",,"","10:31 01/12/2022"
"playerbedsleepb","","Cama","",,"","10:31 01/12/2022"
"playerbedsleepc","","Cama","",,"","10:31 01/12/2022"
"bedsleepleft","","Cama","",,"","10:31 01/12/2022"
"bedsleepright","","Cama","",,"","10:31 01/12/2022"
"bedsleepgetready","","Cama","",,"","10:31 01/12/2022"
"shopcounter","","Mostrador","",,"","10:31 01/12/2022"
"counter","","Mostrador","",,"","10:31 01/12/2022"
"drawera","","Cajón","",,"","10:31 01/12/2022"
"drawerb","","Cajón","",,"","10:31 01/12/2022"
"drawerc","","Cajón","",,"","10:31 01/12/2022"
"drawerd","","Cajón","",,"","10:31 01/12/2022"
"drawere","","Cajón","",,"","10:31 01/12/2022"
"drawerf","","Cajón","",,"","10:31 01/12/2022"
"drawerg","","Cajón","",,"","10:31 01/12/2022"
"drawer","","Cajón","",,"","10:31 01/12/2022"
"bedsidelamp","","Lámpara","",,"","10:31 01/12/2022"
"residentscontract","","Contrato de arrendamiento","",,"","10:31 01/12/2022"
"jobnote","","Ofertas de empleo","",,"","10:31 01/12/2022"
"companyroster","","Detalles de empleados","",,"","10:31 01/12/2022"
"tradingcard","","Cromo","",,"","10:31 01/12/2022"
"lockera","","Taquilla","",,"","10:31 01/12/2022"
"lockerb","","Taquilla","",,"","10:31 01/12/2022"
"lockerc","","Taquilla","",,"","10:31 01/12/2022"
"lockerd","","Taquilla","",,"","10:31 01/12/2022"
"lockere","","Taquilla","",,"","10:31 01/12/2022"
"lockerf","","Taquilla","",,"","10:31 01/12/2022"
"locker","","Taquilla","",,"","10:31 01/12/2022"
"countera","","Alacena","",,"","10:31 01/12/2022"
"counterb","","Alacena","",,"","10:31 01/12/2022"
"counterc","","Alacena","",,"","10:31 01/12/2022"
"counterd","","Alacena","",,"","10:31 01/12/2022"
"tapa","","Grifo","",,"","10:31 01/12/2022"
"tapb","","Grifo","",,"","10:31 01/12/2022"
"tapf","","Grifo","",,"","10:31 01/12/2022"
"tapg","","Grifo","",,"","10:31 01/12/2022"
"businesscard","","Tarjeta de visita","",,"","10:31 01/12/2022"
"hidingplace","","Escondite","",,"","10:31 01/12/2022"
"nameplacard","","Placa con nombre","",,"","10:31 01/12/2022"
"desklamp","","Lámpara de escritorio","",,"","10:31 01/12/2022"
"microcruncher","","Microcruncher","",,"","10:31 01/12/2022"
"airvent","","Conducto de ventilación","",,"","10:31 01/12/2022"
"cabineta","","Armario","",,"","10:31 01/12/2022"
"cabinet","","Armario","",,"","10:31 01/12/2022"
"cabinetignoreparent","","Armario","",,"","10:31 01/12/2022"
"shopcounterwork","","Mostrador","",,"","10:31 01/12/2022"
"shopcounterbuy","","Mostrador","",,"","10:31 01/12/2022"
"keypad","","Teclado numérico","",,"","10:31 01/12/2022"
"officecubicle","","Cubículo de oficina","",,"","10:31 01/12/2022"
"calendar","","Calendario","",,"","10:31 01/12/2022"
"ovena","","Horno","",,"","10:31 01/12/2022"
"oven","","Horno","",,"","10:31 01/12/2022"
"pinnednote","","Nota","",,"","10:31 01/12/2022"
"note","","Nota","",,"","10:31 01/12/2022"
"playerstickynote","","Nota","",,"","10:31 01/12/2022"
"binnote","","Nota","",,"","10:31 01/12/2022"
"murder_noteonboard","","Nota","",,"","10:31 01/12/2022"
"murder_notetoself","","Nota","",,"","10:31 01/12/2022"
"murder_notefromsupervisor","","Nota","",,"","10:31 01/12/2022"
"doormata","","Felpudo","",,"","10:31 01/12/2022"
"doormat","","Felpudo","",,"","10:31 01/12/2022"
"from","","de","",,"","10:31 01/12/2022"
"workid","","ID laboral","",,"","10:31 01/12/2022"
"starchkola","","Kola","",,"","10:31 01/12/2022"
"salesrecords","","Registro de ventas","",,"","10:31 01/12/2022"
"starch-kola","","Starch Kola","",,"","10:31 01/12/2022"
"diary","","Diario","",,"","10:31 01/12/2022"
"murder_sightinglog","","Diario","",,"","10:31 01/12/2022"
"naiwongbao","","Nai wong bao","",,"","10:31 01/12/2022"
"suitcase","","Maleta","",,"","10:31 01/12/2022"
"writtenletter","","Carta","",,"","10:31 01/12/2022"
"letter","","Carta","",,"","10:31 01/12/2022"
"candorsubscription","","Carta","",,"","10:31 01/12/2022"
"lettergeneral","","Carta","",,"","10:31 01/12/2022"
"cheatersletter","","Carta","",,"","10:31 01/12/2022"
"murder_halfwrittenletter","","Carta","",,"","10:31 01/12/2022"
"travelreceipt","","Recibo de viaje","",,"","10:31 01/12/2022"
"vmailletter","","V-mail imprimido","",,"","10:31 01/12/2022"
"printedvmail","","V-mail imprimido","",,"","10:31 01/12/2022"
"printedvmailstatic","","V-mail imprimido","",,"","10:31 01/12/2022"
"payphone","","Teléfono público","",,"","10:31 01/12/2022"
"payphonestreet","","Teléfono público","",,"","10:31 01/12/2022"
"stovetopkettle","","Hervidor","",,"","10:31 01/12/2022"
"smallcrate","","Caja pequeña","",,"","10:31 01/12/2022"
"paperclip","","Clip","",,"","10:31 01/12/2022"
"hairpin","","Horquilla","",,"","10:31 01/12/2022"
"dinerchaircloseb","","Asiento","",,"","10:31 01/12/2022"
"dinerchairfarc","","Asiento","",,"","10:31 01/12/2022"
"dinerchairclosec","","Asiento","",,"","10:31 01/12/2022"
"dinerchairfarb","","Asiento","",,"","10:31 01/12/2022"
"elevatorcallbuttonupa","","Botón de llamada","",,"","10:31 01/12/2022"
"elevatorcallbuttondownb","","Botón de llamada","",,"","10:31 01/12/2022"
"watch","","reloj","",,"","10:31 01/12/2022"
"nothing","","nada","",,"","10:31 01/12/2022"
"fists","","puños","",,"","10:31 01/12/2022"
"wine","","Ruby Choice","",,"","10:31 01/12/2022"
"friedchicken","","Pollo frito","",,"","10:31 01/12/2022"
"mustard","","Mostaza","",,"","10:31 01/12/2022"
"ketchup","","Kétchup","",,"","10:31 01/12/2022"
"vinegar","","Vinagre","",,"","10:31 01/12/2022"
"salt","","Sal","",,"","10:31 01/12/2022"
"pickapeppersauce","","Salsa picante jamaicana","",,"","10:31 01/12/2022"
"lighter","","Mechero","",,"","10:31 01/12/2022"
"ashtray","","Cenicero","",,"","10:31 01/12/2022"
"ashtrayeatery","","Cenicero","",,"","10:31 01/12/2022"
"ashtrayhome","","Cenicero","",,"","10:31 01/12/2022"
"dirtyplate","","Plato sucio","",,"","10:31 01/12/2022"
"commemorativebaseball","","Bola de béisbol conmemorativa","",,"","10:31 01/12/2022"
"cigarettes","","Cigarrillos Holy Smokes","",,"","10:31 01/12/2022"
"addressbook","","Libreta de direcciones","",,"","10:31 01/12/2022"
"cleanplate","","Plato limpio","",,"","10:31 01/12/2022"
"breathmints","","Caramelos mentolados","",,"","10:31 01/12/2022"
"hamburgerinbox","","Hamburguesa","",,"","10:31 01/12/2022"
"hamburger","","Hamburguesa","",,"","10:31 01/12/2022"
"elevatordoorc","","Puerta de ascensor","",,"","10:31 01/12/2022"
"elevatordoor","","Puerta de ascensor","",,"","10:31 01/12/2022"
"kitchencounter","","Encimera de cocina","",,"","10:31 01/12/2022"
"cooker","","Fogones","",,"","10:31 01/12/2022"
"cashregister","","Caja registradora","",,"","10:31 01/12/2022"
"nakedbulb","","Bombilla","",,"","10:31 01/12/2022"
"domedceilinglightdim","","Plafón","",,"","10:31 01/12/2022"
"streetlight","","Farola","",,"","10:31 01/12/2022"
"streetsteamvent","","Salida de humos","",,"","10:31 01/12/2022"
"transformertower","","Torre eléctrica","",,"","10:31 01/12/2022"
"mangorice","","Arroz con mango","",,"","10:31 01/12/2022"
"officelight","","Lámpara de oficina","",,"","10:31 01/12/2022"
"takeawaycoffee","","Café","",,"","10:31 01/12/2022"
"mugcoffee","","Café","",,"","10:31 01/12/2022"
"antidepressants","","Victobutrol","",,"","10:31 01/12/2022"
"painkillers","","Paxadol","",,"","10:31 01/12/2022"
"sleeping pills","","Dorma-Dix","",,"","10:31 01/12/2022"
"barstool","","Taburete","",,"","10:31 01/12/2022"
"vanitystool","","Taburete","",,"","10:31 01/12/2022"
"vendingmachine","","Máquina expendedora","",,"","10:31 01/12/2022"
"vendingmachinekola","","Máquina expendedora","",,"","10:31 01/12/2022"
"vendingmachinesnacks","","Máquina expendedora","",,"","10:31 01/12/2022"
"vendingmachineelgen","","Máquina expendedora","",,"","10:31 01/12/2022"
"vendingmachinenewspapers","","Máquina expendedora","",,"","10:31 01/12/2022"
"showerdoor","","Mampara","",,"","10:31 01/12/2022"
"showertap","","Ducha","",,"","10:31 01/12/2022"
"shower","","Ducha","",,"","10:31 01/12/2022"
"gramophone","","Gramófono","",,"","10:31 01/12/2022"
"bookcase","","Estantería","",,"","10:31 01/12/2022"
"bookcase30s","","Estantería","",,"","10:31 01/12/2022"
"toiletflushchain","","Cadena de inodoro","",,"","10:31 01/12/2022"
"toiletseat","","Asiento de inodoro","",,"","10:31 01/12/2022"
"slatdoor","","Puerta corredera","",,"","10:31 01/12/2022"
"employeerecord","","Historial de empleado","",,"","10:31 01/12/2022"
"assortedbooks2","","Libros variados","",,"","10:31 01/12/2022"
"assortedbooks1","","Libros variados","",,"","10:31 01/12/2022"
"birthcertificate","","Certificado de nacimiento","",,"","10:31 01/12/2022"
"bankstatement","","Extracto bancario","",,"","10:31 01/12/2022"
"medicaldetails","","Información médica","",,"","10:31 01/12/2022"
"homefile","","Archivos","",,"","10:31 01/12/2022"
"homefiles","","Archivos","",,"","10:31 01/12/2022"
"alarmswitch","","Interruptor de alarma","",,"","10:31 01/12/2022"
"alarmsiren","","Sirena de alarma","",,"","10:31 01/12/2022"
"securitydoor","","Puerta de seguridad","",,"","10:31 01/12/2022"
"securitycamera","","Cámara de seguridad","",,"","10:31 01/12/2022"
"sentrygun","","Pistola de vigilante","",,"","10:31 01/12/2022"
"clock","","Reloj","",,"","10:31 01/12/2022"
"vmailsurveillance","","Vigilancia de v-mails","",,"","10:31 01/12/2022"
"printedsurveillance","","Foto de seguridad","",,"","10:31 01/12/2022"
"burningbarrel","","Barril ardiendo","",,"","10:31 01/12/2022"
"deadbodycheck","","Cadáver","",,"","10:31 01/12/2022"
"idcard","","Tarjeta de identificación","",,"","10:31 01/12/2022"
"entrywound","","Herida de entrada","",,"","10:31 01/12/2022"
"exitwound","","Herida de salida","",,"","10:31 01/12/2022"
"coin","","Moneda","",,"","10:31 01/12/2022"
"worldcoin","","Moneda","",,"","10:31 01/12/2022"
"tapleft","","Grifo de agua fría","",,"","10:31 01/12/2022"
"tapright","","Grifo de agua caliente","",,"","10:31 01/12/2022"
"cigaretteend","","Colilla","",,"","10:31 01/12/2022"
"donut","","Dónut","",,"","10:31 01/12/2022"
"cheeseburgerinbox","","Hamburguesa con queso","",,"","10:31 01/12/2022"
"cheeseburger","","Hamburguesa con queso","",,"","10:31 01/12/2022"
"reubensandwich","","Sándwich Reuben","",,"","10:31 01/12/2022"
"dragondog","","Perrito dragón","",,"","10:31 01/12/2022"
"kabuliburger","","Hamburguesa Kabuli","",,"","10:31 01/12/2022"
"toothbrushcup","","Vaso para cepillos de dientes","",,"","10:31 01/12/2022"
"glasses","","Anteojos","",,"","10:31 01/12/2022"
"baseballcap","","Gorra de béisbol","",,"","10:31 01/12/2022"
"toothbrush","","Cepillo de dientes","",,"","10:31 01/12/2022"
"antispasmodics","","Tetrasoothe","",,"","10:31 01/12/2022"
"hearingaid","","Audífono","",,"","10:31 01/12/2022"
"deskfan","","Ventilador de escritorio","",,"","10:31 01/12/2022"
"toothpaste","","Pasta dentífrica","",,"","10:31 01/12/2022"
"paperstack","","Pila de papeles","",,"","10:31 01/12/2022"
"workdocument","","Documento de trabajo","",,"","10:31 01/12/2022"
"document","","Documento","",,"","10:31 01/12/2022"
"documentgeneral","","Documento","",,"","10:31 01/12/2022"
"sensitivedocument1","","Documento","",,"","10:31 01/12/2022"
"bourbon","","Bourbon Old Wheel","",,"","10:31 01/12/2022"
"cider","","Sidra Bobbin","",,"","10:31 01/12/2022"
"vodka","","Vodka Noire","",,"","10:31 01/12/2022"
"fishlafel","","Falafel de pescado","",,"","10:31 01/12/2022"
"mushypeas","","Pasta de guisantes","",,"","10:31 01/12/2022"
"crepe","","Crep","",,"","10:31 01/12/2022"
"fishnchipsinbox","","Fish & chips","",,"","10:31 01/12/2022"
"fishnchips","","Fish & chips","",,"","10:31 01/12/2022"
"stinkytofu","","Tofu apestoso","",,"","10:31 01/12/2022"
"poutineinbox","","Poutine","",,"","10:31 01/12/2022"
"poutine","","Poutine","",,"","10:31 01/12/2022"
"takoyaki","","Takoyaki","",,"","10:31 01/12/2022"
"gyro","","Kebab","",,"","10:31 01/12/2022"
"bunnychow","","Bunny chow","",,"","10:31 01/12/2022"
"bananacue","","Banana cue","",,"","10:31 01/12/2022"
"hotdog","","Perrito caliente","",,"","10:31 01/12/2022"
"mugtea","","Té","",,"","10:31 01/12/2022"
"mugempty","","Taza vacía","",,"","10:31 01/12/2022"
"tinnedfood","","Comida en lata","",,"","10:31 01/12/2022"
"megamite","","Megamite","",,"","10:31 01/12/2022"
"comb","","Peine","",,"","10:31 01/12/2022"
"cigarbox","","Caja de puros","",,"","10:31 01/12/2022"
"cigar","","Puro","",,"","10:31 01/12/2022"
"synthmilk","","Leche sintética","",,"","10:31 01/12/2022"
"teapot","","Tetera","",,"","10:31 01/12/2022"
"pipe","","Pipa","",,"","10:31 01/12/2022"
"tobacco","","Tabaco","",,"","10:31 01/12/2022"
"washingupliquid","","Detergente Fizz Dish","",,"","10:31 01/12/2022"
"chilledbeef","","Carne sintética de ternera","",,"","10:31 01/12/2022"
"chilledpork","","Carne sintética de cerdo","",,"","10:31 01/12/2022"
"chilledchicken","","Carne sintética de pollo","",,"","10:31 01/12/2022"
"chessset","","Juego de ajedrez","",,"","10:31 01/12/2022"
"knittingneedle","","Aguja de punto","",,"","10:31 01/12/2022"
"wool","","Lana","",,"","10:31 01/12/2022"
"thread","","Hilo","",,"","10:31 01/12/2022"
"paintbrushcup","","Vaso","",,"","10:31 01/12/2022"
"paintbrush","","Pincel","",,"","10:31 01/12/2022"
"paintbrushvert","","Pincel","",,"","10:31 01/12/2022"
"pallette","","Paleta","",,"","10:31 01/12/2022"
"painttube","","Tubo de pintura","",,"","10:31 01/12/2022"
"crumpledpaperdrawing","","Papel arrugado","",,"","10:31 01/12/2022"
"crumpledpaperwriter","","Papel arrugado","",,"","10:31 01/12/2022"
"crumpledpaper","","Papel arrugado","",,"","10:31 01/12/2022"
"crumpledblank","","Papel arrugado","",,"","10:31 01/12/2022"
"crumpledwriting","","Papel arrugado","",,"","10:31 01/12/2022"
"crumpleddrawing","","Papel arrugado","",,"","10:31 01/12/2022"
"crumpledpapernamecypher","","Papel arrugado","",,"","10:31 01/12/2022"
"crumplednamecipher","","Papel arrugado","",,"","10:31 01/12/2022"
"typewriter","","Máquina de escribir","",,"","10:31 01/12/2022"
"inouttray","","Bandeja","",,"","10:31 01/12/2022"
"plantpot","","Maceta","",,"","10:31 01/12/2022"
"safe","","Caja fuerte","",,"","10:31 01/12/2022"
"walkingstick","","Bastón","",,"","10:31 01/12/2022"
"opticiansprescription","","Prescripción del oculista","",,"","10:31 01/12/2022"
"doctorsprescription","","Prescripción médica","",,"","10:31 01/12/2022"
"crutch","","Muleta","",,"","10:31 01/12/2022"
"wardrobe","","Armario","",,"","10:31 01/12/2022"
"displaycabinetdoor","","Vitrina","",,"","10:31 01/12/2022"
"displaycabinet","","Vitrina","",,"","10:31 01/12/2022"
"kitchenbin","","Basura","",,"","10:31 01/12/2022"
"atriumlight","","Lámpara de atrio","",,"","10:31 01/12/2022"
"hanginglight","","Lámpara de techo","",,"","10:31 01/12/2022"
"shallowhanginglight","","Lámpara de techo","",,"","10:31 01/12/2022"
"interestbookshelf","","Libro","",,"","10:31 01/12/2022"
"interestbooknonshelfsecret","","Libro","",,"","10:31 01/12/2022"
"interestbooknonshelf","","Libro","",,"","10:31 01/12/2022"
"sharpener","","Sacapuntas","",,"","10:31 01/12/2022"
"eraser","","Goma de borrar","",,"","10:31 01/12/2022"
"newspaper","","Periódico","",,"","10:31 01/12/2022"
"applecore","","Corazón de manzana","",,"","10:31 01/12/2022"
"applecoremess","","Corazón de manzana","",,"","10:31 01/12/2022"
"screwdriver","","Destornillador","",,"","10:31 01/12/2022"
"chocolatebar","","Chocolatina Starch","",,"","10:31 01/12/2022"
"plunger","","Desatascador","",,"","10:31 01/12/2022"
"battery","","Pila de carbón-zinc","",,"","10:31 01/12/2022"
"packingtape","","Cinta de embalar","",,"","10:31 01/12/2022"
"chocolatebarwrapper","","Envoltorio de chocolatina Starch","",,"","10:31 01/12/2022"
"battery9v","","Pila de carbón-zinc x2","",,"","10:31 01/12/2022"
"soappads","","Pastillas de jabón Fizz","",,"","10:31 01/12/2022"
"apple","","Manzana","",,"","10:31 01/12/2022"
"ducttape","","Cinta americana","",,"","10:31 01/12/2022"
"toycar","","Coche de juguete","",,"","10:31 01/12/2022"
"croquemonsieur","","Croque monsieur","",,"","10:31 01/12/2022"
"yakisobapan","","Yakisoba pan","",,"","10:31 01/12/2022"
"opticalcammo","","Camuflaje óptico","",,"","10:31 01/12/2022"
"handcuffs","","Esposas","",,"","10:31 01/12/2022"
"doorwedge","","Cuña para una puerta","",,"","10:31 01/12/2022"
"doorwedgeactive","","Cuña para una puerta","",,"","10:31 01/12/2022"
"camera","","Cámara","",,"","10:31 01/12/2022"
"codebreaker","","Descifrador","",,"","10:31 01/12/2022"
"codebreakeractive","","Descifrador","",,"","10:31 01/12/2022"
"fingerptintscanner","","Escáner de huellas","",,"","15:12 06/02/2023"
"printscanner","","Escáner de huellas","",,"","15:12 06/02/2023"
"hand","","Mano","",,"","10:31 01/12/2022"
"bullethole","","Agujero de bala","",,"","10:31 01/12/2022"
"pistolbulletcasing","","Cargador de 8 mm vacío","",,"","10:31 01/12/2022"
"probationnotice","","Aviso de periodo de prueba","",,"","10:31 01/12/2022"
"adgemsteader","","Publicidad","",,"","10:31 01/12/2022"
"addove","","Publicidad","",,"","10:31 01/12/2022"
"adkensington","","Publicidad","",,"","10:31 01/12/2022"
"adstarch","","Publicidad","",,"","10:31 01/12/2022"
"adelgen","","Publicidad","",,"","10:31 01/12/2022"
"adcandorright","","Publicidad","",,"","10:31 01/12/2022"
"adcandorleft","","Publicidad","",,"","10:31 01/12/2022"
"kolasweepstake","","Publicidad","",,"","10:31 01/12/2022"
"adthefields","","Publicidad","",,"","10:31 01/12/2022"
"redgumsleaflet1","","Folleto","",,"","10:31 01/12/2022"
"redgumsleaflet2","","Folleto","",,"","10:31 01/12/2022"
"shoppinglist","","Lista de la compra","",,"","10:31 01/12/2022"
"storagebox","","Caja de almacenaje","",,"","10:31 01/12/2022"
"storageboxemptylocked","","Caja de almacenaje","",,"","10:31 01/12/2022"
"residentroster","","Lista de residentes","",,"","10:31 01/12/2022"
"residentfile","","Archivo de residente","",,"","10:31 01/12/2022"
"toaster","","Tostadora","",,"","10:31 01/12/2022"
"shoepairheels","","Zapatos de tacón","",,"","10:31 01/12/2022"
"shoesingleheel","","Zapato de tacón","",,"","10:31 01/12/2022"
"coffeemachine","","Máquina de café","",,"","10:31 01/12/2022"
"mokapot","","Cafetera","",,"","10:31 01/12/2022"
"shoepairbasic","","Zapatos","",,"","10:31 01/12/2022"
"flowersinvase","","Flores","",,"","10:31 01/12/2022"
"flowerbunch","","Ramo de flores","",,"","10:31 01/12/2022"
"shoepairboots","","Botas","",,"","10:31 01/12/2022"
"woodencrate","","Caja de madera","",,"","10:31 01/12/2022"
"cardboardboxmediumopen","","Caja de cartón","",,"","10:31 01/12/2022"
"cardboardboxmedium","","Caja de cartón","",,"","10:31 01/12/2022"
"cardboardboxsmall","","Caja de cartón","",,"","10:31 01/12/2022"
"cardboardboxlarge","","Caja de cartón","",,"","10:31 01/12/2022"
"cardboardboxflat","","Caja de cartón","",,"","10:31 01/12/2022"
"binbagindoors","","Bolsa de basura","",,"","10:31 01/12/2022"
"binbagstreet","","Bolsa de basura","",,"","10:31 01/12/2022"
"matchbookstarchcandy","","Caja de cerillas","",,"","10:25 21/09/2023"
"matchbookmegamite","","Caja de cerillas","",,"","10:25 21/09/2023"
"matchbookgemsteader","","Caja de cerillas","",,"","10:25 21/09/2023"
"matchbookstarchkola","","Caja de cerillas","",,"","10:25 21/09/2023"
"matchbooknoirvodka","","Caja de cerillas","",,"","10:25 21/09/2023"
"matchbookfizz","","Caja de cerillas","",,"","10:25 21/09/2023"
"matchbookminutemints","","Caja de cerillas","",,"","10:25 21/09/2023"
"matchbookholysmokes","","Caja de cerillas","",,"","10:25 21/09/2023"
"matchbookspartaninsurance","","Caja de cerillas","",,"","10:25 21/09/2023"
"vintageofficechair","","Silla de oficina","",,"","10:31 01/12/2022"
"murderweaponsingleton","","Pistola semiautomática","",,"","10:31 01/12/2022"
"receipt","","Recibo","",,"","10:31 01/12/2022"
"policesupportflyer","","Folleto","",,"","10:31 01/12/2022"
"policesupportgroup","","Folleto","",,"","10:31 01/12/2022"
"barrel","","Bidón","",,"","10:31 01/12/2022"
"foodtruck","","Gastroneta","",,"","10:31 01/12/2022"
"ovenlid","","Tapa para horno","",,"","10:31 01/12/2022"
"telephoneboxdoor","","Puerta de cabina","",,"","10:31 01/12/2022"
"grandfatherclock","","Reloj de pared","",,"","10:31 01/12/2022"
"machinery","","Maquinaria","",,"","10:31 01/12/2022"
"21ammolarge","","Munición para pistola","",,"","10:31 01/12/2022"
"21ammosmall","","Munición para pistola","",,"","10:31 01/12/2022"
"huntingammo","","Munición para ciervos","",,"","10:31 01/12/2022"
"fireextinguisher","","Extintor","",,"","10:31 01/12/2022"
"microwave","","Microondas","",,"","10:31 01/12/2022"
"teabox","","Caja de té","",,"","10:31 01/12/2022"
"globe","","Globo terráqueo","",,"","10:31 01/12/2022"
"semiautomaticpistol","","Lazarus 5","",,"","10:31 01/12/2022"
"pistolsilencer","","Silenciador para pistola","",,"","10:31 01/12/2022"
"bamboosteamer","","Vaporera de bambú","",,"","10:31 01/12/2022"
"buckshotammo","","Munición de perdigones","",,"","10:31 01/12/2022"
"calligraphyset","","Set de caligrafía","",,"","10:31 01/12/2022"
"scentedcandles","","Velas aromáticas","",,"","10:31 01/12/2022"
"teacup","","Taza de té","",,"","10:31 01/12/2022"
"cuckooclock","","Reloj de cuco","",,"","10:31 01/12/2022"
"309ammo","","Munición para rifle","",,"","10:31 01/12/2022"
"shoesinglebasic","","Zapato","",,"","10:31 01/12/2022"
"syncdisk","","SyncDisk","",,"","10:31 01/12/2022"
"dustbin","","Cubo de basura","",,"","10:31 01/12/2022"
"bedroll","","Saco de dormir","",,"","10:31 01/12/2022"
"handwarmer","","Calientamanos","",,"","10:31 01/12/2022"
"shantyshack","","Chabola","",,"","10:31 01/12/2022"
"streetvendor","","Vendedor ambulante","",,"","10:31 01/12/2022"
"bin","","Cubo de basura","",,"","10:31 01/12/2022"
"wastepaperbasket","","Papelera","",,"","10:31 01/12/2022"
"jobboard","","Tablón de empleos","",,"","10:31 01/12/2022"
"telephonenumber","","Número de teléfono","",,"","10:31 01/12/2022"
"cheaterspoem","","Poema","",,"","10:31 01/12/2022"
"telephonerouter","","Router telefónico","",,"","10:31 01/12/2022"
"powerbox","","Transformador","",,"","10:31 01/12/2022"
"calllogs","","Registros de llamadas","",,"","10:31 01/12/2022"
"flowersnote","","Nota con flores","",,"","10:31 01/12/2022"
"employeephoto","","Foto de empleado","",,"","10:31 01/12/2022"
"sealedenvelope","","Sobre secreto","",,"","9:32 12/04/2023"
"noodlestand","","Puesto de noodles","",,"","10:31 01/12/2022"
"newsstand","","Quiosco","",,"","10:31 01/12/2022"
"flowerbunchaffair","","Ramo de flores","",,"","10:31 01/12/2022"
"chessgroupposter","","Póster","",,"","10:31 01/12/2022"
"bookgroupposter","","Póster","",,"","10:31 01/12/2022"
"dramagroupposter","","Póster","",,"","10:31 01/12/2022"
"botanygroupposter","","Póster","",,"","10:31 01/12/2022"
"pokergroupposter","","Póster","",,"","10:31 01/12/2022"
"chessclubposter","","Póster","",,"","10:31 01/12/2022"
"bookcubposter","","Póster","",,"","10:31 01/12/2022"
"poster","","Póster","",,"","10:31 01/12/2022"
"redgummeetingnote","","Nota de reunión","",,"","10:31 01/12/2022"
"starchkolacrushed","","Starch Kola aplastada","",,"","10:31 01/12/2022"
"dirtynapkinball","","Servilleta sucia","",,"","10:31 01/12/2022"
"dirtynapkinflat","","Servilleta sucia","",,"","10:31 01/12/2022"
"naiwongbaojunk","","Basura","",,"","10:31 01/12/2022"
"friesjunk","","Basura","",,"","10:31 01/12/2022"
"mangoricejunk","","Basura","",,"","10:31 01/12/2022"
"junk","","Basura","",,"","10:31 01/12/2022"
"breathmintswrapper","","Envoltorio de caramelos mentolados","",,"","10:31 01/12/2022"
"noodleboxjunk","","Caja de noodles","",,"","10:31 01/12/2022"
"metalbucket","","Cubo de metal","",,"","10:31 01/12/2022"
"bicycle","","Bicicleta","",,"","10:31 01/12/2022"
"toiletpaper","","Papel higiénico","",,"","10:31 01/12/2022"
"bleach","","Lejía","",,"","10:31 01/12/2022"
"dumbell","","Mancuerna","",,"","10:31 01/12/2022"
"shipinbottle","","Barco en botella","",,"","10:31 01/12/2022"
"leatherball","","Pelota","",,"","10:31 01/12/2022"
"soccerball","","Balón de fútbol","",,"","10:31 01/12/2022"
"americanfootball","","Balón de fútbol americano","",,"","10:31 01/12/2022"
"tennisball","","Pelota de tenis","",,"","10:31 01/12/2022"
"trophy","","Trofeo","",,"","10:31 01/12/2022"
"filmcanister","","Lata de película","",,"","10:31 01/12/2022"
"photochemicals","","Químicos fotográficos","",,"","10:31 01/12/2022"
"wetfloorsign","","Letrero de suelo mojado","",,"","10:31 01/12/2022"
"shoesingleboot","","Bota","",,"","10:31 01/12/2022"
"trafficcone","","Cono de tráfico","",,"","10:31 01/12/2022"
"cushion","","Cojín","",,"","10:31 01/12/2022"
"chopsticktin","","Lata de palillos","",,"","10:31 01/12/2022"
"towelrail","","Toallero","",,"","10:31 01/12/2022"
"bandage","","Venda","",,"","10:31 01/12/2022"
"splint","","Férula","",,"","10:31 01/12/2022"
"bedhospital","","Cama de hospital","",,"","10:31 01/12/2022"
"hospitalbed","","Cama de hospital","",,"","10:31 01/12/2022"
"supermarketcabbages","","Coles","",,"","10:31 01/12/2022"
"supermarketapples","","Manzanas","",,"","10:31 01/12/2022"
"supermarketbananas","","Plátanos","",,"","10:31 01/12/2022"
"supermarketshelf","","Estante","",,"","10:31 01/12/2022"
"shelf","","Estante","",,"","10:31 01/12/2022"
"supermarketsynthfish","","Pescado sintético","",,"","10:31 01/12/2022"
"supermarketdrinkscooler","","Nevera de bebidas","",,"","10:31 01/12/2022"
"drinkscooler","","Nevera de bebidas","",,"","10:31 01/12/2022"
"supermarketmagazinestand","","Puesto de revistas","",,"","10:31 01/12/2022"
"supermarketfruitstand","","Puesto de fruta","",,"","10:31 01/12/2022"
"supermarketfreezer","","Congelador","",,"","10:31 01/12/2022"
"washingmachinedoor","","Lavadora","",,"","10:31 01/12/2022"
"bedsync","","Cama de Sync","",,"","10:31 01/12/2022"
"padlock","","Candado","",,"","10:31 01/12/2022"
"powerboxdoor","","Puerta de transformador","",,"","10:31 01/12/2022"
"policewallet","","Vieja placa de policía","",,"","10:31 01/12/2022"
"lockpickkit","","Kit de ganzúas","",,"","10:31 01/12/2022"
"policeautomat","","Taquilla de armas","",,"","10:31 01/12/2022"
"overwatchstreetlight","","Farola","",,"","10:31 01/12/2022"
"casetray","","Bandeja de caso","",,"","10:31 01/12/2022"
"salesledger","","Contabilidad de ventas","",,"","10:31 01/12/2022"
"vendingmachinecoffee","","Máquina expendedora de café","",,"","10:31 01/12/2022"
"pistolbullethole","","Agujero de bala de 8 mm","",,"","10:31 01/12/2022"
"pistolentrywound","","Herida de entrada de 8 mm","",,"","10:31 01/12/2022"
"pistolexitwound","","Herida de salida de 8 mm","",,"","10:31 01/12/2022"
"apartmentsalenote","","Apartamento a la venta","",,"","10:31 01/12/2022"
"salenote","","Apartamento a la venta","",,"","10:31 01/12/2022"
"bigfloralpanelled","","Superfloral de paneles","",,"","10:31 01/12/2022"
"bigforal","","Superfloral","",,"","10:31 01/12/2022"
"brick","","Ladrillo","",,"","10:31 01/12/2022"
"deco","","Déco","",,"","10:31 01/12/2022"
"decocurved","","Déco curvado","",,"","10:31 01/12/2022"
"decocurvedpanelled","","Déco curvado de paneles","",,"","10:31 01/12/2022"
"decopanelled","","Déco de paneles","",,"","10:31 01/12/2022"
"furdelis","","Flor de lis","",,"","10:31 01/12/2022"
"furdelistpanelled","","Flor de lis de paneles","",,"","10:31 01/12/2022"
"largediamond","","Diamante grande","",,"","10:31 01/12/2022"
"largediamondpanelled","","Diamante grande de paneles","",,"","10:31 01/12/2022"
"marble","","Mármol","",,"","10:31 01/12/2022"
"marbletiled","","Mármol de azulejos","",,"","10:31 01/12/2022"
"metrotiles","","Metro de azulejos","",,"","10:31 01/12/2022"
"oldbrick","","Ladrillo viejo","",,"","10:31 01/12/2022"
"plainwall","","Pared lisa","",,"","10:31 01/12/2022"
"retroflowers","","Flores retro","",,"","10:31 01/12/2022"
"retroflowerspanelled","","Flores retro de paneles","",,"","10:31 01/12/2022"
"rooster","","Gallo","",,"","10:31 01/12/2022"
"squaretiles","","Azulejos cuadrados","",,"","10:31 01/12/2022"
"squaretileshalf","","Azulejos cuadrados divididos","",,"","10:31 01/12/2022"
"stripedwallpaper","","Papel de pared a rayas","",,"","10:31 01/12/2022"
"stripedwallpaperpanelling","","Papel de pared a rayas de paneles","",,"","10:31 01/12/2022"
"woodenpanelling","","Paneles de madera","",,"","10:31 01/12/2022"
"carpet","","Alfombra","",,"","10:31 01/12/2022"
"carpetkubrick01","","Alfombra retro A","",,"","10:31 01/12/2022"
"carpetkubrick02","","Alfombra retro B","",,"","10:31 01/12/2022"
"carpetoval","","Alfombra ovalada","",,"","10:31 01/12/2022"
"carpetturkish","","Alfombra turca","",,"","10:31 01/12/2022"
"coatedconcrete","","Cemento cubierto","",,"","10:31 01/12/2022"
"concretefloor","","Suelo de cemento","",,"","10:31 01/12/2022"
"floortiles","","Azulejos de suelo","",,"","10:31 01/12/2022"
"floortilesfloral","","Azulejos de suelo florales","",,"","10:31 01/12/2022"
"floortileshex","","Azulejos de suelo hexagonales","",,"","10:31 01/12/2022"
"linoplain","","Linóleo liso","",,"","10:31 01/12/2022"
"linotilescross","","Cruz de azulejos de linóleo","",,"","10:31 01/12/2022"
"linotilesdiamond","","Diamante de baldosas de linóleo","",,"","10:31 01/12/2022"
"linotileslarge","","Baldosas de linóleo grandes","",,"","10:31 01/12/2022"
"linotilessmall","","Baldosas de linóleo pequeñas","",,"","10:31 01/12/2022"
"linotilestiny","","Baldosas de linóleo minúsculas","",,"","10:31 01/12/2022"
"marblefloor","","Suelo de mármol","",,"","10:31 01/12/2022"
"spotcarpet","","Punto alfombrado","",,"","10:31 01/12/2022"
"woodenfloorpainted","","Suelo de madera pintado","",,"","10:31 01/12/2022"
"woodenfloorparquet","","Parquet de madera","",,"","10:31 01/12/2022"
"woodenfloorrough","","Suelo de madera sin pulir","",,"","10:31 01/12/2022"
"woodenfloorvarnished 1","","Suelo de madera barnizado","",,"","10:31 01/12/2022"
"ceilingtiles","","Azulejos de techo","",,"","10:31 01/12/2022"
"plasterceiling","","Techo de escayola","",,"","10:31 01/12/2022"
"suicidenote","","Nota de suicidio","",,"","10:31 01/12/2022"
"footprint","","Huella de pisada","",,"","10:31 01/12/2022"
"standinglamp","","Lámpara de pie","",,"","10:31 01/12/2022"
"syncchamber","","Cámara Sync","",,"","10:31 01/12/2022"
"syncmachine","","Máquina Sync","",,"","10:31 01/12/2022"
"m21rifle","","Fusil Hamilton","",,"","10:31 01/12/2022"
"sniperrifle","","Fusil Hamilton","",,"","10:31 01/12/2022"
"purse","","Monedero","",,"","10:31 01/12/2022"
"wallet","","Cartera","",,"","10:31 01/12/2022"
"codebreakerused","","Descifrador (usado)","",,"","10:31 01/12/2022"
"doorwedgeused","","Cuña de puerta (usada)","",,"","10:31 01/12/2022"
"breakerboxdoor","","Cuadro de distribución","",,"","10:31 01/12/2022"
"breakerleversecurity","","Fusible de sistema de seguridad","",,"","10:31 01/12/2022"
"breakerleverdoors","","Fusible de puerta de seguridad","",,"","10:31 01/12/2022"
"breakerleverlights","","Fusible de luces","",,"","10:31 01/12/2022"
"jazzchaos","","Caos de jazz","",,"","10:31 01/12/2022"
"smallfloral","","Floral pequeño","",,"","10:31 01/12/2022"
"smallfloralpanelled","","Floral pequeño de paneles","",,"","10:31 01/12/2022"
"tartanwallpaper","","Papel de pared escocés","",,"","10:31 01/12/2022"
"murder_journal","","Diario","",,"","10:31 01/12/2022"
"bungeoppangwhole","","Bungeo ppang","",,"","10:31 01/12/2022"
"tikatoast","","Tostada tika","",,"","10:31 01/12/2022"
"kitchenroll","","Rollo de cocina","",,"","10:31 01/12/2022"
"turntablelid","","Tapa de tocadiscos","",,"","10:31 01/12/2022"
"saucepan","","Sartén","",,"","10:31 01/12/2022"
"dentalfloss","","Seda dental","",,"","10:31 01/12/2022"
"fryingpan","","Sartén freidora","",,"","10:31 01/12/2022"
"soapbar","","Jabón","",,"","10:31 01/12/2022"
"toiletbrush","","Escobilla del váter","",,"","10:31 01/12/2022"
"pencil","","Lápiz","",,"","10:31 01/12/2022"
"videotape","","Cinta de vídeo","",,"","10:31 01/12/2022"
"betablockers","","Betabloqueantes","",,"","10:31 01/12/2022"
"sponge","","Esponja","",,"","10:31 01/12/2022"
"metalwire","","Cable metálico","",,"","10:31 01/12/2022"
"perfume","","Perfume","",,"","10:31 01/12/2022"
"coughmedicine","","Medicamento para la tos","",,"","10:31 01/12/2022"
"powerdrill","","Taladradora","",,"","10:31 01/12/2022"
"nailbox","","Caja de clavos","",,"","10:31 01/12/2022"
"matchbox","","Caja de cerillas","",,"","10:31 01/12/2022"
"wrench","","Llave inglesa","",,"","10:31 01/12/2022"
"glazedwidevase","","Jarrón ancho esmaltado","",,"","10:31 01/12/2022"
"fabricscissors","","Tijeras para tela","",,"","10:31 01/12/2022"
"antiquevase","","Jarrón antiguo","",,"","10:31 01/12/2022"
"smallceramicjar","","Jarrón de cerámica pequeño","",,"","10:31 01/12/2022"
"boxcutter","","Cúter","",,"","10:31 01/12/2022"
"tissuebox","","Caja de pañuelos","",,"","10:31 01/12/2022"
"asthmainhaler","","Inhalador para el asma","",,"","10:31 01/12/2022"
"insulininjector","","Inyector de insulina","",,"","10:31 01/12/2022"
"hourglass","","Reloj de arena","",,"","10:31 01/12/2022"
"architecturalmodel","","Modelo arquitectónico","",,"","10:31 01/12/2022"
"rope","","Cuerda","",,"","10:31 01/12/2022"
"ropeweapon","","Cuerda","",,"","10:31 01/12/2022"
"mahjongtile","","Ficha de mah-jong","",,"","10:31 01/12/2022"
"woodenmannequin","","Maniquí de madera","",,"","10:31 01/12/2022"
"jugglingset","","Juego de malabares","",,"","10:31 01/12/2022"
"whitedice","","Dado blanco","",,"","10:31 01/12/2022"
"reddice","","Dado rojo","",,"","10:31 01/12/2022"
"oilcan","","Lata de combustible","",,"","10:31 01/12/2022"
"toolbox","","Caja de herramientas","",,"","10:31 01/12/2022"
"skull","","Calavera","",,"","10:31 01/12/2022"
"largebone","","Hueso grande","",,"","10:31 01/12/2022"
"mediumbone","","Hueso mediano","",,"","10:31 01/12/2022"
"bonepile","","Montón de huesos","",,"","10:31 01/12/2022"
"smallbone","","Hueso pequeño","",,"","10:31 01/12/2022"
"clothesbasket","","Cesta de la ropa","",,"","10:31 01/12/2022"
"plasticstool","","Taburete de plástico","",,"","10:31 01/12/2022"
"snackjar","","Bote de tentempiés","",,"","10:31 01/12/2022"
"aloochaat","","Aloo chaat","",,"","10:31 01/12/2022"
"fairybread","","Pan de hadas","",,"","10:31 01/12/2022"
"casefilea4","","Expediente de caso","",,"","10:31 01/12/2022"
"folder","","Carpeta","",,"","10:31 01/12/2022"
"chemistryset","","Juego de química","",,"","10:31 01/12/2022"
"hotellight","","Luz de hotel","",,"","10:31 01/12/2022"
"wristwatch","","Reloj de pulsera","",,"","10:31 01/12/2022"
"poolballeight","","Bola 8","",,"","10:31 01/12/2022"
"poolballstripedyellow","","Bola de billar","",,"","10:31 01/12/2022"
"poolballstripedred","","Bola de billar","",,"","10:31 01/12/2022"
"poolballstripedpurple","","Bola de billar","",,"","10:31 01/12/2022"
"poolballsolidblue","","Bola de billar","",,"","10:31 01/12/2022"
"poolballsolidbrown","","Bola de billar","",,"","10:31 01/12/2022"
"poolballsolidgreen","","Bola de billar","",,"","10:31 01/12/2022"
"poolballsolidpink","","Bola de billar","",,"","10:31 01/12/2022"
"poolballsolidpurple","","Bola de billar","",,"","10:31 01/12/2022"
"poolballsolidred","","Bola de billar","",,"","10:31 01/12/2022"
"poolballsolidyellow","","Bola de billar","",,"","10:31 01/12/2022"
"poolballstripedblue","","Bola de billar","",,"","10:31 01/12/2022"
"poolballstripedbrown","","Bola de billar","",,"","10:31 01/12/2022"
"poolballstripedgreen","","Bola de billar","",,"","10:31 01/12/2022"
"poolballstripedpink","","Bola de billar","",,"","10:31 01/12/2022"
"poolballwhite","","Bola de billar","",,"","10:31 01/12/2022"
"pooltable","","Mesa de billar","",,"","10:31 01/12/2022"
"birthcontrolpills","","Píldoras anticonceptivas","",,"","10:31 01/12/2022"
"heatpack","","Bolsa de calor","",,"","10:31 01/12/2022"
"cleaningspray","","Espray limpiador","",,"","10:31 01/12/2022"
"dango","","Dango","",,"","10:31 01/12/2022"
"churros","","Churros","",,"","10:31 01/12/2022"
"eclair","","Éclair","",,"","10:31 01/12/2022"
"ammunitionboxclosed","","Caja de munición","",,"","10:31 01/12/2022"
"ammunitionboxopen","","Caja de munición","",,"","10:31 01/12/2022"
"ring","","Timbre","",,"","10:31 01/12/2022"
"printedemployeerecord","","Registro de empleados imprimido","",,"","10:31 01/12/2022"
"printedcitizenfile","","Archivo de ciudadanos imprimido","",,"","10:31 01/12/2022"
"printedresidentsfile","","Archivo de residentes imprimido","",,"","10:31 01/12/2022"
"printedresidentfile","","Archivo de residente imprimido","",,"","10:31 01/12/2022"
"workrota","","Hoja de turnos laborales","",,"","10:31 01/12/2022"
"employmentcontract","","Contrato de empleo","",,"","10:31 01/12/2022"
"employmentcontracthome","","Contrato de empleo","",,"","10:31 01/12/2022"
"fancyfloortiles","","Azulejos de suelo elegantes","",,"","10:31 01/12/2022"
"filingcabinet","","Armario archivador","",,"","10:31 01/12/2022"
"vintagetelephonetable","","Mesita vintage","",,"","10:31 01/12/2022"
"vintagearmchair","","Sillón vintage","",,"","10:31 01/12/2022"
"oldtelevisionlarge 1","","Televisor viejo","",,"","10:31 01/12/2022"
"publiccorkboard","","Tablón de corcho","",,"","10:31 01/12/2022"
"privatecorkboard","","Tablón de corcho","",,"","10:31 01/12/2022"
"wallpictureportraitwoodenframe","","Cuadro estilo retrato","",,"","10:31 01/12/2022"
"mirror","","Espejo","",,"","10:31 01/12/2022"
"litterdecal","","Basura","",,"","10:31 01/12/2022"
"marblepillar","","Columna de mármol","",,"","10:31 01/12/2022"
"barshelf","","Estante de bar","",,"","10:31 01/12/2022"
"deerhead","","Cabeza de ciervo","",,"","10:31 01/12/2022"
"gemsteadersign","","Cartel de Gemsteader","",,"","10:31 01/12/2022"
"bathroommat","","Alfombrilla de baño","",,"","10:31 01/12/2022"
"bathroomscales","","Báscula de baño","",,"","10:31 01/12/2022"
"showernowall","","Ducha (sin pared)","",,"","10:31 01/12/2022"
"vintagebath","","Baño vintage","",,"","10:31 01/12/2022"
"vintagebed","","Cama vintage","",,"","10:31 01/12/2022"
"largebookcase","","Librería grande","",,"","10:31 01/12/2022"
"largeindustrialshelving","","Estantería industrial grande","",,"","10:31 01/12/2022"
"weaponsdisplaycabinet","","Mueble expositor de armas","",,"","10:31 01/12/2022"
"bathroomcabinet","","Armario de baño","",,"","10:31 01/12/2022"
"medicinecabinet","","Armario de medicamentos","",,"","10:31 01/12/2022"
"medicinecart","","Carro de medicamentos","",,"","10:31 01/12/2022"
"midcenturycabinet","","Armario de mitad de siglo","",,"","10:31 01/12/2022"
"midcenturystorageunit1","","Armario de mitad de siglo A","",,"","10:31 01/12/2022"
"midcenturystorageunit2","","Armario de mitad de siglo B","",,"","10:31 01/12/2022"
"modernwoodcabinet","","Mueble de madera moderno","",,"","10:31 01/12/2022"
"shortfilingcabinet","","Armario archivador corto","",,"","10:31 01/12/2022"
"vintagesafe","","Caja fuerte vintage","",,"","10:31 01/12/2022"
"70ssofa","","Sofá","",,"","10:31 01/12/2022"
"brownarmchair","","Sillón marrón","",,"","10:31 01/12/2022"
"brownsofalarge","","Sofá marrón grande","",,"","10:31 01/12/2022"
"brownsofasmall","","Sofá marrón pequeño","",,"","10:31 01/12/2022"
"chesterfieldsofa","","Sofá chesterfield","",,"","10:31 01/12/2022"
"dinerboothseatchesterfielda","","Asiento chesterfield de restaurante A","",,"","10:31 01/12/2022"
"dinerboothseatchesterfieldb","","Asiento chesterfield de restaurante B","",,"","10:31 01/12/2022"
"dinerboothseatstripeda","","Asiento a rayas de restaurante A","",,"","10:31 01/12/2022"
"dinerboothseatstripedb","","Asiento a rayas de restaurante B","",,"","10:31 01/12/2022"
"moldedseatsa","","Asientos modulares A","",,"","10:31 01/12/2022"
"moldedseatsb","","Asientos modulares B","",,"","10:31 01/12/2022"
"recliner","","Asiento reclinable","",,"","10:31 01/12/2022"
"reclinerfootstool","","Reposapiés reclinable","",,"","10:31 01/12/2022"
"wheelchair","","Silla de ruedas","",,"","10:31 01/12/2022"
"vintagecooker","","Cocina vintage","",,"","10:31 01/12/2022"
"breakfastbar","","Barra de desayuno","",,"","10:31 01/12/2022"
"dinerceilingmenu","","Menú de techo de restaurante","",,"","10:31 01/12/2022"
"displaycounter","","Vitrina","",,"","10:31 01/12/2022"
"kitchencountersmall","","Encimera de cocina pequeña","",,"","10:31 01/12/2022"
"kitchencountersmallnodrawers","","Encimera de cocina pequeña sin cajones","",,"","10:31 01/12/2022"
"kitchenettefridgeunit","","Nevera de cocinilla","",,"","10:31 01/12/2022"
"kitchenoverheadcupboard","","Armario de cocina","",,"","10:31 01/12/2022"
"kitchensink","","Pila de cocina","",,"","10:31 01/12/2022"
"midcenturykitchenette","","Cocinilla de mitad de siglo","",,"","10:31 01/12/2022"
"modernkitchenette","","Cocinilla moderna","",,"","10:31 01/12/2022"
"vintagekitchenette","","Cocinilla vintage","",,"","10:31 01/12/2022"
"hoteldesk","","Escritorio de hotel","",,"","10:31 01/12/2022"
"moderncornerdesk","","Escritorio esquinero moderno","",,"","10:31 01/12/2022"
"vintagedesk","","Escritorio vintage","",,"","10:31 01/12/2022"
"workbench","","Mesa de trabajo","",,"","10:31 01/12/2022"
"writingdesk","","Escritorio","",,"","10:31 01/12/2022"
"fireplace","","Chimenea","",,"","10:31 01/12/2022"
"marblefireplace","","Chimenea de mármol","",,"","10:31 01/12/2022"
"vintagefridge","","Nevera vintage","",,"","10:31 01/12/2022"
"tallpaperlamp","","Lámpara de papel alta","",,"","10:31 01/12/2022"
"dinerboothlowceiling","","Techo de mesa de restaurante","",,"","10:31 01/12/2022"
"easel","","Caballete","",,"","10:31 01/12/2022"
"eegmachine","","Máquina de encefalogramas","",,"","10:31 01/12/2022"
"piano","","Piano","",,"","10:31 01/12/2022"
"restaurantbin","","Basura de restaurante","",,"","10:31 01/12/2022"
"surgicallamp","","Lámpara quirúrgica","",,"","10:31 01/12/2022"
"vintagecoatstand","","Perchero vintage","",,"","10:31 01/12/2022"
"welcomemat","","Felpudo de bienvenida","",,"","10:31 01/12/2022"
"pneumaticpipes","","Conductos neumáticos","",,"","10:31 01/12/2022"
"receptionwaitingseat","","Asiento de espera","",,"","10:31 01/12/2022"
"hangingbasket","","Cesta colgante","",,"","10:31 01/12/2022"
"houseplant","","Planta de casa","",,"","10:31 01/12/2022"
"standingpot","","Maceta con pie","",,"","10:31 01/12/2022"
"vintageradiator","","Radiador vintage","",,"","10:31 01/12/2022"
"livingroomrug","","Alfombra A","",,"","10:31 01/12/2022"
"livingroomrug2","","Alfombra B","",,"","10:31 01/12/2022"
"vintagesideboard","","Aparador vintage","",,"","10:31 01/12/2022"
"vintagesink","","Pila vintage","",,"","10:31 01/12/2022"
"hifisystem","","Sistema de alta fidelidad","",,"","10:31 01/12/2022"
"jukebox","","Máquina de discos","",,"","10:31 01/12/2022"
"freestandingatm","","Cajero automático independiente","",,"","10:31 01/12/2022"
"parkbench","","Banco de parque","",,"","10:31 01/12/2022"
"picnicbench","","Banco de pícnic","",,"","10:31 01/12/2022"
"coffetable","","Mesa de café A","",,"","10:31 01/12/2022"
"coffetable2","","Mesa de café B","",,"","10:31 01/12/2022"
"dinerboothtablewood","","Mesa de restaurante color madera","",,"","10:31 01/12/2022"
"sidetable","","Mesa auxiliar","",,"","10:31 01/12/2022"
"simplediningtable","","Mesa de comedor sencilla","",,"","10:31 01/12/2022"
"simplesmalltable","","Mesa pequeña sencilla","",,"","10:31 01/12/2022"
"moderntelevison","","Televisor moderno","",,"","10:31 01/12/2022"
"vintagetoilet","","Retrete vintage","",,"","10:31 01/12/2022"
"midcenturyvanity","","Tocador de mitad de siglo","",,"","10:31 01/12/2022"
"vintagevanity","","Tocador vintage","",,"","10:31 01/12/2022"
"cigarettemachine","","Máquina de tabaco","",,"","10:31 01/12/2022"
"colamachine","","Máquina de Kola","",,"","10:31 01/12/2022"
"elgenmachine","","Máquina de El-Gen","",,"","10:31 01/12/2022"
"snackmachine","","Máquina de tentempiés","",,"","10:31 01/12/2022"
"atm","","Cajero automático","",,"","10:31 01/12/2022"
"dartboard","","Diana","",,"","10:31 01/12/2022"
"dinerwallmenu","","Menú de pared de restaurante","",,"","10:31 01/12/2022"
"employeephotoboard","","Mural de fotos de empleados","",,"","10:31 01/12/2022"
"fairylights","","Guirnalda de luces","",,"","10:31 01/12/2022"
"firehose","","Manguera antiincendios","",,"","10:31 01/12/2022"
"flagoldempire","","Bandera del Viejo Imperio","",,"","10:31 01/12/2022"
"flagredgums","","Bandera de los Red Gums","",,"","10:31 01/12/2022"
"jerseyframe","","Camiseta enmarcada","",,"","10:31 01/12/2022"
"redlanternwallfixture","","Aplique de farolillo rojo","",,"","10:31 01/12/2022"
"wallbutterflyframe","","Mariposa enmarcada","",,"","10:31 01/12/2022"
"wallclock","","Reloj de pared","",,"","10:31 01/12/2022"
"wallpicturelandscapewoodenframe","","Cuadro apaisado","",,"","10:31 01/12/2022"
"wallpicturesquarewoodenframe","","Cuadro cuadrado","",,"","10:31 01/12/2022"
"vintagewardrobe","","Armario vintage","",,"","10:31 01/12/2022"
"lightmetal","","Metal ligero","",,"","10:31 01/12/2022"
"rusticbrick","","Ladrillo rústico","",,"","10:31 01/12/2022"
"walllamp","","Lámpara de aplique","",,"","10:31 01/12/2022"
"walllampstairwell","","Lámpara de aplique","",,"","10:31 01/12/2022"
"kitchenette","","Cocinilla","",,"","10:31 01/12/2022"
"battlerifle","","Fusil Faucon","",,"","10:31 01/12/2022"
"revolver","","Lucky 7","",,"","10:31 01/12/2022"
"semiautomaticpistolsilenced","","Lazarus 5 con silenciador","",,"","10:31 01/12/2022"
"shotgun","","Escopeta Shackley","",,"","10:31 01/12/2022"
"buckshotbullethole","","Agujero de perdigón","",,"","10:31 01/12/2022"
"riflebulletcasing","","Cartucho de fusil gastado","",,"","10:31 01/12/2022"
"buckshotbulletcasing","","Cartucho de perdigones gastado","",,"","10:31 01/12/2022"
"buckshotentrywound","","Herida de entrada de perdigón","",,"","10:31 01/12/2022"
"riflebullethole","","Agujero de bala de fusil","",,"","10:31 01/12/2022"
"rifleentrywound","","Herida de entrada de fusil","",,"","10:31 01/12/2022"
"vintagesword","","Espada","",,"","10:31 01/12/2022"
"smallcalibreentrywound","","Herida de entrada de bajo calibre","",,"","10:31 01/12/2022"
"smallcalibrebullethole","","Agujero de bala de bajo calibre","",,"","10:31 01/12/2022"
"revolverbullethole","","Agujero de bala de bajo calibre","",,"","10:31 01/12/2022"
"cctvtowerterminal","","Terminal de torre de seguridad","",,"","10:31 01/12/2022"
"detectivestuff","","Material de detective","",,"","10:31 01/12/2022"
"briefcase","","Maletín","",,"","10:31 01/12/2022"
"briefcasemoney","","Maletín","",,"","10:31 01/12/2022"
"briefcasebomb","","Maletín","",,"","10:31 01/12/2022"
"briefcasedocuments","","Maletín","",,"","10:31 01/12/2022"
"telephonecall","","Llamada de teléfono","",,"","10:31 01/12/2022"
"pocketwatch","","Reloj de bolsillo","",,"","10:31 01/12/2022"
"donorcard","","Tarjeta de donante","",,"","10:31 01/12/2022"
"industrialwalllamp","","Lámpara de aplique industrial","",,"","10:31 01/12/2022"
"vintagewalllamp","","Lámpara de aplique vintage","",,"","10:31 01/12/2022"
"modernwalllamp","","Lámpara de aplique moderna","",,"","10:31 01/12/2022"
"restaurantdivider","","División de restaurante","",,"","10:31 01/12/2022"
"syncdiskupgrade","","Frasco de mejora de SyncDisk","",,"","10:31 01/12/2022"
"syringe","","Jeringuilla","",,"","10:31 01/12/2022"
"truncheon","","Porra","",,"","10:31 01/12/2022"
"creditcard","","Tarjeta de crédito","",,"","10:31 01/12/2022"
"streetcrimescene","","Escena del crimen callejera","",,"","10:31 01/12/2022"
"walldecalobject","","Vinilo de suelo","",,"","10:31 01/12/2022"
"officecubicleinvert","","Cubículo de oficina","",,"","10:31 01/12/2022"
"largecalibrebullethole","","Agujero de bala de gran calibre","",,"","10:31 01/12/2022"
"incisionwound","","Herida de incisión","",,"","10:31 01/12/2022"
"deerslugbulletcasing","","Cartucho de munición para ciervos gastado","",,"","10:31 01/12/2022"
"revolverbulletcasing","","Cartucho de revólver gastado","",,"","10:31 01/12/2022"
"kitchenknifelarge","","Cuchillo de chef","",,"","10:31 01/12/2022"
"kitchenknifesmall","","Cuchillo multiusos","",,"","10:31 01/12/2022"
"razor","","Cuchilla recta","",,"","10:31 01/12/2022"
"combatknife","","Cuchillo de combate","",,"","10:31 01/12/2022"
"charcoaltablets","","Pastillas de carbón","",,"","10:31 01/12/2022"
"lasergrid","","Red láser","",,"","10:31 01/12/2022"
"scoutlaser","","Láser de exploración","",,"","10:31 01/12/2022"
"largecalibreentrywound","","Herida de entrada de gran calibre","",,"","10:31 01/12/2022"
"gasreleasesystem","","Sistema de liberación de gas","",,"","10:31 01/12/2022"
"tracker","","Rastreador Sabueso","",,"","10:31 01/12/2022"
"trackeractive","","Rastreador Sabueso","",,"","10:31 01/12/2022"
"flashbomb","","Granada cegadora","",,"","10:31 01/12/2022"
"flashbombactive","","Granada cegadora","",,"","10:31 01/12/2022"
"incapacitator","","Granada incapacitante","",,"","10:31 01/12/2022"
"incapacitatoractive","","Granada incapacitante","",,"","10:31 01/12/2022"
"ballisticarmour","","Armadura balística","",,"","10:31 01/12/2022"
"graffiti","","Grafiti","",,"","10:31 01/12/2022"
"urinal","","Orinal","",,"","10:31 01/12/2022"
"bathroomcubicledoor","","Puerta de cubículo de baño","",,"","10:31 01/12/2022"
"handdryer","","Secador de manos","",,"","10:31 01/12/2022"
"printedreceipt","","Recibo imprimido","",,"","10:31 01/12/2022"
"modernofficechair","","Silla de oficina moderna","",,"","9:32 12/04/2023"
"mopbucket","","Cubo de fregar","",,"","9:32 12/04/2023"
"mailbox","","Buzón","",,"","9:32 12/04/2023"
"industrialwalllampstairwell","","Lámpara de aplique","",,"","9:32 12/04/2023"
"modernwalllampstairwell","","Lámpara de aplique","",,"","9:32 12/04/2023"
"vintagewalllampstairwell","","Lámpara de aplique","",,"","9:32 12/04/2023"
"publicbathroomsinks","","Lavabos","",,"","9:32 12/04/2023"
"bathroomcubicle","","Cubículo de baño","",,"","9:32 12/04/2023"
"staticlittercorner","","Basura","",,"","9:32 12/04/2023"
"staticceilingrotshort","","Basura","",,"","9:32 12/04/2023"
"staticlittershort","","Basura","",,"","9:32 12/04/2023"
"staticlitterlong","","Basura","",,"","9:32 12/04/2023"
"staticceilingrotlong","","Basura","",,"","9:32 12/04/2023"
"staticceilingrotcorner","","Basura","",,"","9:32 12/04/2023"
"telephonebox","","Cabina de teléfono","",,"","9:32 12/04/2023"
"contusionwound","","Contusión","",,"","9:32 12/04/2023"
"candlestick","","Vela","",,"","9:32 12/04/2023"
"paintbucket","","Cubo de pintura","",,"","9:32 12/04/2023"
"jerrycan","","Bidón","",,"","9:32 12/04/2023"
"paperceilinglight","","Lámpara de papel","",,"","9:32 12/04/2023"
"tiffanyceilinglight","","Lámpara de techo Art Nouveau","",,"","9:32 12/04/2023"
"tiffanylamp","","Lámpara Art Nouveau","",,"","9:32 12/04/2023"
"chandelier","","Araña","",,"","9:32 12/04/2023"
"moderndomeceilinglight","","Plafón","",,"","9:32 12/04/2023"
"watercooler","","Dispensador de agua","",,"","9:32 12/04/2023"
"dumpster","","Contenedor de basura","",,"","9:32 12/04/2023"
"blind","","Persiana","",,"","9:32 12/04/2023"
"curtain","","Cortina","",,"","9:32 12/04/2023"
"crumpledpapercorporatekiller","","Papel arrugado","",,"","9:32 12/04/2023"
"businesscardkiller","","Tarjeta de negocios","",,"","9:32 12/04/2023"
"plugsocket","","Toma de enchufe","",,"","9:32 12/04/2023"
"curtains","","Cortinas","",,"","9:32 12/04/2023"
"blinds","","Persianas","",,"","9:32 12/04/2023"
"modernofficecubicle","","Cubículo de oficina moderno","",,"","9:32 12/04/2023"
"industrialkitchensink","","Pila de cocina industrial","",,"","9:32 12/04/2023"
"industrialkitchencounter","","Encimera de cocina industrial","",,"","9:32 12/04/2023"
"servicecart","","Carro de servicio","",,"","9:32 12/04/2023"
"scandinavianarmchair","","Sillón escandinavo","",,"","9:32 12/04/2023"
"cubistarmchair","","Sillón cubista","",,"","9:32 12/04/2023"
"scandinaviansofa","","Sofá escandinavo","",,"","9:32 12/04/2023"
"industrialcooker","","Fogón industrial","",,"","9:32 12/04/2023"
"commercialcoffeemachine","","Máquina de café comercial","",,"","9:32 12/04/2023"
"fishtank","","Pecera","",,"","9:32 12/04/2023"
"cubistsofa","","Sofá cubista","",,"","9:32 12/04/2023"
"smallneonsign","","Letrero de neón pequeño","",,"","9:32 12/04/2023"
"cctvmonitordoor","","Puerta de monitor de seguridad","",,"","9:32 12/04/2023"
"kerosene","","Keroseno","",,"","9:32 12/04/2023"
"chateaudarc1868","","Vino Chateau d'Arc de 1868 'Glass Slipper'.","",,"","9:32 12/04/2023"
"clawofthefathomsfirstedition","","Primera edición de la novela 'Las garras de los Abismos'","",,"","9:32 12/04/2023"
"propgun","","Pistola de atrezo de 'El desconsuelo de Kolob'","",,"","9:32 12/04/2023"
"jadenecklace","","Collar de jade","",,"","9:32 12/04/2023"
"collectablecardgeorgescott","","Cromo deportivo coleccionable de George Scott","",,"","9:32 12/04/2023"
"dogtag","","Placa de identificación","",,"","14:25 11/09/2023"
"botanyclubposter","","Póster del club botánico","",,"","14:25 11/09/2023"
"walllampballroom","","Lámpara de aplique","",,"","14:25 11/09/2023"
"hotelwelcomesign","","Letrero de bienvenida","",,"","14:25 11/09/2023"
"lostnote","","Objeto perdido","",,"","14:25 11/09/2023"
