"Game Reference Key","Notes","Displayed Text","Alternate Text","Frequency","Requires Suffix","Misc."
"[The key used by the game to find strings]","[Not loaded into the game, for explanation only]","[The displayed string in-game]","[Alternate displayed string, eg. Nickname]","[For lists]","[Does this require a suffix for naming?]","[Miscellaneous]"
"— ","— ","— ","— ","— ","— ","— "
"scan","","Escanear","",,"","10:31 01/12/2022"
"evening","","tarde","",,"","10:31 01/12/2022"
"morning","","mañana","",,"","10:31 01/12/2022"
"confirmed","","Confirmado","",,"","10:31 01/12/2022"
"bookclub","","Club literario","",,"","10:31 01/12/2022"
"botanyclub","","Club botánico","",,"","10:31 01/12/2022"
"chessclub","","Club de ajedrez","",,"","10:31 01/12/2022"
"dramagroup","","Grupo de teatro","",,"","10:31 01/12/2022"
"gunclub","","Club de armas","",,"","10:31 01/12/2022"
"historyclub","","Club de historia","",,"","10:31 01/12/2022"
"scificlub","","Club de ciencia ficción","",,"","10:31 01/12/2022"
"cheatersmeet","","Cita","",,"","10:31 01/12/2022"
"knittingclub","","Club de punto","",,"","10:31 01/12/2022"
"winetastersclub","","Club de cata de vinos","",,"","10:31 01/12/2022"
"tarotclub","","Club de tarot","",,"","10:31 01/12/2022"
"boss","","jefe","",,"","10:31 01/12/2022"
"redgumsmeetup","","Encuentro de Red Gums","",,"","10:31 01/12/2022"
"pokerclub","","Club de póquer","",,"","10:31 01/12/2022"
"afternoon","","tarde","",,"","10:31 01/12/2022"
"the |city.name| herald","","La gaceta de |city.name|","",,"","10:31 01/12/2022"
"newsstand_ticker","","Candor News 24/7 — 24時間営業","",,"","10:31 01/12/2022"
"sir","","señor","",,"","10:31 01/12/2022"
"null","","Nada","",,"","10:31 01/12/2022"
"ma'am","","señora","",,"","10:31 01/12/2022"
"east","","este","",,"","9:32 12/04/2023"
"west","","oeste","",,"","9:32 12/04/2023"
"north","","norte","",,"","9:32 12/04/2023"
"south","","sur","",,"","9:32 12/04/2023"
"static_killer_ref_1","","El Asesino Psicópata","",,"","9:32 12/04/2023"
"static_killer_ref_2","","El Asesino Escarlata","",,"","9:32 12/04/2023"
"static_killer_ref_3","","El Asesino Enigma","",,"","9:32 12/04/2023"
"static_killer_ref_4","","El Psicópata Homicida","",,"","9:32 12/04/2023"
"static_killer_ref_5","","El Acosador Callejero","",,"","9:32 12/04/2023"
"static_killer_ref_6","","La Parca","",,"","9:32 12/04/2023"
"static_killer_ref_7","","El Caminante Nocturno","",,"","9:32 12/04/2023"
"static_killer_ref_8","","El Merodeador Nocturno","",,"","9:32 12/04/2023"
"static_killer_ref_9","","El Asesino de la Gran Ciudad","",,"","9:32 12/04/2023"
"static_killer_ref_10","","El Homicida Estelar","",,"","9:32 12/04/2023"
