"Game Reference Key","Notes","Displayed Text","Alternate Text","Frequency","Requires Suffix","Misc."
"[The key used by the game to find strings]","[Not loaded into the game, for explanation only]","[The displayed string in-game]","[Alternate displayed string, eg. Nickname]","[For lists]","[Does this require a suffix for naming?]","[Miscellaneous]"
"— ","— ","— ","— ","— ","— ","— "
"name","","Nombre","",,"","10:31 01/12/2022"
"fingerprint","","Huella dactilar","",,"","10:31 01/12/2022"
"key","","Conseguir llave de","",,"","10:31 01/12/2022"
"tutorial_notebook","","Puedes acceder a la ayuda del juego en cualquier momento pulsando F1.","",,"","10:31 01/12/2022"
"lockpicks","","Ganzúa(s)","",,"","10:31 01/12/2022"
"lockpick_deplete","","Ganzúa(s) restante(s)...","",,"","10:31 01/12/2022"
"not_enough_lockpicks","","¡No te quedan ganzúas!","",,"","10:31 01/12/2022"
"lockpick_success","","¡Cerradura forzada con éxito!","",,"","10:31 01/12/2022"
"taken_fingerprint","","Huella dactilar tomada","",,"","10:31 01/12/2022"
"corpsabotage_fail","","Sabotaje fallido: ¡ya has instalado aquí un keylogger!","",,"","10:31 01/12/2022"
"codebreaker success","","¡Descifrador usado con éxito!","",,"","10:31 01/12/2022"
"telephone engaged","","Está comunicando. Inténtalo de nuevo más tarde...","",,"","10:31 01/12/2022"
"linked unique information","","Actualización de perfil","",,"","10:31 01/12/2022"
"image/likeness","","Imagen/Semblanza","",,"","10:31 01/12/2022"
"new tutorial section","","Nueva sección de tutorial","",,"","10:31 01/12/2022"
"inventory full","","¡Inventario lleno! Deja algo para coger esto...","",,"","15:12 06/02/2023"
"passcode","","Contraseña conseguida","",,"","10:31 01/12/2022"
"ko","","Te has desmayado... Te despertarás pronto.","",,"","10:31 01/12/2022"
"added to inventory","","Añadido al inventario","",,"","10:31 01/12/2022"
"telephone","","Número de teléfono conseguido","",,"","10:31 01/12/2022"
"closing time","","Hora de cierre","",,"","10:31 01/12/2022"
"collected handin","","Formulario obtenido","",,"","15:12 06/02/2023"
"case submitted","","Caso enviado para que se procese. Aguarda los resultados.","",,"","10:31 01/12/2022"
"case unsolved","","El caso sigue sin resolver, inténtalo de nuevo...","",,"","10:31 01/12/2022"
"case completed","","Resuelto","",,"","10:31 01/12/2022"
"tip-changelead","","Consejo: Puedes cambiar de pista en cualquier momento usando el botón del formulario de resolución.","",,"","10:31 01/12/2022"
"suspect released","","Sospechoso liberado","",,"","10:31 01/12/2022"
"suspect convicted","","Sospechoso condenado","",,"","10:31 01/12/2022"
"new enforcer call","","[Escáner] Asesinato denunciado","",,"","10:31 01/12/2022"
"corpsabotage_success","","Conseguido","",,"","10:31 01/12/2022"
"somebody is coming to answer the door...","","Alguien viene a contestar a la puerta...","",,"","10:31 01/12/2022"
"job information updated!","","¡Información del trabajo actualizada!","",,"","10:31 01/12/2022"
"linked to","","Guarda vínculo con","",,"","10:31 01/12/2022"
"new information","","Nueva información","",,"","10:31 01/12/2022"
"you can open your case board at any time by pressing f","","Puedes abrir el mural del caso en cualquier momento pulsando F.","",,"","10:31 01/12/2022"
"the demo timer starts now...","","El temporizador de la demo empieza ya...","",,"","10:31 01/12/2022"
"corpsabotage_success_bonus","","Bonificación de propiedad","",,"","10:31 01/12/2022"
"case closed","","Caso cerrado","",,"","10:31 01/12/2022"
"unsolved","","Sin resolver","",,"","10:31 01/12/2022"
"social credit score","","Puntuación de crédito social","",,"","10:31 01/12/2022"
"new murder case","","Nuevo caso de asesinato","",,"","10:31 01/12/2022"
"case opened","","Caso abierto","",,"","10:31 01/12/2022"
"the case of the ","","El caso de: ","",,"","15:12 06/02/2023"
"movement alert","","Alerta de movimiento","",,"","10:31 01/12/2022"
"tracking citizen...","","Rastreando ciudadano...","",,"","10:31 01/12/2022"
"social credit level up","","Aumento de nivel de crédito social","",,"","10:31 01/12/2022"
"gained social credit","","Crédito social adquirido","",,"","10:31 01/12/2022"
"social credit","","Crédito social","",,"","10:31 01/12/2022"
"job failed","","Trabajo fallido","",,"","10:31 01/12/2022"
"locked_help","","¡No se abre! Interactúa con el pomo de la puerta para ver opciones...","",,"","9:32 12/04/2023"
"locked","","¡No se abre!","",,"","9:32 12/04/2023"
"look at the target object to progress the action","","Mira al objeto objetivo para progresar en la acción.","",,"","9:32 12/04/2023"
"nobody_home","","Si no hay nadie en casa, es posible que tengas que volver luego (o encontrar a la persona en cuestión)...","",,"","9:32 12/04/2023"
"unable to save at this time","","No se puede guardar en este momento.","",,"","9:32 12/04/2023"
"game saved","","Partida guardada","",,"","9:32 12/04/2023"
"fingerprint_prompt","","Inspecciona las huellas dactilares tras escanear con |controls.secondary|.","",,"","9:32 12/04/2023"
"not_enough_money","","¡No tienes dinero suficiente!","",,"","9:32 12/04/2023"
"you have acquired information about residents of: ","","Has conseguido información sobre los residentes de: ","",,"","9:32 12/04/2023"
"new apartment","","Apartamento nuevo","",,"","14:25 11/09/2023"
"hotel_kickout1","","¡Te han echado de tu hotel por no pagar lo debido!","",,"","14:25 11/09/2023"
"hotel_kickout2","","Igual convendría evitar el hotel durante un tiempo...","",,"","14:25 11/09/2023"
