"Game Reference Key","Notes","Displayed Text","Alternate Text","Frequency","Requires Suffix","Misc."
"[The key used by the game to find strings]","[Not loaded into the game, for explanation only]","[The displayed string in-game]","[Alternate displayed string, eg. Nickname]","[For lists]","[Does this require a suffix for naming?]","[Miscellaneous]"
"— ","— ","— ","— ","— ","— ","— "
"enforcers","","Agentes","",,"","10:31 01/12/2022"
"citydirectory","","Guía telefónica","",,"","10:25 21/09/2023"
"interaction","","Interacción","",,"","10:31 01/12/2022"
"movement","","Movimiento","",,"","10:31 01/12/2022"
"evidence","","Prueba","",,"","10:31 01/12/2022"
"caseboard","","Mural del caso","",,"","10:31 01/12/2022"
"map","","Mapa","",,"","10:31 01/12/2022"
"doors","","Puertas","",,"","10:31 01/12/2022"
"passwords","","Contraseñas","",,"","10:31 01/12/2022"
"passingtime","","Pasar el tiempo","",,"","10:31 01/12/2022"
"playerapartment","","Tu apartamento","",,"","10:31 01/12/2022"
"citizens","","Ciudadanos","",,"","10:31 01/12/2022"
"lockpicking","","Forzando cerradura","",,"","15:12 06/02/2023"
"barging","","Derribar","",,"","10:31 01/12/2022"
"airducts","","Conductos de ventilación","",,"","10:31 01/12/2022"
"stealth","","Sigilo","",,"","10:31 01/12/2022"
"combat","","Combate","",,"","10:31 01/12/2022"
"felonies","","Delitos graves","",,"","10:31 01/12/2022"
"alarms","","Alarmas y seguridad","",,"","10:31 01/12/2022"
"money","","Dinero","",,"","10:31 01/12/2022"
"upgrades","","Mejoras","",,"","10:31 01/12/2022"
"telephones","","Teléfonos","",,"","10:31 01/12/2022"
"phones","","Teléfonos","",,"","10:31 01/12/2022"
"computers","","Crunchers","",,"","10:31 01/12/2022"
"fingerprints","","Huellas dactilares","",,"","10:31 01/12/2022"
"footprints","","Huellas de pisadas","",,"","10:31 01/12/2022"
"spatter","","Manchas de sangre","",,"","10:31 01/12/2022"
"shells","","Armas homicidas","",,"","10:31 01/12/2022"
"dialogue","","Diálogo","",,"","10:31 01/12/2022"
"inventory","","Inventario","",,"","10:31 01/12/2022"
"statuses","","Estados","",,"","10:31 01/12/2022"
"surveillance","","Vigilancia y seguridad","",,"","10:31 01/12/2022"
"historyheader","","En esta sección se archiva todo lo que es de conocimiento público o que has mirado o investigado. Los recuerdos de lugares y ciudadanos son infinitos, pero solo los últimos 40 objetos son recuperables.","",,"","10:31 01/12/2022"
"passcodesheader","","En esta sección se archivan todas las contraseñas descubiertas.","",,"","10:31 01/12/2022"
"phonenumbersheader","","En esta sección se archivan todos los números de teléfono descubiertos.","",,"","10:31 01/12/2022"
"contentsheader","","Esta sección detalla procedimientos operativos estándar de la labor detectivesca sobre diversos temas.","",,"","10:31 01/12/2022"
"ko","","Incapacitación","",,"","10:31 01/12/2022"
"murders","","Asesinatos/Escenas del crimen","",,"","10:31 01/12/2022"
"sidejobs","","Trabajos adicionales","",,"","10:31 01/12/2022"
"socialcredit","","Crédito social","",,"","10:31 01/12/2022"
"breakingandentering","","Allanamiento por la fuerza","",,"","9:32 12/04/2023"
"commercialproperty","","Propiedad comercial","",,"","9:32 12/04/2023"
"escaping","","Huidas","",,"","9:32 12/04/2023"
"custom_stealthcombat","","Sigilo y combate","",,"","9:32 12/04/2023"
"arresting","","Detención","",,"","9:32 12/04/2023"
