"Game Reference Key","Notes","Displayed Text","Alternate Text","Frequency","Requires Suffix","Misc."
"[The key used by the game to find strings]","[Not loaded into the game, for explanation only]","[The displayed string in-game]","[Alternate displayed string, eg. Nickname]","[For lists]","[Does this require a suffix for naming?]","[Miscellaneous]"
"— ","— ","— ","— ","— ","— ","— "
"punch","","Dar puñetazo","",,"","10:31 01/12/2022"
"open","","Abrir","",,"","10:31 01/12/2022"
"drink","","Beber","",,"","10:31 01/12/2022"
"counter","","Contraatacar","",,"","10:31 01/12/2022"
"case file","","Expediente de caso","",,"","10:31 01/12/2022"
"hide","","Esconderse","",,"","10:31 01/12/2022"
"cancel","","Cancelar","",,"","10:31 01/12/2022"
"case board","","Mural del caso","",,"","10:31 01/12/2022"
"lockpicking","","Forzando cerradura","",,"","15:12 06/02/2023"
"inventory","","Inventario","",,"","10:31 01/12/2022"
"close","","Cerrar","",,"","10:31 01/12/2022"
"turn on","","Encender","",,"","10:31 01/12/2022"
"turn off","","Apagar","",,"","10:31 01/12/2022"
"lock","","Cerrar con cerradura","",,"","10:31 01/12/2022"
"unlock","","Abrir cerradura","",,"","10:31 01/12/2022"
"interact","","Interactuar","",,"","10:31 01/12/2022"
"button","","Botón","",,"","10:31 01/12/2022"
"inspect","","Inspeccionar","",,"","10:31 01/12/2022"
"pick up","","Coger","",,"","15:12 06/02/2023"
"knock","","Llamar","",,"","10:31 01/12/2022"
"lockpick","","Forzar cerradura","",,"","10:31 01/12/2022"
"access","","Acceder","",,"","10:31 01/12/2022"
"read","","Leer","",,"","10:31 01/12/2022"
"peek","","Fisgar","",,"","10:31 01/12/2022"
"return","","Volver","",,"","10:31 01/12/2022"
"evasion","","Evasión","",,"","10:31 01/12/2022"
"evade","","Evadir","",,"","10:31 01/12/2022"
"take","","Coger","",,"","10:31 01/12/2022"
"talk to","","Hablar con","",,"","10:31 01/12/2022"
"say","","Decir","",,"","10:31 01/12/2022"
"view file...","","Ver archivo...","",,"","10:31 01/12/2022"
"flush","","Tirar de la cadena","",,"","10:31 01/12/2022"
"crawl into","","Entrar reptando","",,"","10:31 01/12/2022"
"go through","","Atravesar","",,"","10:31 01/12/2022"
"use","","Usar","",,"","10:31 01/12/2022"
"arm","","Restablecer","",,"","10:31 01/12/2022"
"reivew job","","Revisar trabajo","",,"","10:31 01/12/2022"
"review job","","Revisar trabajo","",,"","10:31 01/12/2022"
"previous month","","Mes anterior","",,"","10:31 01/12/2022"
"next month","","Mes siguiente","",,"","10:31 01/12/2022"
"look underneath","","Mirar por debajo","",,"","10:31 01/12/2022"
"put back","","Devolver","",,"","10:31 01/12/2022"
"sleep","","Dormir","",,"","10:31 01/12/2022"
"get up","","Levantarse","",,"","10:31 01/12/2022"
"answer","","Contestar","",,"","10:31 01/12/2022"
"end call","","Colgar","",,"","10:31 01/12/2022"
"get in","","Acostarse","",,"","10:31 01/12/2022"
"enter","","Entrar","",,"","15:12 06/02/2023"
"put down","","Dejar","",,"","10:31 01/12/2022"
"throw","","Lanzar","",,"","10:31 01/12/2022"
"sit down","","Sentarse","",,"","10:31 01/12/2022"
"take (lockpick)","","Coger (ganzúa)","",,"","10:31 01/12/2022"
"call","","Llamar","",,"","10:31 01/12/2022"
"set alarm (sleep)","","Poner alarma (dormir)","",,"","10:31 01/12/2022"
"set hours/minutes","","Configurar horas/minutos","",,"","10:31 01/12/2022"
"pass time","","Pasar tiempo","",,"","10:31 01/12/2022"
"set alarm (pass time)","","Poner alarma (pasar tiempo)","",,"","10:31 01/12/2022"
"scoot","","Hacer hueco","",,"","10:31 01/12/2022"
"time forward","","Adelantar tiempo","",,"","10:31 01/12/2022"
"time back","","Rebobinar tiempo","",,"","10:31 01/12/2022"
"barge","","Derribar","",,"","10:31 01/12/2022"
"jump","","Saltar","",,"","10:31 01/12/2022"
"crouch","","Agacharse","",,"","10:31 01/12/2022"
"sprint","","Esprintar","",,"","10:31 01/12/2022"
"flashlight","","Linterna","",,"","10:31 01/12/2022"
"scroll","","Desplazarse/Menú contextual","",,"","10:31 01/12/2022"
"scroll/context menu","","Desplazarse/Menú contextual","",,"","10:31 01/12/2022"
"zoom in","","Acercar imagen","",,"","10:31 01/12/2022"
"zoom out","","Alejar imagen","",,"","10:31 01/12/2022"
"end conversation","","Acabar conversación","",,"","10:31 01/12/2022"
"sit","","Sentarse","",,"","10:31 01/12/2022"
"operate","","Operar","",,"","10:31 01/12/2022"
"next","","Siguiente","",,"","10:31 01/12/2022"
"previous","","Anterior","",,"","10:31 01/12/2022"
"trigger alarm","","Activar alarma","",,"","10:31 01/12/2022"
"view","","Ver","",,"","10:31 01/12/2022"
"slide out","","Sacar","",,"","10:31 01/12/2022"
"slide back","","Colocar","",,"","10:31 01/12/2022"
"search","","Buscar","",,"","10:31 01/12/2022"
"unscrew bulb","","Quitar bombilla","",,"","10:31 01/12/2022"
"screw bulb","","Poner bombilla","",,"","10:31 01/12/2022"
"scan","","Escanear","",,"","10:31 01/12/2022"
"take print","","Tomar huella","",,"","10:31 01/12/2022"
"takeprint","","Tomando huella","",,"","10:31 01/12/2022"
"search/analyse","","Buscar/Analizar","",,"","10:31 01/12/2022"
"up","","Arriba","",,"","10:31 01/12/2022"
"down","","Abajo","",,"","10:31 01/12/2022"
"handcuff","","Esposas","",,"","10:31 01/12/2022"
"takedown","","Derribar","",,"","10:31 01/12/2022"
"hang up","","Colgar","",,"","10:31 01/12/2022"
"dial...","","Marcar...","",,"","10:31 01/12/2022"
"swap","","Intercambiar","",,"","10:31 01/12/2022"
"eat","","Comer","",,"","10:31 01/12/2022"
"raise","","Levantar","",,"","10:31 01/12/2022"
"take picture","","Hacer foto","",,"","10:31 01/12/2022"
"place","","Colocar","",,"","10:31 01/12/2022"
"sabotage","","Sabotear","",,"","10:31 01/12/2022"
"view fuse box","","Ver caja de fusibles","",,"","10:31 01/12/2022"
"view call logs","","Ver registros de llamadas","",,"","10:31 01/12/2022"
"select","","Seleccionar","",,"","10:31 01/12/2022"
"drop/place","","Dejar/Colocar","",,"","10:31 01/12/2022"
"click","","Hacer clic","",,"","10:31 01/12/2022"
"check underneath","","Comprobar por debajo","",,"","10:31 01/12/2022"
"next page","","Página siguiente","",,"","10:31 01/12/2022"
"previous page","","Página anterior","",,"","10:31 01/12/2022"
"take one","","Tomar una","",,"","10:31 01/12/2022"
"dry","","Secar","",,"","10:31 01/12/2022"
"ko","","Recuperándose","",,"","10:31 01/12/2022"
"install/uninstall sync disks...","","Instalar/Desinstalar SyncDisks...","",,"","10:31 01/12/2022"
"apply","","Aplicar","",,"","10:31 01/12/2022"
"sleep...","","Dormir...","",,"","10:31 01/12/2022"
"switch hours/minutes","","Cambiar horas/minutos","",,"","10:31 01/12/2022"
"alarm forward","","Adelantar alarma","",,"","10:31 01/12/2022"
"alarm back","","Retrasar alarma","",,"","10:31 01/12/2022"
"pass time....","","Pasar tiempo...","",,"","10:31 01/12/2022"
"set alarm (wait)","","Poner alarma (esperar)","",,"","10:31 01/12/2022"
"notebook","","Cuaderno de notas","",,"","10:31 01/12/2022"
"turn on hob","","Encender fuego","",,"","10:31 01/12/2022"
"hand in case","","Entregar caso","",,"","10:31 01/12/2022"
"get case form","","Obtener formularios de resolución","",,"","10:31 01/12/2022"
"change decor","","Cambiar decoración","",,"","10:31 01/12/2022"
"get out","","Salir","",,"","10:31 01/12/2022"
"turn off hob","","Apagar fuego","",,"","10:31 01/12/2022"
"order","","Pedir","",,"","10:31 01/12/2022"
"switch off","","Apagar","",,"","10:31 01/12/2022"
"switch on","","Encender","",,"","10:31 01/12/2022"
"nearestinteractable","","Interactuable más cercano","",,"","10:31 01/12/2022"
"nearest interactable","","Interactuable más cercano","",,"","10:31 01/12/2022"
"scroll map","","Desplazarse por mapa","",,"","10:31 01/12/2022"
"cycle interface","","Cambiar de modo","",,"","10:31 01/12/2022"
"move evidence","","Mover prueba","",,"","10:31 01/12/2022"
"scroll board","","Desplazarse por tablón","",,"","10:31 01/12/2022"
"zoom","","Zoom","",,"","10:31 01/12/2022"
"prev. window","","Ventana anterior","",,"","10:31 01/12/2022"
"next window","","Ventana siguiente","",,"","10:31 01/12/2022"
"move window","","Mover ventana","",,"","10:31 01/12/2022"
"context menu","","Menú contextual","",,"","10:31 01/12/2022"
"shoot","","Tirar","",,"","10:31 01/12/2022"
"reset","","Reiniciar","",,"","10:31 01/12/2022"
"resume","","Reanudar","",,"","10:31 01/12/2022"
"release","","Liberar","",,"","10:31 01/12/2022"
"give","","Dar","",,"","10:31 01/12/2022"
"attack","","Atacar","",,"","10:31 01/12/2022"
"vomit","","Vomitar","",,"","10:31 01/12/2022"
"vomiting","","Vomitando","",,"","10:31 01/12/2022"
"sabotaging","","saboteando","",,"","10:31 01/12/2022"
"select & return","","Seleccionar y volver","",,"","10:31 01/12/2022"
"select & close","","Seleccionar y cerrar","",,"","10:31 01/12/2022"
"next track","","Pista siguiente","",,"","9:32 12/04/2023"
"previous track","","Pista anterior","",,"","9:32 12/04/2023"
"create string","","Crear hilo","",,"","9:32 12/04/2023"
"lower","","Bajar","",,"","9:32 12/04/2023"
"rotate left","","Rotar a la izquierda","",,"","9:32 12/04/2023"
"rotate right","","Rotar a la derecha","",,"","9:32 12/04/2023"
"dispose","","Tirar","",,"","14:25 11/09/2023"
