"Game Reference Key","Notes","Displayed Text","Alternate Text","Frequency","Requires Suffix","Misc."
"[The key used by the game to find strings]","[Not loaded into the game, for explanation only]","[The displayed string in-game]","[Alternate displayed string, eg. Nickname]","[For lists]","[Does this require a suffix for naming?]","[Miscellaneous]"
"— ","— ","— ","— ","— ","— ","— "
"cold","","Frío","",,"","10:31 01/12/2022"
"cold_F","","Fría","",,"","10:31 01/12/2022"
"cold_NB","","Fríe","",,"","10:31 01/12/2022"
"vandalism_description","","Vandalismo","",,"","10:31 01/12/2022"
"theft_description","","Robo","",,"","10:31 01/12/2022"
"illegalaction","","Acción ilegal","",,"","10:31 01/12/2022"
"trespassing","","Allanando","",,"","10:31 01/12/2022"
"trespassing_description","","Allanando","",,"","10:31 01/12/2022"
"tampering_description","","Manipulación","",,"","10:31 01/12/2022"
"breakingandentering_description","","Allanamiento por la fuerza","",,"","10:31 01/12/2022"
"assault_description","","Agresión","",,"","10:31 01/12/2022"
"trespassing_description_trespassmajor","","Si te descubren, podrían capturarte, multarte ¡o algo peor!","",,"","10:31 01/12/2022"
"illegalaction_description","","Si te descubren, podrían capturarte, multarte ¡o algo peor!","",,"","10:31 01/12/2022"
"trespassing_description_trespassminor","","Te pedirán que te vayas; si no lo haces, habrá consecuencias...","",,"","10:31 01/12/2022"
"capturerisk","","Posibles multas","",,"","9:32 12/04/2023"
"capturerisk_description","","Si te atrapan, tendrás que pagarlo. Que los testigos te pierdan la pista. Si aparece subrayado, significa que te han visto y debes salir pitando del edificio.","",,"","10:31 01/12/2022"
"stinky","","Apestoso","",,"","10:31 01/12/2022"
"stinky_F","","Apestosa","",,"","10:31 01/12/2022"
"stinky_NB","","Apestose","",,"","10:31 01/12/2022"
"stinky_description","","¡Los ciudadanos podrían olerte antes de verte! Date una ducha.","",,"","10:31 01/12/2022"
"cold_description","","Tendrás escalofríos y experimentarás un lento declive de salud. Haz algo o ve a un lugar más cálido.","",,"","10:31 01/12/2022"
"tired","","Cansado","",,"","10:31 01/12/2022"
"tired_F","","Cansada","",,"","10:31 01/12/2022"
"tired_NB","","Cansade","",,"","10:31 01/12/2022"
"tired_description","","Penalización sobre la velocidad de tus movimientos. Si te sientas o te tumbas, te dormirás. Consigue algo de cafeína o descansa.","",,"","10:31 01/12/2022"
"wet","","Mojado","",,"","10:31 01/12/2022"
"wet_F","","Mojada","",,"","10:31 01/12/2022"
"wet_NB","","Mojade","",,"","10:31 01/12/2022"
"wet_description","","¡Cuidado con correr sobre superficies mojadas! Desaparecerá con el tiempo, aunque también puedes buscar una toalla.","",,"","10:31 01/12/2022"
"headache","","Dolor de cabeza","",,"","10:31 01/12/2022"
"headache_description","","Penalización sobre la velocidad de tus movimientos. ¡Correr hará que empeore! Desaparecerá con el tiempo, aunque también puedes buscar analgésicos.","",,"","10:31 01/12/2022"
"hungry","","Hambriento","",,"","10:31 01/12/2022"
"hungry_F","","Hambrienta","",,"","10:31 01/12/2022"
"hungry_NB","","Hambriente","",,"","10:31 01/12/2022"
"hungry_description","","La recuperación de salud está inactiva. Come algo.","",,"","10:31 01/12/2022"
"thirsty","","Sediento","",,"","10:31 01/12/2022"
"thirsty_F","","Sedienta","",,"","10:31 01/12/2022"
"thirsty_NB","","Sediente","",,"","10:31 01/12/2022"
"thirsty_description","","La recuperación de salud está inactiva. Bebe algo.","",,"","10:31 01/12/2022"
"drunk","","Borracho","",,"","10:31 01/12/2022"
"drunk_F","","Borracha","",,"","10:31 01/12/2022"
"drunk_NB","","Borrache","",,"","10:31 01/12/2022"
"drunk_description","","¡Vas como una cuba! Penalización sobre la velocidad y el control de tus movimientos. Desparecerá con el tiempo.","",,"","10:31 01/12/2022"
"sick","","Náuseas","",,"","10:31 01/12/2022"
"sick_description","","Penalización sobre la velocidad y el control de tus movimientos. Desparecerá con el tiempo, aunque también puedes encontrar un lugar donde vomitar.","",,"","10:31 01/12/2022"
"pursued","","Alguien te sigue","",,"","10:31 01/12/2022"
"pursued_description","","¡Te están siguiendo!","",,"","10:31 01/12/2022"
"hydrated","","Hidratado","",,"","10:31 01/12/2022"
"hydrated_F","","Hidratada","",,"","10:31 01/12/2022"
"hydrated_NB","","Hidratade","",,"","10:31 01/12/2022"
"hydrated_description","","Aumento hasta los niveles máximos de salud y regeneración de salud.","",,"","10:31 01/12/2022"
"energized_description","","Aumento hasta los niveles máximos de salud y regeneración de salud.","",,"","10:31 01/12/2022"
"energized","","Vigoroso","",,"","10:31 01/12/2022"
"energized_F","","Vigorosa","",,"","10:31 01/12/2022"
"energized_NB","","Vigorose","",,"","10:31 01/12/2022"
"focused","","Concentrado","",,"","10:31 01/12/2022"
"focused_F","","Concentrada","",,"","10:31 01/12/2022"
"focused_NB","","Concentrade","",,"","10:31 01/12/2022"
"focused_description","","Aumento de la velocidad de tus movimientos.","",,"","10:31 01/12/2022"
"brokenleg","","Pierna rota","",,"","10:31 01/12/2022"
"brokenleg_description","","Penalización sobre la velocidad de tus movimientos. Busca una férula para ponerle remedio.","",,"","10:31 01/12/2022"
"blackeye","","Ojo morado","",,"","10:31 01/12/2022"
"blackeye_description","","Penalización sobre tu visión. Desparecerá con el tiempo, pero los analgésicos pueden acelerar la recuperación.","",,"","10:31 01/12/2022"
"bruised","","Magullado","",,"","10:31 01/12/2022"
"bruised_F","","Magullada","",,"","10:31 01/12/2022"
"bruised_NB","","Magullade","",,"","10:31 01/12/2022"
"bruised_description","","El daño que recibas se verá incrementado. Desaparecerá con el tiempo, pero los analgésicos pueden acelerar la recuperación.","",,"","10:31 01/12/2022"
"numb","","Entumecido","",,"","10:31 01/12/2022"
"numb_F","","Entumecida","",,"","10:31 01/12/2022"
"numb_NB","","Entumecide","",,"","10:31 01/12/2022"
"numb_description","","El daño que recibas y causes se verá mermado. Desaparecerá con el tiempo.","",,"","10:31 01/12/2022"
"bleeding","","Hemorragia","",,"","10:31 01/12/2022"
"bleeding_description","","Experimentarás un lento declive de la salud. Desparecerá con el tiempo, ¡pero podrías desmayarte antes! Busca una venda.","",,"","10:31 01/12/2022"
"detained","","Detenido","",,"","10:31 01/12/2022"
"detained_F","","Detenida","",,"","10:31 01/12/2022"
"detained_NB","","Detenide","",,"","10:31 01/12/2022"
"detained_description","","Te han detenido; te convertirás en objetivo de las fuerzas de seguridad si intentas escapar. Te librarás de ello pagando una tasa o escapando con éxito.","",,"","10:31 01/12/2022"
"wellrested","","Descansado","",,"","10:31 01/12/2022"
"wellrested_F","","Descansada","",,"","10:31 01/12/2022"
"wellrested_NB","","Descansade","",,"","10:31 01/12/2022"
"wellrested_description","","Aumento de la velocidad de tus movimientos, y hasta los niveles máximos de salud y de regeneración de salud.","",,"","10:31 01/12/2022"
"wanted","","¡Alerta de seguridad!","",,"","10:31 01/12/2022"
"wanted_description","","Te convertirás en objetivo de los sistemas de alarma, así que intenta evitarlos.","",,"","10:31 01/12/2022"
"hiding","","Escondido","",,"","10:31 01/12/2022"
"hiding_F","","Escondida","",,"","10:31 01/12/2022"
"hiding_NB","","Escondide","",,"","10:31 01/12/2022"
"hiding_description","","A no ser que alguien te haya visto esconderte, estarás a salvo de miradas indiscretas.","",,"","10:31 01/12/2022"
"starchaddiction","","Adicción a la Starch Kola","",,"","10:31 01/12/2022"
"starchaddiction_description","","Consume un producto de Starch Kola para aplacar el ansia.","",,"","10:31 01/12/2022"
"syncdiskinstall","","Instalando SyncDisk...","",,"","10:31 01/12/2022"
"syncdiskinstall_description","","Podrías notar cierta desorientación.","",,"","10:31 01/12/2022"
"poisoned","","Envenenado","",,"","10:31 01/12/2022"
"poisoned_F","","Envenenada","",,"","10:31 01/12/2022"
"poisoned_NB","","Envenenade","",,"","10:31 01/12/2022"
"poisoned_description","","¡Perderás tu salud rápidamente! Encuentra pastillas de carbón para purgar tu organismo.","",,"","10:31 01/12/2022"
"toxicgas","","Gas tóxico","",,"","10:31 01/12/2022"
"toxicgas_description","","Esta habitación contiene gas tóxico, ¡sal de inmediato!","",,"","10:31 01/12/2022"
"alarmactive","","Alarma activa","",,"","10:31 01/12/2022"
"blinded","","Cegado","",,"","10:31 01/12/2022"
"blinded_description","","Cegado","",,"","10:31 01/12/2022"
"blinded_F","","Cegada","",,"","10:31 01/12/2022"
"blinded_description_F","","Cegada","",,"","10:31 01/12/2022"
"blinded_NB","","Cegade","",,"","10:31 01/12/2022"
"blinded_description_NB","","Cegade","",,"","10:31 01/12/2022"
"guestpass","","Invitación","",,"","9:32 12/04/2023"
"guestpass_description","","Tienes permiso para explorar","",,"","9:32 12/04/2023"
