%YAML 1.1
%TAG !u! tag:unity3d.com,2011:
--- !u!114 &11400000
MonoBehaviour:
  m_ObjectHideFlags: 0
  m_CorrespondingSourceObject: {fileID: 0}
  m_PrefabInstance: {fileID: 0}
  m_PrefabAsset: {fileID: 0}
  m_GameObject: {fileID: 0}
  m_Enabled: 1
  m_EditorHideFlags: 0
  m_Script: {fileID: 11500000, guid: 3f919a38bda07a046a96d2a335329b22, type: 3}
  m_Name: BuildingManagement
  m_EditorClassIdentifier: 
  presetName: BuildingManagement
  companyCategories: 
  isIllegal: 0
  useBuildingOverrideName: 0
  overrideSuffixList: []
  useStreetNameChance: 0
  useDistrictNameChance: 0
  useOwnerFirstNameChance: 0
  useOwnerSurNameChance: 1
  useCompanyNameListChance: 0.505
  aliterationWeight: 0
  prefixChance: 0
  prefixList: []
  mainChance: 1
  mainNamingList:
  - luxury
  suffixList:
  - company.suffix.buildingmanagement
  theRules: []
  minimumSalary: 3
  topSalary: 3
  payGradeCurve:
    serializedVersion: 2
    m_Curve:
    - serializedVersion: 3
      time: 0
      value: 0
      inSlope: 0
      outSlope: 1
      tangentMode: 0
      weightedMode: 0
      inWeight: 0.33333334
      outWeight: 0.33333334
    - serializedVersion: 3
      time: 1
      value: 1
      inSlope: 1
      outSlope: 0
      tangentMode: 0
      weightedMode: 0
      inWeight: 0.33333334
      outWeight: 0.33333334
    m_PreInfinity: 2
    m_PostInfinity: 2
    m_RotationOrder: 4
  publicFacing: 0
  isSelfEmployed: 0
  autoCreate: 0
  priority: 5
  cityPopRatio: 0.03
  minimumNumber: 2
  maximumNumber: 10
  menus: []
  recordSalesData: 0
  previousFakeSalesRecords: 5
  requiredTraits: []
  enableSelling: 0
  enableSellingOfIllegalItems: 0
  sellValueMultiplier: 0.5
  possibleUniformColours: []
  workHours: {fileID: 11400000, guid: d9e58322a42d3124091cb66b54279f89, type: 2}
  structure: {fileID: 11400000, guid: 3738a85e0d5d3584ca865d1270e4c96b, type: 2}
  controlsBuildingSurveillance: 1
