%YAML 1.1
%TAG !u! tag:unity3d.com,2011:
--- !u!114 &11400000
MonoBehaviour:
  m_ObjectHideFlags: 0
  m_CorrespondingSourceObject: {fileID: 0}
  m_PrefabInstance: {fileID: 0}
  m_PrefabAsset: {fileID: 0}
  m_GameObject: {fileID: 0}
  m_Enabled: 1
  m_EditorHideFlags: 0
  m_Script: {fileID: 11500000, guid: 1d9a7e6043a868d4888bba2a9a4f3962, type: 3}
  m_Name: DividerEndLeft
  m_EditorClassIdentifier: 
  id: 5
  parentWallsLong: []
  childWallsLong: []
  parentWallsShort:
  - {fileID: 2250790686123724488, guid: 893e4beb57720624b89c7cd183e4d7bb, type: 3}
  childWallsShort:
  - {fileID: 1919928018866612229, guid: 0d463a8a5d614e346a89aae9895b39d8, type: 3}
  corners:
  - {fileID: 8524328650010284728, guid: 047b01a3f6e8816498d610a5e90612c0, type: 3}
  quoins:
  - {fileID: 1333844622438133721, guid: 69f835ce03703a44e91d850106d5be67, type: 3}
  optimizeSections: 0
  appearInEditor: 1
  supportsWallProps: 0
  isFence: 0
  divider: 1
  dividerLeft: 1
  dividerRight: 0
  canFeatureDoor: 0
  doorOffset: {x: 0.7, y: 0, z: 0}
  sectionClass: 3
  ignoreCullingRaycasts: 0
  raisedFloorOverride: {fileID: 0}
  materialOverride: {fileID: 0}
  mapOverride: []
  overrideWallNormal: 0
  wallNormalOverrride: {fileID: 0}
  overrideDuctLower: 0
  ductLowerOverrride: {fileID: 0}
  overrideDuctUpper: 0
  ductUpperOverrride: {fileID: 0}
