%YAML 1.1
%TAG !u! tag:unity3d.com,2011:
--- !u!114 &11400000
MonoBehaviour:
  m_ObjectHideFlags: 0
  m_CorrespondingSourceObject: {fileID: 0}
  m_PrefabInstance: {fileID: 0}
  m_PrefabAsset: {fileID: 0}
  m_GameObject: {fileID: 0}
  m_Enabled: 1
  m_EditorHideFlags: 0
  m_Script: {fileID: 11500000, guid: 1d9a7e6043a868d4888bba2a9a4f3962, type: 3}
  m_Name: RooftopVentilation
  m_EditorClassIdentifier: 
  id: 12
  parentWallsLong: []
  childWallsLong: []
  parentWallsShort:
  - {fileID: 1783436049111758224, guid: 213be8365478ba944818a3a653900c9c, type: 3}
  childWallsShort:
  - {fileID: 1783436049111758224, guid: 213be8365478ba944818a3a653900c9c, type: 3}
  corners:
  - {fileID: 1204271523726911600, guid: 0c2991e8bea159842ad00e5149a314c8, type: 3}
  quoins: []
  optimizeSections: 0
  appearInEditor: 1
  supportsWallProps: 0
  isFence: 0
  divider: 0
  dividerLeft: 0
  dividerRight: 0
  canFeatureDoor: 0
  doorOffset: {x: 0, y: 0, z: 0}
  sectionClass: 0
  ignoreCullingRaycasts: 1
  raisedFloorOverride: {fileID: 0}
  materialOverride: {fileID: 11400000, guid: bdacc3c4f26e86e4f911430ed296b027, type: 2}
  mapOverride: []
  overrideWallNormal: 1
  wallNormalOverrride: {fileID: 11400000}
  overrideDuctLower: 1
  ductLowerOverrride: {fileID: 11400000, guid: 75313d35f027e034e8bff70279306142, type: 2}
  overrideDuctUpper: 0
  ductUpperOverrride: {fileID: 0}
