%YAML 1.1
%TAG !u! tag:unity3d.com,2011:
--- !u!114 &11400000
MonoBehaviour:
  m_ObjectHideFlags: 0
  m_CorrespondingSourceObject: {fileID: 0}
  m_PrefabInstance: {fileID: 0}
  m_PrefabAsset: {fileID: 0}
  m_GameObject: {fileID: 0}
  m_Enabled: 1
  m_EditorHideFlags: 0
  m_Script: {fileID: 11500000, guid: 1d9a7e6043a868d4888bba2a9a4f3962, type: 3}
  m_Name: WindowSmallWithUpperSpace
  m_EditorClassIdentifier: 
  id: 26
  parentWallsLong: []
  childWallsLong: []
  parentWallsShort:
  - {fileID: 6157812199712697101, guid: 7ef23c82ae447ea4c93dbce59e412dab, type: 3}
  childWallsShort:
  - {fileID: 6157812199712697101, guid: 7ef23c82ae447ea4c93dbce59e412dab, type: 3}
  corners:
  - {fileID: 8524328650010284728, guid: 047b01a3f6e8816498d610a5e90612c0, type: 3}
  quoins: []
  optimizeSections: 0
  appearInEditor: 0
  supportsWallProps: 0
  isFence: 0
  divider: 0
  dividerLeft: 0
  dividerRight: 0
  canFeatureDoor: 0
  doorOffset: {x: 0.7, y: 0, z: 0}
  sectionClass: 4
  ignoreCullingRaycasts: 0
  raisedFloorOverride: {fileID: 0}
  materialOverride: {fileID: 0}
  mapOverride: []
  includesTopSpace: 1
  overrideWallNormal: 0
  wallNormalOverrride: {fileID: 0}
  overrideDuctLower: 0
  ductLowerOverrride: {fileID: 0}
  overrideDuctUpper: 0
  ductUpperOverrride: {fileID: 0}
