%YAML 1.1
%TAG !u! tag:unity3d.com,2011:
--- !u!114 &11400000
MonoBehaviour:
  m_ObjectHideFlags: 0
  m_CorrespondingSourceObject: {fileID: 0}
  m_PrefabInstance: {fileID: 0}
  m_PrefabAsset: {fileID: 0}
  m_GameObject: {fileID: 0}
  m_Enabled: 1
  m_EditorHideFlags: 0
  m_Script: {fileID: 11500000, guid: 1d9a7e6043a868d4888bba2a9a4f3962, type: 3}
  m_Name: WoodenFence
  m_EditorClassIdentifier: 
  id: 21
  parentWallsLong:
  - {fileID: 2189390145224949056, guid: ae0d297f1ed71a54690b12f1850c0e38, type: 3}
  childWallsLong:
  - {fileID: 2189390145224949056, guid: ae0d297f1ed71a54690b12f1850c0e38, type: 3}
  parentWallsShort:
  - {fileID: 1150911319483598478, guid: ab6f4566e43434441bcc9174cc1d4239, type: 3}
  childWallsShort:
  - {fileID: 1150911319483598478, guid: ab6f4566e43434441bcc9174cc1d4239, type: 3}
  corners:
  - {fileID: 6071187636124001905, guid: 4686245c0235b2a4e9779386c1462014, type: 3}
  quoins: []
  optimizeSections: 1
  appearInEditor: 1
  supportsWallProps: 1
  isFence: 1
  divider: 0
  dividerLeft: 0
  dividerRight: 0
  canFeatureDoor: 0
  doorOffset: {x: 0, y: 0, z: 0}
  sectionClass: 2
  ignoreCullingRaycasts: 0
  raisedFloorOverride: {fileID: 0}
  materialOverride: {fileID: 11400000, guid: 36c83f75c6f01c34687b652a35cfad16, type: 2}
  mapOverride: []
  overrideWallNormal: 0
  wallNormalOverrride: {fileID: 0}
  overrideDuctLower: 0
  ductLowerOverrride: {fileID: 0}
  overrideDuctUpper: 0
  ductUpperOverrride: {fileID: 0}
