%YAML 1.1
%TAG !u! tag:unity3d.com,2011:
--- !u!114 &11400000
MonoBehaviour:
  m_ObjectHideFlags: 0
  m_CorrespondingSourceObject: {fileID: 0}
  m_PrefabInstance: {fileID: 0}
  m_PrefabAsset: {fileID: 0}
  m_GameObject: {fileID: 0}
  m_Enabled: 1
  m_EditorHideFlags: 0
  m_Script: {fileID: 11500000, guid: 1d9a7e6043a868d4888bba2a9a4f3962, type: 3}
  m_Name: WoodenFenceJoinRight
  m_EditorClassIdentifier: 
  id: 24
  parentWallsLong:
  - {fileID: 6807596608966929534, guid: 55ce59a11ba6d8849a1df17554ade8ae, type: 3}
  childWallsLong:
  - {fileID: 6375303371195728116, guid: 54306baf15abbc545aeef8f4d2b15c1b, type: 3}
  parentWallsShort:
  - {fileID: 1150911319483598478, guid: ab6f4566e43434441bcc9174cc1d4239, type: 3}
  childWallsShort:
  - {fileID: 1150911319483598478, guid: ab6f4566e43434441bcc9174cc1d4239, type: 3}
  corners:
  - {fileID: 6071187636124001905, guid: 4686245c0235b2a4e9779386c1462014, type: 3}
  quoins: []
  optimizeSections: 1
  appearInEditor: 1
  supportsWallProps: 1
  isFence: 1
  divider: 0
  dividerLeft: 0
  dividerRight: 0
  canFeatureDoor: 0
  doorOffset: {x: 0, y: 0, z: 0}
  sectionClass: 2
  ignoreCullingRaycasts: 0
  raisedFloorOverride: {fileID: 0}
  materialOverride: {fileID: 11400000, guid: 40a6483d03b3b6349819808222c63601, type: 2}
  mapOverride: []
  overrideWallNormal: 0
  wallNormalOverrride: {fileID: 0}
  overrideDuctLower: 0
  ductLowerOverrride: {fileID: 0}
  overrideDuctUpper: 0
  ductUpperOverrride: {fileID: 0}
