%YAML 1.1
%TAG !u! tag:unity3d.com,2011:
--- !u!114 &11400000
MonoBehaviour:
  m_ObjectHideFlags: 0
  m_CorrespondingSourceObject: {fileID: 0}
  m_PrefabInstance: {fileID: 0}
  m_PrefabAsset: {fileID: 0}
  m_GameObject: {fileID: 0}
  m_Enabled: 1
  m_EditorHideFlags: 0
  m_Script: {fileID: 11500000, guid: c85c0ad7d263a0743bb9a6fd6928c95b, type: 3}
  m_Name: Photograph_D0
  m_EditorClassIdentifier: 
  presetName: Photograph_D0
  disabled: 0
  caseName: Photograph
  jobPosting: {fileID: 11400000, guid: 0f5a4344ab784554783e64f97570be2e, type: 2}
  subClass: 
  allowSyncDiskRewards: 1
  allowBlackMarketSyncDiskRewards: 1
  physicalRewardLocation: 1
  generateHidingLocation: 0
  socialCreditLevelMinSpawnFrequency:
    serializedVersion: 2
    m_Curve:
    - serializedVersion: 3
      time: 0
      value: 1
      inSlope: -1.1063753
      outSlope: -1.1063753
      tangentMode: 0
      weightedMode: 0
      inWeight: 0
      outWeight: 0.083861224
    - serializedVersion: 3
      time: 2
      value: 0
      inSlope: -0.0029833536
      outSlope: -0.0029833536
      tangentMode: 0
      weightedMode: 0
      inWeight: 0.33333334
      outWeight: 0.13572875
    - serializedVersion: 3
      time: 10
      value: 0
      inSlope: 0
      outSlope: 0
      tangentMode: 0
      weightedMode: 0
      inWeight: 0
      outWeight: 0
    m_PreInfinity: 2
    m_PostInfinity: 2
    m_RotationOrder: 4
  activePerCitizen: 0.01
  maxJobs: 8
  immediatePostCountThreshold: 2
  difficultyTag: 0
  changePosterDialogCompliancy: 0
  changePerpDialogCompliancy: 1
  purpetratorMotives:
  - {fileID: 11400000, guid: a94412321bd588243be5dc708a706664, type: 2}
  penaltyForPurpAndPosterSameBuilding: 0
  startingScenarios:
  - name: Photograph
    dds: 675d2695-7471-4fc8-8989-fea12d35d120
    leads: []
  compatibleIntros:
  - preset: {fileID: 11400000, guid: 25e194f750b45c641849870eee5af316, type: 2}
    frequency: 1
  - preset: {fileID: 11400000, guid: c26a2a0ba496ac64d9f6f7770c1a6843, type: 2}
    frequency: 1
  - preset: {fileID: 11400000, guid: 0659cbb85759a6a469e5c2b28a1774e1, type: 2}
    frequency: 0
  - preset: {fileID: 11400000, guid: 84472f86f1fe3fd4b95643de9857d92e, type: 2}
    frequency: 0
  - preset: {fileID: 11400000, guid: f949232bdfeddce4eb298bdcbf6b3413, type: 2}
    frequency: 0
  leadPoolData: 0
  createFactsOnInformationAcquisition:
  - factPreset: {fileID: 11400000, guid: e450b25695fe40d42b12aad3492b6bd2, type: 2}
    from: 13
    to: 2
    overrideFromKeys: 0
    fromKeys: 
    featureKeysFromLeadPool: 0
    overrideToKeys: 1
    toKeys: 00000000
    featureKeysFromLeadPoolTo: 1
  informationAcquisitionLeads:
  - leadEvidence: 2
    keys: 00000000
    useKeyFromLeadPool: 0
    autoPin: 1
    addDialogOptions: []
    factsReveal: []
    mergeKeys: 0000000024000000
    discoveryApplication: 
  revengeObjectives: []
  spawnItems: []
  resolveQuestions:
  - name: Take a photo of |purp.name|
    displayObjective: 1
    displayOnlyAtPhase: 0
    displayAtPhase: 0
    objectiveDelay: 0
    onlyCompatibleWithIntros: []
    onlyCompatibleWithHandIns: []
    inputType: 2
    automaticAnswers: 0b000000
    tag: 0
    icon: 30
    rewardRange: {x: 300, y: 400}
    penaltyRange: {x: 0, y: 0}
    isOptional: 0
    useAlternateName: 0
    useName: 2
    target: 0
    location: 0
    revengeObjective: 
    revengeObjTarget: -1
    revengeObjLoc: -1
    revengeObjPassed: 0
    completedRevenge: 0
    input: 
    inputtedEvidence: 
    correctAnswers: []
    progress: 0
    reward: 0
    penalty: 0
    isValid: 0
    isCorrect: 0
  additional:
  - name: Has camera
    elementType: 7
    dialogReference: 
    tagReference: 0
    spawnItems: []
    enableUpdateWhileTalking: 0
    objectiveDelay: 0
    validItems: []
    validFurniture: []
    disableOnDifficulties: 
    onlyCompativleWithIntros: []
    onlyCompatibleWithHandIns: []
    triggerFailIfItemDestroyed: 
  compatibleHandIns:
  - preset: {fileID: 11400000, guid: 105373a3726979743883d15d3f2469be, type: 2}
    frequency: 1
  dialogReferences:
  - name: IntroCall
    dialog: {fileID: 11400000, guid: 1a625380e854b4b40912b215241168f0, type: 2}
  - name: IntroAskStaff
    dialog: {fileID: 11400000, guid: 57106c72b94c5b4499e9066ae2798f4b, type: 2}
  - name: IntroAskStaffPhoto
    dialog: {fileID: 11400000, guid: b0bfc90d492c8014a9cc85f39387f6c9, type: 2}
  - name: IntroGooseChase1
    dialog: {fileID: 11400000, guid: 2e0f9e7c03242e746a9aed785e7a6ccd, type: 2}
  - name: IntroGooseChase2
    dialog: {fileID: 11400000, guid: fa0f021c3d1b9a649ae9eca89aedf375, type: 2}
  - name: IntroMeetUpSpecific1
    dialog: {fileID: 11400000, guid: 31581c018cc39904db2d4d6f38fd168f, type: 2}
  - name: IntroMeetUpSpecific2
    dialog: {fileID: 11400000, guid: 35010e4994bfd7e4e9b1cbdc4ee2cc23, type: 2}
  - name: TelephoneHandIn
    dialog: {fileID: 11400000, guid: 61ca02536809a7748831413ebb405fb2, type: 2}
  debugCopyFrom: {fileID: 11400000, guid: cf511204830e5e44a8bbe393eb257a99, type: 2}
