%YAML 1.1
%TAG !u! tag:unity3d.com,2011:
--- !u!114 &11400000
MonoBehaviour:
  m_ObjectHideFlags: 0
  m_CorrespondingSourceObject: {fileID: 0}
  m_PrefabInstance: {fileID: 0}
  m_PrefabAsset: {fileID: 0}
  m_GameObject: {fileID: 0}
  m_Enabled: 1
  m_EditorHideFlags: 0
  m_Script: {fileID: 11500000, guid: 43c7874de0efe53478579efe83067dca, type: 3}
  m_Name: GateNoLock
  m_EditorClassIdentifier: 
  presetName: GateNoLock
  doorModel: {fileID: 864702291165559413, guid: f10cac8ddee2c174f9a0004acb5136d7,
    type: 3}
  objectPreset: {fileID: 11400000, guid: 2228e8e53a37e644fa2951dcc5c52cd5, type: 2}
  handleModel: {fileID: 7695175280772323108, guid: 8e9e14d4a15ca5f49a1eee04a87b836a,
    type: 3}
  handlePreset: {fileID: 11400000, guid: 8d3172cbd050f924db3679fffe393d1e, type: 2}
  handleOffset: {x: -1.25, y: 1.05, z: -0.05}
  isTransparent: 0
  doorSignOffset: {x: -0.68, y: 1.8, z: -0.1}
  doorSigns:
  - signagePool:
    - {fileID: 6525389591064819033, guid: 7ae0271fff595df4199684e88dfc321e, type: 3}
    ifEntranceToRoom:
    - {fileID: 11400000, guid: 6f80cbcb2aab58b4b9360aec542e561f, type: 2}
    - {fileID: 11400000, guid: 5418deaba9454004abf1edb0e4ca0a1b, type: 2}
    - {fileID: 11400000, guid: b2b134764286b8c45a9c50c9ddd6fad8, type: 2}
    - {fileID: 11400000, guid: a0dbcaa536093df44b8869b156561bf8, type: 2}
    - {fileID: 11400000, guid: 7f56b7fa5f008f842a5ab5cbb20a6487, type: 2}
    - {fileID: 11400000, guid: fbf2a68ed2c89a4498bc663f913f145b, type: 2}
    - {fileID: 11400000, guid: 547b5bad4ded3504a9f616ff6cda7af8, type: 2}
    - {fileID: 11400000, guid: 87264d8ccfa2b0d44b0addc964ee9e7f, type: 2}
    - {fileID: 11400000, guid: cf2ce02e92e0f2d46bfa574bfceeab2a, type: 2}
    - {fileID: 11400000, guid: 59b110358c136de448fc5e96428cd461, type: 2}
    - {fileID: 11400000, guid: 52f373f7f39dcf64e94cd32a3eef6ed4, type: 2}
    - {fileID: 11400000, guid: 3eca4e78f06ffb049b2c15095ef04127, type: 2}
    - {fileID: 11400000, guid: 2691501a8c2d13a48b80dcf040e7dce4, type: 2}
    - {fileID: 11400000, guid: 416f80ac38d712544baded7a1733686c, type: 2}
    placeIfFromPublicArea: 0
    placeIfFromOutside: 0
    placeIfFromInside: 0
  - signagePool:
    - {fileID: 3079118594814538277, guid: 083daf8255a927e41831086f54d5306d, type: 3}
    ifEntranceToRoom:
    - {fileID: 11400000, guid: 9e676c651d3387c4ea368d84d93034d1, type: 2}
    - {fileID: 11400000, guid: d4ab54b9f48f39a43a296ab4fb12b266, type: 2}
    placeIfFromPublicArea: 0
    placeIfFromOutside: 0
    placeIfFromInside: 0
  - signagePool:
    - {fileID: 6030475500943793429, guid: a003df6c08130e640ad971bd47cbb77b, type: 3}
    ifEntranceToRoom:
    - {fileID: 11400000, guid: 1feb4b2a99f84874db3280126152827c, type: 2}
    - {fileID: 11400000, guid: 9c55e1885b175624aa5ca0854cc958e5, type: 2}
    placeIfFromPublicArea: 0
    placeIfFromOutside: 0
    placeIfFromInside: 0
  - signagePool:
    - {fileID: 2181679928251509640, guid: a61e7cf6fb044854b811159ef09b5a00, type: 3}
    ifEntranceToRoom:
    - {fileID: 11400000, guid: ce26207b8e7f7634a836c3131d885664, type: 2}
    - {fileID: 11400000, guid: 4a77b53e5d1c0084e829a3acf338a1cc, type: 2}
    - {fileID: 11400000, guid: 4feaa49c940ecd84b94179e8c973e38c, type: 2}
    placeIfFromPublicArea: 0
    placeIfFromOutside: 0
    placeIfFromInside: 0
  - signagePool:
    - {fileID: 5021925937870838476, guid: 1dbd578093a17ec46bbb5a2f699cfbfc, type: 3}
    ifEntranceToRoom:
    - {fileID: 11400000, guid: d62a565437ce32541b911dc5b96bf0e7, type: 2}
    - {fileID: 11400000, guid: 9603aa0143a013c48aef7abc4e1f6327, type: 2}
    - {fileID: 11400000, guid: 34b76aae5a387a0449447f5d4611d0b4, type: 2}
    - {fileID: 11400000, guid: 1f66dc15d9252f3449623a638f4c6e9f, type: 2}
    - {fileID: 11400000, guid: 01838b5ca9d50d84ea4b2cebf1936158, type: 2}
    placeIfFromPublicArea: 0
    placeIfFromOutside: 0
    placeIfFromInside: 1
  - signagePool:
    - {fileID: 413153201279542772, guid: 2022a923f8f1ff54fadc02028cd23656, type: 3}
    ifEntranceToRoom:
    - {fileID: 11400000, guid: 0775f594d4985dd4d9f4f3a0d671ae22, type: 2}
    - {fileID: 11400000, guid: 5c526341ba51af24e9b5f2293b6fbecc, type: 2}
    placeIfFromPublicArea: 0
    placeIfFromOutside: 0
    placeIfFromInside: 0
  - signagePool:
    - {fileID: 8367235744755460171, guid: e121fea2be9b4d34dacc2b9a2d658b07, type: 3}
    ifEntranceToRoom:
    - {fileID: 11400000, guid: 334fc7e770ad0c047ac03a35af283e78, type: 2}
    - {fileID: 11400000, guid: 89c8e5cd9aa214d48959831b6101edd9, type: 2}
    - {fileID: 11400000, guid: 91d227b1bc12dae409ca721fa70e280a, type: 2}
    - {fileID: 11400000, guid: 7258ac6062427a3489664cff155995f4, type: 2}
    - {fileID: 11400000, guid: dd45c47f4e6f85c428b2546ae38dacca, type: 2}
    placeIfFromPublicArea: 1
    placeIfFromOutside: 0
    placeIfFromInside: 0
  - signagePool:
    - {fileID: 1477588164467944859, guid: 2d6494a9eccaf9f4b8a10dc1bd654638, type: 3}
    ifEntranceToRoom:
    - {fileID: 11400000, guid: 78a655384e687844080702ff0fa2ff4d, type: 2}
    - {fileID: 11400000, guid: f13b24c96dec61f4cacc09b2aa590543, type: 2}
    - {fileID: 11400000, guid: 47ada036769223c4eb23638069dd6f4f, type: 2}
    placeIfFromPublicArea: 1
    placeIfFromOutside: 1
    placeIfFromInside: 0
  inheritColouringFromDecor: 0
  shareColours: 0
  variations: []
  doorOpenSpeed: 1.47
  openAngle: 89.9
  canPeakUnderneath: 1
  closeBehaviour: 2
  lockType: 0
  lockInteractable: {fileID: 0}
  lockOffsetFront: {x: -1.25, y: 1.5, z: 0}
  lockOffsetRear: {x: -1.25, y: 1.5, z: -0.1}
  armLockOnClose: 0
  doorStrengthRange: {x: 0.1, y: 0.2}
  lockStrengthRange: {x: 0.1, y: 0.2}
  audioOpen: {fileID: 11400000, guid: 2fa02e86add7e824c84f785f1ffc6cee, type: 2}
  audioClose: {fileID: 11400000, guid: c5526634a3bfb924388f626837ab2b22, type: 2}
  audioCloseAction: {fileID: 11400000, guid: 9edcdafd395b2fb42acc11ef5e9386a7, type: 2}
  audioLock: {fileID: 11400000, guid: d4511fff3134a6a46bf9a3c43ac8bcc4, type: 2}
  audioUnlock: {fileID: 11400000, guid: 59ecf68b9924a324893e621ee0a8c0e0, type: 2}
  audioLockedEntryAttempt: {fileID: 11400000, guid: 0d60486d9a4370843b2ca233d4e8a7ec,
    type: 2}
  audioKnockLight: {fileID: 11400000, guid: 82a4fea14ada61049b9d874b2189309a, type: 2}
  audioKnockMed: {fileID: 11400000, guid: cac57e4328e3fab4a8095d0840d66650, type: 2}
  audioKnockHeavy: {fileID: 11400000, guid: 64642b9381def904ab6a8a06e50843a4, type: 2}
