%YAML 1.1
%TAG !u! tag:unity3d.com,2011:
--- !u!114 &11400000
MonoBehaviour:
  m_ObjectHideFlags: 0
  m_CorrespondingSourceObject: {fileID: 0}
  m_PrefabInstance: {fileID: 0}
  m_PrefabAsset: {fileID: 0}
  m_GameObject: {fileID: 0}
  m_Enabled: 1
  m_EditorHideFlags: 0
  m_Script: {fileID: 11500000, guid: 43c7874de0efe53478579efe83067dca, type: 3}
  m_Name: ShopDoorLock
  m_EditorClassIdentifier: 
  presetName: ShopDoorLock
  doorModel: {fileID: 8659030772836173454, guid: c8e4f49041551a04b828277791893858,
    type: 3}
  objectPreset: {fileID: 11400000, guid: 2228e8e53a37e644fa2951dcc5c52cd5, type: 2}
  handleModel: {fileID: 3930912208608706054, guid: 4c2440c05598efe4bb71e11628078f1a,
    type: 3}
  handlePreset: {fileID: 11400000, guid: 8d3172cbd050f924db3679fffe393d1e, type: 2}
  handleOffset: {x: -1.25, y: 1.25, z: -0.05}
  isTransparent: 1
  doorSignOffset: {x: -0.68, y: 1.8, z: -0.1}
  doorSigns:
  - signagePool:
    - {fileID: 1477588164467944859, guid: 2d6494a9eccaf9f4b8a10dc1bd654638, type: 3}
    ifEntranceToRoom:
    - {fileID: 11400000, guid: 64def6d02fb945a44b7179adf8bb6c22, type: 2}
    - {fileID: 11400000, guid: d9cde68444737c345addc5b563b6184d, type: 2}
    - {fileID: 11400000, guid: c547d6744fbbbb8459d8569660caa1b6, type: 2}
    - {fileID: 11400000, guid: 76ce64adc1fa5a146828e1245b88953d, type: 2}
    placeIfFromPublicArea: 0
    placeIfFromOutside: 1
    placeIfFromInside: 0
  inheritColouringFromDecor: 0
  shareColours: 0
  variations: []
  doorOpenSpeed: 1.47
  openAngle: 89.9
  canPeakUnderneath: 0
  closeBehaviour: 2
  lockType: 1
  lockInteractable: {fileID: 0}
  lockOffsetFront: {x: -1.25, y: 1.5, z: 0}
  lockOffsetRear: {x: -1.25, y: 1.5, z: -0.1}
  armLockOnClose: 0
  doorStrengthRange: {x: 0.1, y: 0.2}
  lockStrengthRange: {x: 0.1, y: 0.2}
  audioOpen: {fileID: 11400000, guid: 759001e06c257e34e98c609ff368d3fd, type: 2}
  audioClose: {fileID: 11400000, guid: 0142e14996327b048b8a94db657f7a02, type: 2}
  audioCloseAction: {fileID: 11400000, guid: 630a717694b162542b6cd23fdd97fead, type: 2}
  audioLock: {fileID: 11400000, guid: d4511fff3134a6a46bf9a3c43ac8bcc4, type: 2}
  audioUnlock: {fileID: 11400000, guid: 59ecf68b9924a324893e621ee0a8c0e0, type: 2}
  audioLockedEntryAttempt: {fileID: 11400000, guid: 0d60486d9a4370843b2ca233d4e8a7ec,
    type: 2}
  audioKnockLight: {fileID: 11400000, guid: 82a4fea14ada61049b9d874b2189309a, type: 2}
  audioKnockMed: {fileID: 11400000, guid: cac57e4328e3fab4a8095d0840d66650, type: 2}
  audioKnockHeavy: {fileID: 11400000, guid: 64642b9381def904ab6a8a06e50843a4, type: 2}
