"Game Reference Key","Notes","Displayed Text","Alternate Text","Frequency","Requires Suffix","Misc."
"[The key used by the game to find strings]","[Not loaded into the game, for explanation only]","[The displayed string in-game]","[Alternate displayed string, eg. Nickname]","[For lists]","[Does this require a suffix for naming?]","[Miscellaneous]"
"— ","— ","— ","— ","— ","— ","— "
"boottext","LOC_IGNORE","B>Access>SpeedBootLoader[Alpha5.49]\nRegisterShortcut[SpeedBootLoader]=SBL>crunch\nComplete\n\nSBL.VerifyTarget[SignetOS>System>Access>BootOS]\nTargetVerified!\nSBL>LoadBootTools[0451]>crunch\nSuccessfulReference!\n\nSBL>ReadProgress>crunch\n\nWelcome to Indigno Systems Signet OS...\nPlease check your user manual for detailed loading procedure\nLoading login application...\n...20%\n...40%\n...60%\n...80%\n...100%\",,,,"11:49 05/09/2022"
"bootstart",,"Initializing Boot Sequence",,,,"11:49 05/09/2022"
"vmail",,"VMail",,,,"11:49 05/09/2022"
"re:",,"RE:",,,,"11:49 05/09/2022"
"you",,"You",,,,"11:49 05/09/2022"
"re",,"RE",,,,"11:49 05/09/2022"
"to",,"To",,,,"11:49 05/09/2022"
"from",,"From",,,,"11:49 05/09/2022"
"surveillance",,"Surveillance",,,,"11:49 05/09/2022"
"print",,"Print",,,,"11:49 05/09/2022"
"cam",,"Cam",,,,"11:49 05/09/2022"
"sentry",,"Sentry",,,,"11:49 05/09/2022"
"on",,"On",,,,"11:49 05/09/2022"
"off",,"Off",,,,"11:49 05/09/2022"
"sabotage",,"Sabotage",,,,"11:49 05/09/2022"
"noreplyvmail",,"<Unknown>",,,,"11:49 05/09/2022"
"pestcontrol",,"Pest Control",,,,"11:49 05/09/2022"
"flairquotes",,"Flair Quotes",,,,"11:49 05/09/2022"
"randomspamvmail",,"<No Reply>",,,,"11:49 05/09/2022"
"corpkaizen",,"Kaizen6",,,,"11:49 05/09/2022"
"login",,"Log Off",,,,"11:49 05/09/2022"
"bookgrubs",,"Book Grubs",,,,"11:49 05/09/2022"
"corpelgen",,"El-Gen",,,,"11:49 05/09/2022"
"corpstarch",,"Starch Kola",,,,"11:49 05/09/2022"
"corpdove",,"Dove",,,,"11:49 05/09/2022"
"corpindigo",,"Kensington Indigo",,,,"11:49 05/09/2022"
"corpcandor",,"Candor",,,,"11:49 05/09/2022"
"profile",,"Profile",,,,"11:49 05/09/2022"
"database",,"Database",,,,"11:49 05/09/2022"
"database search",,"Database Search",,,,"11:49 05/09/2022"
"employeedatabase",,"Employee Database",,,,"11:49 05/09/2022"
"govdatabase",,"Gov Database",,,,"11:49 05/09/2022"
"resdientsdatabase",,"Residents Database",,,,"11:49 05/09/2022"
"security",,"Security",,,,"11:49 05/09/2022"
"security systems",,"Security Systems",,,,"11:49 05/09/2022"
"illegalactivities",,"Illegal Activities",,,,"11:49 05/09/2022"
"nobody",,"nobody",,,,"11:49 05/09/2022"
"everybody",,"everybody",,,,"11:49 05/09/2022"
"nonresidents",,"Non-Residents",,,,"11:49 05/09/2022"
"notplayer",,"Not Player",,,,"11:49 05/09/2022"
"yesterday",,"Yesterday",,,,"11:49 05/09/2022"
"today",,"Today",,,,"11:49 05/09/2022"
"salesrecords",,"Sales Records",,,,"11:49 05/09/2022"
"displaying page",,"Displaying page",,,,"11:49 05/09/2022"
"vacuum mail","","Vacuum Mail","",,"","13:11 07/09/2022"
"exit","","Exit","",,"","13:11 07/09/2022"
"employee database","","Employee Database","",,"","13:11 07/09/2022"
"corpkeylog v7","","CorpKeyLog V7","",,"","13:11 07/09/2022"
"save to tape","","Save to Tape","",,"","13:12 07/09/2022"
"sales records","","Sales Records","",,"","13:13 07/09/2022"
"select user","","Select User","",,"","15:30 30/09/2022"
"enter passcode","","Enter Passcode","",,"","15:30 30/09/2022"
"system profile","","System Profile","",,"","14:13 12/10/2022"
"ǉ","","Ǉ","",,"","17:09 16/12/2022"
"unknown","","Unknown","",,"","15:25 19/01/2023"
