%YAML 1.1
%TAG !u! tag:unity3d.com,2011:
--- !u!114 &11400000
MonoBehaviour:
  m_ObjectHideFlags: 0
  m_CorrespondingSourceObject: {fileID: 0}
  m_PrefabInstance: {fileID: 0}
  m_PrefabAsset: {fileID: 0}
  m_GameObject: {fileID: 0}
  m_Enabled: 1
  m_EditorHideFlags: 0
  m_Script: {fileID: 11500000, guid: 691fc202177e2864398fbe4c06cabb3f, type: 3}
  m_Name: TheDoveKiller
  m_EditorClassIdentifier: 
  presetName: TheDoveKiller
  notes: Kills people who matched them on dove
  disabled: 0
  compatibleWith:
  - {fileID: 11400000, guid: 328ded4310785a6418b520850218b4af, type: 2}
  baseDifficulty: 1
  pickRandomScoreRange: {x: 0, y: 15}
  murdererTraitModifiers:
  - rule: 2
    traitList:
    - {fileID: 11400000, guid: 211209d433b620b42af06c01c1d13089, type: 2}
    mustPassForApplication: 0
    scoreModifier: 20
  - rule: 0
    traitList:
    - {fileID: 11400000, guid: d97fa437877075c4dbd8e8b456715389, type: 2}
    mustPassForApplication: 0
    scoreModifier: 5
  - rule: 0
    traitList:
    - {fileID: 11400000, guid: 75306d9a7e7f9b94fb18d50c858f12db, type: 2}
    mustPassForApplication: 0
    scoreModifier: 5
  murdererJobModifiers: []
  murdererCompanyModifiers: []
  useMurdererSocialClassRange: 0
  murdererClassRange: {x: 0, y: 1}
  murdererClassRangeBoost: 0
  useHexaco: 1
  hexaco:
    outputMin: 0
    outputMax: 20
    enableFeminineMasculine: 0
    feminineMasculine: 0
    enableHumility: 0
    humility: 0
    enableEmotionality: 1
    emotionality: 10
    enableExtraversion: 0
    extraversion: 0
    enableAgreeableness: 1
    agreeableness: 0
    enableConscientiousness: 0
    conscientiousness: 0
    enableCreativity: 0
    creativity: 0
  weaponsPool:
  - {fileID: 11400000, guid: acc44ac78a8ce2446a03c1319900a682, type: 2}
  - {fileID: 11400000, guid: edfacece3da2e48459975442726bba00, type: 2}
  - {fileID: 11400000, guid: 6fbbc8194a61167459335fff9e3e1962, type: 2}
  - {fileID: 11400000, guid: 8956af262d18eb1458a6a81985c76708, type: 2}
  blockDroppingWeapons: 0
  allowAnywhere: 0
  allowHome: 1
  allowWork: 0
  allowPublic: 0
  allowStreets: 1
  acquaintedSuitabilityBoost: 20
  attractedToSuitabilityBoost: 20
  likeSuitabilityBoost: 0
  sameWorkplaceBoost: 0
  murdererIsTenantBoost: 0
  victimRandomScoreRange: {x: 0, y: 1}
  victimTraitModifiers: []
  victimJobModifiers: []
  victimCompanyModifiers: []
  useVictimSocialClassRange: 0
  victimClassRange: {x: 0, y: 1}
  victimClassRangeBoost: 0
  monkierDDSMessageList: e7c4b1c6-ccb8-4b5b-8cf4-346ca9410be5
  MOleads:
  - name: Dove cancel vmail
    compatibleWithMotives:
    - {fileID: 11400000}
    spawnOnPhase: 1
    belongsTo: 2
    chance: 1
    useTraits: 0
    traitModifiers: []
    useIf: 0
    ifTag: 0
    useOrGroup: 0
    orGroup: 0
    chanceRatio: 0
    itemTag: 0
    spawnItem: {fileID: 0}
    vmailThread: 4c2c647f-163f-43fa-9b00-243f10f10863
    vmailProgressThreshold: {x: 0, y: 0}
    where: 0
    writer: 0
    receiver: 2
    security: 0
    priority: 0
    ownershipRule: 0
  - name: Dove match vmail
    compatibleWithMotives:
    - {fileID: 11400000}
    spawnOnPhase: 1
    belongsTo: 1
    chance: 1
    useTraits: 0
    traitModifiers: []
    useIf: 0
    ifTag: 0
    useOrGroup: 0
    orGroup: 0
    chanceRatio: 0
    itemTag: 0
    spawnItem: {fileID: 0}
    vmailThread: 77938999-d1e6-4fe8-ac22-f14ce906e4a9
    vmailProgressThreshold: {x: 0, y: 0}
    where: 0
    writer: 0
    receiver: 2
    security: 0
    priority: 0
    ownershipRule: 0
  graffiti:
  - preset: {fileID: 11400000, guid: 1351624a3cf6ebf4bb826d66f5be6cdc, type: 2}
    pos: 0
    artImage: {fileID: 11400000, guid: e9c5d45294bdcf644a7130839e409fdf, type: 2}
    ddsMessageTextList: 
    color: {r: 1, g: 1, b: 1, a: 1}
    size: 0
  - preset: {fileID: 11400000, guid: 619d4f0a0e756c443813ba34fcd27bcf, type: 2}
    pos: 1
    artImage: {fileID: 0}
    ddsMessageTextList: 7f173c4c-fcc1-43df-a427-3bcde810014a
    color: {r: 0.8018868, g: 0, b: 0, a: 1}
    size: 28
  callingCardPool:
  - item: {fileID: 11400000, guid: e49950c7c4ea1174e9ecbab0b751b55c, type: 2}
    origin: 0
    randomScoreRange: {x: 1, y: 1}
    traitModifiers: []
