%YAML 1.1
%TAG !u! tag:unity3d.com,2011:
--- !u!114 &11400000
MonoBehaviour:
  m_ObjectHideFlags: 0
  m_CorrespondingSourceObject: {fileID: 0}
  m_PrefabInstance: {fileID: 0}
  m_PrefabAsset: {fileID: 0}
  m_GameObject: {fileID: 0}
  m_Enabled: 1
  m_EditorHideFlags: 0
  m_Script: {fileID: 11500000, guid: 691fc202177e2864398fbe4c06cabb3f, type: 3}
  m_Name: TheRetiredKiller
  m_EditorClassIdentifier: 
  presetName: TheRetiredKiller
  notes: Is retired or older and kills working citizens in fear of overpopulation
  disabled: 0
  compatibleWith:
  - {fileID: 11400000, guid: 328ded4310785a6418b520850218b4af, type: 2}
  baseDifficulty: 2
  pickRandomScoreRange: {x: 0, y: 15}
  murdererTraitModifiers:
  - rule: 0
    traitList:
    - {fileID: 11400000, guid: 65a5ee479a8a1e1489c6a2b3c0dddbbb, type: 2}
    - {fileID: 11400000, guid: 7bbec57be63e4eb4dbddccae6ea63349, type: 2}
    - {fileID: 11400000, guid: 27847e59b8bc3f640a91fb38fab70eaf, type: 2}
    mustPassForApplication: 0
    scoreModifier: 20
  - rule: 0
    traitList:
    - {fileID: 11400000, guid: d97fa437877075c4dbd8e8b456715389, type: 2}
    mustPassForApplication: 0
    scoreModifier: 10
  murdererJobModifiers:
  - jobs:
    - {fileID: 11400000, guid: ab720f6ff3bb95749a069672252f66de, type: 2}
    jobBoost: 20
  murdererCompanyModifiers: []
  useMurdererSocialClassRange: 0
  murdererClassRange: {x: 0.5, y: 1}
  murdererClassRangeBoost: 10
  useHexaco: 0
  hexaco:
    outputMin: 0
    outputMax: 10
    enableFeminineMasculine: 0
    feminineMasculine: 0
    enableHumility: 0
    humility: 0
    enableEmotionality: 1
    emotionality: 10
    enableExtraversion: 0
    extraversion: 0
    enableAgreeableness: 1
    agreeableness: 0
    enableConscientiousness: 0
    conscientiousness: 0
    enableCreativity: 0
    creativity: 0
  weaponsPool:
  - {fileID: 11400000, guid: acc44ac78a8ce2446a03c1319900a682, type: 2}
  - {fileID: 11400000, guid: 8956af262d18eb1458a6a81985c76708, type: 2}
  blockDroppingWeapons: 0
  allowAnywhere: 1
  allowHome: 1
  allowWork: 1
  allowPublic: 1
  allowStreets: 1
  acquaintedSuitabilityBoost: 0
  attractedToSuitabilityBoost: 0
  likeSuitabilityBoost: 0
  sameWorkplaceBoost: 0
  murdererIsTenantBoost: 0
  victimRandomScoreRange: {x: 0, y: 1}
  victimTraitModifiers:
  - rule: 0
    traitList: []
    mustPassForApplication: 0
    scoreModifier: 0
  victimJobModifiers:
  - jobs:
    - {fileID: 11400000, guid: 05c22411bac6533499d80dce7d160969, type: 2}
    - {fileID: 11400000, guid: ab720f6ff3bb95749a069672252f66de, type: 2}
    jobBoost: -20
  victimCompanyModifiers: []
  useVictimSocialClassRange: 1
  victimClassRange: {x: 0, y: 0.5}
  victimClassRangeBoost: 5
  monkierDDSMessageList: b195cdc8-d209-4876-9467-e74ddab245a6
  MOleads:
  - name: Bitter note
    compatibleWithMotives: []
    spawnOnPhase: 1
    belongsTo: 2
    chance: 1
    useTraits: 0
    traitModifiers: []
    useIf: 0
    ifTag: 0
    useOrGroup: 0
    orGroup: 0
    chanceRatio: 0
    itemTag: 0
    spawnItem: {fileID: 11400000, guid: 6b23a2be8f40f0b4dbc34040bcadc76b, type: 2}
    vmailThread: 
    vmailProgressThreshold: {x: 0, y: 0}
    where: 2
    writer: 2
    receiver: 2
    security: 0
    priority: 2
    ownershipRule: 2
  graffiti:
  - preset: {fileID: 11400000, guid: 619d4f0a0e756c443813ba34fcd27bcf, type: 2}
    pos: 1
    artImage: {fileID: 0}
    ddsMessageTextList: 42e81e4e-452b-4d70-93d8-2590ab12612d
    color: {r: 0.8, g: 0, b: 0, a: 1}
    size: 26
  callingCardPool:
  - item: {fileID: 11400000, guid: d4cd5824b69256d499283eda5ea90e59, type: 2}
    origin: 0
    randomScoreRange: {x: 1, y: 1}
    traitModifiers: []
