%YAML 1.1
%TAG !u! tag:unity3d.com,2011:
--- !u!114 &11400000
MonoBehaviour:
  m_ObjectHideFlags: 0
  m_CorrespondingSourceObject: {fileID: 0}
  m_PrefabInstance: {fileID: 0}
  m_PrefabAsset: {fileID: 0}
  m_GameObject: {fileID: 0}
  m_Enabled: 1
  m_EditorHideFlags: 0
  m_Script: {fileID: 11500000, guid: 7559a64a9e831bf4cacd0fc9e5cb79a5, type: 3}
  m_Name: Vanity
  m_EditorClassIdentifier: 
  presetName: Vanity
  disable: 0
  clusterElements:
  - onlyValidIfPreviousObjectPlaced: 0
    placements:
    - {x: 0, y: 0}
    furnitureClass: {fileID: 11400000, guid: aa14027431c2f8a49af9eb4e322182b8, type: 2}
    facing: 0
    importantToCluster: 1
    chanceOfPlacementAttempt: 1
    placementScoreBoost: 0
    useFovBlock: 0
    blockDirection: {x: 0, y: 0}
    maxFOVBlockDistance: 0
    localScale: {x: 1, y: 1, z: 1}
    positionOffset: {x: 0, y: 0, z: 0}
  placementChance: 0.2
  roomPriority: 2
  modifyPriorityTraits:
  - rule: 0
    traitList:
    - {fileID: 11400000, guid: 678d3ed9776b0a145a8d31707ed98a31, type: 2}
    - {fileID: 11400000, guid: edce2d243eff77841a84bff90adb44f3, type: 2}
    - {fileID: 11400000, guid: 1724ce531b753804da0f62f76137f8db, type: 2}
    mustPassForApplication: 0
    baseChance: 0.6
    reasonChance: 0
  modifyPlacementChanceTraits:
  - rule: 0
    traitList:
    - {fileID: 11400000, guid: 678d3ed9776b0a145a8d31707ed98a31, type: 2}
    - {fileID: 11400000, guid: edce2d243eff77841a84bff90adb44f3, type: 2}
    - {fileID: 11400000, guid: 1724ce531b753804da0f62f76137f8db, type: 2}
    mustPassForApplication: 0
    baseChance: 1
    reasonChance: 0
  essentialFurniture: 0
  updatePreCalculated: 0
  calculatedMinRoomSize: 1
  minimumZeroNodeWallCount: 1
  maximumZeroNodeWallCount: 3
  zeroNodeClasses:
  - {fileID: 11400000, guid: aa14027431c2f8a49af9eb4e322182b8, type: 2}
  minimumRoomSize: 4
  useMaximumRoomSize: 1
  maximumRoomSize: 99
  useCustomZeroNodeMinWallCount: 0
  customZeroNodeMinWallCount: 0
  useCustomZeroNodeMaxWallCount: 0
  customZeroNodeMaxWallCount: 0
  zeroNodeWallRules: []
  allowedInOpenPlan: 0
  allowInResidential: 1
  allowInCompanies: 0
  allowOnStreets: 0
  coastalOnly: 0
  limitToDistricts: 0
  allowedInDistricts: []
  banFromDistricts: 0
  notAllowedInDistricts: []
  skipIfNoAddressInhabitants: 1
  allowedRoomFilters:
  - {fileID: 11400000, guid: 7a4beef2a40f9f3478202be84558d2ce, type: 2}
  - {fileID: 11400000, guid: 1ae06a672d6e9d243841cbf18341df81, type: 2}
  limitPerRoom: 1
  maximumPerRoom: 1
  limitPerAddress: 0
  maximumPerAddress: 1
  limitToFloor: 0
  allowedOnFloor: 0
  wealthLimit: 0
  minimumWealth: 0
  maximumWealth: 1
  useRoomGrub: 0
  minimumGrub: 0
  maximumGrub: 1
  useBuildingResidences: 0
  minimumResidences: 0
  maximumResidences: 40
  addClustersOnSuccess: []
  removeClustersOnSuccess: []
  removeClustersOnFail: []
  securityDoor: 0
  isBreakerBox: 0
  enableDebug: 0
