%YAML 1.1
%TAG !u! tag:unity3d.com,2011:
--- !u!114 &11400000
MonoBehaviour:
  m_ObjectHideFlags: 0
  m_CorrespondingSourceObject: {fileID: 0}
  m_PrefabInstance: {fileID: 0}
  m_PrefabAsset: {fileID: 0}
  m_GameObject: {fileID: 0}
  m_Enabled: 1
  m_EditorHideFlags: 0
  m_Script: {fileID: 11500000, guid: 7030b5e0203572843a330ec68b7640d0, type: 3}
  m_Name: WorksAtBuilding
  m_EditorClassIdentifier: 
  presetName: WorksAtBuilding
  iconSpriteLarge: {fileID: 0}
  subClass: 
  allowDuplicates: 0
  allowReverseDuplicates: 0
  fromDataKeys: 23000000
  toDataKeys: 00000000
  discoverOnCreate: 0
  countsAsNewInformationOnDiscovery: 1
  applyFromKeysOnDiscovery: 
  applyToKeysOnDiscovery: 
  discoveryTriggers: 
  factRank: 5
