%YAML 1.1
%TAG !u! tag:unity3d.com,2011:
--- !u!114 &11400000
MonoBehaviour:
  m_ObjectHideFlags: 0
  m_CorrespondingSourceObject: {fileID: 0}
  m_PrefabInstance: {fileID: 0}
  m_PrefabAsset: {fileID: 0}
  m_GameObject: {fileID: 0}
  m_Enabled: 1
  m_EditorHideFlags: 0
  m_Script: {fileID: 11500000, guid: e512325a7823fa2428f27f48fedbb6af, type: 3}
  m_Name: LowerArmRightOverweight
  m_EditorClassIdentifier: 
  presetName: LowerArmRightOverweight
  covers: 06000000
  outfitCategories: 06000000
  suitableForGenders: 000000000100000002000000
  suitableForBuilds: 02000000
  tags: 
  enableFacialFeatureSetup: 0
  suitableForHairstyle: 
  isHead: 0
  pupilsOffset: {x: 0, y: 0.15, z: 0.1205}
  eyebrowsOffset: {x: 0, y: 0.1719, z: 0.133}
  mouthOffset: {x: 0, y: 0.045, z: 0.151}
  hatRenderCompatible: 0
  excludeHats: []
  hairRenderMode: 0
  setFootwear: 0
  footwear: 3
  priority: 2
  onlyChooseIfAllModelPartsAreAvailable: 0
  incompatibility: []
  useWealthValues: 0
  minimumWealth: 0
  maximumWealth: 1
  baseColourSource: 2
  colourBase: []
  colour1Source: 0
  colour1: []
  colour2Source: 0
  colour2: []
  colour3Source: 0
  colour3: []
  includeInPersonalityMatching: 1
  baseChance: 0
  useHEXACO: 0
  hexaco:
    outputMin: 1
    outputMax: 10
    enableFeminineMasculine: 0
    feminineMasculine: 0
    enableHumility: 0
    humility: 0
    enableEmotionality: 0
    emotionality: 0
    enableExtraversion: 0
    extraversion: 0
    enableAgreeableness: 0
    agreeableness: 0
    enableConscientiousness: 0
    conscientiousness: 0
    enableCreativity: 0
    creativity: 0
  useTraits: 1
  characterTraits:
  - rule: 2
    traitList:
    - {fileID: 11400000, guid: b3e8b3d5c10e55e42a70058577e7e03d, type: 2}
    - {fileID: 11400000, guid: c0dd962827eac9b4498be3fc1e8fe9c3, type: 2}
    mustPassForApplication: 1
    addChance: 1
  models:
  - prefab: {fileID: 6816959137071080975, guid: ffd4218d12af25c49929ede755ecd1fd,
      type: 3}
    anchor: 6
    offsetPosition: {x: 0, y: 0, z: 0}
    offsetEuler: {x: 0, y: 0, z: 0}
    exclusiveAnchorModel: 1
