%YAML 1.1
%TAG !u! tag:unity3d.com,2011:
--- !u!114 &11400000
MonoBehaviour:
  m_ObjectHideFlags: 0
  m_CorrespondingSourceObject: {fileID: 0}
  m_PrefabInstance: {fileID: 0}
  m_PrefabAsset: {fileID: 0}
  m_GameObject: {fileID: 0}
  m_Enabled: 1
  m_EditorHideFlags: 0
  m_Script: {fileID: 11500000, guid: c85c0ad7d263a0743bb9a6fd6928c95b, type: 3}
  m_Name: ThrowFood_D0
  m_EditorClassIdentifier: 
  presetName: ThrowFood_D0
  disabled: 0
  caseName: Humiliate
  jobPosting: {fileID: 11400000, guid: 0f5a4344ab784554783e64f97570be2e, type: 2}
  subClass: 
  allowSyncDiskRewards: 0
  allowBlackMarketSyncDiskRewards: 1
  physicalRewardLocation: 3
  generateHidingLocation: 0
  socialCreditLevelMinSpawnFrequency:
    serializedVersion: 2
    m_Curve:
    - serializedVersion: 3
      time: 0
      value: 1
      inSlope: -1.1063753
      outSlope: -1.1063753
      tangentMode: 0
      weightedMode: 0
      inWeight: 0
      outWeight: 0.083861224
    - serializedVersion: 3
      time: 2
      value: 0
      inSlope: -0.0029833536
      outSlope: -0.0029833536
      tangentMode: 0
      weightedMode: 0
      inWeight: 0.33333334
      outWeight: 0.13572875
    - serializedVersion: 3
      time: 10
      value: 0
      inSlope: 0
      outSlope: 0
      tangentMode: 0
      weightedMode: 0
      inWeight: 0
      outWeight: 0
    m_PreInfinity: 2
    m_PostInfinity: 2
    m_RotationOrder: 4
  activePerCitizen: 0.01
  maxJobs: 8
  immediatePostCountThreshold: 2
  difficultyTag: 0
  changePosterDialogCompliancy: 0
  changePerpDialogCompliancy: 1
  purpetratorMotives:
  - {fileID: 11400000, guid: 40cf4c0f956b3c84892b3fe6a36c4ebc, type: 2}
  penaltyForPurpAndPosterSameBuilding: 0
  startingScenarios:
  - name: Humiliation
    dds: 0eaf0e5e-87a7-4c32-b6aa-333e1a3f8157
    leads: []
  compatibleIntros:
  - preset: {fileID: 11400000, guid: 25e194f750b45c641849870eee5af316, type: 2}
    frequency: 1
  - preset: {fileID: 11400000, guid: c26a2a0ba496ac64d9f6f7770c1a6843, type: 2}
    frequency: 1
  - preset: {fileID: 11400000, guid: 0659cbb85759a6a469e5c2b28a1774e1, type: 2}
    frequency: 0
  - preset: {fileID: 11400000, guid: 84472f86f1fe3fd4b95643de9857d92e, type: 2}
    frequency: 0
  - preset: {fileID: 11400000, guid: f949232bdfeddce4eb298bdcbf6b3413, type: 2}
    frequency: 0
  leadPoolData: 0
  createFactsOnInformationAcquisition:
  - factPreset: {fileID: 11400000, guid: e450b25695fe40d42b12aad3492b6bd2, type: 2}
    from: 13
    to: 2
    overrideFromKeys: 0
    fromKeys: 
    featureKeysFromLeadPool: 0
    overrideToKeys: 1
    toKeys: 00000000
    featureKeysFromLeadPoolTo: 1
  informationAcquisitionLeads:
  - leadEvidence: 2
    keys: 00000000
    useKeyFromLeadPool: 0
    autoPin: 1
    addDialogOptions: []
    factsReveal: []
    mergeKeys: 
    discoveryApplication: 
  revengeObjectives:
  - {fileID: 11400000, guid: ce4267ba92c647c40b48956d9e96f10b, type: 2}
  spawnItems: []
  resolveQuestions:
  - name: Revenge
    displayObjective: 1
    displayOnlyAtPhase: 0
    displayAtPhase: 0
    objectiveDelay: 0
    onlyCompatibleWithIntros: []
    onlyCompatibleWithHandIns: []
    inputType: 3
    automaticAnswers: 
    tag: 1
    icon: 15
    rewardRange: {x: 300, y: 300}
    penaltyRange: {x: 0, y: 0}
    isOptional: 0
    useAlternateName: 0
    useName: 0
    target: 2
    location: 2
    revengeObjective: 
    revengeObjTarget: -1
    revengeObjLoc: -1
    revengeObjPassed: 0
    completedRevenge: 0
    input: 
    inputtedEvidence: 
    correctAnswers: []
    progress: 0
    reward: 0
    penalty: 0
    isValid: 0
    isCorrect: 0
  additional: []
  compatibleHandIns:
  - preset: {fileID: 11400000, guid: e9bc0a0aab51c80418e1a7389e9eeeca, type: 2}
    frequency: 1
  dialogReferences:
  - name: IntroCall
    dialog: {fileID: 11400000, guid: 2b4b5885573eab44db3f9fbf53c36593, type: 2}
  - name: IntroAskStaff
    dialog: {fileID: 11400000, guid: 3ce00158a35d9064e879d62783500542, type: 2}
  - name: IntroAskStaffPhoto
    dialog: {fileID: 11400000, guid: b0bfc90d492c8014a9cc85f39387f6c9, type: 2}
  - name: IntroGooseChase1
    dialog: {fileID: 11400000, guid: 2e0f9e7c03242e746a9aed785e7a6ccd, type: 2}
  - name: IntroGooseChase2
    dialog: {fileID: 11400000, guid: 384d8a396dcb5944b8742add817089e6, type: 2}
  - name: IntroMeetUpSpecific1
    dialog: {fileID: 11400000, guid: 31581c018cc39904db2d4d6f38fd168f, type: 2}
  - name: IntroMeetUpSpecific2
    dialog: {fileID: 11400000, guid: 1d65609df7d01b845a3fd33c76961290, type: 2}
  - name: TelephoneHandIn
    dialog: {fileID: 11400000, guid: 61ca02536809a7748831413ebb405fb2, type: 2}
  debugCopyFrom: {fileID: 11400000, guid: cfb10f08eb5e87948a95d59456f16981, type: 2}
