%YAML 1.1
%TAG !u! tag:unity3d.com,2011:
--- !u!114 &11400000
MonoBehaviour:
  m_ObjectHideFlags: 0
  m_CorrespondingSourceObject: {fileID: 0}
  m_PrefabInstance: {fileID: 0}
  m_PrefabAsset: {fileID: 0}
  m_GameObject: {fileID: 0}
  m_Enabled: 1
  m_EditorHideFlags: 0
  m_Script: {fileID: 11500000, guid: df34c098fe792944a8bdb8310fc6f3c5, type: 3}
  m_Name: TheEyesOfCarringtonLux
  m_EditorClassIdentifier: 
  presetName: TheEyesOfCarringtonLux
  bookName: TheEyesOfCarringtonLux
  author: Jen B. Block
  genre: 07000000
  isSeries: 0
  seriesTag: 1
  seriesNumber: 8
  common: 0.521
  baseChance: 0.1
  pickRules:
  - rule: 0
    traitList:
    - {fileID: 11400000, guid: 0a3841464f1384e47b659c232040cc77, type: 2}
    mustPassForApplication: 0
    baseChance: 0.789
    reasonChance: 0
  - rule: 0
    traitList:
    - {fileID: 11400000, guid: d03cdf0e1164cde49862e355cd74398d, type: 2}
    - {fileID: 11400000, guid: fc9f82b822d38354ab006975b2264ff2, type: 2}
    mustPassForApplication: 0
    baseChance: 0.229
    reasonChance: 0
  - rule: 0
    traitList:
    - {fileID: 11400000, guid: 083cc78edcdb88f4496f507ec9741bd8, type: 2}
    mustPassForApplication: 0
    baseChance: 0.3
    reasonChance: 0
  spawnRule: 0
  bookMesh: {fileID: -4682395450077727051, guid: 056245e69ffdc9e44bd7d72d11146aba,
    type: 3}
  bookMaterial: {fileID: 2100000, guid: 4baf3c916a03fda4ea7b2000dcd6fac3, type: 2}
  ddsMessage: e69648d4-cfa1-4268-a861-9aa74d4019e6
