%YAML 1.1
%TAG !u! tag:unity3d.com,2011:
--- !u!114 &11400000
MonoBehaviour:
  m_ObjectHideFlags: 0
  m_CorrespondingSourceObject: {fileID: 0}
  m_PrefabInstance: {fileID: 0}
  m_PrefabAsset: {fileID: 0}
  m_GameObject: {fileID: 0}
  m_Enabled: 1
  m_EditorHideFlags: 0
  m_Script: {fileID: 11500000, guid: 24f98d48c98d8864ca52a0cc16df8b4a, type: 3}
  m_Name: Blind
  m_EditorClassIdentifier: 
  presetName: Blind
  actions:
  - interactionName: Raise
    action: {fileID: 11400000, guid: a3cb8370c1f0acc499a0756365c44b68, type: 2}
    useDefaultKeySetting: 1
    keyOverride: 0
    specialCase: 0
    usableByAI: 1
    aiUsageDelay: 0.3
    effectSwitchStates:
    - switchState: 0
      boolIs: 0
    onlyActiveIf:
    - switchState: 0
      boolIs: 1
    actionIsIllegal: 0
    availableWhileIllegal: 1
    availableWhileWitnessesToIllegal: 0
    availableWhileLockedIn: 0
    availableWhileJumping: 1
    actionCost: 0
    useStrikethrough: 0
    isHidingPlace: 0
    onlyHidingPlaceIfPublic: 0
    soundEvent: {fileID: 0}
    playOnTrigger: 1
  - interactionName: Lower
    action: {fileID: 11400000, guid: 517f474c5794081438f8abdc50f5a747, type: 2}
    useDefaultKeySetting: 1
    keyOverride: 0
    specialCase: 0
    usableByAI: 1
    aiUsageDelay: 0
    effectSwitchStates:
    - switchState: 0
      boolIs: 1
    onlyActiveIf:
    - switchState: 0
      boolIs: 0
    actionIsIllegal: 0
    availableWhileIllegal: 1
    availableWhileWitnessesToIllegal: 0
    availableWhileLockedIn: 0
    availableWhileJumping: 1
    actionCost: 0
    useStrikethrough: 0
    isHidingPlace: 0
    onlyHidingPlaceIfPublic: 0
    soundEvent: {fileID: 0}
    playOnTrigger: 1
  - interactionName: Open
    action: {fileID: 11400000, guid: 2cf3ac945da0bad43b236623e738b563, type: 2}
    useDefaultKeySetting: 0
    keyOverride: 2
    specialCase: 0
    usableByAI: 1
    aiUsageDelay: 0
    effectSwitchStates:
    - switchState: 1
      boolIs: 0
    onlyActiveIf:
    - switchState: 1
      boolIs: 1
    - switchState: 0
      boolIs: 1
    actionIsIllegal: 0
    availableWhileIllegal: 1
    availableWhileWitnessesToIllegal: 0
    availableWhileLockedIn: 0
    availableWhileJumping: 1
    actionCost: 0
    useStrikethrough: 0
    isHidingPlace: 0
    onlyHidingPlaceIfPublic: 0
    soundEvent: {fileID: 0}
    playOnTrigger: 1
  - interactionName: Close
    action: {fileID: 11400000, guid: 69cca1dc4b9671b4e9e553fb19f96bab, type: 2}
    useDefaultKeySetting: 0
    keyOverride: 2
    specialCase: 0
    usableByAI: 1
    aiUsageDelay: 0
    effectSwitchStates:
    - switchState: 1
      boolIs: 1
    onlyActiveIf:
    - switchState: 1
      boolIs: 0
    - switchState: 0
      boolIs: 1
    actionIsIllegal: 0
    availableWhileIllegal: 1
    availableWhileWitnessesToIllegal: 0
    availableWhileLockedIn: 0
    availableWhileJumping: 1
    actionCost: 0
    useStrikethrough: 0
    isHidingPlace: 0
    onlyHidingPlaceIfPublic: 0
    soundEvent: {fileID: 0}
    playOnTrigger: 1
  disableCollider: 0
  lockedInActions1: []
  lockedInActions2: []
  physicsActions: []
