%YAML 1.1
%TAG !u! tag:unity3d.com,2011:
--- !u!114 &11400000
MonoBehaviour:
  m_ObjectHideFlags: 0
  m_CorrespondingSourceObject: {fileID: 0}
  m_PrefabInstance: {fileID: 0}
  m_PrefabAsset: {fileID: 0}
  m_GameObject: {fileID: 0}
  m_Enabled: 1
  m_EditorHideFlags: 0
  m_Script: {fileID: 11500000, guid: 24f98d48c98d8864ca52a0cc16df8b4a, type: 3}
  m_Name: BreakerLever
  m_EditorClassIdentifier: 
  presetName: BreakerLever
  actions:
  - interactionName: Switch On
    action: {fileID: 11400000, guid: 3bd681a6824254749b75e4bb8766b54d, type: 2}
    useDefaultKeySetting: 1
    keyOverride: 0
    specialCase: 0
    usableByAI: 1
    aiUsageDelay: 0
    effectSwitchStates:
    - switchState: 0
      boolIs: 1
    onlyActiveIf:
    - switchState: 0
      boolIs: 0
    actionIsIllegal: 0
    availableWhileIllegal: 1
    availableWhileWitnessesToIllegal: 0
    availableWhileLockedIn: 1
    availableWhileJumping: 1
    actionCost: 0
    useStrikethrough: 0
    isHidingPlace: 0
    onlyHidingPlaceIfPublic: 0
    soundEvent: {fileID: 11400000, guid: 03e29278118ddd94c81f83a07bc80296, type: 2}
    playOnTrigger: 1
  - interactionName: Switch Off
    action: {fileID: 11400000, guid: 84bd1179c1f8a194bacf0d514a36dd8a, type: 2}
    useDefaultKeySetting: 1
    keyOverride: 0
    specialCase: 0
    usableByAI: 1
    aiUsageDelay: 0
    effectSwitchStates:
    - switchState: 0
      boolIs: 0
    onlyActiveIf:
    - switchState: 0
      boolIs: 1
    actionIsIllegal: 0
    availableWhileIllegal: 1
    availableWhileWitnessesToIllegal: 0
    availableWhileLockedIn: 1
    availableWhileJumping: 1
    actionCost: 0
    useStrikethrough: 0
    isHidingPlace: 0
    onlyHidingPlaceIfPublic: 0
    soundEvent: {fileID: 11400000, guid: 03e29278118ddd94c81f83a07bc80296, type: 2}
    playOnTrigger: 1
  disableCollider: 0
  lockedInActions1: []
  lockedInActions2: []
  physicsActions: []
