%YAML 1.1
%TAG !u! tag:unity3d.com,2011:
--- !u!114 &11400000
MonoBehaviour:
  m_ObjectHideFlags: 0
  m_CorrespondingSourceObject: {fileID: 0}
  m_PrefabInstance: {fileID: 0}
  m_PrefabAsset: {fileID: 0}
  m_GameObject: {fileID: 0}
  m_Enabled: 1
  m_EditorHideFlags: 0
  m_Script: {fileID: 11500000, guid: 24f98d48c98d8864ca52a0cc16df8b4a, type: 3}
  m_Name: Bulb
  m_EditorClassIdentifier: 
  presetName: Bulb
  actions:
  - interactionName: Unscrew Bulb
    action: {fileID: 11400000, guid: cbedbb7ee51ff5c4b8674ffe91e5692f, type: 2}
    useDefaultKeySetting: 1
    keyOverride: 0
    specialCase: 0
    usableByAI: 0
    aiUsageDelay: 0
    effectSwitchStates:
    - switchState: 1
      boolIs: 1
    onlyActiveIf:
    - switchState: 1
      boolIs: 0
    actionIsIllegal: 1
    availableWhileIllegal: 1
    availableWhileWitnessesToIllegal: 0
    availableWhileLockedIn: 0
    availableWhileJumping: 1
    actionCost: 0
    useStrikethrough: 0
    isHidingPlace: 0
    onlyHidingPlaceIfPublic: 0
    soundEvent: {fileID: 0}
    playOnTrigger: 0
  - interactionName: Screw Bulb
    action: {fileID: 11400000, guid: f165376717ccf5440b3034ff3b666810, type: 2}
    useDefaultKeySetting: 1
    keyOverride: 0
    specialCase: 0
    usableByAI: 0
    aiUsageDelay: 0
    effectSwitchStates:
    - switchState: 1
      boolIs: 0
    onlyActiveIf:
    - switchState: 1
      boolIs: 1
    actionIsIllegal: 1
    availableWhileIllegal: 1
    availableWhileWitnessesToIllegal: 0
    availableWhileLockedIn: 0
    availableWhileJumping: 1
    actionCost: 0
    useStrikethrough: 0
    isHidingPlace: 0
    onlyHidingPlaceIfPublic: 0
    soundEvent: {fileID: 0}
    playOnTrigger: 0
  disableCollider: 0
  lockedInActions1: []
  lockedInActions2: []
  physicsActions: []
