%YAML 1.1
%TAG !u! tag:unity3d.com,2011:
--- !u!114 &11400000
MonoBehaviour:
  m_ObjectHideFlags: 0
  m_CorrespondingSourceObject: {fileID: 0}
  m_PrefabInstance: {fileID: 0}
  m_PrefabAsset: {fileID: 0}
  m_GameObject: {fileID: 0}
  m_Enabled: 1
  m_EditorHideFlags: 0
  m_Script: {fileID: 11500000, guid: 24f98d48c98d8864ca52a0cc16df8b4a, type: 3}
  m_Name: Keypad
  m_EditorClassIdentifier: 
  presetName: Keypad
  actions:
  - interactionName: Use
    action: {fileID: 11400000, guid: 2303c3c3d3a8fc448bf25c6e2e2ecfd7, type: 2}
    useDefaultKeySetting: 1
    keyOverride: 0
    specialCase: 0
    usableByAI: 1
    aiUsageDelay: 0
    effectSwitchStates: []
    onlyActiveIf:
    - switchState: 4
      boolIs: 1
    actionIsIllegal: 0
    availableWhileIllegal: 1
    availableWhileWitnessesToIllegal: 0
    availableWhileLockedIn: 0
    availableWhileJumping: 1
    actionCost: 0
    useStrikethrough: 0
    isHidingPlace: 0
    onlyHidingPlaceIfPublic: 0
    soundEvent: {fileID: 0}
    playOnTrigger: 1
  - interactionName: Arm
    action: {fileID: 11400000, guid: ecf23a69caeed1d409546b18cd742535, type: 2}
    useDefaultKeySetting: 1
    keyOverride: 0
    specialCase: 0
    usableByAI: 1
    aiUsageDelay: 0
    effectSwitchStates:
    - switchState: 4
      boolIs: 1
    onlyActiveIf:
    - switchState: 4
      boolIs: 0
    actionIsIllegal: 0
    availableWhileIllegal: 1
    availableWhileWitnessesToIllegal: 0
    availableWhileLockedIn: 0
    availableWhileJumping: 1
    actionCost: 0
    useStrikethrough: 0
    isHidingPlace: 0
    onlyHidingPlaceIfPublic: 0
    soundEvent: {fileID: 11400000, guid: 458def787b2924a48a8f3e41977cca45, type: 2}
    playOnTrigger: 1
  disableCollider: 0
  lockedInActions1: []
  lockedInActions2: []
  physicsActions: []
