%YAML 1.1
%TAG !u! tag:unity3d.com,2011:
--- !u!114 &11400000
MonoBehaviour:
  m_ObjectHideFlags: 0
  m_CorrespondingSourceObject: {fileID: 0}
  m_PrefabInstance: {fileID: 0}
  m_PrefabAsset: {fileID: 0}
  m_GameObject: {fileID: 0}
  m_Enabled: 1
  m_EditorHideFlags: 0
  m_Script: {fileID: 11500000, guid: 24f98d48c98d8864ca52a0cc16df8b4a, type: 3}
  m_Name: LockpickKit
  m_EditorClassIdentifier: 
  presetName: LockpickKit
  actions:
  - interactionName: Take (LockPick)
    action: {fileID: 11400000, guid: 123e7b54feca0a644af449aa9f48cf99, type: 2}
    useDefaultKeySetting: 1
    keyOverride: 0
    specialCase: 0
    usableByAI: 0
    aiUsageDelay: 0
    effectSwitchStates: []
    onlyActiveIf: []
    actionIsIllegal: 0
    availableWhileIllegal: 1
    availableWhileWitnessesToIllegal: 0
    availableWhileLockedIn: 1
    availableWhileJumping: 1
    actionCost: 0
    useStrikethrough: 0
    isHidingPlace: 0
    onlyHidingPlaceIfPublic: 0
    soundEvent: {fileID: 0}
    playOnTrigger: 0
  disableCollider: 0
  lockedInActions1: []
  lockedInActions2: []
  physicsActions: []
