%YAML 1.1
%TAG !u! tag:unity3d.com,2011:
--- !u!114 &11400000
MonoBehaviour:
  m_ObjectHideFlags: 0
  m_CorrespondingSourceObject: {fileID: 0}
  m_PrefabInstance: {fileID: 0}
  m_PrefabAsset: {fileID: 0}
  m_GameObject: {fileID: 0}
  m_Enabled: 1
  m_EditorHideFlags: 0
  m_Script: {fileID: 11500000, guid: 24f98d48c98d8864ca52a0cc16df8b4a, type: 3}
  m_Name: MultiPage
  m_EditorClassIdentifier: 
  presetName: MultiPage
  actions:
  - interactionName: Next Page
    action: {fileID: 11400000, guid: 4c5dcdb984abd504cbaf729100c38686, type: 2}
    useDefaultKeySetting: 1
    keyOverride: 0
    specialCase: 16
    usableByAI: 0
    aiUsageDelay: 0
    effectSwitchStates: []
    onlyActiveIf: []
    actionIsIllegal: 0
    availableWhileIllegal: 1
    availableWhileWitnessesToIllegal: 0
    availableWhileLockedIn: 1
    availableWhileJumping: 1
    actionCost: 0
    useStrikethrough: 0
    isHidingPlace: 0
    onlyHidingPlaceIfPublic: 0
    soundEvent: {fileID: 11400000, guid: 6fa69d981e21da14fa9effe64de5fda1, type: 2}
    playOnTrigger: 1
  - interactionName: Previous Page
    action: {fileID: 11400000, guid: b34b5081440d10b4dba09b95213d08f9, type: 2}
    useDefaultKeySetting: 1
    keyOverride: 0
    specialCase: 16
    usableByAI: 0
    aiUsageDelay: 0
    effectSwitchStates: []
    onlyActiveIf: []
    actionIsIllegal: 0
    availableWhileIllegal: 1
    availableWhileWitnessesToIllegal: 0
    availableWhileLockedIn: 0
    availableWhileJumping: 1
    actionCost: 0
    useStrikethrough: 0
    isHidingPlace: 0
    onlyHidingPlaceIfPublic: 0
    soundEvent: {fileID: 11400000, guid: 717aa6a2403483342871160f133a801e, type: 2}
    playOnTrigger: 1
  disableCollider: 0
  lockedInActions1: []
  lockedInActions2: []
  physicsActions: []
