%YAML 1.1
%TAG !u! tag:unity3d.com,2011:
--- !u!114 &11400000
MonoBehaviour:
  m_ObjectHideFlags: 0
  m_CorrespondingSourceObject: {fileID: 0}
  m_PrefabInstance: {fileID: 0}
  m_PrefabAsset: {fileID: 0}
  m_GameObject: {fileID: 0}
  m_Enabled: 1
  m_EditorHideFlags: 0
  m_Script: {fileID: 11500000, guid: 24f98d48c98d8864ca52a0cc16df8b4a, type: 3}
  m_Name: MusicPlayerJukebox
  m_EditorClassIdentifier: 
  presetName: MusicPlayerJukebox
  actions:
  - interactionName: Turn Off
    action: {fileID: 11400000, guid: dc4a97d72f446bb4496332e3ac531f51, type: 2}
    useDefaultKeySetting: 1
    keyOverride: 0
    specialCase: 0
    usableByAI: 1
    aiUsageDelay: 0
    effectSwitchStates:
    - switchState: 0
      boolIs: 0
    onlyActiveIf:
    - switchState: 0
      boolIs: 1
    actionIsIllegal: 0
    availableWhileIllegal: 1
    availableWhileWitnessesToIllegal: 0
    availableWhileLockedIn: 1
    availableWhileJumping: 1
    actionCost: 0
    useStrikethrough: 0
    isHidingPlace: 0
    onlyHidingPlaceIfPublic: 0
    soundEvent: {fileID: 11400000, guid: fd17ad59f2144da4ebd4739fa1186470, type: 2}
    playOnTrigger: 1
  - interactionName: Turn On
    action: {fileID: 11400000, guid: fbf841b2faf27ab4d9fde8f4c8906be5, type: 2}
    useDefaultKeySetting: 1
    keyOverride: 0
    specialCase: 0
    usableByAI: 1
    aiUsageDelay: 0
    effectSwitchStates:
    - switchState: 0
      boolIs: 1
    onlyActiveIf:
    - switchState: 0
      boolIs: 0
    actionIsIllegal: 0
    availableWhileIllegal: 1
    availableWhileWitnessesToIllegal: 0
    availableWhileLockedIn: 1
    availableWhileJumping: 1
    actionCost: 1
    useStrikethrough: 0
    isHidingPlace: 0
    onlyHidingPlaceIfPublic: 0
    soundEvent: {fileID: 11400000, guid: 1fbd03b1e104ef24694b93c6931e2ab6, type: 2}
    playOnTrigger: 1
  - interactionName: Next Track
    action: {fileID: 11400000, guid: 8b7e717f5e01b2a45b74c93b2e501a96, type: 2}
    useDefaultKeySetting: 1
    keyOverride: 0
    specialCase: 0
    usableByAI: 1
    aiUsageDelay: 0
    effectSwitchStates: []
    onlyActiveIf:
    - switchState: 0
      boolIs: 1
    actionIsIllegal: 0
    availableWhileIllegal: 1
    availableWhileWitnessesToIllegal: 0
    availableWhileLockedIn: 1
    availableWhileJumping: 1
    actionCost: 1
    useStrikethrough: 0
    isHidingPlace: 0
    onlyHidingPlaceIfPublic: 0
    soundEvent: {fileID: 11400000, guid: 1fbd03b1e104ef24694b93c6931e2ab6, type: 2}
    playOnTrigger: 1
  - interactionName: Previous Track
    action: {fileID: 11400000, guid: a1eff17cd46447149add6b71599ede15, type: 2}
    useDefaultKeySetting: 1
    keyOverride: 0
    specialCase: 0
    usableByAI: 1
    aiUsageDelay: 0
    effectSwitchStates: []
    onlyActiveIf:
    - switchState: 0
      boolIs: 1
    actionIsIllegal: 0
    availableWhileIllegal: 1
    availableWhileWitnessesToIllegal: 0
    availableWhileLockedIn: 1
    availableWhileJumping: 1
    actionCost: 1
    useStrikethrough: 0
    isHidingPlace: 0
    onlyHidingPlaceIfPublic: 0
    soundEvent: {fileID: 11400000, guid: 1fbd03b1e104ef24694b93c6931e2ab6, type: 2}
    playOnTrigger: 1
  disableCollider: 0
  lockedInActions1: []
  lockedInActions2: []
  physicsActions: []
