%YAML 1.1
%TAG !u! tag:unity3d.com,2011:
--- !u!114 &11400000
MonoBehaviour:
  m_ObjectHideFlags: 0
  m_CorrespondingSourceObject: {fileID: 0}
  m_PrefabInstance: {fileID: 0}
  m_PrefabAsset: {fileID: 0}
  m_GameObject: {fileID: 0}
  m_Enabled: 1
  m_EditorHideFlags: 0
  m_Script: {fileID: 11500000, guid: 24f98d48c98d8864ca52a0cc16df8b4a, type: 3}
  m_Name: Physics
  m_EditorClassIdentifier: 
  presetName: Physics
  actions:
  - interactionName: Pick Up
    action: {fileID: 11400000, guid: d5fe3134c0f834d47add5d70606d5981, type: 2}
    useDefaultKeySetting: 1
    keyOverride: 0
    specialCase: 0
    usableByAI: 0
    aiUsageDelay: 0
    effectSwitchStates:
    - switchState: 10
      boolIs: 1
    onlyActiveIf:
    - switchState: 10
      boolIs: 0
    - switchState: 5
      boolIs: 0
    actionIsIllegal: 0
    availableWhileIllegal: 1
    availableWhileWitnessesToIllegal: 0
    availableWhileLockedIn: 0
    availableWhileJumping: 1
    actionCost: 0
    useStrikethrough: 0
    isHidingPlace: 0
    onlyHidingPlaceIfPublic: 0
    soundEvent: {fileID: 0}
    playOnTrigger: 0
  - interactionName: AI_Pickup
    action: {fileID: 11400000, guid: 2645f2227931b5e459ea462b291073f0, type: 2}
    useDefaultKeySetting: 1
    keyOverride: 0
    specialCase: 0
    usableByAI: 1
    aiUsageDelay: 0
    effectSwitchStates:
    - switchState: 10
      boolIs: 1
    onlyActiveIf:
    - switchState: 10
      boolIs: 0
    - switchState: 5
      boolIs: 0
    actionIsIllegal: 0
    availableWhileIllegal: 1
    availableWhileWitnessesToIllegal: 0
    availableWhileLockedIn: 1
    availableWhileJumping: 1
    actionCost: 0
    useStrikethrough: 0
    isHidingPlace: 0
    onlyHidingPlaceIfPublic: 0
    soundEvent: {fileID: 0}
    playOnTrigger: 0
  - interactionName: AI_Put Back
    action: {fileID: 11400000, guid: 0c4f82f57cf5d0444be3be4b9ee5471f, type: 2}
    useDefaultKeySetting: 1
    keyOverride: 0
    specialCase: 0
    usableByAI: 1
    aiUsageDelay: 0
    effectSwitchStates:
    - switchState: 10
      boolIs: 1
    onlyActiveIf:
    - switchState: 10
      boolIs: 0
    - switchState: 5
      boolIs: 0
    actionIsIllegal: 0
    availableWhileIllegal: 1
    availableWhileWitnessesToIllegal: 0
    availableWhileLockedIn: 1
    availableWhileJumping: 1
    actionCost: 0
    useStrikethrough: 0
    isHidingPlace: 0
    onlyHidingPlaceIfPublic: 0
    soundEvent: {fileID: 0}
    playOnTrigger: 0
  - interactionName: Rotate Left
    action: {fileID: 11400000, guid: 2bbf7580ef74bb34daee0d97f320e459, type: 2}
    useDefaultKeySetting: 1
    keyOverride: 0
    specialCase: 0
    usableByAI: 0
    aiUsageDelay: 0
    effectSwitchStates: []
    onlyActiveIf:
    - switchState: 10
      boolIs: 1
    actionIsIllegal: 0
    availableWhileIllegal: 1
    availableWhileWitnessesToIllegal: 0
    availableWhileLockedIn: 1
    availableWhileJumping: 1
    actionCost: 0
    useStrikethrough: 0
    isHidingPlace: 0
    onlyHidingPlaceIfPublic: 0
    soundEvent: {fileID: 0}
    playOnTrigger: 0
  - interactionName: Rotate Right
    action: {fileID: 11400000, guid: 63222ec4aa18070449bb405ce64aba12, type: 2}
    useDefaultKeySetting: 1
    keyOverride: 0
    specialCase: 0
    usableByAI: 0
    aiUsageDelay: 0
    effectSwitchStates: []
    onlyActiveIf:
    - switchState: 10
      boolIs: 1
    actionIsIllegal: 0
    availableWhileIllegal: 1
    availableWhileWitnessesToIllegal: 0
    availableWhileLockedIn: 1
    availableWhileJumping: 1
    actionCost: 0
    useStrikethrough: 0
    isHidingPlace: 0
    onlyHidingPlaceIfPublic: 0
    soundEvent: {fileID: 0}
    playOnTrigger: 0
  disableCollider: 0
  lockedInActions1: []
  lockedInActions2: []
  physicsActions:
  - interactionName: Put Down
    action: {fileID: 11400000, guid: 0413ceba8649a2a468a0a7db319a8ddd, type: 2}
    useDefaultKeySetting: 1
    keyOverride: 0
    specialCase: 0
    usableByAI: 0
    aiUsageDelay: 0
    effectSwitchStates:
    - switchState: 10
      boolIs: 0
    onlyActiveIf:
    - switchState: 10
      boolIs: 1
    actionIsIllegal: 0
    availableWhileIllegal: 1
    availableWhileWitnessesToIllegal: 0
    availableWhileLockedIn: 1
    availableWhileJumping: 1
    actionCost: 0
    useStrikethrough: 0
    isHidingPlace: 0
    onlyHidingPlaceIfPublic: 0
    soundEvent: {fileID: 0}
    playOnTrigger: 0
  - interactionName: Throw
    action: {fileID: 11400000, guid: 0629d6863a4dccf4da5763612ff47949, type: 2}
    useDefaultKeySetting: 1
    keyOverride: 0
    specialCase: 0
    usableByAI: 0
    aiUsageDelay: 0
    effectSwitchStates:
    - switchState: 10
      boolIs: 0
    onlyActiveIf:
    - switchState: 10
      boolIs: 1
    actionIsIllegal: 0
    availableWhileIllegal: 1
    availableWhileWitnessesToIllegal: 0
    availableWhileLockedIn: 1
    availableWhileJumping: 1
    actionCost: 0
    useStrikethrough: 0
    isHidingPlace: 0
    onlyHidingPlaceIfPublic: 0
    soundEvent: {fileID: 0}
    playOnTrigger: 0
