%YAML 1.1
%TAG !u! tag:unity3d.com,2011:
--- !u!114 &11400000
MonoBehaviour:
  m_ObjectHideFlags: 0
  m_CorrespondingSourceObject: {fileID: 0}
  m_PrefabInstance: {fileID: 0}
  m_PrefabAsset: {fileID: 0}
  m_GameObject: {fileID: 0}
  m_Enabled: 1
  m_EditorHideFlags: 0
  m_Script: {fileID: 11500000, guid: 24f98d48c98d8864ca52a0cc16df8b4a, type: 3}
  m_Name: Telephone
  m_EditorClassIdentifier: 
  presetName: Telephone
  actions:
  - interactionName: Pick Up
    action: {fileID: 11400000, guid: 6e25b262aedf09c41aacb2a9ab72ad3b, type: 2}
    useDefaultKeySetting: 1
    keyOverride: 0
    specialCase: 0
    usableByAI: 1
    aiUsageDelay: 0
    effectSwitchStates:
    - switchState: 1
      boolIs: 1
    - switchState: 2
      boolIs: 0
    onlyActiveIf: []
    actionIsIllegal: 0
    availableWhileIllegal: 1
    availableWhileWitnessesToIllegal: 0
    availableWhileLockedIn: 0
    availableWhileJumping: 1
    actionCost: 0
    useStrikethrough: 0
    isHidingPlace: 0
    onlyHidingPlaceIfPublic: 0
    soundEvent: {fileID: 11400000, guid: 2b2e426e75ad32248ab24f3b36b1da57, type: 2}
    playOnTrigger: 1
  - interactionName: AI_Hang Up
    action: {fileID: 11400000, guid: 06b1af0ce990fe34798533ccab81f73d, type: 2}
    useDefaultKeySetting: 1
    keyOverride: 0
    specialCase: 0
    usableByAI: 1
    aiUsageDelay: 0
    effectSwitchStates:
    - switchState: 1
      boolIs: 0
    onlyActiveIf: []
    actionIsIllegal: 0
    availableWhileIllegal: 1
    availableWhileWitnessesToIllegal: 0
    availableWhileLockedIn: 0
    availableWhileJumping: 1
    actionCost: 0
    useStrikethrough: 0
    isHidingPlace: 0
    onlyHidingPlaceIfPublic: 0
    soundEvent: {fileID: 11400000, guid: c863bcde0ec729249b619b92647ae0a7, type: 2}
    playOnTrigger: 1
  - interactionName: AI_Call Someone
    action: {fileID: 11400000, guid: 6ab4dd6aed095bf44ba53ff5b0ffe778, type: 2}
    useDefaultKeySetting: 1
    keyOverride: 0
    specialCase: 0
    usableByAI: 1
    aiUsageDelay: 0
    effectSwitchStates:
    - switchState: 1
      boolIs: 1
    onlyActiveIf: []
    actionIsIllegal: 0
    availableWhileIllegal: 1
    availableWhileWitnessesToIllegal: 0
    availableWhileLockedIn: 0
    availableWhileJumping: 1
    actionCost: 0
    useStrikethrough: 0
    isHidingPlace: 0
    onlyHidingPlaceIfPublic: 0
    soundEvent: {fileID: 11400000, guid: 2b2e426e75ad32248ab24f3b36b1da57, type: 2}
    playOnTrigger: 1
  - interactionName: AI_Call Enforcers
    action: {fileID: 11400000, guid: 042754c8334a1714796b3da0a0643866, type: 2}
    useDefaultKeySetting: 1
    keyOverride: 0
    specialCase: 0
    usableByAI: 1
    aiUsageDelay: 0
    effectSwitchStates: []
    onlyActiveIf: []
    actionIsIllegal: 0
    availableWhileIllegal: 1
    availableWhileWitnessesToIllegal: 0
    availableWhileLockedIn: 1
    availableWhileJumping: 1
    actionCost: 0
    useStrikethrough: 0
    isHidingPlace: 0
    onlyHidingPlaceIfPublic: 0
    soundEvent: {fileID: 11400000, guid: 2b2e426e75ad32248ab24f3b36b1da57, type: 2}
    playOnTrigger: 1
  disableCollider: 0
  lockedInActions1:
  - interactionName: Hang Up
    action: {fileID: 11400000, guid: 2fdfb8dbc7efbb94ca61870ed6f4def0, type: 2}
    useDefaultKeySetting: 1
    keyOverride: 0
    specialCase: 0
    usableByAI: 1
    aiUsageDelay: 0
    effectSwitchStates:
    - switchState: 1
      boolIs: 0
    - switchState: 2
      boolIs: 0
    - switchState: 3
      boolIs: 0
    onlyActiveIf: []
    actionIsIllegal: 0
    availableWhileIllegal: 1
    availableWhileWitnessesToIllegal: 0
    availableWhileLockedIn: 1
    availableWhileJumping: 1
    actionCost: 0
    useStrikethrough: 0
    isHidingPlace: 0
    onlyHidingPlaceIfPublic: 0
    soundEvent: {fileID: 11400000, guid: c863bcde0ec729249b619b92647ae0a7, type: 2}
    playOnTrigger: 1
  - interactionName: Dial...
    action: {fileID: 11400000, guid: 1da50d53a29c2f6468ba8acfa621a653, type: 2}
    useDefaultKeySetting: 1
    keyOverride: 0
    specialCase: 0
    usableByAI: 0
    aiUsageDelay: 0
    effectSwitchStates:
    - switchState: 2
      boolIs: 1
    onlyActiveIf:
    - switchState: 2
      boolIs: 0
    - switchState: 3
      boolIs: 0
    actionIsIllegal: 0
    availableWhileIllegal: 1
    availableWhileWitnessesToIllegal: 0
    availableWhileLockedIn: 1
    availableWhileJumping: 1
    actionCost: 0
    useStrikethrough: 0
    isHidingPlace: 0
    onlyHidingPlaceIfPublic: 0
    soundEvent: {fileID: 0}
    playOnTrigger: 0
  - interactionName: Say
    action: {fileID: 11400000, guid: 0e4714c372b56014c907486c99500aec, type: 2}
    useDefaultKeySetting: 1
    keyOverride: 0
    specialCase: 0
    usableByAI: 0
    aiUsageDelay: 0
    effectSwitchStates: []
    onlyActiveIf:
    - switchState: 2
      boolIs: 1
    actionIsIllegal: 0
    availableWhileIllegal: 1
    availableWhileWitnessesToIllegal: 0
    availableWhileLockedIn: 1
    availableWhileJumping: 1
    actionCost: 0
    useStrikethrough: 0
    isHidingPlace: 0
    onlyHidingPlaceIfPublic: 0
    soundEvent: {fileID: 0}
    playOnTrigger: 1
  - interactionName: Up
    action: {fileID: 11400000, guid: 3220cbe73a7f54748adea42f99184e7c, type: 2}
    useDefaultKeySetting: 1
    keyOverride: 0
    specialCase: 0
    usableByAI: 0
    aiUsageDelay: 0
    effectSwitchStates: []
    onlyActiveIf:
    - switchState: 2
      boolIs: 1
    actionIsIllegal: 0
    availableWhileIllegal: 1
    availableWhileWitnessesToIllegal: 0
    availableWhileLockedIn: 1
    availableWhileJumping: 1
    actionCost: 0
    useStrikethrough: 0
    isHidingPlace: 0
    onlyHidingPlaceIfPublic: 0
    soundEvent: {fileID: 0}
    playOnTrigger: 1
  - interactionName: Down
    action: {fileID: 11400000, guid: e538f5c4364a1614ab5f7bac92b6930a, type: 2}
    useDefaultKeySetting: 1
    keyOverride: 0
    specialCase: 0
    usableByAI: 0
    aiUsageDelay: 0
    effectSwitchStates: []
    onlyActiveIf:
    - switchState: 2
      boolIs: 1
    actionIsIllegal: 0
    availableWhileIllegal: 1
    availableWhileWitnessesToIllegal: 0
    availableWhileLockedIn: 1
    availableWhileJumping: 1
    actionCost: 0
    useStrikethrough: 0
    isHidingPlace: 0
    onlyHidingPlaceIfPublic: 0
    soundEvent: {fileID: 0}
    playOnTrigger: 1
  lockedInActions2: []
  physicsActions: []
