%YAML 1.1
%TAG !u! tag:unity3d.com,2011:
--- !u!114 &11400000
MonoBehaviour:
  m_ObjectHideFlags: 0
  m_CorrespondingSourceObject: {fileID: 0}
  m_PrefabInstance: {fileID: 0}
  m_PrefabAsset: {fileID: 0}
  m_GameObject: {fileID: 0}
  m_Enabled: 1
  m_EditorHideFlags: 0
  m_Script: {fileID: 11500000, guid: 30a0c8c3dcc262a4c90c522c642d7dda, type: 3}
  m_Name: BinBag
  m_EditorClassIdentifier: 
  presetName: BinBag
  damageBreakPoint: 0.1
  deleteObject: 0
  effectPrefab: {fileID: 0}
  shatter: 0
  shardSize: {x: 0.025, y: 0.025, z: 0.025}
  shardEveryXPixels: 64
  shatterForceMultiplier: 2.4
  isGlass: 0
  spatterTrigger: 2
  spatter: {fileID: 11400000, guid: 3f4cc5983da2a08449ccb5ae1fda756a, type: 2}
  countMultiplier: 0.2
  stickToActors: 1
  spatterIsVandalism: 1
  vandalismFine: 10
  creationTrigger: 2
  objectPool:
  - {fileID: 7474115670983683871, guid: c476352b54afb94469043740b77f12ca, type: 3}
  - {fileID: 7474115670983683871, guid: 6329cfd0703595f45b6723ec4da4a517, type: 3}
  - {fileID: 7474115670983683871, guid: 43653fd79474f214889a1b082256f3e4, type: 3}
  - {fileID: 7474115670983683871, guid: c17aa3951b1425d458c89673cee288e0, type: 3}
  - {fileID: 7474115670983683871, guid: c9c520ac9748d8e429a213a5be463160, type: 3}
  instances: 2
  useRandomRotation: 1
  localEuler: {x: 0, y: 0, z: 0}
  impactEvents:
  - {fileID: 11400000, guid: 1d6a1939a0265dc498f6aab2bc604121, type: 2}
  breakEvents: []
