%YAML 1.1
%TAG !u! tag:unity3d.com,2011:
--- !u!114 &11400000
MonoBehaviour:
  m_ObjectHideFlags: 0
  m_CorrespondingSourceObject: {fileID: 0}
  m_PrefabInstance: {fileID: 0}
  m_PrefabAsset: {fileID: 0}
  m_GameObject: {fileID: 0}
  m_Enabled: 1
  m_EditorHideFlags: 0
  m_Script: {fileID: 11500000, guid: df34c098fe792944a8bdb8310fc6f3c5, type: 3}
  m_Name: So People Say You're a Narcissist
  m_EditorClassIdentifier: 
  presetName: So People Say You're a Narcissist
  bookName: So People Say You're a Narcissist
  author: Pablo Parras
  genre: 0a00000009000000
  isSeries: 0
  seriesTag: 1
  seriesNumber: 8
  common: 0.932
  baseChance: 0.1
  pickRules:
  - rule: 0
    traitList:
    - {fileID: 11400000, guid: 0502523c2daf1494693cdca33edf9795, type: 2}
    - {fileID: 11400000, guid: abd5d8c2baed8e24bb1da3b52d4a9c4f, type: 2}
    mustPassForApplication: 0
    baseChance: 0.752
    reasonChance: 0
  spawnRule: 2
  bookMesh: {fileID: 7032977736774662889, guid: 9362eee85b3d03647b7d03fd1987c389,
    type: 3}
  bookMaterial: {fileID: 2100000, guid: be4f14da1e0c92148b2c6e26bc4b755a, type: 2}
  ddsMessage: 2abda524-aad6-47ab-a55e-1323be4ad6d5
